%!PS-Adobe-2.0 EPSF-2.0
%%BoundingBox:  0 0 567 385
%%Title: ../plot_nu11.4/nr/#gamma_xyr.eps: nu11.4_#gamma:density_vs_r
%%Creator: ROOT Version 6.14/02
%%CreationDate: Thu Aug  9 13:28:08 2018
%%DocumentNeededResources: ProcSet (FontSetInit)
%%EndComments
%%BeginProlog
80 dict begin
/s {stroke} def /l {lineto} def /m {moveto} def /t {translate} def
/r {rotate} def /rl {roll}  def /R {repeat} def
/d {rlineto} def /rm {rmoveto} def /gr {grestore} def /f {eofill} def
/c {setrgbcolor} def /black {0 setgray} def /sd {setdash} def
/cl {closepath} def /sf {scalefont setfont} def /lw {setlinewidth} def
/box {m dup 0 exch d exch 0 d 0 exch neg d cl} def
/NC{systemdict begin initclip end}def/C{NC box clip newpath}def
/bl {box s} def /bf {gsave box gsave f grestore 1 lw [] 0 sd s grestore} def /Y { 0 exch d} def /X { 0 d} def 
/K {{pop pop 0 moveto} exch kshow} bind def
/ita {/ang 15 def gsave [1 0 ang dup sin exch cos div 1 0 0] concat} def 
/mp {newpath /y exch def /x exch def} def
/side {[w .77 mul w .23 mul] .385 w mul sd w 0 l currentpoint t -144 r} def
/mr {mp x y w2 0 360 arc} def /m24 {mr s} def /m20 {mr f} def
/mb {mp x y w2 add m w2 neg 0 d 0 w neg d w 0 d 0 w d cl} def
/mt {mp x y w2 add m w2 neg w neg d w 0 d cl} def
/w4 {w 4 div} def
/w6 {w 6 div} def
/w8 {w 8 div} def
/m21 {mb f} def /m25 {mb s} def /m22 {mt f} def /m26{mt s} def
/m23 {mp x y w2 sub m w2 w d w neg 0 d cl f} def
/m27 {mp x y w2 add m w3 neg w2 neg d w3 w2 neg d w3 w2 d cl s} def
/m28 {mp x w2 sub y w2 sub w3 add m w3 0 d  0 w3 neg d w3 0 d 0 w3 d w3 0 d  0 w3 d w3 neg 0 d 0 w3 d w3 neg 0 d 0 w3 neg d w3 neg 0 d cl s } def
/m29 {mp gsave x w2 sub y w2 add w3 sub m currentpoint t 4 {side} repeat cl fill gr} def
/m30 {mp gsave x w2 sub y w2 add w3 sub m currentpoint t 4 {side} repeat cl s gr} def
/m31 {mp x y w2 sub m 0 w d x w2 sub y m w 0 d x w2 sub y w2 add m w w neg d x w2 sub y w2 sub m w w d s} def
/m32 {mp x y w2 sub m w2 w d w neg 0 d cl s} def
/m33 {mp x y w2 add m w3 neg w2 neg d w3 w2 neg d w3 w2 d cl f} def
/m34 {mp x w2 sub y w2 sub w3 add m w3 0 d  0 w3 neg d w3 0 d 0 w3 d w3 0 d  0 w3 d w3 neg 0 d 0 w3 d w3 neg 0 d 0 w3 neg d w3 neg 0 d cl f } def
/m35 {mp x y w2 add m w2 neg w2 neg d w2 w2 neg d w2 w2 d w2 neg w2 d x y w2 sub m 0 w d x w2 sub y m w 0 d s} def
/m36 {mb x w2 sub y w2 add m w w neg d x w2 sub y w2 sub m w w d s} def
/m37 {mp x y m w4 neg w2 d w4 neg w2 neg d w2 0 d  w4 neg w2 neg d w2 0 d w4 neg w2 d w2 0 d w4 neg w2 d w4 neg w2 neg d cl s} def
/m38 {mp x w4 sub y w2 add m w4 neg w4 neg d 0 w2 neg d w4 w4 neg d w2 0 d w4 w4 d 0 w2 d w4 neg w4 d w2 neg 0 d x y w2 sub m 0 w d x w2 sub y m w 0 d cl s} def
/m39 {mp x y m w4 neg w2 d w4 neg w2 neg d w2 0 d  w4 neg w2 neg d w2 0 d w4 neg w2 d w2 0 d w4 neg w2 d w4 neg w2 neg d cl f} def
/m40 {mp x y m w4 w2 d w4 w4 neg d w2 neg w4 neg d w2 w4 neg d w4 neg w4 neg d w4 neg w2 d w4 neg w2 neg d w4 neg w4 d w2 w4 d w2 neg w4 d w4 w4 d w4 w2 neg d cl s} def
/m41 {mp x y m w4 w2 d w4 w4 neg d w2 neg w4 neg d w2 w4 neg d w4 neg w4 neg d w4 neg w2 d w4 neg w2 neg d w4 neg w4 d w2 w4 d w2 neg w4 d w4 w4 d w4 w2 neg d cl f} def
/m42 {mp x y w2 add m w8 neg w2 -3 4 div mul d w2 -3 4 div mul w8 neg d w2 3 4 div mul w8 neg d w8 w2 -3 4 div mul d w8 w2 3 4 div mul d w2 3 4 div mul w8 d w2 -3 4 div mul w8 d w8 neg w2 3 4 div mul d cl s} def
/m43 {mp x y w2 add m w8 neg w2 -3 4 div mul d w2 -3 4 div mul w8 neg d w2 3 4 div mul w8 neg d w8 w2 -3 4 div mul d w8 w2 3 4 div mul d w2 3 4 div mul w8 d w2 -3 4 div mul w8 d w8 neg w2 3 4 div mul d cl f} def
/m44 {mp x y m w6 neg w2 d w2 2 3 div mul 0 d w6 neg w2 neg d w2 w6 d 0 w2 -2 3 div mul d w2 neg w6 d w6 w2 neg d w2 -2 3 div mul 0 d w6 w2 d w2 neg w6 neg d 0 w2 2 3 div mul d w2 w6 neg d cl s} def
/m45 {mp x y m w6 neg w2 d w2 2 3 div mul 0 d w6 neg w2 neg d w2 w6 d 0 w2 -2 3 div mul d w2 neg w6 d w6 w2 neg d w2 -2 3 div mul 0 d w6 w2 d w2 neg w6 neg d 0 w2 2 3 div mul d w2 w6 neg d cl f} def
/m46 {mp x y w4 add m w4 neg w4 d w4 neg w4 neg d  w4 w4 neg d w4 neg w4 neg d w4 w4 neg d w4 w4 d w4 w4 neg d w4 w4 d w4 neg w4 d w4 w4 d w4 neg w4 d w4 neg w4 neg d cl s} def
/m47 {mp x y w4 add m w4 neg w4 d w4 neg w4 neg d w4 w4 neg d w4 neg w4 neg d  w4 w4 neg d w4 w4 d w4 w4 neg d w4 w4 d w4 neg w4 d w4 w4 d w4 neg w4 d w4 neg w4 neg d cl f} def
/m48 {mp x y w4 add m w4 neg w4 d w4 neg w4 neg d w4 w4 neg d  w4 neg w4 neg d w4 w4 neg d w4 w4 d w4 w4 neg d w4 w4 d w4 neg w4 d w4 w4 d w4 neg w4 d w4 neg w4 neg d  w4 w4 neg d w4 neg w4 neg d w4 neg w4 d w4 w4 d cl f} def
/m49 {mp x w2 sub w3 add y w2 sub w3 add m  0 w3 neg d w3 0 d 0 w3 d w3 0 d 0 w3 d w3 neg 0 d 0 w3 d w3 neg 0 d 0 w3 neg d w3 neg 0 d 0 w3 neg d w3 0 d 0 w3 d w3 0 d 0 w3 neg d w3 neg 0 d cl f } def
/m2 {mp x y w2 sub m 0 w d x w2 sub y m w 0 d s} def
/m5 {mp x w2 sub y w2 sub m w w d x w2 sub y w2 add m w w neg d s} def
%%IncludeResource: ProcSet (FontSetInit)
%%IncludeResource: font Times-Roman
%%IncludeResource: font Times-Italic
%%IncludeResource: font Times-Bold
%%IncludeResource: font Times-BoldItalic
%%IncludeResource: font Helvetica
%%IncludeResource: font Helvetica-Oblique
%%IncludeResource: font Helvetica-Bold
%%IncludeResource: font Helvetica-BoldOblique
%%IncludeResource: font Courier
%%IncludeResource: font Courier-Oblique
%%IncludeResource: font Courier-Bold
%%IncludeResource: font Courier-BoldOblique
%%IncludeResource: font Symbol
%%IncludeResource: font ZapfDingbats
/reEncode {exch findfont dup length dict begin {1 index /FID eq  {pop pop} {def} ifelse } forall /Encoding exch def currentdict end dup /FontName get exch definefont pop } def [/Times-Bold /Times-Italic /Times-BoldItalic /Helvetica /Helvetica-Oblique
 /Helvetica-Bold /Helvetica-BoldOblique /Courier /Courier-Oblique /Courier-Bold /Courier-BoldOblique /Times-Roman /AvantGarde-Book /AvantGarde-BookOblique /AvantGarde-Demi /AvantGarde-DemiOblique /Bookman-Demi /Bookman-DemiItalic /Bookman-Light
 /Bookman-LightItalic /Helvetica-Narrow /Helvetica-Narrow-Bold /Helvetica-Narrow-BoldOblique /Helvetica-Narrow-Oblique /NewCenturySchlbk-Roman /NewCenturySchlbk-Bold /NewCenturySchlbk-BoldItalic /NewCenturySchlbk-Italic /Palatino-Bold
 /Palatino-BoldItalic /Palatino-Italic /Palatino-Roman ] {ISOLatin1Encoding reEncode } forall
%%EndProlog
%%BeginSetup
%%EndSetup
newpath  gsave  .25 .25 scale  gsave  0 0 t black[  ] 0 sd 3 lw 1 1 1 c 2268 1540 0 0 bf black 1 1 1 c 1814 1232 227 154 bf black 1814 1232 227 154 bl 0 0 0.6 c 0 0 1 c black 0 0 0.6 c 261 1337 m 1 Y s 261 1338 m s 249 1338 m 12 X s 261 1338 m 11 X s
 black /w 2 def /w2 {w 2 div} def /w3 {w 3 div} def 261 1338 m20 0 0 0.6 c 283 1366 m s 283 1366 m s 272 1366 m 11 X s 283 1366 m 12 X s black 283 1366 m20 0 0 0.6 c 306 1309 m 1 Y s 306 1310 m s 295 1310 m 11 X s 306 1310 m 11 X s black 306 1310 m20
 0 0 0.6 c 329 1271 m s 329 1271 m 1 Y s 317 1271 m 12 X s 329 1271 m 11 X s black 329 1271 m20 0 0 0.6 c 351 1239 m 1 Y s 351 1240 m s 340 1240 m 11 X s 351 1240 m 12 X s black 351 1240 m20 0 0 0.6 c 374 1211 m s 374 1211 m 1 Y s 363 1211 m 11 X s
 374 1211 m 12 X s black 374 1211 m20 0 0 0.6 c 397 1190 m s 397 1190 m 1 Y s 386 1190 m 11 X s 397 1190 m 11 X s black 397 1190 m20 0 0 0.6 c 420 1170 m 1 Y s 420 1171 m s 408 1171 m 12 X s 420 1171 m 11 X s black 420 1171 m20 0 0 0.6 c 442 1150 m 1
 Y s 442 1151 m s 431 1151 m 11 X s 442 1151 m 12 X s black 442 1151 m20 0 0 0.6 c 465 1130 m 1 Y s 465 1131 m s 454 1131 m 11 X s 465 1131 m 11 X s black 465 1131 m20 0 0 0.6 c 488 1106 m 1 Y s 488 1107 m 1 Y s 476 1107 m 12 X s 488 1107 m 11 X s
 black 488 1107 m20 0 0 0.6 c 510 1088 m 1 Y s 510 1089 m 1 Y s 499 1089 m 11 X s 510 1089 m 12 X s black 510 1089 m20 0 0 0.6 c 533 1073 m 1 Y s 533 1074 m 1 Y s 522 1074 m 11 X s 533 1074 m 11 X s black 533 1074 m20 0 0 0.6 c 556 1059 m 1 Y s 556
 1060 m 1 Y s 544 1060 m 12 X s 556 1060 m 11 X s black 556 1060 m20 0 0 0.6 c 578 1046 m 1 Y s 578 1047 m 1 Y s 567 1047 m 11 X s 578 1047 m 12 X s black 578 1047 m20 0 0 0.6 c 601 1036 m 1 Y s 601 1037 m 1 Y s 590 1037 m 11 X s 601 1037 m 11 X s
 black 601 1037 m20 0 0 0.6 c 624 1021 m 1 Y s 624 1022 m 2 Y s 612 1022 m 12 X s 624 1022 m 11 X s black 624 1022 m20 0 0 0.6 c 646 1014 m 1 Y s 646 1015 m 1 Y s 635 1015 m 11 X s 646 1015 m 12 X s black 646 1015 m20 0 0 0.6 c 669 1003 m 2 Y s 669
 1005 m 1 Y s 658 1005 m 11 X s 669 1005 m 11 X s black 669 1005 m20 0 0 0.6 c 692 996 m 1 Y s 692 997 m 1 Y s 680 997 m 12 X s 692 997 m 11 X s black 692 997 m20 0 0 0.6 c 714 992 m 2 Y s 714 994 m 1 Y s 703 994 m 11 X s 714 994 m 12 X s black 714
 994 m20 0 0 0.6 c 737 982 m 1 Y s 737 983 m 1 Y s 726 983 m 11 X s 737 983 m 11 X s black 737 983 m20 0 0 0.6 c 760 976 m 1 Y s 760 977 m 2 Y s 748 977 m 12 X s 760 977 m 11 X s black 760 977 m20 0 0 0.6 c 782 968 m 1 Y s 782 969 m 2 Y s 771 969 m
 11 X s 782 969 m 12 X s black 782 969 m20 0 0 0.6 c 805 961 m 2 Y s 805 963 m 1 Y s 794 963 m 11 X s 805 963 m 11 X s black 805 963 m20 0 0 0.6 c 828 953 m 2 Y s 828 955 m 1 Y s 816 955 m 12 X s 828 955 m 11 X s black 828 955 m20 0 0 0.6 c 850 942 m
 1 Y s 850 943 m 2 Y s 839 943 m 11 X s 850 943 m 12 X s black 850 943 m20 0 0 0.6 c 873 931 m 2 Y s 873 933 m 2 Y s 862 933 m 11 X s 873 933 m 11 X s black 873 933 m20 0 0 0.6 c 896 926 m 2 Y s 896 928 m 2 Y s 884 928 m 12 X s 896 928 m 11 X s black
 896 928 m20 0 0 0.6 c 918 917 m 2 Y s 918 919 m 2 Y s 907 919 m 11 X s 918 919 m 12 X s black 918 919 m20 0 0 0.6 c 941 916 m 2 Y s 941 918 m 1 Y s 930 918 m 11 X s 941 918 m 11 X s black 941 918 m20 0 0 0.6 c 964 904 m 1 Y s 964 905 m 2 Y s 952 905
 m 12 X s 964 905 m 11 X s black 964 905 m20 0 0 0.6 c 986 894 m 2 Y s 986 896 m 2 Y s 975 896 m 11 X s 986 896 m 12 X s black 986 896 m20 0 0 0.6 c 1009 882 m 2 Y s 1009 884 m 2 Y s 998 884 m 11 X s 1009 884 m 11 X s black 1009 884 m20 0 0 0.6 c
 1032 876 m 2 Y s 1032 878 m 2 Y s 1020 878 m 12 X s 1032 878 m 11 X s black 1032 878 m20 0 0 0.6 c 1054 867 m 2 Y s 1054 869 m 2 Y s 1043 869 m 11 X s 1054 869 m 12 X s black 1054 869 m20 0 0 0.6 c 1077 861 m 2 Y s 1077 863 m 2 Y s 1066 863 m 11 X s
 1077 863 m 12 X s black 1077 863 m20 0 0 0.6 c 1100 857 m 2 Y s 1100 859 m 3 Y s 1089 859 m 11 X s 1100 859 m 11 X s black 1100 859 m20 0 0 0.6 c 1123 845 m 3 Y s 1123 848 m 2 Y s 1111 848 m 12 X s 1123 848 m 11 X s black 1123 848 m20 0 0 0.6 c 1145
 845 m 3 Y s 1145 848 m 2 Y s 1134 848 m 11 X s 1145 848 m 12 X s black 1145 848 m20 0 0 0.6 c 1168 849 m 3 Y s 1168 852 m 2 Y s 1157 852 m 11 X s 1168 852 m 11 X s black 1168 852 m20 0 0 0.6 c 1191 852 m 3 Y s 1191 855 m 2 Y s 1179 855 m 12 X s 1191
 855 m 11 X s black 1191 855 m20 0 0 0.6 c 1213 853 m 2 Y s 1213 855 m 3 Y s 1202 855 m 11 X s 1213 855 m 12 X s black 1213 855 m20 0 0 0.6 c 1236 826 m 3 Y s 1236 829 m 2 Y s 1225 829 m 11 X s 1236 829 m 11 X s black 1236 829 m20 0 0 0.6 c 1259 807
 m 3 Y s 1259 810 m 3 Y s 1247 810 m 12 X s 1259 810 m 11 X s black 1259 810 m20 0 0 0.6 c 1281 801 m 3 Y s 1281 804 m 3 Y s 1270 804 m 11 X s 1281 804 m 12 X s black 1281 804 m20 0 0 0.6 c 1304 784 m 4 Y s 1304 788 m 3 Y s 1293 788 m 11 X s 1304 788
 m 11 X s black 1304 788 m20 0 0 0.6 c 1327 777 m 4 Y s 1327 781 m 3 Y s 1315 781 m 12 X s 1327 781 m 11 X s black 1327 781 m20 0 0 0.6 c 1349 763 m 4 Y s 1349 767 m 4 Y s 1338 767 m 11 X s 1349 767 m 12 X s black 1349 767 m20 0 0 0.6 c 1372 758 m 4
 Y s 1372 762 m 3 Y s 1361 762 m 11 X s 1372 762 m 11 X s black 1372 762 m20 0 0 0.6 c 1395 756 m 4 Y s 1395 760 m 4 Y s 1383 760 m 12 X s 1395 760 m 11 X s black 1395 760 m20 0 0 0.6 c 1417 776 m 3 Y s 1417 779 m 3 Y s 1406 779 m 11 X s 1417 779 m
 12 X s black 1417 779 m20 0 0 0.6 c 1440 775 m 4 Y s 1440 779 m 3 Y s 1429 779 m 11 X s 1440 779 m 11 X s black 1440 779 m20 0 0 0.6 c 1463 759 m 3 Y s 1463 762 m 4 Y s 1451 762 m 12 X s 1463 762 m 11 X s black 1463 762 m20 0 0 0.6 c 1485 722 m 5 Y
 s 1485 727 m 4 Y s 1474 727 m 11 X s 1485 727 m 12 X s black 1485 727 m20 0 0 0.6 c 1508 706 m 5 Y s 1508 711 m 5 Y s 1497 711 m 11 X s 1508 711 m 11 X s black 1508 711 m20 0 0 0.6 c 1531 695 m 5 Y s 1531 700 m 6 Y s 1519 700 m 12 X s 1531 700 m 11
 X s black 1531 700 m20 0 0 0.6 c 1553 686 m 6 Y s 1553 692 m 5 Y s 1542 692 m 11 X s 1553 692 m 12 X s black 1553 692 m20 0 0 0.6 c 1576 681 m 6 Y s 1576 687 m 6 Y s 1565 687 m 11 X s 1576 687 m 11 X s black 1576 687 m20 0 0 0.6 c 1599 665 m 6 Y s
 1599 671 m 6 Y s 1587 671 m 12 X s 1599 671 m 11 X s black 1599 671 m20 0 0 0.6 c 1621 667 m 6 Y s 1621 673 m 6 Y s 1610 673 m 11 X s 1621 673 m 12 X s black 1621 673 m20 0 0 0.6 c 1644 649 m 7 Y s 1644 656 m 7 Y s 1633 656 m 11 X s 1644 656 m 11 X
 s black 1644 656 m20 0 0 0.6 c 1667 654 m 7 Y s 1667 661 m 6 Y s 1655 661 m 12 X s 1667 661 m 11 X s black 1667 661 m20 0 0 0.6 c 1689 640 m 7 Y s 1689 647 m 7 Y s 1678 647 m 11 X s 1689 647 m 12 X s black 1689 647 m20 0 0 0.6 c 1712 637 m 7 Y s
 1712 644 m 7 Y s 1701 644 m 11 X s 1712 644 m 11 X s black 1712 644 m20 0 0 0.6 c 1735 642 m 7 Y s 1735 649 m 7 Y s 1723 649 m 12 X s 1735 649 m 11 X s black 1735 649 m20 0 0 0.6 c 1757 645 m 7 Y s 1757 652 m 6 Y s 1746 652 m 11 X s 1757 652 m 12 X
 s black 1757 652 m20 0 0 0.6 c 1780 618 m 8 Y s 1780 626 m 7 Y s 1769 626 m 11 X s 1780 626 m 11 X s black 1780 626 m20 0 0 0.6 c 1803 592 m 10 Y s 1803 602 m 9 Y s 1791 602 m 12 X s 1803 602 m 11 X s black 1803 602 m20 0 0 0.6 c 1826 554 m 12 Y s
 1826 566 m 11 Y s 1814 566 m 12 X s 1826 566 m 11 X s black 1826 566 m20 0 0 0.6 c 1848 536 m 14 Y s 1848 550 m 12 Y s 1837 550 m 11 X s 1848 550 m 12 X s black 1848 550 m20 0 0 0.6 c 1871 533 m 14 Y s 1871 547 m 12 Y s 1860 547 m 11 X s 1871 547 m
 11 X s black 1871 547 m20 0 0 0.6 c 1894 475 m 20 Y s 1894 495 m 16 Y s 1882 495 m 12 X s 1894 495 m 11 X s black 1894 495 m20 0 0 0.6 c 1916 410 m 31 Y s 1916 441 m 22 Y s 1905 441 m 11 X s 1916 441 m 12 X s black 1916 441 m20 0 0 0.6 c 1939 384 m
 37 Y s 1939 421 m 24 Y s 1928 421 m 11 X s 1939 421 m 11 X s black 1939 421 m20 0 0 0.6 c 1962 383 m 37 Y s 1962 420 m 24 Y s 1950 420 m 12 X s 1962 420 m 11 X s black 1962 420 m20 0 0 0.6 c 1984 229 m 94 Y s 1984 323 m 41 Y s 1973 323 m 11 X s 1984
 323 m 12 X s black 1984 323 m20 0 0 0.6 c 2007 287 m 66 Y s 2007 353 m 35 Y s 1996 353 m 11 X s 2007 353 m 11 X s black 2007 353 m20 227 154 m 1814 X s 227 191 m -37 Y s 272 172 m -18 Y s 317 172 m -18 Y s 363 172 m -18 Y s 408 172 m -18 Y s 454 191
 m -37 Y s 499 172 m -18 Y s 544 172 m -18 Y s 590 172 m -18 Y s 635 172 m -18 Y s 680 191 m -37 Y s 726 172 m -18 Y s 771 172 m -18 Y s 816 172 m -18 Y s 862 172 m -18 Y s 907 191 m -37 Y s 952 172 m -18 Y s 998 172 m -18 Y s 1043 172 m -18 Y s 1089
 172 m -18 Y s 1134 191 m -37 Y s 1179 172 m -18 Y s 1225 172 m -18 Y s 1270 172 m -18 Y s 1315 172 m -18 Y s 1361 191 m -37 Y s 1406 172 m -18 Y s 1451 172 m -18 Y s 1497 172 m -18 Y s 1542 172 m -18 Y s 1587 191 m -37 Y s 1633 172 m -18 Y s 1678
 172 m -18 Y s 1723 172 m -18 Y s 1769 172 m -18 Y s 1814 191 m -37 Y s 1860 172 m -18 Y s 1905 172 m -18 Y s 1950 172 m -18 Y s 1996 172 m -18 Y s 2041 191 m -37 Y s
 gsave  2268 1540 0 0 C 211.177 103.964 t 0 r /Helvetica findfont 48.7332 sf 0 0 m (0) show NC gr 
 gsave  2268 1540 0 0 C 409.359 103.964 t 0 r /Helvetica findfont 48.7332 sf 0 0 m (100) show NC gr 
 gsave  2268 1540 0 0 C 636.78 103.964 t 0 r /Helvetica findfont 48.7332 sf 0 0 m (200) show NC gr 
 gsave  2268 1540 0 0 C 864.201 103.964 t 0 r /Helvetica findfont 48.7332 sf 0 0 m (300) show NC gr 
 gsave  2268 1540 0 0 C 1091.62 103.964 t 0 r /Helvetica findfont 48.7332 sf 0 0 m (400) show NC gr 
 gsave  2268 1540 0 0 C 1315.8 103.964 t 0 r /Helvetica findfont 48.7332 sf 0 0 m (500) show NC gr 
 gsave  2268 1540 0 0 C 1543.22 103.964 t 0 r /Helvetica findfont 48.7332 sf 0 0 m (600) show NC gr 
 gsave  2268 1540 0 0 C 1770.64 103.964 t 0 r /Helvetica findfont 48.7332 sf 0 0 m (700) show NC gr 
 gsave  2268 1540 0 0 C 1998.06 103.964 t 0 r /Helvetica findfont 48.7332 sf 0 0 m (800) show NC gr 
 gsave  2268 1540 0 0 C 1059.13 25.991 t 0 r /Helvetica findfont 64.9775 sf 0 0 m (r\(cm\)) show NC gr  227 154 m 1232 Y s 281 154 m -54 X s
 gsave  2268 1540 0 0 C 188.435 152.697 t 0 r /Helvetica findfont 32.4888 sf 0 0 m (7) show NC gr 
 gsave  2268 1540 0 0 C 168.942 152.697 t 0 r /Symbol findfont 32.4888 sf 0 0 m (-) show NC gr 
 gsave  2268 1540 0 0 C 113.711 133.204 t 0 r /Helvetica findfont 48.7332 sf 0 0 m (10) show NC gr  254 207 m -27 X s 254 238 m -27 X s 254 260 m -27 X s 254 277 m -27 X s 254 291 m -27 X s 254 303 m -27 X s 254 313 m -27 X s 254 322 m -27 X s 281
 330 m -54 X s
 gsave  2268 1540 0 0 C 188.435 331.386 t 0 r /Helvetica findfont 32.4888 sf 0 0 m (6) show NC gr 
 gsave  2268 1540 0 0 C 168.942 331.386 t 0 r /Symbol findfont 32.4888 sf 0 0 m (-) show NC gr 
 gsave  2268 1540 0 0 C 113.711 308.643 t 0 r /Helvetica findfont 48.7332 sf 0 0 m (10) show NC gr  254 383 m -27 X s 254 414 m -27 X s 254 436 m -27 X s 254 453 m -27 X s 254 467 m -27 X s 254 479 m -27 X s 254 489 m -27 X s 254 498 m -27 X s 281
 506 m -54 X s
 gsave  2268 1540 0 0 C 188.435 506.825 t 0 r /Helvetica findfont 32.4888 sf 0 0 m (5) show NC gr 
 gsave  2268 1540 0 0 C 168.942 506.825 t 0 r /Symbol findfont 32.4888 sf 0 0 m (-) show NC gr 
 gsave  2268 1540 0 0 C 113.711 484.083 t 0 r /Helvetica findfont 48.7332 sf 0 0 m (10) show NC gr  254 559 m -27 X s 254 590 m -27 X s 254 612 m -27 X s 254 629 m -27 X s 254 643 m -27 X s 254 655 m -27 X s 254 665 m -27 X s 254 674 m -27 X s 281
 682 m -54 X s
 gsave  2268 1540 0 0 C 188.435 679.015 t 0 r /Helvetica findfont 32.4888 sf 0 0 m (4) show NC gr 
 gsave  2268 1540 0 0 C 168.942 679.015 t 0 r /Symbol findfont 32.4888 sf 0 0 m (-) show NC gr 
 gsave  2268 1540 0 0 C 113.711 659.522 t 0 r /Helvetica findfont 48.7332 sf 0 0 m (10) show NC gr  254 735 m -27 X s 254 766 m -27 X s 254 788 m -27 X s 254 805 m -27 X s 254 819 m -27 X s 254 831 m -27 X s 254 841 m -27 X s 254 850 m -27 X s 281
 858 m -54 X s
 gsave  2268 1540 0 0 C 188.435 860.953 t 0 r /Helvetica findfont 32.4888 sf 0 0 m (3) show NC gr 
 gsave  2268 1540 0 0 C 168.942 860.953 t 0 r /Symbol findfont 32.4888 sf 0 0 m (-) show NC gr 
 gsave  2268 1540 0 0 C 113.711 838.21 t 0 r /Helvetica findfont 48.7332 sf 0 0 m (10) show NC gr  254 911 m -27 X s 254 942 m -27 X s 254 964 m -27 X s 254 981 m -27 X s 254 995 m -27 X s 254 1007 m -27 X s 254 1017 m -27 X s 254 1026 m -27 X s 281
 1034 m -54 X s
 gsave  2268 1540 0 0 C 188.435 1033.14 t 0 r /Helvetica findfont 32.4888 sf 0 0 m (2) show NC gr 
 gsave  2268 1540 0 0 C 168.942 1033.14 t 0 r /Symbol findfont 32.4888 sf 0 0 m (-) show NC gr 
 gsave  2268 1540 0 0 C 113.711 1013.65 t 0 r /Helvetica findfont 48.7332 sf 0 0 m (10) show NC gr  254 1087 m -27 X s 254 1118 m -27 X s 254 1140 m -27 X s 254 1157 m -27 X s 254 1171 m -27 X s 254 1183 m -27 X s 254 1193 m -27 X s 254 1202 m -27 X
 s 281 1210 m -54 X s
 gsave  2268 1540 0 0 C 194.933 1208.58 t 0 r /Helvetica findfont 32.4888 sf 0 0 m (1) show NC gr 
 gsave  2268 1540 0 0 C 175.439 1208.58 t 0 r /Symbol findfont 32.4888 sf 0 0 m (-) show NC gr 
 gsave  2268 1540 0 0 C 120.208 1189.09 t 0 r /Helvetica findfont 48.7332 sf 0 0 m (10) show NC gr  254 1263 m -27 X s 254 1294 m -27 X s 254 1316 m -27 X s 254 1333 m -27 X s 254 1347 m -27 X s 254 1359 m -27 X s 254 1369 m -27 X s 254 1378 m -27 X
 s 281 1386 m -54 X s
 gsave  2268 1540 0 0 C 188.435 1367.78 t 0 r /Helvetica findfont 48.7332 sf 0 0 m (1) show NC gr 
 gsave  2268 1540 0 0 C 103.964 1367.78 t 90 r /Helvetica findfont 64.9775 sf 0 0 m (\)) show NC gr 
 gsave  2268 1540 0 0 C 74.7242 1338.54 t 90 r /Helvetica findfont 42.2354 sf 0 0 m (\2551) show NC gr 
 gsave  2268 1540 0 0 C 100.715 1026.65 t 90 r /Helvetica findfont 64.9775 sf 0 0 m (density\(cm) show NC gr  1 1 1 c black
 gsave  2268 1540 0 0 C 1068.88 1468.49 t 0 r /Helvetica findfont 74.7242 sf 0 0 m (:density_vs_r) show NC gr 
 gsave  2268 1540 0 0 C 1029.89 1468.49 t 0 r /Symbol findfont 74.7242 sf 0 0 m (g) show NC gr 
 gsave  2268 1540 0 0 C 756.988 1468.49 t 0 r /Helvetica findfont 74.7242 sf 0 0 m (nu11.4_) show NC gr  1 1 1 c black
 gsave  2268 1540 0 0 C 1068.88 1468.49 t 0 r /Helvetica findfont 74.7242 sf 0 0 m (:density_vs_r) show NC gr 
 gsave  2268 1540 0 0 C 1029.89 1468.49 t 0 r /Symbol findfont 74.7242 sf 0 0 m (g) show NC gr 
 gsave  2268 1540 0 0 C 756.988 1468.49 t 0 r /Helvetica findfont 74.7242 sf 0 0 m (nu11.4_) show NC gr 
 gr  gr showpage
end
%%EOF
