%!PS-Adobe-2.0 EPSF-2.0
%%BoundingBox:  0 0 567 385
%%Title: ../plot_nu11.4/nr/nn~_xyr.eps: nu11.4_nn~:density_vs_r
%%Creator: ROOT Version 6.14/02
%%CreationDate: Thu Aug  9 13:28:08 2018
%%DocumentNeededResources: ProcSet (FontSetInit)
%%EndComments
%%BeginProlog
80 dict begin
/s {stroke} def /l {lineto} def /m {moveto} def /t {translate} def
/r {rotate} def /rl {roll}  def /R {repeat} def
/d {rlineto} def /rm {rmoveto} def /gr {grestore} def /f {eofill} def
/c {setrgbcolor} def /black {0 setgray} def /sd {setdash} def
/cl {closepath} def /sf {scalefont setfont} def /lw {setlinewidth} def
/box {m dup 0 exch d exch 0 d 0 exch neg d cl} def
/NC{systemdict begin initclip end}def/C{NC box clip newpath}def
/bl {box s} def /bf {gsave box gsave f grestore 1 lw [] 0 sd s grestore} def /Y { 0 exch d} def /X { 0 d} def 
/K {{pop pop 0 moveto} exch kshow} bind def
/ita {/ang 15 def gsave [1 0 ang dup sin exch cos div 1 0 0] concat} def 
/mp {newpath /y exch def /x exch def} def
/side {[w .77 mul w .23 mul] .385 w mul sd w 0 l currentpoint t -144 r} def
/mr {mp x y w2 0 360 arc} def /m24 {mr s} def /m20 {mr f} def
/mb {mp x y w2 add m w2 neg 0 d 0 w neg d w 0 d 0 w d cl} def
/mt {mp x y w2 add m w2 neg w neg d w 0 d cl} def
/w4 {w 4 div} def
/w6 {w 6 div} def
/w8 {w 8 div} def
/m21 {mb f} def /m25 {mb s} def /m22 {mt f} def /m26{mt s} def
/m23 {mp x y w2 sub m w2 w d w neg 0 d cl f} def
/m27 {mp x y w2 add m w3 neg w2 neg d w3 w2 neg d w3 w2 d cl s} def
/m28 {mp x w2 sub y w2 sub w3 add m w3 0 d  0 w3 neg d w3 0 d 0 w3 d w3 0 d  0 w3 d w3 neg 0 d 0 w3 d w3 neg 0 d 0 w3 neg d w3 neg 0 d cl s } def
/m29 {mp gsave x w2 sub y w2 add w3 sub m currentpoint t 4 {side} repeat cl fill gr} def
/m30 {mp gsave x w2 sub y w2 add w3 sub m currentpoint t 4 {side} repeat cl s gr} def
/m31 {mp x y w2 sub m 0 w d x w2 sub y m w 0 d x w2 sub y w2 add m w w neg d x w2 sub y w2 sub m w w d s} def
/m32 {mp x y w2 sub m w2 w d w neg 0 d cl s} def
/m33 {mp x y w2 add m w3 neg w2 neg d w3 w2 neg d w3 w2 d cl f} def
/m34 {mp x w2 sub y w2 sub w3 add m w3 0 d  0 w3 neg d w3 0 d 0 w3 d w3 0 d  0 w3 d w3 neg 0 d 0 w3 d w3 neg 0 d 0 w3 neg d w3 neg 0 d cl f } def
/m35 {mp x y w2 add m w2 neg w2 neg d w2 w2 neg d w2 w2 d w2 neg w2 d x y w2 sub m 0 w d x w2 sub y m w 0 d s} def
/m36 {mb x w2 sub y w2 add m w w neg d x w2 sub y w2 sub m w w d s} def
/m37 {mp x y m w4 neg w2 d w4 neg w2 neg d w2 0 d  w4 neg w2 neg d w2 0 d w4 neg w2 d w2 0 d w4 neg w2 d w4 neg w2 neg d cl s} def
/m38 {mp x w4 sub y w2 add m w4 neg w4 neg d 0 w2 neg d w4 w4 neg d w2 0 d w4 w4 d 0 w2 d w4 neg w4 d w2 neg 0 d x y w2 sub m 0 w d x w2 sub y m w 0 d cl s} def
/m39 {mp x y m w4 neg w2 d w4 neg w2 neg d w2 0 d  w4 neg w2 neg d w2 0 d w4 neg w2 d w2 0 d w4 neg w2 d w4 neg w2 neg d cl f} def
/m40 {mp x y m w4 w2 d w4 w4 neg d w2 neg w4 neg d w2 w4 neg d w4 neg w4 neg d w4 neg w2 d w4 neg w2 neg d w4 neg w4 d w2 w4 d w2 neg w4 d w4 w4 d w4 w2 neg d cl s} def
/m41 {mp x y m w4 w2 d w4 w4 neg d w2 neg w4 neg d w2 w4 neg d w4 neg w4 neg d w4 neg w2 d w4 neg w2 neg d w4 neg w4 d w2 w4 d w2 neg w4 d w4 w4 d w4 w2 neg d cl f} def
/m42 {mp x y w2 add m w8 neg w2 -3 4 div mul d w2 -3 4 div mul w8 neg d w2 3 4 div mul w8 neg d w8 w2 -3 4 div mul d w8 w2 3 4 div mul d w2 3 4 div mul w8 d w2 -3 4 div mul w8 d w8 neg w2 3 4 div mul d cl s} def
/m43 {mp x y w2 add m w8 neg w2 -3 4 div mul d w2 -3 4 div mul w8 neg d w2 3 4 div mul w8 neg d w8 w2 -3 4 div mul d w8 w2 3 4 div mul d w2 3 4 div mul w8 d w2 -3 4 div mul w8 d w8 neg w2 3 4 div mul d cl f} def
/m44 {mp x y m w6 neg w2 d w2 2 3 div mul 0 d w6 neg w2 neg d w2 w6 d 0 w2 -2 3 div mul d w2 neg w6 d w6 w2 neg d w2 -2 3 div mul 0 d w6 w2 d w2 neg w6 neg d 0 w2 2 3 div mul d w2 w6 neg d cl s} def
/m45 {mp x y m w6 neg w2 d w2 2 3 div mul 0 d w6 neg w2 neg d w2 w6 d 0 w2 -2 3 div mul d w2 neg w6 d w6 w2 neg d w2 -2 3 div mul 0 d w6 w2 d w2 neg w6 neg d 0 w2 2 3 div mul d w2 w6 neg d cl f} def
/m46 {mp x y w4 add m w4 neg w4 d w4 neg w4 neg d  w4 w4 neg d w4 neg w4 neg d w4 w4 neg d w4 w4 d w4 w4 neg d w4 w4 d w4 neg w4 d w4 w4 d w4 neg w4 d w4 neg w4 neg d cl s} def
/m47 {mp x y w4 add m w4 neg w4 d w4 neg w4 neg d w4 w4 neg d w4 neg w4 neg d  w4 w4 neg d w4 w4 d w4 w4 neg d w4 w4 d w4 neg w4 d w4 w4 d w4 neg w4 d w4 neg w4 neg d cl f} def
/m48 {mp x y w4 add m w4 neg w4 d w4 neg w4 neg d w4 w4 neg d  w4 neg w4 neg d w4 w4 neg d w4 w4 d w4 w4 neg d w4 w4 d w4 neg w4 d w4 w4 d w4 neg w4 d w4 neg w4 neg d  w4 w4 neg d w4 neg w4 neg d w4 neg w4 d w4 w4 d cl f} def
/m49 {mp x w2 sub w3 add y w2 sub w3 add m  0 w3 neg d w3 0 d 0 w3 d w3 0 d 0 w3 d w3 neg 0 d 0 w3 d w3 neg 0 d 0 w3 neg d w3 neg 0 d 0 w3 neg d w3 0 d 0 w3 d w3 0 d 0 w3 neg d w3 neg 0 d cl f } def
/m2 {mp x y w2 sub m 0 w d x w2 sub y m w 0 d s} def
/m5 {mp x w2 sub y w2 sub m w w d x w2 sub y w2 add m w w neg d s} def
%%IncludeResource: ProcSet (FontSetInit)
%%IncludeResource: font Times-Roman
%%IncludeResource: font Times-Italic
%%IncludeResource: font Times-Bold
%%IncludeResource: font Times-BoldItalic
%%IncludeResource: font Helvetica
%%IncludeResource: font Helvetica-Oblique
%%IncludeResource: font Helvetica-Bold
%%IncludeResource: font Helvetica-BoldOblique
%%IncludeResource: font Courier
%%IncludeResource: font Courier-Oblique
%%IncludeResource: font Courier-Bold
%%IncludeResource: font Courier-BoldOblique
%%IncludeResource: font Symbol
%%IncludeResource: font ZapfDingbats
/reEncode {exch findfont dup length dict begin {1 index /FID eq  {pop pop} {def} ifelse } forall /Encoding exch def currentdict end dup /FontName get exch definefont pop } def [/Times-Bold /Times-Italic /Times-BoldItalic /Helvetica /Helvetica-Oblique
 /Helvetica-Bold /Helvetica-BoldOblique /Courier /Courier-Oblique /Courier-Bold /Courier-BoldOblique /Times-Roman /AvantGarde-Book /AvantGarde-BookOblique /AvantGarde-Demi /AvantGarde-DemiOblique /Bookman-Demi /Bookman-DemiItalic /Bookman-Light
 /Bookman-LightItalic /Helvetica-Narrow /Helvetica-Narrow-Bold /Helvetica-Narrow-BoldOblique /Helvetica-Narrow-Oblique /NewCenturySchlbk-Roman /NewCenturySchlbk-Bold /NewCenturySchlbk-BoldItalic /NewCenturySchlbk-Italic /Palatino-Bold
 /Palatino-BoldItalic /Palatino-Italic /Palatino-Roman ] {ISOLatin1Encoding reEncode } forall
%%EndProlog
%%BeginSetup
%%EndSetup
newpath  gsave  .25 .25 scale  gsave  0 0 t black[  ] 0 sd 3 lw 1 1 1 c 2268 1540 0 0 bf black 1 1 1 c 1814 1232 227 154 bf black 1814 1232 227 154 bl 0 0 0.6 c 1 1 1 c black 0 0 0.6 c 261 1100 m 3 Y s 261 1103 m 2 Y s 249 1103 m 12 X s 261 1103 m 11
 X s black /w 2 def /w2 {w 2 div} def /w3 {w 3 div} def 261 1103 m20 0 0 0.6 c 283 1148 m 2 Y s 283 1150 m 1 Y s 272 1150 m 11 X s 283 1150 m 12 X s black 283 1150 m20 0 0 0.6 c 306 1130 m 1 Y s 306 1131 m 1 Y s 295 1131 m 11 X s 306 1131 m 11 X s
 black 306 1131 m20 0 0 0.6 c 329 1108 m 2 Y s 329 1110 m 1 Y s 317 1110 m 12 X s 329 1110 m 11 X s black 329 1110 m20 0 0 0.6 c 351 1086 m 1 Y s 351 1087 m 1 Y s 340 1087 m 11 X s 351 1087 m 12 X s black 351 1087 m20 0 0 0.6 c 374 1066 m 2 Y s 374
 1068 m 1 Y s 363 1068 m 11 X s 374 1068 m 12 X s black 374 1068 m20 0 0 0.6 c 397 1046 m 1 Y s 397 1047 m 2 Y s 386 1047 m 11 X s 397 1047 m 11 X s black 397 1047 m20 0 0 0.6 c 420 1031 m 2 Y s 420 1033 m 1 Y s 408 1033 m 12 X s 420 1033 m 11 X s
 black 420 1033 m20 0 0 0.6 c 442 1008 m 2 Y s 442 1010 m 1 Y s 431 1010 m 11 X s 442 1010 m 12 X s black 442 1010 m20 0 0 0.6 c 465 991 m 2 Y s 465 993 m 2 Y s 454 993 m 11 X s 465 993 m 11 X s black 465 993 m20 0 0 0.6 c 488 972 m 2 Y s 488 974 m 2
 Y s 476 974 m 12 X s 488 974 m 11 X s black 488 974 m20 0 0 0.6 c 510 948 m 3 Y s 510 951 m 2 Y s 499 951 m 11 X s 510 951 m 12 X s black 510 951 m20 0 0 0.6 c 533 931 m 2 Y s 533 933 m 3 Y s 522 933 m 11 X s 533 933 m 11 X s black 533 933 m20 0 0
 0.6 c 556 918 m 2 Y s 556 920 m 3 Y s 544 920 m 12 X s 556 920 m 11 X s black 556 920 m20 0 0 0.6 c 578 899 m 3 Y s 578 902 m 3 Y s 567 902 m 11 X s 578 902 m 12 X s black 578 902 m20 0 0 0.6 c 601 888 m 3 Y s 601 891 m 3 Y s 590 891 m 11 X s 601
 891 m 11 X s black 601 891 m20 0 0 0.6 c 624 873 m 3 Y s 624 876 m 3 Y s 612 876 m 12 X s 624 876 m 11 X s black 624 876 m20 0 0 0.6 c 646 863 m 3 Y s 646 866 m 3 Y s 635 866 m 11 X s 646 866 m 12 X s black 646 866 m20 0 0 0.6 c 669 849 m 4 Y s 669
 853 m 3 Y s 658 853 m 11 X s 669 853 m 11 X s black 669 853 m20 0 0 0.6 c 692 832 m 4 Y s 692 836 m 3 Y s 680 836 m 12 X s 692 836 m 11 X s black 692 836 m20 0 0 0.6 c 714 827 m 4 Y s 714 831 m 3 Y s 703 831 m 11 X s 714 831 m 12 X s black 714 831
 m20 0 0 0.6 c 737 822 m 4 Y s 737 826 m 4 Y s 726 826 m 11 X s 737 826 m 11 X s black 737 826 m20 0 0 0.6 c 760 810 m 4 Y s 760 814 m 4 Y s 748 814 m 12 X s 760 814 m 11 X s black 760 814 m20 0 0 0.6 c 782 792 m 4 Y s 782 796 m 4 Y s 771 796 m 11 X
 s 782 796 m 12 X s black 782 796 m20 0 0 0.6 c 805 787 m 5 Y s 805 792 m 4 Y s 794 792 m 11 X s 805 792 m 11 X s black 805 792 m20 0 0 0.6 c 828 784 m 5 Y s 828 789 m 4 Y s 816 789 m 12 X s 828 789 m 11 X s black 828 789 m20 0 0 0.6 c 850 764 m 5 Y
 s 850 769 m 5 Y s 839 769 m 11 X s 850 769 m 12 X s black 850 769 m20 0 0 0.6 c 873 750 m 5 Y s 873 755 m 5 Y s 862 755 m 11 X s 873 755 m 11 X s black 873 755 m20 0 0 0.6 c 896 745 m 6 Y s 896 751 m 5 Y s 884 751 m 12 X s 896 751 m 11 X s black 896
 751 m20 0 0 0.6 c 918 729 m 6 Y s 918 735 m 6 Y s 907 735 m 11 X s 918 735 m 12 X s black 918 735 m20 0 0 0.6 c 941 715 m 6 Y s 941 721 m 6 Y s 930 721 m 11 X s 941 721 m 11 X s black 941 721 m20 0 0 0.6 c 964 700 m 7 Y s 964 707 m 7 Y s 952 707 m
 12 X s 964 707 m 11 X s black 964 707 m20 0 0 0.6 c 986 680 m 8 Y s 986 688 m 7 Y s 975 688 m 11 X s 986 688 m 12 X s black 986 688 m20 0 0 0.6 c 1009 677 m 8 Y s 1009 685 m 7 Y s 998 685 m 11 X s 1009 685 m 11 X s black 1009 685 m20 0 0 0.6 c 1032
 665 m 9 Y s 1032 674 m 7 Y s 1020 674 m 12 X s 1032 674 m 11 X s black 1032 674 m20 0 0 0.6 c 1054 669 m 8 Y s 1054 677 m 8 Y s 1043 677 m 11 X s 1054 677 m 12 X s black 1054 677 m20 0 0 0.6 c 1077 659 m 9 Y s 1077 668 m 8 Y s 1066 668 m 11 X s 1077
 668 m 12 X s black 1077 668 m20 0 0 0.6 c 1100 656 m 9 Y s 1100 665 m 8 Y s 1089 665 m 11 X s 1100 665 m 11 X s black 1100 665 m20 0 0 0.6 c 1123 634 m 10 Y s 1123 644 m 9 Y s 1111 644 m 12 X s 1123 644 m 11 X s black 1123 644 m20 0 0 0.6 c 1145 647
 m 9 Y s 1145 656 m 8 Y s 1134 656 m 11 X s 1145 656 m 12 X s black 1145 656 m20 0 0 0.6 c 1168 615 m 10 Y s 1168 625 m 10 Y s 1157 625 m 11 X s 1168 625 m 11 X s black 1168 625 m20 0 0 0.6 c 1191 624 m 10 Y s 1191 634 m 9 Y s 1179 634 m 12 X s 1191
 634 m 11 X s black 1191 634 m20 0 0 0.6 c 1213 638 m 9 Y s 1213 647 m 8 Y s 1202 647 m 11 X s 1213 647 m 12 X s black 1213 647 m20 0 0 0.6 c 1236 612 m 11 Y s 1236 623 m 9 Y s 1225 623 m 11 X s 1236 623 m 11 X s black 1236 623 m20 0 0 0.6 c 1259 607
 m 11 Y s 1259 618 m 10 Y s 1247 618 m 12 X s 1259 618 m 11 X s black 1259 618 m20 0 0 0.6 c 1281 596 m 12 Y s 1281 608 m 10 Y s 1270 608 m 11 X s 1281 608 m 12 X s black 1281 608 m20 0 0 0.6 c 1304 582 m 13 Y s 1304 595 m 11 Y s 1293 595 m 11 X s
 1304 595 m 11 X s black 1304 595 m20 0 0 0.6 c 1327 541 m 17 Y s 1327 558 m 13 Y s 1315 558 m 12 X s 1327 558 m 11 X s black 1327 558 m20 0 0 0.6 c 1349 579 m 13 Y s 1349 592 m 11 Y s 1338 592 m 11 X s 1349 592 m 12 X s black 1349 592 m20 0 0 0.6 c
 1372 571 m 14 Y s 1372 585 m 11 Y s 1361 585 m 11 X s 1372 585 m 11 X s black 1372 585 m20 0 0 0.6 c 1395 551 m 15 Y s 1395 566 m 13 Y s 1383 566 m 12 X s 1395 566 m 11 X s black 1395 566 m20 0 0 0.6 c 1417 509 m 20 Y s 1417 529 m 15 Y s 1406 529 m
 11 X s 1417 529 m 12 X s black 1417 529 m20 0 0 0.6 c 1440 483 m 23 Y s 1440 506 m 17 Y s 1429 506 m 11 X s 1440 506 m 11 X s black 1440 506 m20 0 0 0.6 c 1463 487 m 22 Y s 1463 509 m 17 Y s 1451 509 m 12 X s 1463 509 m 11 X s black 1463 509 m20 0 0
 0.6 c 1485 485 m 22 Y s 1485 507 m 17 Y s 1474 507 m 11 X s 1485 507 m 12 X s black 1485 507 m20 0 0 0.6 c 1508 484 m 22 Y s 1508 506 m 17 Y s 1497 506 m 11 X s 1508 506 m 11 X s black 1508 506 m20 0 0 0.6 c 1531 457 m 26 Y s 1531 483 m 19 Y s 1519
 483 m 12 X s 1531 483 m 11 X s black 1531 483 m20 0 0 0.6 c 1553 404 m 36 Y s 1553 440 m 25 Y s 1542 440 m 11 X s 1553 440 m 12 X s black 1553 440 m20 0 0 0.6 c 1576 454 m 26 Y s 1576 480 m 20 Y s 1565 480 m 11 X s 1576 480 m 11 X s black 1576 480
 m20 0 0 0.6 c 1599 367 m 45 Y s 1599 412 m 28 Y s 1587 412 m 12 X s 1599 412 m 11 X s black 1599 412 m20 0 0 0.6 c 1621 306 m 66 Y s 1621 372 m 35 Y s 1610 372 m 11 X s 1621 372 m 12 X s black 1621 372 m20 0 0 0.6 c 1644 154 m 132 Y s 1644 286 m 53
 Y s 1633 286 m 11 X s 1644 286 m 11 X s black 1644 286 m20 0 0 0.6 c 1667 303 m 66 Y s 1667 369 m 35 Y s 1655 369 m 12 X s 1667 369 m 11 X s black 1667 369 m20 0 0 0.6 c 1712 242 m 94 Y s 1712 336 m 41 Y s 1701 336 m 11 X s 1712 336 m 11 X s black
 1712 336 m20 0 0 0.6 c 1757 240 m 94 Y s 1757 334 m 41 Y s 1746 334 m 11 X s 1757 334 m 12 X s black 1757 334 m20 227 154 m 1814 X s 227 191 m -37 Y s 272 172 m -18 Y s 317 172 m -18 Y s 363 172 m -18 Y s 408 172 m -18 Y s 454 191 m -37 Y s 499 172
 m -18 Y s 544 172 m -18 Y s 590 172 m -18 Y s 635 172 m -18 Y s 680 191 m -37 Y s 726 172 m -18 Y s 771 172 m -18 Y s 816 172 m -18 Y s 862 172 m -18 Y s 907 191 m -37 Y s 952 172 m -18 Y s 998 172 m -18 Y s 1043 172 m -18 Y s 1089 172 m -18 Y s
 1134 191 m -37 Y s 1179 172 m -18 Y s 1225 172 m -18 Y s 1270 172 m -18 Y s 1315 172 m -18 Y s 1361 191 m -37 Y s 1406 172 m -18 Y s 1451 172 m -18 Y s 1497 172 m -18 Y s 1542 172 m -18 Y s 1587 191 m -37 Y s 1633 172 m -18 Y s 1678 172 m -18 Y s
 1723 172 m -18 Y s 1769 172 m -18 Y s 1814 191 m -37 Y s 1860 172 m -18 Y s 1905 172 m -18 Y s 1950 172 m -18 Y s 1996 172 m -18 Y s 2041 191 m -37 Y s
 gsave  2268 1540 0 0 C 211.177 103.964 t 0 r /Helvetica findfont 48.7332 sf 0 0 m (0) show NC gr 
 gsave  2268 1540 0 0 C 409.359 103.964 t 0 r /Helvetica findfont 48.7332 sf 0 0 m (100) show NC gr 
 gsave  2268 1540 0 0 C 636.78 103.964 t 0 r /Helvetica findfont 48.7332 sf 0 0 m (200) show NC gr 
 gsave  2268 1540 0 0 C 864.201 103.964 t 0 r /Helvetica findfont 48.7332 sf 0 0 m (300) show NC gr 
 gsave  2268 1540 0 0 C 1091.62 103.964 t 0 r /Helvetica findfont 48.7332 sf 0 0 m (400) show NC gr 
 gsave  2268 1540 0 0 C 1315.8 103.964 t 0 r /Helvetica findfont 48.7332 sf 0 0 m (500) show NC gr 
 gsave  2268 1540 0 0 C 1543.22 103.964 t 0 r /Helvetica findfont 48.7332 sf 0 0 m (600) show NC gr 
 gsave  2268 1540 0 0 C 1770.64 103.964 t 0 r /Helvetica findfont 48.7332 sf 0 0 m (700) show NC gr 
 gsave  2268 1540 0 0 C 1998.06 103.964 t 0 r /Helvetica findfont 48.7332 sf 0 0 m (800) show NC gr 
 gsave  2268 1540 0 0 C 1059.13 25.991 t 0 r /Helvetica findfont 64.9775 sf 0 0 m (r\(cm\)) show NC gr  227 154 m 1232 Y s 281 154 m -54 X s
 gsave  2268 1540 0 0 C 188.435 152.697 t 0 r /Helvetica findfont 32.4888 sf 0 0 m (7) show NC gr 
 gsave  2268 1540 0 0 C 168.942 152.697 t 0 r /Symbol findfont 32.4888 sf 0 0 m (-) show NC gr 
 gsave  2268 1540 0 0 C 113.711 133.204 t 0 r /Helvetica findfont 48.7332 sf 0 0 m (10) show NC gr  254 207 m -27 X s 254 238 m -27 X s 254 260 m -27 X s 254 277 m -27 X s 254 291 m -27 X s 254 303 m -27 X s 254 313 m -27 X s 254 322 m -27 X s 281
 330 m -54 X s
 gsave  2268 1540 0 0 C 188.435 331.386 t 0 r /Helvetica findfont 32.4888 sf 0 0 m (6) show NC gr 
 gsave  2268 1540 0 0 C 168.942 331.386 t 0 r /Symbol findfont 32.4888 sf 0 0 m (-) show NC gr 
 gsave  2268 1540 0 0 C 113.711 308.643 t 0 r /Helvetica findfont 48.7332 sf 0 0 m (10) show NC gr  254 383 m -27 X s 254 414 m -27 X s 254 436 m -27 X s 254 453 m -27 X s 254 467 m -27 X s 254 479 m -27 X s 254 489 m -27 X s 254 498 m -27 X s 281
 506 m -54 X s
 gsave  2268 1540 0 0 C 188.435 506.825 t 0 r /Helvetica findfont 32.4888 sf 0 0 m (5) show NC gr 
 gsave  2268 1540 0 0 C 168.942 506.825 t 0 r /Symbol findfont 32.4888 sf 0 0 m (-) show NC gr 
 gsave  2268 1540 0 0 C 113.711 484.083 t 0 r /Helvetica findfont 48.7332 sf 0 0 m (10) show NC gr  254 559 m -27 X s 254 590 m -27 X s 254 612 m -27 X s 254 629 m -27 X s 254 643 m -27 X s 254 655 m -27 X s 254 665 m -27 X s 254 674 m -27 X s 281
 682 m -54 X s
 gsave  2268 1540 0 0 C 188.435 679.015 t 0 r /Helvetica findfont 32.4888 sf 0 0 m (4) show NC gr 
 gsave  2268 1540 0 0 C 168.942 679.015 t 0 r /Symbol findfont 32.4888 sf 0 0 m (-) show NC gr 
 gsave  2268 1540 0 0 C 113.711 659.522 t 0 r /Helvetica findfont 48.7332 sf 0 0 m (10) show NC gr  254 735 m -27 X s 254 766 m -27 X s 254 788 m -27 X s 254 805 m -27 X s 254 819 m -27 X s 254 831 m -27 X s 254 841 m -27 X s 254 850 m -27 X s 281
 858 m -54 X s
 gsave  2268 1540 0 0 C 188.435 860.953 t 0 r /Helvetica findfont 32.4888 sf 0 0 m (3) show NC gr 
 gsave  2268 1540 0 0 C 168.942 860.953 t 0 r /Symbol findfont 32.4888 sf 0 0 m (-) show NC gr 
 gsave  2268 1540 0 0 C 113.711 838.21 t 0 r /Helvetica findfont 48.7332 sf 0 0 m (10) show NC gr  254 911 m -27 X s 254 942 m -27 X s 254 964 m -27 X s 254 981 m -27 X s 254 995 m -27 X s 254 1007 m -27 X s 254 1017 m -27 X s 254 1026 m -27 X s 281
 1034 m -54 X s
 gsave  2268 1540 0 0 C 188.435 1033.14 t 0 r /Helvetica findfont 32.4888 sf 0 0 m (2) show NC gr 
 gsave  2268 1540 0 0 C 168.942 1033.14 t 0 r /Symbol findfont 32.4888 sf 0 0 m (-) show NC gr 
 gsave  2268 1540 0 0 C 113.711 1013.65 t 0 r /Helvetica findfont 48.7332 sf 0 0 m (10) show NC gr  254 1087 m -27 X s 254 1118 m -27 X s 254 1140 m -27 X s 254 1157 m -27 X s 254 1171 m -27 X s 254 1183 m -27 X s 254 1193 m -27 X s 254 1202 m -27 X
 s 281 1210 m -54 X s
 gsave  2268 1540 0 0 C 194.933 1208.58 t 0 r /Helvetica findfont 32.4888 sf 0 0 m (1) show NC gr 
 gsave  2268 1540 0 0 C 175.439 1208.58 t 0 r /Symbol findfont 32.4888 sf 0 0 m (-) show NC gr 
 gsave  2268 1540 0 0 C 120.208 1189.09 t 0 r /Helvetica findfont 48.7332 sf 0 0 m (10) show NC gr  254 1263 m -27 X s 254 1294 m -27 X s 254 1316 m -27 X s 254 1333 m -27 X s 254 1347 m -27 X s 254 1359 m -27 X s 254 1369 m -27 X s 254 1378 m -27 X
 s 281 1386 m -54 X s
 gsave  2268 1540 0 0 C 188.435 1367.78 t 0 r /Helvetica findfont 48.7332 sf 0 0 m (1) show NC gr 
 gsave  2268 1540 0 0 C 103.964 1367.78 t 90 r /Helvetica findfont 64.9775 sf 0 0 m (\)) show NC gr 
 gsave  2268 1540 0 0 C 74.7242 1338.54 t 90 r /Helvetica findfont 42.2354 sf 0 0 m (\2551) show NC gr 
 gsave  2268 1540 0 0 C 100.715 1026.65 t 90 r /Helvetica findfont 64.9775 sf 0 0 m (density\(cm) show NC gr  1 1 1 c black
 gsave  2268 1540 0 0 C 714.753 1468.49 t 0 r /Helvetica findfont 74.7242 sf 0 0 m (nu11.4_nn~:density_vs_r) show NC gr  1 1 1 c black
 gsave  2268 1540 0 0 C 714.753 1468.49 t 0 r /Helvetica findfont 74.7242 sf 0 0 m (nu11.4_nn~:density_vs_r) show NC gr 
 gr  gr showpage
end
%%EOF
