%!PS-Adobe-2.0 EPSF-2.0
%%BoundingBox:  0 0 567 385
%%Title: ../plot_nu7.6/n/nu7.6_nn~_xy.eps: nu7.6_nn~:y_vs_x
%%Creator: ROOT Version 6.14/02
%%CreationDate: Thu Aug  9 13:53:27 2018
%%DocumentNeededResources: ProcSet (FontSetInit)
%%EndComments
%%BeginProlog
80 dict begin
/s {stroke} def /l {lineto} def /m {moveto} def /t {translate} def
/r {rotate} def /rl {roll}  def /R {repeat} def
/d {rlineto} def /rm {rmoveto} def /gr {grestore} def /f {eofill} def
/c {setrgbcolor} def /black {0 setgray} def /sd {setdash} def
/cl {closepath} def /sf {scalefont setfont} def /lw {setlinewidth} def
/box {m dup 0 exch d exch 0 d 0 exch neg d cl} def
/NC{systemdict begin initclip end}def/C{NC box clip newpath}def
/bl {box s} def /bf {gsave box gsave f grestore 1 lw [] 0 sd s grestore} def /Y { 0 exch d} def /X { 0 d} def 
/K {{pop pop 0 moveto} exch kshow} bind def
/ita {/ang 15 def gsave [1 0 ang dup sin exch cos div 1 0 0] concat} def 
/mp {newpath /y exch def /x exch def} def
/side {[w .77 mul w .23 mul] .385 w mul sd w 0 l currentpoint t -144 r} def
/mr {mp x y w2 0 360 arc} def /m24 {mr s} def /m20 {mr f} def
/mb {mp x y w2 add m w2 neg 0 d 0 w neg d w 0 d 0 w d cl} def
/mt {mp x y w2 add m w2 neg w neg d w 0 d cl} def
/w4 {w 4 div} def
/w6 {w 6 div} def
/w8 {w 8 div} def
/m21 {mb f} def /m25 {mb s} def /m22 {mt f} def /m26{mt s} def
/m23 {mp x y w2 sub m w2 w d w neg 0 d cl f} def
/m27 {mp x y w2 add m w3 neg w2 neg d w3 w2 neg d w3 w2 d cl s} def
/m28 {mp x w2 sub y w2 sub w3 add m w3 0 d  0 w3 neg d w3 0 d 0 w3 d w3 0 d  0 w3 d w3 neg 0 d 0 w3 d w3 neg 0 d 0 w3 neg d w3 neg 0 d cl s } def
/m29 {mp gsave x w2 sub y w2 add w3 sub m currentpoint t 4 {side} repeat cl fill gr} def
/m30 {mp gsave x w2 sub y w2 add w3 sub m currentpoint t 4 {side} repeat cl s gr} def
/m31 {mp x y w2 sub m 0 w d x w2 sub y m w 0 d x w2 sub y w2 add m w w neg d x w2 sub y w2 sub m w w d s} def
/m32 {mp x y w2 sub m w2 w d w neg 0 d cl s} def
/m33 {mp x y w2 add m w3 neg w2 neg d w3 w2 neg d w3 w2 d cl f} def
/m34 {mp x w2 sub y w2 sub w3 add m w3 0 d  0 w3 neg d w3 0 d 0 w3 d w3 0 d  0 w3 d w3 neg 0 d 0 w3 d w3 neg 0 d 0 w3 neg d w3 neg 0 d cl f } def
/m35 {mp x y w2 add m w2 neg w2 neg d w2 w2 neg d w2 w2 d w2 neg w2 d x y w2 sub m 0 w d x w2 sub y m w 0 d s} def
/m36 {mb x w2 sub y w2 add m w w neg d x w2 sub y w2 sub m w w d s} def
/m37 {mp x y m w4 neg w2 d w4 neg w2 neg d w2 0 d  w4 neg w2 neg d w2 0 d w4 neg w2 d w2 0 d w4 neg w2 d w4 neg w2 neg d cl s} def
/m38 {mp x w4 sub y w2 add m w4 neg w4 neg d 0 w2 neg d w4 w4 neg d w2 0 d w4 w4 d 0 w2 d w4 neg w4 d w2 neg 0 d x y w2 sub m 0 w d x w2 sub y m w 0 d cl s} def
/m39 {mp x y m w4 neg w2 d w4 neg w2 neg d w2 0 d  w4 neg w2 neg d w2 0 d w4 neg w2 d w2 0 d w4 neg w2 d w4 neg w2 neg d cl f} def
/m40 {mp x y m w4 w2 d w4 w4 neg d w2 neg w4 neg d w2 w4 neg d w4 neg w4 neg d w4 neg w2 d w4 neg w2 neg d w4 neg w4 d w2 w4 d w2 neg w4 d w4 w4 d w4 w2 neg d cl s} def
/m41 {mp x y m w4 w2 d w4 w4 neg d w2 neg w4 neg d w2 w4 neg d w4 neg w4 neg d w4 neg w2 d w4 neg w2 neg d w4 neg w4 d w2 w4 d w2 neg w4 d w4 w4 d w4 w2 neg d cl f} def
/m42 {mp x y w2 add m w8 neg w2 -3 4 div mul d w2 -3 4 div mul w8 neg d w2 3 4 div mul w8 neg d w8 w2 -3 4 div mul d w8 w2 3 4 div mul d w2 3 4 div mul w8 d w2 -3 4 div mul w8 d w8 neg w2 3 4 div mul d cl s} def
/m43 {mp x y w2 add m w8 neg w2 -3 4 div mul d w2 -3 4 div mul w8 neg d w2 3 4 div mul w8 neg d w8 w2 -3 4 div mul d w8 w2 3 4 div mul d w2 3 4 div mul w8 d w2 -3 4 div mul w8 d w8 neg w2 3 4 div mul d cl f} def
/m44 {mp x y m w6 neg w2 d w2 2 3 div mul 0 d w6 neg w2 neg d w2 w6 d 0 w2 -2 3 div mul d w2 neg w6 d w6 w2 neg d w2 -2 3 div mul 0 d w6 w2 d w2 neg w6 neg d 0 w2 2 3 div mul d w2 w6 neg d cl s} def
/m45 {mp x y m w6 neg w2 d w2 2 3 div mul 0 d w6 neg w2 neg d w2 w6 d 0 w2 -2 3 div mul d w2 neg w6 d w6 w2 neg d w2 -2 3 div mul 0 d w6 w2 d w2 neg w6 neg d 0 w2 2 3 div mul d w2 w6 neg d cl f} def
/m46 {mp x y w4 add m w4 neg w4 d w4 neg w4 neg d  w4 w4 neg d w4 neg w4 neg d w4 w4 neg d w4 w4 d w4 w4 neg d w4 w4 d w4 neg w4 d w4 w4 d w4 neg w4 d w4 neg w4 neg d cl s} def
/m47 {mp x y w4 add m w4 neg w4 d w4 neg w4 neg d w4 w4 neg d w4 neg w4 neg d  w4 w4 neg d w4 w4 d w4 w4 neg d w4 w4 d w4 neg w4 d w4 w4 d w4 neg w4 d w4 neg w4 neg d cl f} def
/m48 {mp x y w4 add m w4 neg w4 d w4 neg w4 neg d w4 w4 neg d  w4 neg w4 neg d w4 w4 neg d w4 w4 d w4 w4 neg d w4 w4 d w4 neg w4 d w4 w4 d w4 neg w4 d w4 neg w4 neg d  w4 w4 neg d w4 neg w4 neg d w4 neg w4 d w4 w4 d cl f} def
/m49 {mp x w2 sub w3 add y w2 sub w3 add m  0 w3 neg d w3 0 d 0 w3 d w3 0 d 0 w3 d w3 neg 0 d 0 w3 d w3 neg 0 d 0 w3 neg d w3 neg 0 d 0 w3 neg d w3 0 d 0 w3 d w3 0 d 0 w3 neg d w3 neg 0 d cl f } def
/m2 {mp x y w2 sub m 0 w d x w2 sub y m w 0 d s} def
/m5 {mp x w2 sub y w2 sub m w w d x w2 sub y w2 add m w w neg d s} def
%%IncludeResource: ProcSet (FontSetInit)
%%IncludeResource: font Times-Roman
%%IncludeResource: font Times-Italic
%%IncludeResource: font Times-Bold
%%IncludeResource: font Times-BoldItalic
%%IncludeResource: font Helvetica
%%IncludeResource: font Helvetica-Oblique
%%IncludeResource: font Helvetica-Bold
%%IncludeResource: font Helvetica-BoldOblique
%%IncludeResource: font Courier
%%IncludeResource: font Courier-Oblique
%%IncludeResource: font Courier-Bold
%%IncludeResource: font Courier-BoldOblique
%%IncludeResource: font Symbol
%%IncludeResource: font ZapfDingbats
/reEncode {exch findfont dup length dict begin {1 index /FID eq  {pop pop} {def} ifelse } forall /Encoding exch def currentdict end dup /FontName get exch definefont pop } def [/Times-Bold /Times-Italic /Times-BoldItalic /Helvetica /Helvetica-Oblique
 /Helvetica-Bold /Helvetica-BoldOblique /Courier /Courier-Oblique /Courier-Bold /Courier-BoldOblique /Times-Roman /AvantGarde-Book /AvantGarde-BookOblique /AvantGarde-Demi /AvantGarde-DemiOblique /Bookman-Demi /Bookman-DemiItalic /Bookman-Light
 /Bookman-LightItalic /Helvetica-Narrow /Helvetica-Narrow-Bold /Helvetica-Narrow-BoldOblique /Helvetica-Narrow-Oblique /NewCenturySchlbk-Roman /NewCenturySchlbk-Bold /NewCenturySchlbk-BoldItalic /NewCenturySchlbk-Italic /Palatino-Bold
 /Palatino-BoldItalic /Palatino-Italic /Palatino-Roman ] {ISOLatin1Encoding reEncode } forall
%%EndProlog
%%BeginSetup
%%EndSetup
newpath  gsave  .25 .25 scale  gsave  0 0 t black[  ] 0 sd 3 lw 1 1 1 c 2268 1540 0 0 bf black 1 1 1 c 1814 1232 227 154 bf black 1814 1232 227 154 bl 1 1 1 c 0.0880387 0.322448 0.802768 c 46 49 544 154 bf 45 49 635 154 bf 46 49 680 154 bf 0.0703625
 0.445519 0.850647 c 45 49 726 154 bf 0.0633125 0.391444 0.861859 c 46 49 816 154 bf 45 49 862 154 bf 0.0703625 0.445519 0.850647 c 45 49 907 154 bf 46 49 952 154 bf 0.0633125 0.391444 0.861859 c 45 49 998 154 bf 46 49 1043 154 bf 0.078 0.5041 0.8385
 c 45 49 1089 154 bf 0.0703625 0.445519 0.850647 c 45 49 1134 154 bf 46 49 1179 154 bf 0.078 0.5041 0.8385 c 45 49 1225 154 bf 0.0703625 0.445519 0.850647 c 45 49 1270 154 bf 0.0880387 0.322448 0.802768 c 45 49 1361 154 bf 0.0633125 0.391444 0.861859
 c 45 49 1406 154 bf 0.0880387 0.322448 0.802768 c 46 49 1451 154 bf 0.0633125 0.391444 0.861859 c 45 49 1497 154 bf 0.0880387 0.322448 0.802768 c 45 50 590 203 bf 45 50 635 203 bf 46 50 680 203 bf 0.0633125 0.391444 0.861859 c 45 50 726 203 bf
 0.0880387 0.322448 0.802768 c 45 50 771 203 bf 0.078 0.5041 0.8385 c 46 50 816 203 bf 45 50 862 203 bf 0.0633125 0.391444 0.861859 c 45 50 907 203 bf 0.078 0.5041 0.8385 c 46 50 952 203 bf 0.0633125 0.391444 0.861859 c 45 50 998 203 bf 0.078 0.5041
 0.8385 c 46 50 1043 203 bf 45 50 1089 203 bf 0.0557375 0.560081 0.819366 c 45 50 1134 203 bf 0.078 0.5041 0.8385 c 46 50 1179 203 bf 45 50 1225 203 bf 0.0557375 0.560081 0.819366 c 45 50 1270 203 bf 0.0703625 0.445519 0.850647 c 46 50 1315 203 bf
 0.0880387 0.322448 0.802768 c 45 50 1361 203 bf 0.078 0.5041 0.8385 c 45 50 1406 203 bf 0.0880387 0.322448 0.802768 c 45 50 1497 203 bf 45 50 1542 203 bf 46 50 1587 203 bf 0.0703625 0.445519 0.850647 c 45 50 1633 203 bf 45 49 635 253 bf 0.0633125
 0.391444 0.861859 c 46 49 680 253 bf 45 49 726 253 bf 0.0703625 0.445519 0.850647 c 46 49 816 253 bf 45 49 862 253 bf 0.078 0.5041 0.8385 c 45 49 907 253 bf 0.0557375 0.560081 0.819366 c 46 49 952 253 bf 45 49 998 253 bf 0.078 0.5041 0.8385 c 46 49
 1043 253 bf 0.0557375 0.560081 0.819366 c 45 49 1089 253 bf 0.078 0.5041 0.8385 c 45 49 1134 253 bf 0.0557375 0.560081 0.819366 c 46 49 1179 253 bf 0.078 0.5041 0.8385 c 45 49 1225 253 bf 45 49 1270 253 bf 0.0557375 0.560081 0.819366 c 46 49 1315
 253 bf 0.0703625 0.445519 0.850647 c 45 49 1361 253 bf 45 49 1406 253 bf 0.0880387 0.322448 0.802768 c 46 49 1451 253 bf 45 49 1497 253 bf 45 49 1542 253 bf 0.0633125 0.391444 0.861859 c 46 49 1587 253 bf 0.0703625 0.445519 0.850647 c 45 49 1633 253
 bf 0.0880387 0.322448 0.802768 c 45 49 1678 253 bf 46 49 544 302 bf 45 49 635 302 bf 0.0633125 0.391444 0.861859 c 46 49 680 302 bf 0.0703625 0.445519 0.850647 c 45 49 726 302 bf 45 49 771 302 bf 46 49 816 302 bf 0.078 0.5041 0.8385 c 45 49 862 302
 bf 0.0557375 0.560081 0.819366 c 45 49 907 302 bf 46 49 952 302 bf 0.033475 0.616063 0.800231 c 45 49 998 302 bf 46 49 1043 302 bf 0.0557375 0.560081 0.819366 c 45 49 1089 302 bf 45 49 1134 302 bf 46 49 1179 302 bf 45 49 1225 302 bf 45 49 1270 302
 bf 46 49 1315 302 bf 0.078 0.5041 0.8385 c 45 49 1361 302 bf 45 49 1406 302 bf 0.0557375 0.560081 0.819366 c 46 49 1451 302 bf 0.0633125 0.391444 0.861859 c 45 49 1497 302 bf 45 49 1542 302 bf 0.0703625 0.445519 0.850647 c 45 49 1633 302 bf
 0.0880387 0.322448 0.802768 c 45 49 1678 302 bf 46 49 544 351 bf 0.078 0.5041 0.8385 c 45 49 635 351 bf 0.0880387 0.322448 0.802768 c 46 49 680 351 bf 0.0703625 0.445519 0.850647 c 45 49 771 351 bf 0.078 0.5041 0.8385 c 46 49 816 351 bf 0.0557375
 0.560081 0.819366 c 45 49 862 351 bf 45 49 907 351 bf 46 49 952 351 bf 45 49 998 351 bf 0.033475 0.616063 0.800231 c 46 49 1043 351 bf 45 49 1089 351 bf 45 49 1134 351 bf 46 49 1179 351 bf 0.0557375 0.560081 0.819366 c 45 49 1225 351 bf 45 49 1270
 351 bf 46 49 1315 351 bf 0.078 0.5041 0.8385 c 45 49 1361 351 bf 0.0557375 0.560081 0.819366 c 45 49 1406 351 bf 0.0633125 0.391444 0.861859 c 46 49 1451 351 bf 0.0880387 0.322448 0.802768 c 45 49 1497 351 bf 45 49 1542 351 bf 45 49 1633 351 bf
 0.0633125 0.391444 0.861859 c 45 49 1678 351 bf 0.0880387 0.322448 0.802768 c 46 49 1723 351 bf 45 50 363 400 bf 45 50 454 400 bf 45 50 499 400 bf 0.0633125 0.391444 0.861859 c 46 50 544 400 bf 45 50 590 400 bf 45 50 635 400 bf 0.0703625 0.445519
 0.850647 c 46 50 680 400 bf 0.0633125 0.391444 0.861859 c 45 50 726 400 bf 0.078 0.5041 0.8385 c 45 50 771 400 bf 46 50 816 400 bf 0.0557375 0.560081 0.819366 c 45 50 862 400 bf 0.078 0.5041 0.8385 c 45 50 907 400 bf 0.033475 0.616063 0.800231 c 46
 50 952 400 bf 45 50 998 400 bf 0.0526375 0.656131 0.763481 c 46 50 1043 400 bf 45 50 1089 400 bf 45 50 1134 400 bf 0.033475 0.616063 0.800231 c 46 50 1179 400 bf 45 50 1225 400 bf 45 50 1270 400 bf 0.0557375 0.560081 0.819366 c 46 50 1315 400 bf 45
 50 1361 400 bf 0.078 0.5041 0.8385 c 45 50 1406 400 bf 46 50 1451 400 bf 45 50 1497 400 bf 0.0703625 0.445519 0.850647 c 45 50 1542 400 bf 0.0880387 0.322448 0.802768 c 46 50 1587 400 bf 0.0633125 0.391444 0.861859 c 45 50 1633 400 bf 46 49 544 450
 bf 45 49 590 450 bf 45 49 635 450 bf 0.0703625 0.445519 0.850647 c 46 49 680 450 bf 0.0880387 0.322448 0.802768 c 45 49 726 450 bf 0.078 0.5041 0.8385 c 45 49 771 450 bf 46 49 816 450 bf 0.033475 0.616063 0.800231 c 45 49 862 450 bf 45 49 907 450 bf
 46 49 952 450 bf 0.0526375 0.656131 0.763481 c 45 49 998 450 bf 46 49 1043 450 bf 45 49 1089 450 bf 0.116419 0.686966 0.702991 c 45 49 1134 450 bf 0.0526375 0.656131 0.763481 c 46 49 1179 450 bf 45 49 1225 450 bf 0.033475 0.616063 0.800231 c 45 49
 1270 450 bf 46 49 1315 450 bf 0.0557375 0.560081 0.819366 c 45 49 1361 450 bf 0.078 0.5041 0.8385 c 45 49 1406 450 bf 46 49 1451 450 bf 0.0703625 0.445519 0.850647 c 45 49 1497 450 bf 45 49 1542 450 bf 0.0633125 0.391444 0.861859 c 46 49 1587 450 bf
 0.0880387 0.322448 0.802768 c 45 49 1633 450 bf 45 49 1678 450 bf 45 49 499 499 bf 0.0633125 0.391444 0.861859 c 45 49 590 499 bf 0.0880387 0.322448 0.802768 c 45 49 635 499 bf 0.0703625 0.445519 0.850647 c 46 49 680 499 bf 0.0880387 0.322448
 0.802768 c 45 49 726 499 bf 0.0557375 0.560081 0.819366 c 45 49 771 499 bf 46 49 816 499 bf 45 49 862 499 bf 0.033475 0.616063 0.800231 c 45 49 907 499 bf 0.0526375 0.656131 0.763481 c 46 49 952 499 bf 45 49 998 499 bf 0.116419 0.686966 0.702991 c
 46 49 1043 499 bf 45 49 1089 499 bf 45 49 1134 499 bf 46 49 1179 499 bf 45 49 1225 499 bf 0.0526375 0.656131 0.763481 c 45 49 1270 499 bf 0.033475 0.616063 0.800231 c 46 49 1315 499 bf 0.0557375 0.560081 0.819366 c 45 49 1361 499 bf 0.078 0.5041
 0.8385 c 45 49 1406 499 bf 46 49 1451 499 bf 0.0557375 0.560081 0.819366 c 45 49 1497 499 bf 0.0633125 0.391444 0.861859 c 45 49 1542 499 bf 0.0703625 0.445519 0.850647 c 46 49 1587 499 bf 45 49 1633 499 bf 0.0880387 0.322448 0.802768 c 45 49 1678
 499 bf 45 50 454 548 bf 0.0633125 0.391444 0.861859 c 45 50 499 548 bf 0.0703625 0.445519 0.850647 c 45 50 590 548 bf 45 50 635 548 bf 0.078 0.5041 0.8385 c 46 50 680 548 bf 0.0557375 0.560081 0.819366 c 45 50 726 548 bf 46 50 816 548 bf 0.033475
 0.616063 0.800231 c 45 50 862 548 bf 45 50 907 548 bf 0.116419 0.686966 0.702991 c 46 50 952 548 bf 45 50 998 548 bf 0.1802 0.7178 0.6425 c 46 50 1043 548 bf 0.322347 0.730556 0.570878 c 45 50 1089 548 bf 45 50 1134 548 bf 0.1802 0.7178 0.6425 c 46
 50 1179 548 bf 45 50 1225 548 bf 0.116419 0.686966 0.702991 c 45 50 1270 548 bf 0.033475 0.616063 0.800231 c 46 50 1315 548 bf 45 50 1361 548 bf 0.0557375 0.560081 0.819366 c 45 50 1406 548 bf 0.078 0.5041 0.8385 c 46 50 1451 548 bf 45 50 1497 548
 bf 45 50 1542 548 bf 0.0703625 0.445519 0.850647 c 46 50 1587 548 bf 0.0633125 0.391444 0.861859 c 45 50 1633 548 bf 0.0703625 0.445519 0.850647 c 45 50 1678 548 bf 0.0880387 0.322448 0.802768 c 46 50 1723 548 bf 46 49 408 598 bf 45 49 499 598 bf
 0.0703625 0.445519 0.850647 c 46 49 544 598 bf 0.078 0.5041 0.8385 c 45 49 590 598 bf 0.0703625 0.445519 0.850647 c 45 49 635 598 bf 46 49 680 598 bf 0.078 0.5041 0.8385 c 45 49 726 598 bf 45 49 771 598 bf 0.0557375 0.560081 0.819366 c 46 49 816 598
 bf 0.033475 0.616063 0.800231 c 45 49 862 598 bf 0.0526375 0.656131 0.763481 c 45 49 907 598 bf 0.1802 0.7178 0.6425 c 46 49 952 598 bf 45 49 998 598 bf 0.322347 0.730556 0.570878 c 46 49 1043 598 bf 0.453559 0.742331 0.504766 c 45 49 1089 598 bf 45
 49 1134 598 bf 0.322347 0.730556 0.570878 c 46 49 1179 598 bf 0.1802 0.7178 0.6425 c 45 49 1225 598 bf 0.116419 0.686966 0.702991 c 45 49 1270 598 bf 0.0526375 0.656131 0.763481 c 46 49 1315 598 bf 0.033475 0.616063 0.800231 c 45 49 1361 598 bf
 0.0557375 0.560081 0.819366 c 45 49 1406 598 bf 46 49 1451 598 bf 0.0703625 0.445519 0.850647 c 45 49 1497 598 bf 0.078 0.5041 0.8385 c 45 49 1542 598 bf 0.0703625 0.445519 0.850647 c 46 49 1587 598 bf 0.0557375 0.560081 0.819366 c 45 49 1633 598 bf
 0.078 0.5041 0.8385 c 45 49 1678 598 bf 0.0880387 0.322448 0.802768 c 46 49 1723 598 bf 0.0633125 0.391444 0.861859 c 45 49 499 647 bf 0.0703625 0.445519 0.850647 c 46 49 544 647 bf 0.078 0.5041 0.8385 c 45 49 590 647 bf 0.0633125 0.391444 0.861859
 c 45 49 635 647 bf 0.078 0.5041 0.8385 c 46 49 680 647 bf 0.0557375 0.560081 0.819366 c 45 49 726 647 bf 45 49 771 647 bf 0.033475 0.616063 0.800231 c 46 49 816 647 bf 0.0526375 0.656131 0.763481 c 45 49 862 647 bf 0.116419 0.686966 0.702991 c 45 49
 907 647 bf 46 49 952 647 bf 0.322347 0.730556 0.570878 c 45 49 998 647 bf 0.453559 0.742331 0.504766 c 46 49 1043 647 bf 0.584194 0.746125 0.444394 c 45 49 1089 647 bf 45 49 1134 647 bf 0.453559 0.742331 0.504766 c 46 49 1179 647 bf 0.322347
 0.730556 0.570878 c 45 49 1225 647 bf 0.1802 0.7178 0.6425 c 45 49 1270 647 bf 0.0526375 0.656131 0.763481 c 46 49 1315 647 bf 0.033475 0.616063 0.800231 c 45 49 1361 647 bf 45 49 1406 647 bf 0.0703625 0.445519 0.850647 c 46 49 1451 647 bf 0.078
 0.5041 0.8385 c 45 49 1497 647 bf 45 49 1542 647 bf 0.0633125 0.391444 0.861859 c 46 49 1587 647 bf 0.0703625 0.445519 0.850647 c 45 49 1633 647 bf 0.0880387 0.322448 0.802768 c 45 49 1678 647 bf 46 49 1723 647 bf 45 49 454 696 bf 45 49 499 696 bf
 0.078 0.5041 0.8385 c 46 49 544 696 bf 0.0703625 0.445519 0.850647 c 45 49 590 696 bf 0.0557375 0.560081 0.819366 c 45 49 635 696 bf 46 49 680 696 bf 0.078 0.5041 0.8385 c 45 49 726 696 bf 0.0557375 0.560081 0.819366 c 45 49 771 696 bf 0.033475
 0.616063 0.800231 c 46 49 816 696 bf 0.0526375 0.656131 0.763481 c 45 49 862 696 bf 0.116419 0.686966 0.702991 c 45 49 907 696 bf 0.1802 0.7178 0.6425 c 46 49 952 696 bf 0.453559 0.742331 0.504766 c 45 49 998 696 bf 0.584194 0.746125 0.444394 c 46
 49 1043 696 bf 0.701397 0.739462 0.397147 c 45 49 1089 696 bf 45 49 1134 696 bf 0.584194 0.746125 0.444394 c 46 49 1179 696 bf 0.322347 0.730556 0.570878 c 45 49 1225 696 bf 0.1802 0.7178 0.6425 c 45 49 1270 696 bf 0.0526375 0.656131 0.763481 c 46
 49 1315 696 bf 45 49 1361 696 bf 0.033475 0.616063 0.800231 c 45 49 1406 696 bf 0.0557375 0.560081 0.819366 c 46 49 1451 696 bf 0.078 0.5041 0.8385 c 45 49 1497 696 bf 0.0703625 0.445519 0.850647 c 45 49 1542 696 bf 0.0557375 0.560081 0.819366 c 46
 49 1587 696 bf 0.0703625 0.445519 0.850647 c 45 49 1633 696 bf 0.0633125 0.391444 0.861859 c 46 49 1723 696 bf 0.0880387 0.322448 0.802768 c 45 49 1769 696 bf 46 49 1814 696 bf 45 49 1860 696 bf 0.0633125 0.391444 0.861859 c 45 50 499 745 bf 46 50
 544 745 bf 0.0703625 0.445519 0.850647 c 45 50 590 745 bf 0.078 0.5041 0.8385 c 45 50 635 745 bf 0.0557375 0.560081 0.819366 c 46 50 680 745 bf 0.078 0.5041 0.8385 c 45 50 726 745 bf 0.0633125 0.391444 0.861859 c 45 50 771 745 bf 0.033475 0.616063
 0.800231 c 46 50 816 745 bf 0.0526375 0.656131 0.763481 c 45 50 862 745 bf 45 50 907 745 bf 0.1802 0.7178 0.6425 c 46 50 952 745 bf 0.453559 0.742331 0.504766 c 45 50 998 745 bf 0.584194 0.746125 0.444394 c 46 50 1043 745 bf 0.701397 0.739462
 0.397147 c 45 50 1089 745 bf 45 50 1134 745 bf 0.584194 0.746125 0.444394 c 46 50 1179 745 bf 0.453559 0.742331 0.504766 c 45 50 1225 745 bf 0.1802 0.7178 0.6425 c 45 50 1270 745 bf 0.116419 0.686966 0.702991 c 46 50 1315 745 bf 0.0526375 0.656131
 0.763481 c 45 50 1361 745 bf 0.033475 0.616063 0.800231 c 45 50 1406 745 bf 0.078 0.5041 0.8385 c 46 50 1451 745 bf 0.0703625 0.445519 0.850647 c 45 50 1497 745 bf 0.078 0.5041 0.8385 c 45 50 1542 745 bf 46 50 1587 745 bf 45 50 1633 745 bf 0.0880387
 0.322448 0.802768 c 45 50 1678 745 bf 0.0703625 0.445519 0.850647 c 46 50 1723 745 bf 0.0880387 0.322448 0.802768 c 45 49 363 795 bf 0.0703625 0.445519 0.850647 c 45 49 454 795 bf 0.0633125 0.391444 0.861859 c 45 49 499 795 bf 0.0703625 0.445519
 0.850647 c 46 49 544 795 bf 0.078 0.5041 0.8385 c 45 49 590 795 bf 45 49 635 795 bf 46 49 680 795 bf 0.0557375 0.560081 0.819366 c 45 49 726 795 bf 0.078 0.5041 0.8385 c 45 49 771 795 bf 0.033475 0.616063 0.800231 c 46 49 816 795 bf 0.0526375
 0.656131 0.763481 c 45 49 862 795 bf 45 49 907 795 bf 0.1802 0.7178 0.6425 c 46 49 952 795 bf 0.453559 0.742331 0.504766 c 45 49 998 795 bf 0.584194 0.746125 0.444394 c 46 49 1043 795 bf 0.701397 0.739462 0.397147 c 45 49 1089 795 bf 45 49 1134 795
 bf 0.584194 0.746125 0.444394 c 46 49 1179 795 bf 0.322347 0.730556 0.570878 c 45 49 1225 795 bf 0.1802 0.7178 0.6425 c 45 49 1270 795 bf 0.0526375 0.656131 0.763481 c 46 49 1315 795 bf 45 49 1361 795 bf 0.033475 0.616063 0.800231 c 45 49 1406 795
 bf 0.0557375 0.560081 0.819366 c 46 49 1451 795 bf 0.078 0.5041 0.8385 c 45 49 1497 795 bf 0.0703625 0.445519 0.850647 c 45 49 1542 795 bf 46 49 1587 795 bf 0.078 0.5041 0.8385 c 45 49 1633 795 bf 0.0703625 0.445519 0.850647 c 45 49 1678 795 bf
 0.0880387 0.322448 0.802768 c 46 49 1723 795 bf 45 49 454 844 bf 0.0703625 0.445519 0.850647 c 45 49 499 844 bf 0.0880387 0.322448 0.802768 c 46 49 544 844 bf 45 49 590 844 bf 0.0703625 0.445519 0.850647 c 45 49 635 844 bf 46 49 680 844 bf 0.0557375
 0.560081 0.819366 c 45 49 726 844 bf 0.078 0.5041 0.8385 c 45 49 771 844 bf 0.033475 0.616063 0.800231 c 46 49 816 844 bf 0.0526375 0.656131 0.763481 c 45 49 862 844 bf 0.116419 0.686966 0.702991 c 45 49 907 844 bf 46 49 952 844 bf 0.322347 0.730556
 0.570878 c 45 49 998 844 bf 0.453559 0.742331 0.504766 c 46 49 1043 844 bf 0.584194 0.746125 0.444394 c 45 49 1089 844 bf 45 49 1134 844 bf 0.453559 0.742331 0.504766 c 46 49 1179 844 bf 0.322347 0.730556 0.570878 c 45 49 1225 844 bf 0.1802 0.7178
 0.6425 c 45 49 1270 844 bf 0.0526375 0.656131 0.763481 c 46 49 1315 844 bf 0.033475 0.616063 0.800231 c 45 49 1361 844 bf 0.0557375 0.560081 0.819366 c 45 49 1406 844 bf 0.0703625 0.445519 0.850647 c 46 49 1451 844 bf 0.078 0.5041 0.8385 c 45 49
 1497 844 bf 0.0557375 0.560081 0.819366 c 45 49 1542 844 bf 0.078 0.5041 0.8385 c 46 49 1587 844 bf 0.0703625 0.445519 0.850647 c 45 49 1633 844 bf 45 49 1678 844 bf 0.0880387 0.322448 0.802768 c 45 49 1769 844 bf 45 49 454 893 bf 0.0703625 0.445519
 0.850647 c 46 49 544 893 bf 45 49 590 893 bf 0.0633125 0.391444 0.861859 c 45 49 635 893 bf 0.078 0.5041 0.8385 c 46 49 680 893 bf 0.0703625 0.445519 0.850647 c 45 49 726 893 bf 0.078 0.5041 0.8385 c 45 49 771 893 bf 0.0557375 0.560081 0.819366 c 46
 49 816 893 bf 0.033475 0.616063 0.800231 c 45 49 862 893 bf 0.0526375 0.656131 0.763481 c 45 49 907 893 bf 0.116419 0.686966 0.702991 c 46 49 952 893 bf 0.1802 0.7178 0.6425 c 45 49 998 893 bf 0.322347 0.730556 0.570878 c 46 49 1043 893 bf 0.453559
 0.742331 0.504766 c 45 49 1089 893 bf 45 49 1134 893 bf 0.322347 0.730556 0.570878 c 46 49 1179 893 bf 0.1802 0.7178 0.6425 c 45 49 1225 893 bf 0.116419 0.686966 0.702991 c 45 49 1270 893 bf 0.0526375 0.656131 0.763481 c 46 49 1315 893 bf 0.033475
 0.616063 0.800231 c 45 49 1361 893 bf 0.0557375 0.560081 0.819366 c 45 49 1406 893 bf 46 49 1451 893 bf 0.078 0.5041 0.8385 c 45 49 1497 893 bf 45 49 1542 893 bf 0.0633125 0.391444 0.861859 c 46 49 1587 893 bf 0.0703625 0.445519 0.850647 c 45 49
 1633 893 bf 45 49 1678 893 bf 0.0880387 0.322448 0.802768 c 46 49 1723 893 bf 45 49 1769 893 bf 0.078 0.5041 0.8385 c 45 50 590 942 bf 0.0880387 0.322448 0.802768 c 45 50 635 942 bf 0.078 0.5041 0.8385 c 46 50 680 942 bf 45 50 726 942 bf 0.0703625
 0.445519 0.850647 c 45 50 771 942 bf 0.0557375 0.560081 0.819366 c 46 50 816 942 bf 0.033475 0.616063 0.800231 c 45 50 862 942 bf 0.0526375 0.656131 0.763481 c 45 50 907 942 bf 46 50 952 942 bf 0.116419 0.686966 0.702991 c 45 50 998 942 bf 0.1802
 0.7178 0.6425 c 46 50 1043 942 bf 45 50 1089 942 bf 45 50 1134 942 bf 46 50 1179 942 bf 45 50 1225 942 bf 0.116419 0.686966 0.702991 c 45 50 1270 942 bf 0.033475 0.616063 0.800231 c 46 50 1315 942 bf 45 50 1361 942 bf 0.0557375 0.560081 0.819366 c
 45 50 1406 942 bf 0.078 0.5041 0.8385 c 46 50 1451 942 bf 45 50 1497 942 bf 0.0557375 0.560081 0.819366 c 45 50 1542 942 bf 0.0880387 0.322448 0.802768 c 46 50 1587 942 bf 0.078 0.5041 0.8385 c 45 50 1633 942 bf 0.0880387 0.322448 0.802768 c 46 49
 544 992 bf 0.0703625 0.445519 0.850647 c 45 49 590 992 bf 0.0633125 0.391444 0.861859 c 45 49 635 992 bf 0.078 0.5041 0.8385 c 46 49 680 992 bf 45 49 726 992 bf 45 49 771 992 bf 0.0557375 0.560081 0.819366 c 46 49 816 992 bf 0.033475 0.616063
 0.800231 c 45 49 862 992 bf 45 49 907 992 bf 0.0526375 0.656131 0.763481 c 46 49 952 992 bf 0.116419 0.686966 0.702991 c 45 49 998 992 bf 46 49 1043 992 bf 45 49 1089 992 bf 45 49 1134 992 bf 46 49 1179 992 bf 45 49 1225 992 bf 0.0526375 0.656131
 0.763481 c 45 49 1270 992 bf 0.0557375 0.560081 0.819366 c 46 49 1315 992 bf 0.033475 0.616063 0.800231 c 45 49 1361 992 bf 0.0633125 0.391444 0.861859 c 45 49 1406 992 bf 46 49 1451 992 bf 0.078 0.5041 0.8385 c 45 49 1497 992 bf 0.0880387 0.322448
 0.802768 c 45 49 1542 992 bf 0.0633125 0.391444 0.861859 c 46 49 1587 992 bf 0.0703625 0.445519 0.850647 c 45 49 1633 992 bf 0.0880387 0.322448 0.802768 c 45 49 1678 992 bf 46 49 1950 992 bf 45 49 454 1041 bf 46 49 544 1041 bf 45 49 635 1041 bf
 0.078 0.5041 0.8385 c 46 49 680 1041 bf 0.0633125 0.391444 0.861859 c 45 49 726 1041 bf 0.0703625 0.445519 0.850647 c 45 49 771 1041 bf 46 49 816 1041 bf 0.0557375 0.560081 0.819366 c 45 49 862 1041 bf 45 49 907 1041 bf 0.033475 0.616063 0.800231 c
 46 49 952 1041 bf 45 49 998 1041 bf 0.0526375 0.656131 0.763481 c 46 49 1043 1041 bf 45 49 1089 1041 bf 0.116419 0.686966 0.702991 c 45 49 1134 1041 bf 0.0526375 0.656131 0.763481 c 46 49 1179 1041 bf 45 49 1225 1041 bf 0.033475 0.616063 0.800231 c
 45 49 1270 1041 bf 46 49 1315 1041 bf 0.0557375 0.560081 0.819366 c 45 49 1361 1041 bf 45 49 1406 1041 bf 0.0633125 0.391444 0.861859 c 46 49 1451 1041 bf 0.0880387 0.322448 0.802768 c 45 49 1497 1041 bf 0.0703625 0.445519 0.850647 c 45 49 1542 1041
 bf 46 49 1587 1041 bf 0.0880387 0.322448 0.802768 c 45 49 1633 1041 bf 0.0633125 0.391444 0.861859 c 45 49 1678 1041 bf 0.078 0.5041 0.8385 c 45 50 590 1090 bf 0.0633125 0.391444 0.861859 c 45 50 635 1090 bf 0.0880387 0.322448 0.802768 c 46 50 680
 1090 bf 0.0703625 0.445519 0.850647 c 45 50 726 1090 bf 0.078 0.5041 0.8385 c 45 50 771 1090 bf 46 50 816 1090 bf 45 50 862 1090 bf 0.0557375 0.560081 0.819366 c 45 50 907 1090 bf 0.033475 0.616063 0.800231 c 46 50 952 1090 bf 0.0526375 0.656131
 0.763481 c 45 50 998 1090 bf 0.033475 0.616063 0.800231 c 46 50 1043 1090 bf 0.0526375 0.656131 0.763481 c 45 50 1089 1090 bf 0.033475 0.616063 0.800231 c 45 50 1134 1090 bf 0.0526375 0.656131 0.763481 c 46 50 1179 1090 bf 0.033475 0.616063 0.800231
 c 45 50 1225 1090 bf 0.0557375 0.560081 0.819366 c 45 50 1270 1090 bf 46 50 1315 1090 bf 0.078 0.5041 0.8385 c 45 50 1361 1090 bf 45 50 1406 1090 bf 46 50 1451 1090 bf 45 50 1497 1090 bf 0.0880387 0.322448 0.802768 c 46 50 1587 1090 bf 45 50 1633
 1090 bf 0.0633125 0.391444 0.861859 c 45 50 1678 1090 bf 0.0880387 0.322448 0.802768 c 45 50 1769 1090 bf 45 49 499 1140 bf 46 49 544 1140 bf 0.0633125 0.391444 0.861859 c 45 49 635 1140 bf 0.078 0.5041 0.8385 c 45 49 726 1140 bf 0.0633125 0.391444
 0.861859 c 45 49 771 1140 bf 0.078 0.5041 0.8385 c 46 49 816 1140 bf 0.0557375 0.560081 0.819366 c 45 49 862 1140 bf 45 49 907 1140 bf 46 49 952 1140 bf 0.033475 0.616063 0.800231 c 45 49 998 1140 bf 0.0557375 0.560081 0.819366 c 46 49 1043 1140 bf
 0.033475 0.616063 0.800231 c 45 49 1089 1140 bf 45 49 1134 1140 bf 46 49 1179 1140 bf 0.0557375 0.560081 0.819366 c 45 49 1225 1140 bf 0.033475 0.616063 0.800231 c 45 49 1270 1140 bf 0.0703625 0.445519 0.850647 c 46 49 1315 1140 bf 45 49 1361 1140
 bf 0.0557375 0.560081 0.819366 c 45 49 1406 1140 bf 0.0703625 0.445519 0.850647 c 46 49 1451 1140 bf 0.0633125 0.391444 0.861859 c 45 49 1497 1140 bf 0.0880387 0.322448 0.802768 c 46 49 1587 1140 bf 45 49 1633 1140 bf 46 49 1723 1140 bf 45 49 454
 1189 bf 45 49 499 1189 bf 0.0633125 0.391444 0.861859 c 46 49 544 1189 bf 0.0880387 0.322448 0.802768 c 45 49 590 1189 bf 0.0633125 0.391444 0.861859 c 45 49 635 1189 bf 0.0880387 0.322448 0.802768 c 46 49 680 1189 bf 0.0703625 0.445519 0.850647 c
 45 49 726 1189 bf 0.0880387 0.322448 0.802768 c 45 49 771 1189 bf 0.0703625 0.445519 0.850647 c 46 49 816 1189 bf 45 49 862 1189 bf 0.0557375 0.560081 0.819366 c 45 49 907 1189 bf 46 49 952 1189 bf 45 49 998 1189 bf 46 49 1043 1189 bf 0.033475
 0.616063 0.800231 c 45 49 1089 1189 bf 0.0557375 0.560081 0.819366 c 45 49 1134 1189 bf 46 49 1179 1189 bf 0.078 0.5041 0.8385 c 45 49 1225 1189 bf 45 49 1270 1189 bf 46 49 1315 1189 bf 0.0703625 0.445519 0.850647 c 45 49 1361 1189 bf 0.0633125
 0.391444 0.861859 c 45 49 1406 1189 bf 0.0703625 0.445519 0.850647 c 45 49 1497 1189 bf 0.0880387 0.322448 0.802768 c 46 49 1587 1189 bf 0.0633125 0.391444 0.861859 c 45 49 1633 1189 bf 0.0880387 0.322448 0.802768 c 46 49 1814 1189 bf 0.0633125
 0.391444 0.861859 c 45 49 590 1238 bf 45 49 635 1238 bf 45 49 726 1238 bf 0.0880387 0.322448 0.802768 c 45 49 771 1238 bf 0.0633125 0.391444 0.861859 c 46 49 816 1238 bf 0.0880387 0.322448 0.802768 c 45 49 862 1238 bf 0.078 0.5041 0.8385 c 45 49 907
 1238 bf 0.0557375 0.560081 0.819366 c 46 49 952 1238 bf 45 49 998 1238 bf 0.033475 0.616063 0.800231 c 46 49 1043 1238 bf 0.078 0.5041 0.8385 c 45 49 1089 1238 bf 0.0557375 0.560081 0.819366 c 45 49 1134 1238 bf 0.078 0.5041 0.8385 c 46 49 1179 1238
 bf 45 49 1225 1238 bf 45 49 1270 1238 bf 0.0633125 0.391444 0.861859 c 46 49 1315 1238 bf 0.0703625 0.445519 0.850647 c 45 49 1361 1238 bf 0.0557375 0.560081 0.819366 c 45 49 1406 1238 bf 0.0703625 0.445519 0.850647 c 46 49 1451 1238 bf 0.0880387
 0.322448 0.802768 c 45 49 1497 1238 bf 45 49 1542 1238 bf 46 49 1587 1238 bf 45 50 590 1287 bf 0.0633125 0.391444 0.861859 c 45 50 635 1287 bf 0.0703625 0.445519 0.850647 c 45 50 726 1287 bf 45 50 771 1287 bf 46 50 816 1287 bf 45 50 907 1287 bf
 0.0557375 0.560081 0.819366 c 46 50 952 1287 bf 45 50 998 1287 bf 46 50 1043 1287 bf 45 50 1089 1287 bf 45 50 1134 1287 bf 0.078 0.5041 0.8385 c 46 50 1179 1287 bf 45 50 1225 1287 bf 45 50 1270 1287 bf 46 50 1315 1287 bf 45 50 1361 1287 bf 0.0633125
 0.391444 0.861859 c 45 50 1406 1287 bf 45 50 1497 1287 bf 0.0880387 0.322448 0.802768 c 45 50 1542 1287 bf 45 49 726 1337 bf 45 49 771 1337 bf 46 49 816 1337 bf 45 49 862 1337 bf 0.0703625 0.445519 0.850647 c 45 49 907 1337 bf 0.0880387 0.322448
 0.802768 c 46 49 952 1337 bf 0.078 0.5041 0.8385 c 45 49 998 1337 bf 0.0880387 0.322448 0.802768 c 46 49 1043 1337 bf 0.078 0.5041 0.8385 c 45 49 1089 1337 bf 0.0703625 0.445519 0.850647 c 45 49 1134 1337 bf 46 49 1179 1337 bf 0.078 0.5041 0.8385 c
 45 49 1225 1337 bf 0.0703625 0.445519 0.850647 c 45 49 1270 1337 bf 0.078 0.5041 0.8385 c 46 49 1315 1337 bf 0.0703625 0.445519 0.850647 c 45 49 1406 1337 bf 0.0633125 0.391444 0.861859 c 45 49 1497 1337 bf 0.0880387 0.322448 0.802768 c 45 49 1542
 1337 bf 0.0633125 0.391444 0.861859 c 45 49 1633 1337 bf 0.150523 0.241303 0.660565 c 102 62 2052 154 bf 0.0880387 0.322448 0.802768 c 102 61 2052 216 bf 0.0633125 0.391444 0.861859 c 102 62 2052 277 bf 0.0703625 0.445519 0.850647 c 102 61 2052 339
 bf 0.078 0.5041 0.8385 c 102 62 2052 400 bf 0.0557375 0.560081 0.819366 c 102 62 2052 462 bf 0.033475 0.616063 0.800231 c 102 61 2052 524 bf 0.0526375 0.656131 0.763481 c 102 62 2052 585 bf 0.116419 0.686966 0.702991 c 102 61 2052 647 bf 0.1802
 0.7178 0.6425 c 102 62 2052 708 bf 0.322347 0.730556 0.570878 c 102 62 2052 770 bf 0.453559 0.742331 0.504766 c 102 61 2052 832 bf 0.584194 0.746125 0.444394 c 102 62 2052 893 bf 0.701397 0.739462 0.397147 c 102 61 2052 955 bf 0.8186 0.7328 0.3499 c
 102 62 2052 1016 bf 0.884975 0.752825 0.292488 c 102 62 2052 1078 bf 0.956881 0.774519 0.230291 c 102 61 2052 1140 bf 0.992 0.823138 0.170006 c 102 62 2052 1201 bf 0.9842 0.903169 0.111953 c 102 61 2052 1263 bf 0.977 0.977044 0.0583656 c 102 62 2052
 1324 bf black 2154 154 m 1232 Y s 2100 154 m 54 X s
 gsave  2268 1540 0 0 C 2248.22 155.946 t 0 r /Helvetica findfont 32.4888 sf 0 0 m (3) show NC gr 
 gsave  2268 1540 0 0 C 2231.98 155.946 t 0 r /Symbol findfont 32.4888 sf 0 0 m (-) show NC gr 
 gsave  2268 1540 0 0 C 2176.75 133.204 t 0 r /Helvetica findfont 48.7332 sf 0 0 m (10) show NC gr  2127 228 m 27 X s 2127 272 m 27 X s 2127 302 m 27 X s 2127 326 m 27 X s 2127 346 m 27 X s 2127 362 m 27 X s 2127 377 m 27 X s 2127 389 m 27 X s 2100
 400 m 54 X s
 gsave  2268 1540 0 0 C 2248.22 399.612 t 0 r /Helvetica findfont 32.4888 sf 0 0 m (2) show NC gr 
 gsave  2268 1540 0 0 C 2231.98 399.612 t 0 r /Symbol findfont 32.4888 sf 0 0 m (-) show NC gr 
 gsave  2268 1540 0 0 C 2176.75 380.119 t 0 r /Helvetica findfont 48.7332 sf 0 0 m (10) show NC gr  2127 475 m 27 X s 2127 518 m 27 X s 2127 549 m 27 X s 2127 573 m 27 X s 2127 592 m 27 X s 2127 609 m 27 X s 2127 623 m 27 X s 2127 636 m 27 X s 2100
 647 m 54 X s
 gsave  2268 1540 0 0 C 2248.22 646.527 t 0 r /Helvetica findfont 32.4888 sf 0 0 m (1) show NC gr 
 gsave  2268 1540 0 0 C 2231.98 646.527 t 0 r /Symbol findfont 32.4888 sf 0 0 m (-) show NC gr 
 gsave  2268 1540 0 0 C 2176.75 627.033 t 0 r /Helvetica findfont 48.7332 sf 0 0 m (10) show NC gr  2127 721 m 27 X s 2127 764 m 27 X s 2127 795 m 27 X s 2127 819 m 27 X s 2127 839 m 27 X s 2127 855 m 27 X s 2127 869 m 27 X s 2127 882 m 27 X s 2100
 893 m 54 X s
 gsave  2268 1540 0 0 C 2176.75 873.948 t 0 r /Helvetica findfont 48.7332 sf 0 0 m (1) show NC gr  2127 967 m 27 X s 2127 1011 m 27 X s 2127 1042 m 27 X s 2127 1065 m 27 X s 2127 1085 m 27 X s 2127 1101 m 27 X s 2127 1116 m 27 X s 2127 1128 m 27 X s
 2100 1140 m 54 X s
 gsave  2268 1540 0 0 C 2176.75 1120.86 t 0 r /Helvetica findfont 48.7332 sf 0 0 m (10) show NC gr  2127 1214 m 27 X s 2127 1257 m 27 X s 2127 1288 m 27 X s 2127 1312 m 27 X s 2127 1331 m 27 X s 2127 1348 m 27 X s 2127 1362 m 27 X s 2127 1375 m 27 X
 s 2100 1386 m 54 X s
 gsave  2268 1540 0 0 C 2231.98 1384.02 t 0 r /Helvetica findfont 32.4888 sf 0 0 m (2) show NC gr 
 gsave  2268 1540 0 0 C 2176.75 1364.53 t 0 r /Helvetica findfont 48.7332 sf 0 0 m (10) show NC gr  1 1 1 c black 1 1 1 c black
 gsave  2268 1540 0 0 C 828.464 1468.49 t 0 r /Helvetica findfont 74.7242 sf 0 0 m (nu7.6_nn~:y_vs_x) show NC gr  227 154 m 1814 X s 227 191 m -37 Y s 283 172 m -18 Y s 340 172 m -18 Y s 397 172 m -18 Y s 454 191 m -37 Y s 510 172 m -18 Y s 567 172 m
 -18 Y s 624 172 m -18 Y s 680 191 m -37 Y s 737 172 m -18 Y s 794 172 m -18 Y s 850 172 m -18 Y s 907 191 m -37 Y s 964 172 m -18 Y s 1020 172 m -18 Y s 1077 172 m -18 Y s 1134 191 m -37 Y s 1191 172 m -18 Y s 1247 172 m -18 Y s 1304 172 m -18 Y s
 1361 191 m -37 Y s 1417 172 m -18 Y s 1474 172 m -18 Y s 1531 172 m -18 Y s 1587 191 m -37 Y s 1644 172 m -18 Y s 1701 172 m -18 Y s 1757 172 m -18 Y s 1814 191 m -37 Y s 1871 172 m -18 Y s 1928 172 m -18 Y s 1984 172 m -18 Y s 2041 191 m -37 Y s
 gsave  2268 1540 0 0 C 194.933 103.964 t 0 r /Helvetica findfont 48.7332 sf 0 0 m (800) show NC gr 
 gsave  2268 1540 0 0 C 168.942 103.964 t 0 r /Symbol findfont 48.7332 sf 0 0 m (-) show NC gr 
 gsave  2268 1540 0 0 C 422.354 103.964 t 0 r /Helvetica findfont 48.7332 sf 0 0 m (600) show NC gr 
 gsave  2268 1540 0 0 C 396.363 103.964 t 0 r /Symbol findfont 48.7332 sf 0 0 m (-) show NC gr 
 gsave  2268 1540 0 0 C 649.776 103.964 t 0 r /Helvetica findfont 48.7332 sf 0 0 m (400) show NC gr 
 gsave  2268 1540 0 0 C 623.784 103.964 t 0 r /Symbol findfont 48.7332 sf 0 0 m (-) show NC gr 
 gsave  2268 1540 0 0 C 877.197 103.964 t 0 r /Helvetica findfont 48.7332 sf 0 0 m (200) show NC gr 
 gsave  2268 1540 0 0 C 851.206 103.964 t 0 r /Symbol findfont 48.7332 sf 0 0 m (-) show NC gr 
 gsave  2268 1540 0 0 C 1120.86 103.964 t 0 r /Helvetica findfont 48.7332 sf 0 0 m (0) show NC gr 
 gsave  2268 1540 0 0 C 1315.8 103.964 t 0 r /Helvetica findfont 48.7332 sf 0 0 m (200) show NC gr 
 gsave  2268 1540 0 0 C 1543.22 103.964 t 0 r /Helvetica findfont 48.7332 sf 0 0 m (400) show NC gr 
 gsave  2268 1540 0 0 C 1770.64 103.964 t 0 r /Helvetica findfont 48.7332 sf 0 0 m (600) show NC gr 
 gsave  2268 1540 0 0 C 1998.06 103.964 t 0 r /Helvetica findfont 48.7332 sf 0 0 m (800) show NC gr 
 gsave  2268 1540 0 0 C 1049.39 25.991 t 0 r /Helvetica findfont 64.9775 sf 0 0 m (X\(cm\)) show NC gr  227 154 m 1232 Y s 281 154 m -54 X s 254 195 m -27 X s 254 236 m -27 X s 254 277 m -27 X s 254 318 m -27 X s 281 359 m -54 X s 254 400 m -27 X s
 254 441 m -27 X s 254 483 m -27 X s 254 524 m -27 X s 281 565 m -54 X s 254 606 m -27 X s 254 647 m -27 X s 254 688 m -27 X s 254 729 m -27 X s 281 770 m -54 X s 254 811 m -27 X s 254 852 m -27 X s 254 893 m -27 X s 254 934 m -27 X s 281 975 m -54 X
 s 254 1016 m -27 X s 254 1057 m -27 X s 254 1099 m -27 X s 254 1140 m -27 X s 281 1181 m -54 X s 254 1222 m -27 X s 254 1263 m -27 X s 254 1304 m -27 X s 254 1345 m -27 X s 281 1386 m -54 X s
 gsave  2268 1540 0 0 C 133.204 136.453 t 0 r /Helvetica findfont 48.7332 sf 0 0 m (300) show NC gr 
 gsave  2268 1540 0 0 C 103.964 136.453 t 0 r /Symbol findfont 48.7332 sf 0 0 m (-) show NC gr 
 gsave  2268 1540 0 0 C 133.204 341.132 t 0 r /Helvetica findfont 48.7332 sf 0 0 m (200) show NC gr 
 gsave  2268 1540 0 0 C 103.964 341.132 t 0 r /Symbol findfont 48.7332 sf 0 0 m (-) show NC gr 
 gsave  2268 1540 0 0 C 133.204 545.811 t 0 r /Helvetica findfont 48.7332 sf 0 0 m (100) show NC gr 
 gsave  2268 1540 0 0 C 103.964 545.811 t 0 r /Symbol findfont 48.7332 sf 0 0 m (-) show NC gr 
 gsave  2268 1540 0 0 C 188.435 750.491 t 0 r /Helvetica findfont 48.7332 sf 0 0 m (0) show NC gr 
 gsave  2268 1540 0 0 C 133.204 958.419 t 0 r /Helvetica findfont 48.7332 sf 0 0 m (100) show NC gr 
 gsave  2268 1540 0 0 C 133.204 1163.1 t 0 r /Helvetica findfont 48.7332 sf 0 0 m (200) show NC gr 
 gsave  2268 1540 0 0 C 133.204 1367.78 t 0 r /Helvetica findfont 48.7332 sf 0 0 m (300) show NC gr 
 gsave  2268 1540 0 0 C 94.2174 1218.33 t 90 r /Helvetica findfont 64.9775 sf 0 0 m (Y\(cm\)) show NC gr  1 1 1 c black
 gsave  2268 1540 0 0 C 828.464 1468.49 t 0 r /Helvetica findfont 74.7242 sf 0 0 m (nu7.6_nn~:y_vs_x) show NC gr 
 gr  gr showpage
end
%%EOF
