%!PS-Adobe-2.0 EPSF-2.0
%%BoundingBox:  0 0 567 385
%%Title: ../plot_nu7.6/er/nu7.6_K^{+}K^{-}_xyr.eps: nu7.6_K^{+}K^{-}:energy_deposition_density_vs_r
%%Creator: ROOT Version 6.14/02
%%CreationDate: Thu Aug  9 13:54:07 2018
%%DocumentNeededResources: ProcSet (FontSetInit)
%%EndComments
%%BeginProlog
80 dict begin
/s {stroke} def /l {lineto} def /m {moveto} def /t {translate} def
/r {rotate} def /rl {roll}  def /R {repeat} def
/d {rlineto} def /rm {rmoveto} def /gr {grestore} def /f {eofill} def
/c {setrgbcolor} def /black {0 setgray} def /sd {setdash} def
/cl {closepath} def /sf {scalefont setfont} def /lw {setlinewidth} def
/box {m dup 0 exch d exch 0 d 0 exch neg d cl} def
/NC{systemdict begin initclip end}def/C{NC box clip newpath}def
/bl {box s} def /bf {gsave box gsave f grestore 1 lw [] 0 sd s grestore} def /Y { 0 exch d} def /X { 0 d} def 
/K {{pop pop 0 moveto} exch kshow} bind def
/ita {/ang 15 def gsave [1 0 ang dup sin exch cos div 1 0 0] concat} def 
/mp {newpath /y exch def /x exch def} def
/side {[w .77 mul w .23 mul] .385 w mul sd w 0 l currentpoint t -144 r} def
/mr {mp x y w2 0 360 arc} def /m24 {mr s} def /m20 {mr f} def
/mb {mp x y w2 add m w2 neg 0 d 0 w neg d w 0 d 0 w d cl} def
/mt {mp x y w2 add m w2 neg w neg d w 0 d cl} def
/w4 {w 4 div} def
/w6 {w 6 div} def
/w8 {w 8 div} def
/m21 {mb f} def /m25 {mb s} def /m22 {mt f} def /m26{mt s} def
/m23 {mp x y w2 sub m w2 w d w neg 0 d cl f} def
/m27 {mp x y w2 add m w3 neg w2 neg d w3 w2 neg d w3 w2 d cl s} def
/m28 {mp x w2 sub y w2 sub w3 add m w3 0 d  0 w3 neg d w3 0 d 0 w3 d w3 0 d  0 w3 d w3 neg 0 d 0 w3 d w3 neg 0 d 0 w3 neg d w3 neg 0 d cl s } def
/m29 {mp gsave x w2 sub y w2 add w3 sub m currentpoint t 4 {side} repeat cl fill gr} def
/m30 {mp gsave x w2 sub y w2 add w3 sub m currentpoint t 4 {side} repeat cl s gr} def
/m31 {mp x y w2 sub m 0 w d x w2 sub y m w 0 d x w2 sub y w2 add m w w neg d x w2 sub y w2 sub m w w d s} def
/m32 {mp x y w2 sub m w2 w d w neg 0 d cl s} def
/m33 {mp x y w2 add m w3 neg w2 neg d w3 w2 neg d w3 w2 d cl f} def
/m34 {mp x w2 sub y w2 sub w3 add m w3 0 d  0 w3 neg d w3 0 d 0 w3 d w3 0 d  0 w3 d w3 neg 0 d 0 w3 d w3 neg 0 d 0 w3 neg d w3 neg 0 d cl f } def
/m35 {mp x y w2 add m w2 neg w2 neg d w2 w2 neg d w2 w2 d w2 neg w2 d x y w2 sub m 0 w d x w2 sub y m w 0 d s} def
/m36 {mb x w2 sub y w2 add m w w neg d x w2 sub y w2 sub m w w d s} def
/m37 {mp x y m w4 neg w2 d w4 neg w2 neg d w2 0 d  w4 neg w2 neg d w2 0 d w4 neg w2 d w2 0 d w4 neg w2 d w4 neg w2 neg d cl s} def
/m38 {mp x w4 sub y w2 add m w4 neg w4 neg d 0 w2 neg d w4 w4 neg d w2 0 d w4 w4 d 0 w2 d w4 neg w4 d w2 neg 0 d x y w2 sub m 0 w d x w2 sub y m w 0 d cl s} def
/m39 {mp x y m w4 neg w2 d w4 neg w2 neg d w2 0 d  w4 neg w2 neg d w2 0 d w4 neg w2 d w2 0 d w4 neg w2 d w4 neg w2 neg d cl f} def
/m40 {mp x y m w4 w2 d w4 w4 neg d w2 neg w4 neg d w2 w4 neg d w4 neg w4 neg d w4 neg w2 d w4 neg w2 neg d w4 neg w4 d w2 w4 d w2 neg w4 d w4 w4 d w4 w2 neg d cl s} def
/m41 {mp x y m w4 w2 d w4 w4 neg d w2 neg w4 neg d w2 w4 neg d w4 neg w4 neg d w4 neg w2 d w4 neg w2 neg d w4 neg w4 d w2 w4 d w2 neg w4 d w4 w4 d w4 w2 neg d cl f} def
/m42 {mp x y w2 add m w8 neg w2 -3 4 div mul d w2 -3 4 div mul w8 neg d w2 3 4 div mul w8 neg d w8 w2 -3 4 div mul d w8 w2 3 4 div mul d w2 3 4 div mul w8 d w2 -3 4 div mul w8 d w8 neg w2 3 4 div mul d cl s} def
/m43 {mp x y w2 add m w8 neg w2 -3 4 div mul d w2 -3 4 div mul w8 neg d w2 3 4 div mul w8 neg d w8 w2 -3 4 div mul d w8 w2 3 4 div mul d w2 3 4 div mul w8 d w2 -3 4 div mul w8 d w8 neg w2 3 4 div mul d cl f} def
/m44 {mp x y m w6 neg w2 d w2 2 3 div mul 0 d w6 neg w2 neg d w2 w6 d 0 w2 -2 3 div mul d w2 neg w6 d w6 w2 neg d w2 -2 3 div mul 0 d w6 w2 d w2 neg w6 neg d 0 w2 2 3 div mul d w2 w6 neg d cl s} def
/m45 {mp x y m w6 neg w2 d w2 2 3 div mul 0 d w6 neg w2 neg d w2 w6 d 0 w2 -2 3 div mul d w2 neg w6 d w6 w2 neg d w2 -2 3 div mul 0 d w6 w2 d w2 neg w6 neg d 0 w2 2 3 div mul d w2 w6 neg d cl f} def
/m46 {mp x y w4 add m w4 neg w4 d w4 neg w4 neg d  w4 w4 neg d w4 neg w4 neg d w4 w4 neg d w4 w4 d w4 w4 neg d w4 w4 d w4 neg w4 d w4 w4 d w4 neg w4 d w4 neg w4 neg d cl s} def
/m47 {mp x y w4 add m w4 neg w4 d w4 neg w4 neg d w4 w4 neg d w4 neg w4 neg d  w4 w4 neg d w4 w4 d w4 w4 neg d w4 w4 d w4 neg w4 d w4 w4 d w4 neg w4 d w4 neg w4 neg d cl f} def
/m48 {mp x y w4 add m w4 neg w4 d w4 neg w4 neg d w4 w4 neg d  w4 neg w4 neg d w4 w4 neg d w4 w4 d w4 w4 neg d w4 w4 d w4 neg w4 d w4 w4 d w4 neg w4 d w4 neg w4 neg d  w4 w4 neg d w4 neg w4 neg d w4 neg w4 d w4 w4 d cl f} def
/m49 {mp x w2 sub w3 add y w2 sub w3 add m  0 w3 neg d w3 0 d 0 w3 d w3 0 d 0 w3 d w3 neg 0 d 0 w3 d w3 neg 0 d 0 w3 neg d w3 neg 0 d 0 w3 neg d w3 0 d 0 w3 d w3 0 d 0 w3 neg d w3 neg 0 d cl f } def
/m2 {mp x y w2 sub m 0 w d x w2 sub y m w 0 d s} def
/m5 {mp x w2 sub y w2 sub m w w d x w2 sub y w2 add m w w neg d s} def
%%IncludeResource: ProcSet (FontSetInit)
%%IncludeResource: font Times-Roman
%%IncludeResource: font Times-Italic
%%IncludeResource: font Times-Bold
%%IncludeResource: font Times-BoldItalic
%%IncludeResource: font Helvetica
%%IncludeResource: font Helvetica-Oblique
%%IncludeResource: font Helvetica-Bold
%%IncludeResource: font Helvetica-BoldOblique
%%IncludeResource: font Courier
%%IncludeResource: font Courier-Oblique
%%IncludeResource: font Courier-Bold
%%IncludeResource: font Courier-BoldOblique
%%IncludeResource: font Symbol
%%IncludeResource: font ZapfDingbats
/reEncode {exch findfont dup length dict begin {1 index /FID eq  {pop pop} {def} ifelse } forall /Encoding exch def currentdict end dup /FontName get exch definefont pop } def [/Times-Bold /Times-Italic /Times-BoldItalic /Helvetica /Helvetica-Oblique
 /Helvetica-Bold /Helvetica-BoldOblique /Courier /Courier-Oblique /Courier-Bold /Courier-BoldOblique /Times-Roman /AvantGarde-Book /AvantGarde-BookOblique /AvantGarde-Demi /AvantGarde-DemiOblique /Bookman-Demi /Bookman-DemiItalic /Bookman-Light
 /Bookman-LightItalic /Helvetica-Narrow /Helvetica-Narrow-Bold /Helvetica-Narrow-BoldOblique /Helvetica-Narrow-Oblique /NewCenturySchlbk-Roman /NewCenturySchlbk-Bold /NewCenturySchlbk-BoldItalic /NewCenturySchlbk-Italic /Palatino-Bold
 /Palatino-BoldItalic /Palatino-Italic /Palatino-Roman ] {ISOLatin1Encoding reEncode } forall
%%EndProlog
%%BeginSetup
%%EndSetup
newpath  gsave  .25 .25 scale  gsave  0 0 t black[  ] 0 sd 3 lw 1 1 1 c 2268 1540 0 0 bf black 1 1 1 c 1814 1232 227 154 bf black 1814 1232 227 154 bl 0 0 0.6 c 1 1 1 c black 0 0 0.6 c 261 1059 m 9 Y s 261 1068 m 8 Y s 249 1068 m 12 X s 261 1068 m 11
 X s black /w 2 def /w2 {w 2 div} def /w3 {w 3 div} def 261 1068 m20 0 0 0.6 c 283 1023 m 9 Y s 283 1032 m 8 Y s 272 1032 m 11 X s 283 1032 m 12 X s black 283 1032 m20 0 0 0.6 c 306 963 m 10 Y s 306 973 m 9 Y s 295 973 m 11 X s 306 973 m 11 X s black
 306 973 m20 0 0 0.6 c 329 912 m 11 Y s 329 923 m 9 Y s 317 923 m 12 X s 329 923 m 11 X s black 329 923 m20 0 0 0.6 c 351 881 m 11 Y s 351 892 m 10 Y s 340 892 m 11 X s 351 892 m 12 X s black 351 892 m20 0 0 0.6 c 374 847 m 14 Y s 374 861 m 11 Y s
 363 861 m 11 X s 374 861 m 12 X s black 374 861 m20 0 0 0.6 c 397 829 m 14 Y s 397 843 m 11 Y s 386 843 m 11 X s 397 843 m 11 X s black 397 843 m20 0 0 0.6 c 420 798 m 16 Y s 420 814 m 12 Y s 408 814 m 12 X s 420 814 m 11 X s black 420 814 m20 0 0
 0.6 c 442 776 m 14 Y s 442 790 m 12 Y s 431 790 m 11 X s 442 790 m 12 X s black 442 790 m20 0 0 0.6 c 465 761 m 15 Y s 465 776 m 12 Y s 454 776 m 11 X s 465 776 m 11 X s black 465 776 m20 0 0 0.6 c 488 735 m 18 Y s 488 753 m 14 Y s 476 753 m 12 X s
 488 753 m 11 X s black 488 753 m20 0 0 0.6 c 510 719 m 18 Y s 510 737 m 14 Y s 499 737 m 11 X s 510 737 m 12 X s black 510 737 m20 0 0 0.6 c 533 725 m 16 Y s 533 741 m 13 Y s 522 741 m 11 X s 533 741 m 11 X s black 533 741 m20 0 0 0.6 c 556 720 m 31
 Y s 556 751 m 21 Y s 544 751 m 12 X s 556 751 m 11 X s black 556 751 m20 0 0 0.6 c 578 699 m 23 Y s 578 722 m 18 Y s 567 722 m 11 X s 578 722 m 12 X s black 578 722 m20 0 0 0.6 c 601 669 m 20 Y s 601 689 m 15 Y s 590 689 m 11 X s 601 689 m 11 X s
 black 601 689 m20 0 0 0.6 c 624 664 m 18 Y s 624 682 m 15 Y s 612 682 m 12 X s 624 682 m 11 X s black 624 682 m20 0 0 0.6 c 646 658 m 23 Y s 646 681 m 17 Y s 635 681 m 11 X s 646 681 m 12 X s black 646 681 m20 0 0 0.6 c 669 631 m 20 Y s 669 651 m 15
 Y s 658 651 m 11 X s 669 651 m 11 X s black 669 651 m20 0 0 0.6 c 692 620 m 25 Y s 692 645 m 18 Y s 680 645 m 12 X s 692 645 m 11 X s black 692 645 m20 0 0 0.6 c 714 599 m 27 Y s 714 626 m 19 Y s 703 626 m 11 X s 714 626 m 12 X s black 714 626 m20 0
 0 0.6 c 737 625 m 24 Y s 737 649 m 18 Y s 726 649 m 11 X s 737 649 m 11 X s black 737 649 m20 0 0 0.6 c 760 612 m 32 Y s 760 644 m 22 Y s 748 644 m 12 X s 760 644 m 11 X s black 760 644 m20 0 0 0.6 c 782 572 m 28 Y s 782 600 m 19 Y s 771 600 m 11 X
 s 782 600 m 12 X s black 782 600 m20 0 0 0.6 c 805 565 m 28 Y s 805 593 m 20 Y s 794 593 m 11 X s 805 593 m 11 X s black 805 593 m20 0 0 0.6 c 828 592 m 22 Y s 828 614 m 17 Y s 816 614 m 12 X s 828 614 m 11 X s black 828 614 m20 0 0 0.6 c 850 510 m
 39 Y s 850 549 m 25 Y s 839 549 m 11 X s 850 549 m 12 X s black 850 549 m20 0 0 0.6 c 873 519 m 35 Y s 873 554 m 24 Y s 862 554 m 11 X s 873 554 m 11 X s black 873 554 m20 0 0 0.6 c 896 526 m 36 Y s 896 562 m 24 Y s 884 562 m 12 X s 896 562 m 11 X s
 black 896 562 m20 0 0 0.6 c 918 511 m 35 Y s 918 546 m 22 Y s 907 546 m 11 X s 918 546 m 12 X s black 918 546 m20 0 0 0.6 c 941 427 m 75 Y s 941 502 m 34 Y s 930 502 m 11 X s 941 502 m 11 X s black 941 502 m20 0 0 0.6 c 964 445 m 68 Y s 964 513 m 33
 Y s 952 513 m 12 X s 964 513 m 11 X s black 964 513 m20 0 0 0.6 c 986 429 m 61 Y s 986 490 m 31 Y s 975 490 m 11 X s 986 490 m 12 X s black 986 490 m20 0 0 0.6 c 1009 480 m 36 Y s 1009 516 m 23 Y s 998 516 m 11 X s 1009 516 m 11 X s black 1009 516
 m20 0 0 0.6 c 1032 444 m 47 Y s 1032 491 m 27 Y s 1020 491 m 12 X s 1032 491 m 11 X s black 1032 491 m20 0 0 0.6 c 1054 424 m 58 Y s 1054 482 m 31 Y s 1043 482 m 11 X s 1054 482 m 12 X s black 1054 482 m20 0 0 0.6 c 1077 508 m 28 Y s 1077 536 m 21 Y
 s 1066 536 m 11 X s 1077 536 m 12 X s black 1077 536 m20 0 0 0.6 c 1100 453 m 73 Y s 1100 526 m 34 Y s 1089 526 m 11 X s 1100 526 m 11 X s black 1100 526 m20 0 0 0.6 c 1123 468 m 37 Y s 1123 505 m 23 Y s 1111 505 m 12 X s 1123 505 m 11 X s black
 1123 505 m20 0 0 0.6 c 1145 457 m 50 Y s 1145 507 m 29 Y s 1134 507 m 11 X s 1145 507 m 12 X s black 1145 507 m20 0 0 0.6 c 1168 320 m 83 Y s 1168 403 m 36 Y s 1157 403 m 11 X s 1168 403 m 11 X s black 1168 403 m20 0 0 0.6 c 1213 437 m 45 Y s 1213
 482 m 26 Y s 1202 482 m 11 X s 1213 482 m 12 X s black 1213 482 m20 0 0 0.6 c 1236 154 m 200 Y s 1236 354 m 47 Y s 1225 354 m 11 X s 1236 354 m 11 X s black 1236 354 m20 0 0 0.6 c 1259 375 m 70 Y s 1259 445 m 33 Y s 1247 445 m 12 X s 1259 445 m 11 X
 s black 1259 445 m20 0 0 0.6 c 1304 154 m 212 Y s 1304 366 m 47 Y s 1293 366 m 11 X s 1304 366 m 11 X s black 1304 366 m20 0 0 0.6 c 1327 301 m 86 Y s 1327 387 m 36 Y s 1315 387 m 12 X s 1327 387 m 11 X s black 1327 387 m20 0 0 0.6 c 1349 154 m 207
 Y s 1349 361 m 46 Y s 1338 361 m 11 X s 1349 361 m 12 X s black 1349 361 m20 0 0 0.6 c 1372 315 m 85 Y s 1372 400 m 37 Y s 1361 400 m 11 X s 1372 400 m 11 X s black 1372 400 m20 0 0 0.6 c 1395 320 m 84 Y s 1395 404 m 36 Y s 1383 404 m 12 X s 1395
 404 m 11 X s black 1395 404 m20 0 0 0.6 c 1417 154 m 179 Y s 1417 333 m 47 Y s 1406 333 m 11 X s 1417 333 m 12 X s black 1417 333 m20 0 0 0.6 c 1440 154 m 204 Y s 1440 358 m 46 Y s 1429 358 m 11 X s 1440 358 m 11 X s black 1440 358 m20 0 0 0.6 c
 1485 154 m 214 Y s 1485 368 m 47 Y s 1474 368 m 11 X s 1485 368 m 12 X s black 1485 368 m20 0 0 0.6 c 1508 154 m 211 Y s 1508 365 m 46 Y s 1497 365 m 11 X s 1508 365 m 11 X s black 1508 365 m20 0 0 0.6 c 1553 154 m 241 Y s 1553 395 m 47 Y s 1542 395
 m 11 X s 1553 395 m 12 X s black 1553 395 m20 0 0 0.6 c 1599 154 m 178 Y s 1599 332 m 46 Y s 1587 332 m 12 X s 1599 332 m 11 X s black 1599 332 m20 0 0 0.6 c 1644 154 m 203 Y s 1644 357 m 46 Y s 1633 357 m 11 X s 1644 357 m 11 X s black 1644 357 m20
 0 0 0.6 c 1667 154 m 211 Y s 1667 365 m 46 Y s 1655 365 m 12 X s 1667 365 m 11 X s black 1667 365 m20 227 154 m 1814 X s 227 191 m -37 Y s 272 172 m -18 Y s 317 172 m -18 Y s 363 172 m -18 Y s 408 172 m -18 Y s 454 191 m -37 Y s 499 172 m -18 Y s
 544 172 m -18 Y s 590 172 m -18 Y s 635 172 m -18 Y s 680 191 m -37 Y s 726 172 m -18 Y s 771 172 m -18 Y s 816 172 m -18 Y s 862 172 m -18 Y s 907 191 m -37 Y s 952 172 m -18 Y s 998 172 m -18 Y s 1043 172 m -18 Y s 1089 172 m -18 Y s 1134 191 m
 -37 Y s 1179 172 m -18 Y s 1225 172 m -18 Y s 1270 172 m -18 Y s 1315 172 m -18 Y s 1361 191 m -37 Y s 1406 172 m -18 Y s 1451 172 m -18 Y s 1497 172 m -18 Y s 1542 172 m -18 Y s 1587 191 m -37 Y s 1633 172 m -18 Y s 1678 172 m -18 Y s 1723 172 m
 -18 Y s 1769 172 m -18 Y s 1814 191 m -37 Y s 1860 172 m -18 Y s 1905 172 m -18 Y s 1950 172 m -18 Y s 1996 172 m -18 Y s 2041 191 m -37 Y s
 gsave  2268 1540 0 0 C 211.177 103.964 t 0 r /Helvetica findfont 48.7332 sf 0 0 m (0) show NC gr 
 gsave  2268 1540 0 0 C 409.359 103.964 t 0 r /Helvetica findfont 48.7332 sf 0 0 m (100) show NC gr 
 gsave  2268 1540 0 0 C 636.78 103.964 t 0 r /Helvetica findfont 48.7332 sf 0 0 m (200) show NC gr 
 gsave  2268 1540 0 0 C 864.201 103.964 t 0 r /Helvetica findfont 48.7332 sf 0 0 m (300) show NC gr 
 gsave  2268 1540 0 0 C 1091.62 103.964 t 0 r /Helvetica findfont 48.7332 sf 0 0 m (400) show NC gr 
 gsave  2268 1540 0 0 C 1315.8 103.964 t 0 r /Helvetica findfont 48.7332 sf 0 0 m (500) show NC gr 
 gsave  2268 1540 0 0 C 1543.22 103.964 t 0 r /Helvetica findfont 48.7332 sf 0 0 m (600) show NC gr 
 gsave  2268 1540 0 0 C 1770.64 103.964 t 0 r /Helvetica findfont 48.7332 sf 0 0 m (700) show NC gr 
 gsave  2268 1540 0 0 C 1998.06 103.964 t 0 r /Helvetica findfont 48.7332 sf 0 0 m (800) show NC gr 
 gsave  2268 1540 0 0 C 1059.13 25.991 t 0 r /Helvetica findfont 64.9775 sf 0 0 m (r\(cm\)) show NC gr  227 154 m 1232 Y s 281 154 m -54 X s
 gsave  2268 1540 0 0 C 188.435 152.697 t 0 r /Helvetica findfont 32.4888 sf 0 0 m (4) show NC gr 
 gsave  2268 1540 0 0 C 168.942 152.697 t 0 r /Symbol findfont 32.4888 sf 0 0 m (-) show NC gr 
 gsave  2268 1540 0 0 C 113.711 133.204 t 0 r /Helvetica findfont 48.7332 sf 0 0 m (10) show NC gr  254 200 m -27 X s 254 227 m -27 X s 254 247 m -27 X s 254 262 m -27 X s 254 274 m -27 X s 254 284 m -27 X s 254 293 m -27 X s 254 301 m -27 X s 281
 308 m -54 X s
 gsave  2268 1540 0 0 C 188.435 308.643 t 0 r /Helvetica findfont 32.4888 sf 0 0 m (3) show NC gr 
 gsave  2268 1540 0 0 C 168.942 308.643 t 0 r /Symbol findfont 32.4888 sf 0 0 m (-) show NC gr 
 gsave  2268 1540 0 0 C 113.711 285.901 t 0 r /Helvetica findfont 48.7332 sf 0 0 m (10) show NC gr  254 354 m -27 X s 254 381 m -27 X s 254 401 m -27 X s 254 416 m -27 X s 254 428 m -27 X s 254 438 m -27 X s 254 447 m -27 X s 254 455 m -27 X s 281
 462 m -54 X s
 gsave  2268 1540 0 0 C 188.435 461.341 t 0 r /Helvetica findfont 32.4888 sf 0 0 m (2) show NC gr 
 gsave  2268 1540 0 0 C 168.942 461.341 t 0 r /Symbol findfont 32.4888 sf 0 0 m (-) show NC gr 
 gsave  2268 1540 0 0 C 113.711 441.847 t 0 r /Helvetica findfont 48.7332 sf 0 0 m (10) show NC gr  254 508 m -27 X s 254 535 m -27 X s 254 555 m -27 X s 254 570 m -27 X s 254 582 m -27 X s 254 592 m -27 X s 254 601 m -27 X s 254 609 m -27 X s 281
 616 m -54 X s
 gsave  2268 1540 0 0 C 194.933 614.038 t 0 r /Helvetica findfont 32.4888 sf 0 0 m (1) show NC gr 
 gsave  2268 1540 0 0 C 175.439 614.038 t 0 r /Symbol findfont 32.4888 sf 0 0 m (-) show NC gr 
 gsave  2268 1540 0 0 C 120.208 594.545 t 0 r /Helvetica findfont 48.7332 sf 0 0 m (10) show NC gr  254 662 m -27 X s 254 689 m -27 X s 254 709 m -27 X s 254 724 m -27 X s 254 736 m -27 X s 254 746 m -27 X s 254 755 m -27 X s 254 763 m -27 X s 281
 770 m -54 X s
 gsave  2268 1540 0 0 C 188.435 750.491 t 0 r /Helvetica findfont 48.7332 sf 0 0 m (1) show NC gr  254 816 m -27 X s 254 843 m -27 X s 254 863 m -27 X s 254 878 m -27 X s 254 890 m -27 X s 254 900 m -27 X s 254 909 m -27 X s 254 917 m -27 X s 281 924
 m -54 X s
 gsave  2268 1540 0 0 C 152.697 906.437 t 0 r /Helvetica findfont 48.7332 sf 0 0 m (10) show NC gr  254 970 m -27 X s 254 997 m -27 X s 254 1017 m -27 X s 254 1032 m -27 X s 254 1044 m -27 X s 254 1054 m -27 X s 254 1063 m -27 X s 254 1071 m -27 X s
 281 1078 m -54 X s
 gsave  2268 1540 0 0 C 188.435 1075.38 t 0 r /Helvetica findfont 32.4888 sf 0 0 m (2) show NC gr 
 gsave  2268 1540 0 0 C 133.204 1055.89 t 0 r /Helvetica findfont 48.7332 sf 0 0 m (10) show NC gr  254 1124 m -27 X s 254 1151 m -27 X s 254 1171 m -27 X s 254 1186 m -27 X s 254 1198 m -27 X s 254 1208 m -27 X s 254 1217 m -27 X s 254 1225 m -27 X
 s 281 1232 m -54 X s
 gsave  2268 1540 0 0 C 188.435 1234.57 t 0 r /Helvetica findfont 32.4888 sf 0 0 m (3) show NC gr 
 gsave  2268 1540 0 0 C 133.204 1211.83 t 0 r /Helvetica findfont 48.7332 sf 0 0 m (10) show NC gr  254 1278 m -27 X s 254 1305 m -27 X s 254 1325 m -27 X s 254 1340 m -27 X s 254 1352 m -27 X s 254 1362 m -27 X s 254 1371 m -27 X s 254 1379 m -27 X
 s 281 1386 m -54 X s
 gsave  2268 1540 0 0 C 188.435 1384.02 t 0 r /Helvetica findfont 32.4888 sf 0 0 m (4) show NC gr 
 gsave  2268 1540 0 0 C 133.204 1364.53 t 0 r /Helvetica findfont 48.7332 sf 0 0 m (10) show NC gr 
 gsave  2268 1540 0 0 C 103.964 1367.78 t 90 r /Helvetica findfont 64.9775 sf 0 0 m (\)) show NC gr 
 gsave  2268 1540 0 0 C 74.7242 1338.54 t 90 r /Helvetica findfont 42.2354 sf 0 0 m (\2551) show NC gr 
 gsave  2268 1540 0 0 C 100.715 1026.65 t 90 r /Helvetica findfont 64.9775 sf 0 0 m (density\(cm) show NC gr  1 1 1 c black
 gsave  2268 1540 0 0 C 776.482 1465.24 t 0 r /Helvetica findfont 74.7242 sf 0 0 m (:energy_deposition_density_vs_r) show NC gr 
 gsave  2268 1540 0 0 C 760.237 1510.73 t 0 r /Helvetica findfont 48.7332 sf 0 0 m (\255) show NC gr 
 gsave  2268 1540 0 0 C 708.255 1465.24 t 0 r /Helvetica findfont 74.7242 sf 0 0 m (K) show NC gr 
 gsave  2268 1540 0 0 C 679.015 1504.23 t 0 r /Helvetica findfont 48.7332 sf 0 0 m (+) show NC gr 
 gsave  2268 1540 0 0 C 399.612 1465.24 t 0 r /Helvetica findfont 74.7242 sf 0 0 m (nu7.6_K) show NC gr  1 1 1 c black
 gsave  2268 1540 0 0 C 776.482 1465.24 t 0 r /Helvetica findfont 74.7242 sf 0 0 m (:energy_deposition_density_vs_r) show NC gr 
 gsave  2268 1540 0 0 C 760.237 1510.73 t 0 r /Helvetica findfont 48.7332 sf 0 0 m (\255) show NC gr 
 gsave  2268 1540 0 0 C 708.255 1465.24 t 0 r /Helvetica findfont 74.7242 sf 0 0 m (K) show NC gr 
 gsave  2268 1540 0 0 C 679.015 1504.23 t 0 r /Helvetica findfont 48.7332 sf 0 0 m (+) show NC gr 
 gsave  2268 1540 0 0 C 399.612 1465.24 t 0 r /Helvetica findfont 74.7242 sf 0 0 m (nu7.6_K) show NC gr 
 gr  gr showpage
end
%%EOF
