%!PS-Adobe-2.0 EPSF-2.0
%%BoundingBox:  0 0 567 385
%%Title: ../plot_nu7.6/er/nu7.6_#gamma_xyr.eps: nu7.6_#gamma:energy_deposition_density_vs_r
%%Creator: ROOT Version 6.14/02
%%CreationDate: Thu Aug  9 13:54:07 2018
%%DocumentNeededResources: ProcSet (FontSetInit)
%%EndComments
%%BeginProlog
80 dict begin
/s {stroke} def /l {lineto} def /m {moveto} def /t {translate} def
/r {rotate} def /rl {roll}  def /R {repeat} def
/d {rlineto} def /rm {rmoveto} def /gr {grestore} def /f {eofill} def
/c {setrgbcolor} def /black {0 setgray} def /sd {setdash} def
/cl {closepath} def /sf {scalefont setfont} def /lw {setlinewidth} def
/box {m dup 0 exch d exch 0 d 0 exch neg d cl} def
/NC{systemdict begin initclip end}def/C{NC box clip newpath}def
/bl {box s} def /bf {gsave box gsave f grestore 1 lw [] 0 sd s grestore} def /Y { 0 exch d} def /X { 0 d} def 
/K {{pop pop 0 moveto} exch kshow} bind def
/ita {/ang 15 def gsave [1 0 ang dup sin exch cos div 1 0 0] concat} def 
/mp {newpath /y exch def /x exch def} def
/side {[w .77 mul w .23 mul] .385 w mul sd w 0 l currentpoint t -144 r} def
/mr {mp x y w2 0 360 arc} def /m24 {mr s} def /m20 {mr f} def
/mb {mp x y w2 add m w2 neg 0 d 0 w neg d w 0 d 0 w d cl} def
/mt {mp x y w2 add m w2 neg w neg d w 0 d cl} def
/w4 {w 4 div} def
/w6 {w 6 div} def
/w8 {w 8 div} def
/m21 {mb f} def /m25 {mb s} def /m22 {mt f} def /m26{mt s} def
/m23 {mp x y w2 sub m w2 w d w neg 0 d cl f} def
/m27 {mp x y w2 add m w3 neg w2 neg d w3 w2 neg d w3 w2 d cl s} def
/m28 {mp x w2 sub y w2 sub w3 add m w3 0 d  0 w3 neg d w3 0 d 0 w3 d w3 0 d  0 w3 d w3 neg 0 d 0 w3 d w3 neg 0 d 0 w3 neg d w3 neg 0 d cl s } def
/m29 {mp gsave x w2 sub y w2 add w3 sub m currentpoint t 4 {side} repeat cl fill gr} def
/m30 {mp gsave x w2 sub y w2 add w3 sub m currentpoint t 4 {side} repeat cl s gr} def
/m31 {mp x y w2 sub m 0 w d x w2 sub y m w 0 d x w2 sub y w2 add m w w neg d x w2 sub y w2 sub m w w d s} def
/m32 {mp x y w2 sub m w2 w d w neg 0 d cl s} def
/m33 {mp x y w2 add m w3 neg w2 neg d w3 w2 neg d w3 w2 d cl f} def
/m34 {mp x w2 sub y w2 sub w3 add m w3 0 d  0 w3 neg d w3 0 d 0 w3 d w3 0 d  0 w3 d w3 neg 0 d 0 w3 d w3 neg 0 d 0 w3 neg d w3 neg 0 d cl f } def
/m35 {mp x y w2 add m w2 neg w2 neg d w2 w2 neg d w2 w2 d w2 neg w2 d x y w2 sub m 0 w d x w2 sub y m w 0 d s} def
/m36 {mb x w2 sub y w2 add m w w neg d x w2 sub y w2 sub m w w d s} def
/m37 {mp x y m w4 neg w2 d w4 neg w2 neg d w2 0 d  w4 neg w2 neg d w2 0 d w4 neg w2 d w2 0 d w4 neg w2 d w4 neg w2 neg d cl s} def
/m38 {mp x w4 sub y w2 add m w4 neg w4 neg d 0 w2 neg d w4 w4 neg d w2 0 d w4 w4 d 0 w2 d w4 neg w4 d w2 neg 0 d x y w2 sub m 0 w d x w2 sub y m w 0 d cl s} def
/m39 {mp x y m w4 neg w2 d w4 neg w2 neg d w2 0 d  w4 neg w2 neg d w2 0 d w4 neg w2 d w2 0 d w4 neg w2 d w4 neg w2 neg d cl f} def
/m40 {mp x y m w4 w2 d w4 w4 neg d w2 neg w4 neg d w2 w4 neg d w4 neg w4 neg d w4 neg w2 d w4 neg w2 neg d w4 neg w4 d w2 w4 d w2 neg w4 d w4 w4 d w4 w2 neg d cl s} def
/m41 {mp x y m w4 w2 d w4 w4 neg d w2 neg w4 neg d w2 w4 neg d w4 neg w4 neg d w4 neg w2 d w4 neg w2 neg d w4 neg w4 d w2 w4 d w2 neg w4 d w4 w4 d w4 w2 neg d cl f} def
/m42 {mp x y w2 add m w8 neg w2 -3 4 div mul d w2 -3 4 div mul w8 neg d w2 3 4 div mul w8 neg d w8 w2 -3 4 div mul d w8 w2 3 4 div mul d w2 3 4 div mul w8 d w2 -3 4 div mul w8 d w8 neg w2 3 4 div mul d cl s} def
/m43 {mp x y w2 add m w8 neg w2 -3 4 div mul d w2 -3 4 div mul w8 neg d w2 3 4 div mul w8 neg d w8 w2 -3 4 div mul d w8 w2 3 4 div mul d w2 3 4 div mul w8 d w2 -3 4 div mul w8 d w8 neg w2 3 4 div mul d cl f} def
/m44 {mp x y m w6 neg w2 d w2 2 3 div mul 0 d w6 neg w2 neg d w2 w6 d 0 w2 -2 3 div mul d w2 neg w6 d w6 w2 neg d w2 -2 3 div mul 0 d w6 w2 d w2 neg w6 neg d 0 w2 2 3 div mul d w2 w6 neg d cl s} def
/m45 {mp x y m w6 neg w2 d w2 2 3 div mul 0 d w6 neg w2 neg d w2 w6 d 0 w2 -2 3 div mul d w2 neg w6 d w6 w2 neg d w2 -2 3 div mul 0 d w6 w2 d w2 neg w6 neg d 0 w2 2 3 div mul d w2 w6 neg d cl f} def
/m46 {mp x y w4 add m w4 neg w4 d w4 neg w4 neg d  w4 w4 neg d w4 neg w4 neg d w4 w4 neg d w4 w4 d w4 w4 neg d w4 w4 d w4 neg w4 d w4 w4 d w4 neg w4 d w4 neg w4 neg d cl s} def
/m47 {mp x y w4 add m w4 neg w4 d w4 neg w4 neg d w4 w4 neg d w4 neg w4 neg d  w4 w4 neg d w4 w4 d w4 w4 neg d w4 w4 d w4 neg w4 d w4 w4 d w4 neg w4 d w4 neg w4 neg d cl f} def
/m48 {mp x y w4 add m w4 neg w4 d w4 neg w4 neg d w4 w4 neg d  w4 neg w4 neg d w4 w4 neg d w4 w4 d w4 w4 neg d w4 w4 d w4 neg w4 d w4 w4 d w4 neg w4 d w4 neg w4 neg d  w4 w4 neg d w4 neg w4 neg d w4 neg w4 d w4 w4 d cl f} def
/m49 {mp x w2 sub w3 add y w2 sub w3 add m  0 w3 neg d w3 0 d 0 w3 d w3 0 d 0 w3 d w3 neg 0 d 0 w3 d w3 neg 0 d 0 w3 neg d w3 neg 0 d 0 w3 neg d w3 0 d 0 w3 d w3 0 d 0 w3 neg d w3 neg 0 d cl f } def
/m2 {mp x y w2 sub m 0 w d x w2 sub y m w 0 d s} def
/m5 {mp x w2 sub y w2 sub m w w d x w2 sub y w2 add m w w neg d s} def
%%IncludeResource: ProcSet (FontSetInit)
%%IncludeResource: font Times-Roman
%%IncludeResource: font Times-Italic
%%IncludeResource: font Times-Bold
%%IncludeResource: font Times-BoldItalic
%%IncludeResource: font Helvetica
%%IncludeResource: font Helvetica-Oblique
%%IncludeResource: font Helvetica-Bold
%%IncludeResource: font Helvetica-BoldOblique
%%IncludeResource: font Courier
%%IncludeResource: font Courier-Oblique
%%IncludeResource: font Courier-Bold
%%IncludeResource: font Courier-BoldOblique
%%IncludeResource: font Symbol
%%IncludeResource: font ZapfDingbats
/reEncode {exch findfont dup length dict begin {1 index /FID eq  {pop pop} {def} ifelse } forall /Encoding exch def currentdict end dup /FontName get exch definefont pop } def [/Times-Bold /Times-Italic /Times-BoldItalic /Helvetica /Helvetica-Oblique
 /Helvetica-Bold /Helvetica-BoldOblique /Courier /Courier-Oblique /Courier-Bold /Courier-BoldOblique /Times-Roman /AvantGarde-Book /AvantGarde-BookOblique /AvantGarde-Demi /AvantGarde-DemiOblique /Bookman-Demi /Bookman-DemiItalic /Bookman-Light
 /Bookman-LightItalic /Helvetica-Narrow /Helvetica-Narrow-Bold /Helvetica-Narrow-BoldOblique /Helvetica-Narrow-Oblique /NewCenturySchlbk-Roman /NewCenturySchlbk-Bold /NewCenturySchlbk-BoldItalic /NewCenturySchlbk-Italic /Palatino-Bold
 /Palatino-BoldItalic /Palatino-Italic /Palatino-Roman ] {ISOLatin1Encoding reEncode } forall
%%EndProlog
%%BeginSetup
%%EndSetup
newpath  gsave  .25 .25 scale  gsave  0 0 t black[  ] 0 sd 3 lw 1 1 1 c 2268 1540 0 0 bf black 1 1 1 c 1814 1232 227 154 bf black 1814 1232 227 154 bl 0 0 0.6 c 0 0 1 c black 0 0 0.6 c 261 1196 m 2 Y s 261 1198 m 1 Y s 249 1198 m 12 X s 261 1198 m 11
 X s black /w 2 def /w2 {w 2 div} def /w3 {w 3 div} def 261 1198 m20 0 0 0.6 c 283 1212 m 1 Y s 283 1213 m 2 Y s 272 1213 m 11 X s 283 1213 m 12 X s black 283 1213 m20 0 0 0.6 c 306 1152 m 1 Y s 306 1153 m 1 Y s 295 1153 m 11 X s 306 1153 m 11 X s
 black 306 1153 m20 0 0 0.6 c 329 1112 m 2 Y s 329 1114 m 2 Y s 317 1114 m 12 X s 329 1114 m 11 X s black 329 1114 m20 0 0 0.6 c 351 1074 m 2 Y s 351 1076 m 2 Y s 340 1076 m 11 X s 351 1076 m 12 X s black 351 1076 m20 0 0 0.6 c 374 1050 m 1 Y s 374
 1051 m 2 Y s 363 1051 m 11 X s 374 1051 m 12 X s black 374 1051 m20 0 0 0.6 c 397 1023 m 1 Y s 397 1024 m 2 Y s 386 1024 m 11 X s 397 1024 m 11 X s black 397 1024 m20 0 0 0.6 c 420 1006 m 2 Y s 420 1008 m 2 Y s 408 1008 m 12 X s 420 1008 m 11 X s
 black 420 1008 m20 0 0 0.6 c 442 978 m 2 Y s 442 980 m 2 Y s 431 980 m 11 X s 442 980 m 12 X s black 442 980 m20 0 0 0.6 c 465 971 m 2 Y s 465 973 m 2 Y s 454 973 m 11 X s 465 973 m 11 X s black 465 973 m20 0 0 0.6 c 488 946 m 2 Y s 488 948 m 2 Y s
 476 948 m 12 X s 488 948 m 11 X s black 488 948 m20 0 0 0.6 c 510 936 m 2 Y s 510 938 m 2 Y s 499 938 m 11 X s 510 938 m 12 X s black 510 938 m20 0 0 0.6 c 533 918 m 2 Y s 533 920 m 3 Y s 522 920 m 11 X s 533 920 m 11 X s black 533 920 m20 0 0 0.6 c
 556 904 m 2 Y s 556 906 m 2 Y s 544 906 m 12 X s 556 906 m 11 X s black 556 906 m20 0 0 0.6 c 578 889 m 3 Y s 578 892 m 2 Y s 567 892 m 11 X s 578 892 m 12 X s black 578 892 m20 0 0 0.6 c 601 884 m 3 Y s 601 887 m 2 Y s 590 887 m 11 X s 601 887 m 11
 X s black 601 887 m20 0 0 0.6 c 624 870 m 2 Y s 624 872 m 2 Y s 612 872 m 12 X s 624 872 m 11 X s black 624 872 m20 0 0 0.6 c 646 858 m 3 Y s 646 861 m 3 Y s 635 861 m 11 X s 646 861 m 12 X s black 646 861 m20 0 0 0.6 c 669 852 m 3 Y s 669 855 m 3 Y
 s 658 855 m 11 X s 669 855 m 11 X s black 669 855 m20 0 0 0.6 c 692 839 m 3 Y s 692 842 m 3 Y s 680 842 m 12 X s 692 842 m 11 X s black 692 842 m20 0 0 0.6 c 714 828 m 3 Y s 714 831 m 3 Y s 703 831 m 11 X s 714 831 m 12 X s black 714 831 m20 0 0 0.6
 c 737 824 m 3 Y s 737 827 m 3 Y s 726 827 m 11 X s 737 827 m 11 X s black 737 827 m20 0 0 0.6 c 760 820 m 3 Y s 760 823 m 3 Y s 748 823 m 12 X s 760 823 m 11 X s black 760 823 m20 0 0 0.6 c 782 809 m 4 Y s 782 813 m 3 Y s 771 813 m 11 X s 782 813 m
 12 X s black 782 813 m20 0 0 0.6 c 805 793 m 3 Y s 805 796 m 3 Y s 794 796 m 11 X s 805 796 m 11 X s black 805 796 m20 0 0 0.6 c 828 790 m 3 Y s 828 793 m 3 Y s 816 793 m 12 X s 828 793 m 11 X s black 828 793 m20 0 0 0.6 c 850 784 m 3 Y s 850 787 m
 3 Y s 839 787 m 11 X s 850 787 m 12 X s black 850 787 m20 0 0 0.6 c 873 771 m 3 Y s 873 774 m 3 Y s 862 774 m 11 X s 873 774 m 11 X s black 873 774 m20 0 0 0.6 c 896 763 m 4 Y s 896 767 m 3 Y s 884 767 m 12 X s 896 767 m 11 X s black 896 767 m20 0 0
 0.6 c 918 762 m 4 Y s 918 766 m 4 Y s 907 766 m 11 X s 918 766 m 12 X s black 918 766 m20 0 0 0.6 c 941 749 m 4 Y s 941 753 m 3 Y s 930 753 m 11 X s 941 753 m 11 X s black 941 753 m20 0 0 0.6 c 964 737 m 3 Y s 964 740 m 4 Y s 952 740 m 12 X s 964
 740 m 11 X s black 964 740 m20 0 0 0.6 c 986 731 m 4 Y s 986 735 m 3 Y s 975 735 m 11 X s 986 735 m 12 X s black 986 735 m20 0 0 0.6 c 1009 725 m 5 Y s 1009 730 m 5 Y s 998 730 m 11 X s 1009 730 m 11 X s black 1009 730 m20 0 0 0.6 c 1032 719 m 4 Y s
 1032 723 m 4 Y s 1020 723 m 12 X s 1032 723 m 11 X s black 1032 723 m20 0 0 0.6 c 1054 699 m 4 Y s 1054 703 m 4 Y s 1043 703 m 11 X s 1054 703 m 12 X s black 1054 703 m20 0 0 0.6 c 1077 700 m 4 Y s 1077 704 m 4 Y s 1066 704 m 11 X s 1077 704 m 12 X
 s black 1077 704 m20 0 0 0.6 c 1100 695 m 4 Y s 1100 699 m 4 Y s 1089 699 m 11 X s 1100 699 m 11 X s black 1100 699 m20 0 0 0.6 c 1123 677 m 5 Y s 1123 682 m 4 Y s 1111 682 m 12 X s 1123 682 m 11 X s black 1123 682 m20 0 0 0.6 c 1145 672 m 5 Y s
 1145 677 m 5 Y s 1134 677 m 11 X s 1145 677 m 12 X s black 1145 677 m20 0 0 0.6 c 1168 673 m 4 Y s 1168 677 m 4 Y s 1157 677 m 11 X s 1168 677 m 11 X s black 1168 677 m20 0 0 0.6 c 1191 657 m 4 Y s 1191 661 m 4 Y s 1179 661 m 12 X s 1191 661 m 11 X
 s black 1191 661 m20 0 0 0.6 c 1213 650 m 4 Y s 1213 654 m 4 Y s 1202 654 m 11 X s 1213 654 m 12 X s black 1213 654 m20 0 0 0.6 c 1236 625 m 6 Y s 1236 631 m 5 Y s 1225 631 m 11 X s 1236 631 m 11 X s black 1236 631 m20 0 0 0.6 c 1259 617 m 9 Y s
 1259 626 m 8 Y s 1247 626 m 12 X s 1259 626 m 11 X s black 1259 626 m20 0 0 0.6 c 1281 600 m 7 Y s 1281 607 m 7 Y s 1270 607 m 11 X s 1281 607 m 12 X s black 1281 607 m20 0 0 0.6 c 1304 584 m 9 Y s 1304 593 m 8 Y s 1293 593 m 11 X s 1304 593 m 11 X
 s black 1304 593 m20 0 0 0.6 c 1327 560 m 8 Y s 1327 568 m 7 Y s 1315 568 m 12 X s 1327 568 m 11 X s black 1327 568 m20 0 0 0.6 c 1349 560 m 8 Y s 1349 568 m 7 Y s 1338 568 m 11 X s 1349 568 m 12 X s black 1349 568 m20 0 0 0.6 c 1372 557 m 8 Y s
 1372 565 m 8 Y s 1361 565 m 11 X s 1372 565 m 11 X s black 1372 565 m20 0 0 0.6 c 1395 528 m 8 Y s 1395 536 m 6 Y s 1383 536 m 12 X s 1395 536 m 11 X s black 1395 536 m20 0 0 0.6 c 1417 562 m 6 Y s 1417 568 m 5 Y s 1406 568 m 11 X s 1417 568 m 12 X
 s black 1417 568 m20 0 0 0.6 c 1440 571 m 6 Y s 1440 577 m 5 Y s 1429 577 m 11 X s 1440 577 m 11 X s black 1440 577 m20 0 0 0.6 c 1463 548 m 8 Y s 1463 556 m 6 Y s 1451 556 m 12 X s 1463 556 m 11 X s black 1463 556 m20 0 0 0.6 c 1485 530 m 7 Y s
 1485 537 m 6 Y s 1474 537 m 11 X s 1485 537 m 12 X s black 1485 537 m20 0 0 0.6 c 1508 491 m 8 Y s 1508 499 m 7 Y s 1497 499 m 11 X s 1508 499 m 11 X s black 1508 499 m20 0 0 0.6 c 1531 473 m 9 Y s 1531 482 m 8 Y s 1519 482 m 12 X s 1531 482 m 11 X
 s black 1531 482 m20 0 0 0.6 c 1553 466 m 11 Y s 1553 477 m 9 Y s 1542 477 m 11 X s 1553 477 m 12 X s black 1553 477 m20 0 0 0.6 c 1576 482 m 11 Y s 1576 493 m 9 Y s 1565 493 m 11 X s 1576 493 m 11 X s black 1576 493 m20 0 0 0.6 c 1599 470 m 11 Y s
 1599 481 m 9 Y s 1587 481 m 12 X s 1599 481 m 11 X s black 1599 481 m20 0 0 0.6 c 1621 452 m 14 Y s 1621 466 m 11 Y s 1610 466 m 11 X s 1621 466 m 12 X s black 1621 466 m20 0 0 0.6 c 1644 463 m 11 Y s 1644 474 m 9 Y s 1633 474 m 11 X s 1644 474 m 11
 X s black 1644 474 m20 0 0 0.6 c 1667 468 m 16 Y s 1667 484 m 12 Y s 1655 484 m 12 X s 1667 484 m 11 X s black 1667 484 m20 0 0 0.6 c 1689 462 m 14 Y s 1689 476 m 11 Y s 1678 476 m 11 X s 1689 476 m 12 X s black 1689 476 m20 0 0 0.6 c 1712 418 m 12
 Y s 1712 430 m 10 Y s 1701 430 m 11 X s 1712 430 m 11 X s black 1712 430 m20 0 0 0.6 c 1735 458 m 15 Y s 1735 473 m 12 Y s 1723 473 m 12 X s 1735 473 m 11 X s black 1735 473 m20 0 0 0.6 c 1757 447 m 15 Y s 1757 462 m 13 Y s 1746 462 m 11 X s 1757
 462 m 12 X s black 1757 462 m20 0 0 0.6 c 1780 470 m 14 Y s 1780 484 m 11 Y s 1769 484 m 11 X s 1780 484 m 11 X s black 1780 484 m20 0 0 0.6 c 1803 443 m 15 Y s 1803 458 m 12 Y s 1791 458 m 12 X s 1803 458 m 11 X s black 1803 458 m20 0 0 0.6 c 1826
 348 m 16 Y s 1826 364 m 14 Y s 1814 364 m 12 X s 1826 364 m 11 X s black 1826 364 m20 0 0 0.6 c 1848 380 m 23 Y s 1848 403 m 18 Y s 1837 403 m 11 X s 1848 403 m 12 X s black 1848 403 m20 0 0 0.6 c 1871 303 m 33 Y s 1871 336 m 22 Y s 1860 336 m 11 X
 s 1871 336 m 11 X s black 1871 336 m20 0 0 0.6 c 1894 324 m 26 Y s 1894 350 m 19 Y s 1882 350 m 12 X s 1894 350 m 11 X s black 1894 350 m20 0 0 0.6 c 1916 206 m 81 Y s 1916 287 m 36 Y s 1905 287 m 11 X s 1916 287 m 12 X s black 1916 287 m20 0 0 0.6
 c 1939 181 m 62 Y s 1939 243 m 31 Y s 1928 243 m 11 X s 1939 243 m 11 X s black 1939 243 m20 0 0 0.6 c 1984 154 m 51 Y s 1984 205 m 29 Y s 1973 205 m 11 X s 1984 205 m 12 X s black 1984 205 m20 227 154 m 1814 X s 227 191 m -37 Y s 272 172 m -18 Y s
 317 172 m -18 Y s 363 172 m -18 Y s 408 172 m -18 Y s 454 191 m -37 Y s 499 172 m -18 Y s 544 172 m -18 Y s 590 172 m -18 Y s 635 172 m -18 Y s 680 191 m -37 Y s 726 172 m -18 Y s 771 172 m -18 Y s 816 172 m -18 Y s 862 172 m -18 Y s 907 191 m -37 Y
 s 952 172 m -18 Y s 998 172 m -18 Y s 1043 172 m -18 Y s 1089 172 m -18 Y s 1134 191 m -37 Y s 1179 172 m -18 Y s 1225 172 m -18 Y s 1270 172 m -18 Y s 1315 172 m -18 Y s 1361 191 m -37 Y s 1406 172 m -18 Y s 1451 172 m -18 Y s 1497 172 m -18 Y s
 1542 172 m -18 Y s 1587 191 m -37 Y s 1633 172 m -18 Y s 1678 172 m -18 Y s 1723 172 m -18 Y s 1769 172 m -18 Y s 1814 191 m -37 Y s 1860 172 m -18 Y s 1905 172 m -18 Y s 1950 172 m -18 Y s 1996 172 m -18 Y s 2041 191 m -37 Y s
 gsave  2268 1540 0 0 C 211.177 103.964 t 0 r /Helvetica findfont 48.7332 sf 0 0 m (0) show NC gr 
 gsave  2268 1540 0 0 C 409.359 103.964 t 0 r /Helvetica findfont 48.7332 sf 0 0 m (100) show NC gr 
 gsave  2268 1540 0 0 C 636.78 103.964 t 0 r /Helvetica findfont 48.7332 sf 0 0 m (200) show NC gr 
 gsave  2268 1540 0 0 C 864.201 103.964 t 0 r /Helvetica findfont 48.7332 sf 0 0 m (300) show NC gr 
 gsave  2268 1540 0 0 C 1091.62 103.964 t 0 r /Helvetica findfont 48.7332 sf 0 0 m (400) show NC gr 
 gsave  2268 1540 0 0 C 1315.8 103.964 t 0 r /Helvetica findfont 48.7332 sf 0 0 m (500) show NC gr 
 gsave  2268 1540 0 0 C 1543.22 103.964 t 0 r /Helvetica findfont 48.7332 sf 0 0 m (600) show NC gr 
 gsave  2268 1540 0 0 C 1770.64 103.964 t 0 r /Helvetica findfont 48.7332 sf 0 0 m (700) show NC gr 
 gsave  2268 1540 0 0 C 1998.06 103.964 t 0 r /Helvetica findfont 48.7332 sf 0 0 m (800) show NC gr 
 gsave  2268 1540 0 0 C 1059.13 25.991 t 0 r /Helvetica findfont 64.9775 sf 0 0 m (r\(cm\)) show NC gr  227 154 m 1232 Y s 281 154 m -54 X s
 gsave  2268 1540 0 0 C 188.435 152.697 t 0 r /Helvetica findfont 32.4888 sf 0 0 m (4) show NC gr 
 gsave  2268 1540 0 0 C 168.942 152.697 t 0 r /Symbol findfont 32.4888 sf 0 0 m (-) show NC gr 
 gsave  2268 1540 0 0 C 113.711 133.204 t 0 r /Helvetica findfont 48.7332 sf 0 0 m (10) show NC gr  254 200 m -27 X s 254 227 m -27 X s 254 247 m -27 X s 254 262 m -27 X s 254 274 m -27 X s 254 284 m -27 X s 254 293 m -27 X s 254 301 m -27 X s 281
 308 m -54 X s
 gsave  2268 1540 0 0 C 188.435 308.643 t 0 r /Helvetica findfont 32.4888 sf 0 0 m (3) show NC gr 
 gsave  2268 1540 0 0 C 168.942 308.643 t 0 r /Symbol findfont 32.4888 sf 0 0 m (-) show NC gr 
 gsave  2268 1540 0 0 C 113.711 285.901 t 0 r /Helvetica findfont 48.7332 sf 0 0 m (10) show NC gr  254 354 m -27 X s 254 381 m -27 X s 254 401 m -27 X s 254 416 m -27 X s 254 428 m -27 X s 254 438 m -27 X s 254 447 m -27 X s 254 455 m -27 X s 281
 462 m -54 X s
 gsave  2268 1540 0 0 C 188.435 461.341 t 0 r /Helvetica findfont 32.4888 sf 0 0 m (2) show NC gr 
 gsave  2268 1540 0 0 C 168.942 461.341 t 0 r /Symbol findfont 32.4888 sf 0 0 m (-) show NC gr 
 gsave  2268 1540 0 0 C 113.711 441.847 t 0 r /Helvetica findfont 48.7332 sf 0 0 m (10) show NC gr  254 508 m -27 X s 254 535 m -27 X s 254 555 m -27 X s 254 570 m -27 X s 254 582 m -27 X s 254 592 m -27 X s 254 601 m -27 X s 254 609 m -27 X s 281
 616 m -54 X s
 gsave  2268 1540 0 0 C 194.933 614.038 t 0 r /Helvetica findfont 32.4888 sf 0 0 m (1) show NC gr 
 gsave  2268 1540 0 0 C 175.439 614.038 t 0 r /Symbol findfont 32.4888 sf 0 0 m (-) show NC gr 
 gsave  2268 1540 0 0 C 120.208 594.545 t 0 r /Helvetica findfont 48.7332 sf 0 0 m (10) show NC gr  254 662 m -27 X s 254 689 m -27 X s 254 709 m -27 X s 254 724 m -27 X s 254 736 m -27 X s 254 746 m -27 X s 254 755 m -27 X s 254 763 m -27 X s 281
 770 m -54 X s
 gsave  2268 1540 0 0 C 188.435 750.491 t 0 r /Helvetica findfont 48.7332 sf 0 0 m (1) show NC gr  254 816 m -27 X s 254 843 m -27 X s 254 863 m -27 X s 254 878 m -27 X s 254 890 m -27 X s 254 900 m -27 X s 254 909 m -27 X s 254 917 m -27 X s 281 924
 m -54 X s
 gsave  2268 1540 0 0 C 152.697 906.437 t 0 r /Helvetica findfont 48.7332 sf 0 0 m (10) show NC gr  254 970 m -27 X s 254 997 m -27 X s 254 1017 m -27 X s 254 1032 m -27 X s 254 1044 m -27 X s 254 1054 m -27 X s 254 1063 m -27 X s 254 1071 m -27 X s
 281 1078 m -54 X s
 gsave  2268 1540 0 0 C 188.435 1075.38 t 0 r /Helvetica findfont 32.4888 sf 0 0 m (2) show NC gr 
 gsave  2268 1540 0 0 C 133.204 1055.89 t 0 r /Helvetica findfont 48.7332 sf 0 0 m (10) show NC gr  254 1124 m -27 X s 254 1151 m -27 X s 254 1171 m -27 X s 254 1186 m -27 X s 254 1198 m -27 X s 254 1208 m -27 X s 254 1217 m -27 X s 254 1225 m -27 X
 s 281 1232 m -54 X s
 gsave  2268 1540 0 0 C 188.435 1234.57 t 0 r /Helvetica findfont 32.4888 sf 0 0 m (3) show NC gr 
 gsave  2268 1540 0 0 C 133.204 1211.83 t 0 r /Helvetica findfont 48.7332 sf 0 0 m (10) show NC gr  254 1278 m -27 X s 254 1305 m -27 X s 254 1325 m -27 X s 254 1340 m -27 X s 254 1352 m -27 X s 254 1362 m -27 X s 254 1371 m -27 X s 254 1379 m -27 X
 s 281 1386 m -54 X s
 gsave  2268 1540 0 0 C 188.435 1384.02 t 0 r /Helvetica findfont 32.4888 sf 0 0 m (4) show NC gr 
 gsave  2268 1540 0 0 C 133.204 1364.53 t 0 r /Helvetica findfont 48.7332 sf 0 0 m (10) show NC gr 
 gsave  2268 1540 0 0 C 103.964 1367.78 t 90 r /Helvetica findfont 64.9775 sf 0 0 m (\)) show NC gr 
 gsave  2268 1540 0 0 C 74.7242 1338.54 t 90 r /Helvetica findfont 42.2354 sf 0 0 m (\2551) show NC gr 
 gsave  2268 1540 0 0 C 100.715 1026.65 t 90 r /Helvetica findfont 64.9775 sf 0 0 m (density\(cm) show NC gr  1 1 1 c black
 gsave  2268 1540 0 0 C 721.251 1468.49 t 0 r /Helvetica findfont 74.7242 sf 0 0 m (:energy_deposition_density_vs_r) show NC gr 
 gsave  2268 1540 0 0 C 682.264 1468.49 t 0 r /Symbol findfont 74.7242 sf 0 0 m (g) show NC gr 
 gsave  2268 1540 0 0 C 451.594 1468.49 t 0 r /Helvetica findfont 74.7242 sf 0 0 m (nu7.6_) show NC gr  1 1 1 c black
 gsave  2268 1540 0 0 C 721.251 1468.49 t 0 r /Helvetica findfont 74.7242 sf 0 0 m (:energy_deposition_density_vs_r) show NC gr 
 gsave  2268 1540 0 0 C 682.264 1468.49 t 0 r /Symbol findfont 74.7242 sf 0 0 m (g) show NC gr 
 gsave  2268 1540 0 0 C 451.594 1468.49 t 0 r /Helvetica findfont 74.7242 sf 0 0 m (nu7.6_) show NC gr 
 gr  gr showpage
end
%%EOF
