%!PS-Adobe-2.0 EPSF-2.0
%%BoundingBox:  0 0 567 385
%%Title: ../plot_nu11.4/er/#gamma_xyr.eps: nu11.4_#gamma:energy_deposition_density_vs_r
%%Creator: ROOT Version 6.14/02
%%CreationDate: Thu Aug  9 13:30:45 2018
%%DocumentNeededResources: ProcSet (FontSetInit)
%%EndComments
%%BeginProlog
80 dict begin
/s {stroke} def /l {lineto} def /m {moveto} def /t {translate} def
/r {rotate} def /rl {roll}  def /R {repeat} def
/d {rlineto} def /rm {rmoveto} def /gr {grestore} def /f {eofill} def
/c {setrgbcolor} def /black {0 setgray} def /sd {setdash} def
/cl {closepath} def /sf {scalefont setfont} def /lw {setlinewidth} def
/box {m dup 0 exch d exch 0 d 0 exch neg d cl} def
/NC{systemdict begin initclip end}def/C{NC box clip newpath}def
/bl {box s} def /bf {gsave box gsave f grestore 1 lw [] 0 sd s grestore} def /Y { 0 exch d} def /X { 0 d} def 
/K {{pop pop 0 moveto} exch kshow} bind def
/ita {/ang 15 def gsave [1 0 ang dup sin exch cos div 1 0 0] concat} def 
/mp {newpath /y exch def /x exch def} def
/side {[w .77 mul w .23 mul] .385 w mul sd w 0 l currentpoint t -144 r} def
/mr {mp x y w2 0 360 arc} def /m24 {mr s} def /m20 {mr f} def
/mb {mp x y w2 add m w2 neg 0 d 0 w neg d w 0 d 0 w d cl} def
/mt {mp x y w2 add m w2 neg w neg d w 0 d cl} def
/w4 {w 4 div} def
/w6 {w 6 div} def
/w8 {w 8 div} def
/m21 {mb f} def /m25 {mb s} def /m22 {mt f} def /m26{mt s} def
/m23 {mp x y w2 sub m w2 w d w neg 0 d cl f} def
/m27 {mp x y w2 add m w3 neg w2 neg d w3 w2 neg d w3 w2 d cl s} def
/m28 {mp x w2 sub y w2 sub w3 add m w3 0 d  0 w3 neg d w3 0 d 0 w3 d w3 0 d  0 w3 d w3 neg 0 d 0 w3 d w3 neg 0 d 0 w3 neg d w3 neg 0 d cl s } def
/m29 {mp gsave x w2 sub y w2 add w3 sub m currentpoint t 4 {side} repeat cl fill gr} def
/m30 {mp gsave x w2 sub y w2 add w3 sub m currentpoint t 4 {side} repeat cl s gr} def
/m31 {mp x y w2 sub m 0 w d x w2 sub y m w 0 d x w2 sub y w2 add m w w neg d x w2 sub y w2 sub m w w d s} def
/m32 {mp x y w2 sub m w2 w d w neg 0 d cl s} def
/m33 {mp x y w2 add m w3 neg w2 neg d w3 w2 neg d w3 w2 d cl f} def
/m34 {mp x w2 sub y w2 sub w3 add m w3 0 d  0 w3 neg d w3 0 d 0 w3 d w3 0 d  0 w3 d w3 neg 0 d 0 w3 d w3 neg 0 d 0 w3 neg d w3 neg 0 d cl f } def
/m35 {mp x y w2 add m w2 neg w2 neg d w2 w2 neg d w2 w2 d w2 neg w2 d x y w2 sub m 0 w d x w2 sub y m w 0 d s} def
/m36 {mb x w2 sub y w2 add m w w neg d x w2 sub y w2 sub m w w d s} def
/m37 {mp x y m w4 neg w2 d w4 neg w2 neg d w2 0 d  w4 neg w2 neg d w2 0 d w4 neg w2 d w2 0 d w4 neg w2 d w4 neg w2 neg d cl s} def
/m38 {mp x w4 sub y w2 add m w4 neg w4 neg d 0 w2 neg d w4 w4 neg d w2 0 d w4 w4 d 0 w2 d w4 neg w4 d w2 neg 0 d x y w2 sub m 0 w d x w2 sub y m w 0 d cl s} def
/m39 {mp x y m w4 neg w2 d w4 neg w2 neg d w2 0 d  w4 neg w2 neg d w2 0 d w4 neg w2 d w2 0 d w4 neg w2 d w4 neg w2 neg d cl f} def
/m40 {mp x y m w4 w2 d w4 w4 neg d w2 neg w4 neg d w2 w4 neg d w4 neg w4 neg d w4 neg w2 d w4 neg w2 neg d w4 neg w4 d w2 w4 d w2 neg w4 d w4 w4 d w4 w2 neg d cl s} def
/m41 {mp x y m w4 w2 d w4 w4 neg d w2 neg w4 neg d w2 w4 neg d w4 neg w4 neg d w4 neg w2 d w4 neg w2 neg d w4 neg w4 d w2 w4 d w2 neg w4 d w4 w4 d w4 w2 neg d cl f} def
/m42 {mp x y w2 add m w8 neg w2 -3 4 div mul d w2 -3 4 div mul w8 neg d w2 3 4 div mul w8 neg d w8 w2 -3 4 div mul d w8 w2 3 4 div mul d w2 3 4 div mul w8 d w2 -3 4 div mul w8 d w8 neg w2 3 4 div mul d cl s} def
/m43 {mp x y w2 add m w8 neg w2 -3 4 div mul d w2 -3 4 div mul w8 neg d w2 3 4 div mul w8 neg d w8 w2 -3 4 div mul d w8 w2 3 4 div mul d w2 3 4 div mul w8 d w2 -3 4 div mul w8 d w8 neg w2 3 4 div mul d cl f} def
/m44 {mp x y m w6 neg w2 d w2 2 3 div mul 0 d w6 neg w2 neg d w2 w6 d 0 w2 -2 3 div mul d w2 neg w6 d w6 w2 neg d w2 -2 3 div mul 0 d w6 w2 d w2 neg w6 neg d 0 w2 2 3 div mul d w2 w6 neg d cl s} def
/m45 {mp x y m w6 neg w2 d w2 2 3 div mul 0 d w6 neg w2 neg d w2 w6 d 0 w2 -2 3 div mul d w2 neg w6 d w6 w2 neg d w2 -2 3 div mul 0 d w6 w2 d w2 neg w6 neg d 0 w2 2 3 div mul d w2 w6 neg d cl f} def
/m46 {mp x y w4 add m w4 neg w4 d w4 neg w4 neg d  w4 w4 neg d w4 neg w4 neg d w4 w4 neg d w4 w4 d w4 w4 neg d w4 w4 d w4 neg w4 d w4 w4 d w4 neg w4 d w4 neg w4 neg d cl s} def
/m47 {mp x y w4 add m w4 neg w4 d w4 neg w4 neg d w4 w4 neg d w4 neg w4 neg d  w4 w4 neg d w4 w4 d w4 w4 neg d w4 w4 d w4 neg w4 d w4 w4 d w4 neg w4 d w4 neg w4 neg d cl f} def
/m48 {mp x y w4 add m w4 neg w4 d w4 neg w4 neg d w4 w4 neg d  w4 neg w4 neg d w4 w4 neg d w4 w4 d w4 w4 neg d w4 w4 d w4 neg w4 d w4 w4 d w4 neg w4 d w4 neg w4 neg d  w4 w4 neg d w4 neg w4 neg d w4 neg w4 d w4 w4 d cl f} def
/m49 {mp x w2 sub w3 add y w2 sub w3 add m  0 w3 neg d w3 0 d 0 w3 d w3 0 d 0 w3 d w3 neg 0 d 0 w3 d w3 neg 0 d 0 w3 neg d w3 neg 0 d 0 w3 neg d w3 0 d 0 w3 d w3 0 d 0 w3 neg d w3 neg 0 d cl f } def
/m2 {mp x y w2 sub m 0 w d x w2 sub y m w 0 d s} def
/m5 {mp x w2 sub y w2 sub m w w d x w2 sub y w2 add m w w neg d s} def
%%IncludeResource: ProcSet (FontSetInit)
%%IncludeResource: font Times-Roman
%%IncludeResource: font Times-Italic
%%IncludeResource: font Times-Bold
%%IncludeResource: font Times-BoldItalic
%%IncludeResource: font Helvetica
%%IncludeResource: font Helvetica-Oblique
%%IncludeResource: font Helvetica-Bold
%%IncludeResource: font Helvetica-BoldOblique
%%IncludeResource: font Courier
%%IncludeResource: font Courier-Oblique
%%IncludeResource: font Courier-Bold
%%IncludeResource: font Courier-BoldOblique
%%IncludeResource: font Symbol
%%IncludeResource: font ZapfDingbats
/reEncode {exch findfont dup length dict begin {1 index /FID eq  {pop pop} {def} ifelse } forall /Encoding exch def currentdict end dup /FontName get exch definefont pop } def [/Times-Bold /Times-Italic /Times-BoldItalic /Helvetica /Helvetica-Oblique
 /Helvetica-Bold /Helvetica-BoldOblique /Courier /Courier-Oblique /Courier-Bold /Courier-BoldOblique /Times-Roman /AvantGarde-Book /AvantGarde-BookOblique /AvantGarde-Demi /AvantGarde-DemiOblique /Bookman-Demi /Bookman-DemiItalic /Bookman-Light
 /Bookman-LightItalic /Helvetica-Narrow /Helvetica-Narrow-Bold /Helvetica-Narrow-BoldOblique /Helvetica-Narrow-Oblique /NewCenturySchlbk-Roman /NewCenturySchlbk-Bold /NewCenturySchlbk-BoldItalic /NewCenturySchlbk-Italic /Palatino-Bold
 /Palatino-BoldItalic /Palatino-Italic /Palatino-Roman ] {ISOLatin1Encoding reEncode } forall
%%EndProlog
%%BeginSetup
%%EndSetup
newpath  gsave  .25 .25 scale  gsave  0 0 t black[  ] 0 sd 3 lw 1 1 1 c 2268 1540 0 0 bf black 1 1 1 c 1814 1232 227 154 bf black 1814 1232 227 154 bl 0 0 0.6 c 0 0 1 c black 0 0 0.6 c 261 1227 m 1 Y s 261 1228 m 2 Y s 249 1228 m 12 X s 261 1228 m 11
 X s black /w 2 def /w2 {w 2 div} def /w3 {w 3 div} def 261 1228 m20 0 0 0.6 c 283 1241 m 2 Y s 283 1243 m 1 Y s 272 1243 m 11 X s 283 1243 m 12 X s black 283 1243 m20 0 0 0.6 c 306 1183 m 1 Y s 306 1184 m 2 Y s 295 1184 m 11 X s 306 1184 m 11 X s
 black 306 1184 m20 0 0 0.6 c 329 1142 m 1 Y s 329 1143 m 1 Y s 317 1143 m 12 X s 329 1143 m 11 X s black 329 1143 m20 0 0 0.6 c 351 1108 m 1 Y s 351 1109 m 1 Y s 340 1109 m 11 X s 351 1109 m 12 X s black 351 1109 m20 0 0 0.6 c 374 1078 m 1 Y s 374
 1079 m 2 Y s 363 1079 m 11 X s 374 1079 m 12 X s black 374 1079 m20 0 0 0.6 c 397 1053 m 2 Y s 397 1055 m 1 Y s 386 1055 m 11 X s 397 1055 m 11 X s black 397 1055 m20 0 0 0.6 c 420 1031 m 1 Y s 420 1032 m 2 Y s 408 1032 m 12 X s 420 1032 m 11 X s
 black 420 1032 m20 0 0 0.6 c 442 1009 m 1 Y s 442 1010 m 2 Y s 431 1010 m 11 X s 442 1010 m 12 X s black 442 1010 m20 0 0 0.6 c 465 990 m 2 Y s 465 992 m 1 Y s 454 992 m 11 X s 465 992 m 11 X s black 465 992 m20 0 0 0.6 c 488 979 m 2 Y s 488 981 m 2
 Y s 476 981 m 12 X s 488 981 m 11 X s black 488 981 m20 0 0 0.6 c 510 962 m 1 Y s 510 963 m 2 Y s 499 963 m 11 X s 510 963 m 12 X s black 510 963 m20 0 0 0.6 c 533 946 m 2 Y s 533 948 m 2 Y s 522 948 m 11 X s 533 948 m 11 X s black 533 948 m20 0 0
 0.6 c 556 934 m 2 Y s 556 936 m 2 Y s 544 936 m 12 X s 556 936 m 11 X s black 556 936 m20 0 0 0.6 c 578 921 m 2 Y s 578 923 m 2 Y s 567 923 m 11 X s 578 923 m 12 X s black 578 923 m20 0 0 0.6 c 601 907 m 2 Y s 601 909 m 2 Y s 590 909 m 11 X s 601
 909 m 11 X s black 601 909 m20 0 0 0.6 c 624 896 m 2 Y s 624 898 m 2 Y s 612 898 m 12 X s 624 898 m 11 X s black 624 898 m20 0 0 0.6 c 646 887 m 3 Y s 646 890 m 2 Y s 635 890 m 11 X s 646 890 m 12 X s black 646 890 m20 0 0 0.6 c 669 875 m 2 Y s 669
 877 m 2 Y s 658 877 m 11 X s 669 877 m 11 X s black 669 877 m20 0 0 0.6 c 692 867 m 3 Y s 692 870 m 2 Y s 680 870 m 12 X s 692 870 m 11 X s black 692 870 m20 0 0 0.6 c 714 861 m 2 Y s 714 863 m 2 Y s 703 863 m 11 X s 714 863 m 12 X s black 714 863
 m20 0 0 0.6 c 737 847 m 2 Y s 737 849 m 3 Y s 726 849 m 11 X s 737 849 m 11 X s black 737 849 m20 0 0 0.6 c 760 843 m 3 Y s 760 846 m 2 Y s 748 846 m 12 X s 760 846 m 11 X s black 760 846 m20 0 0 0.6 c 782 836 m 3 Y s 782 839 m 2 Y s 771 839 m 11 X
 s 782 839 m 12 X s black 782 839 m20 0 0 0.6 c 805 832 m 3 Y s 805 835 m 2 Y s 794 835 m 11 X s 805 835 m 11 X s black 805 835 m20 0 0 0.6 c 828 821 m 3 Y s 828 824 m 2 Y s 816 824 m 12 X s 828 824 m 11 X s black 828 824 m20 0 0 0.6 c 850 812 m 3 Y
 s 850 815 m 2 Y s 839 815 m 11 X s 850 815 m 12 X s black 850 815 m20 0 0 0.6 c 873 804 m 3 Y s 873 807 m 3 Y s 862 807 m 11 X s 873 807 m 11 X s black 873 807 m20 0 0 0.6 c 896 794 m 3 Y s 896 797 m 3 Y s 884 797 m 12 X s 896 797 m 11 X s black 896
 797 m20 0 0 0.6 c 918 791 m 3 Y s 918 794 m 3 Y s 907 794 m 11 X s 918 794 m 12 X s black 918 794 m20 0 0 0.6 c 941 782 m 3 Y s 941 785 m 3 Y s 930 785 m 11 X s 941 785 m 11 X s black 941 785 m20 0 0 0.6 c 964 774 m 4 Y s 964 778 m 3 Y s 952 778 m
 12 X s 964 778 m 11 X s black 964 778 m20 0 0 0.6 c 986 762 m 3 Y s 986 765 m 3 Y s 975 765 m 11 X s 986 765 m 12 X s black 986 765 m20 0 0 0.6 c 1009 754 m 4 Y s 1009 758 m 4 Y s 998 758 m 11 X s 1009 758 m 11 X s black 1009 758 m20 0 0 0.6 c 1032
 744 m 4 Y s 1032 748 m 3 Y s 1020 748 m 12 X s 1032 748 m 11 X s black 1032 748 m20 0 0 0.6 c 1054 739 m 3 Y s 1054 742 m 4 Y s 1043 742 m 11 X s 1054 742 m 12 X s black 1054 742 m20 0 0 0.6 c 1077 731 m 4 Y s 1077 735 m 4 Y s 1066 735 m 11 X s 1077
 735 m 12 X s black 1077 735 m20 0 0 0.6 c 1100 722 m 4 Y s 1100 726 m 4 Y s 1089 726 m 11 X s 1100 726 m 11 X s black 1100 726 m20 0 0 0.6 c 1123 708 m 5 Y s 1123 713 m 5 Y s 1111 713 m 12 X s 1123 713 m 11 X s black 1123 713 m20 0 0 0.6 c 1145 706
 m 3 Y s 1145 709 m 4 Y s 1134 709 m 11 X s 1145 709 m 12 X s black 1145 709 m20 0 0 0.6 c 1168 697 m 4 Y s 1168 701 m 4 Y s 1157 701 m 11 X s 1168 701 m 11 X s black 1168 701 m20 0 0 0.6 c 1191 694 m 5 Y s 1191 699 m 4 Y s 1179 699 m 12 X s 1191 699
 m 11 X s black 1191 699 m20 0 0 0.6 c 1213 688 m 3 Y s 1213 691 m 4 Y s 1202 691 m 11 X s 1213 691 m 12 X s black 1213 691 m20 0 0 0.6 c 1236 652 m 5 Y s 1236 657 m 4 Y s 1225 657 m 11 X s 1236 657 m 11 X s black 1236 657 m20 0 0 0.6 c 1259 636 m 9
 Y s 1259 645 m 9 Y s 1247 645 m 12 X s 1259 645 m 11 X s black 1259 645 m20 0 0 0.6 c 1281 631 m 6 Y s 1281 637 m 5 Y s 1270 637 m 11 X s 1281 637 m 12 X s black 1281 637 m20 0 0 0.6 c 1304 613 m 7 Y s 1304 620 m 5 Y s 1293 620 m 11 X s 1304 620 m
 11 X s black 1304 620 m20 0 0 0.6 c 1327 593 m 6 Y s 1327 599 m 6 Y s 1315 599 m 12 X s 1327 599 m 11 X s black 1327 599 m20 0 0 0.6 c 1349 580 m 7 Y s 1349 587 m 6 Y s 1338 587 m 11 X s 1349 587 m 12 X s black 1349 587 m20 0 0 0.6 c 1372 580 m 6 Y
 s 1372 586 m 6 Y s 1361 586 m 11 X s 1372 586 m 11 X s black 1372 586 m20 0 0 0.6 c 1395 574 m 6 Y s 1395 580 m 6 Y s 1383 580 m 12 X s 1395 580 m 11 X s black 1395 580 m20 0 0 0.6 c 1417 599 m 6 Y s 1417 605 m 5 Y s 1406 605 m 11 X s 1417 605 m 12
 X s black 1417 605 m20 0 0 0.6 c 1440 603 m 5 Y s 1440 608 m 5 Y s 1429 608 m 11 X s 1440 608 m 11 X s black 1440 608 m20 0 0 0.6 c 1463 592 m 6 Y s 1463 598 m 5 Y s 1451 598 m 12 X s 1463 598 m 11 X s black 1463 598 m20 0 0 0.6 c 1485 546 m 6 Y s
 1485 552 m 6 Y s 1474 552 m 11 X s 1485 552 m 12 X s black 1485 552 m20 0 0 0.6 c 1508 531 m 8 Y s 1508 539 m 6 Y s 1497 539 m 11 X s 1508 539 m 11 X s black 1508 539 m20 0 0 0.6 c 1531 510 m 8 Y s 1531 518 m 6 Y s 1519 518 m 12 X s 1531 518 m 11 X
 s black 1531 518 m20 0 0 0.6 c 1553 532 m 11 Y s 1553 543 m 9 Y s 1542 543 m 11 X s 1553 543 m 12 X s black 1553 543 m20 0 0 0.6 c 1576 507 m 8 Y s 1576 515 m 8 Y s 1565 515 m 11 X s 1576 515 m 11 X s black 1576 515 m20 0 0 0.6 c 1599 491 m 9 Y s
 1599 500 m 8 Y s 1587 500 m 12 X s 1599 500 m 11 X s black 1599 500 m20 0 0 0.6 c 1621 490 m 10 Y s 1621 500 m 9 Y s 1610 500 m 11 X s 1621 500 m 12 X s black 1621 500 m20 0 0 0.6 c 1644 484 m 9 Y s 1644 493 m 9 Y s 1633 493 m 11 X s 1644 493 m 11 X
 s black 1644 493 m20 0 0 0.6 c 1667 478 m 9 Y s 1667 487 m 8 Y s 1655 487 m 12 X s 1667 487 m 11 X s black 1667 487 m20 0 0 0.6 c 1689 495 m 11 Y s 1689 506 m 9 Y s 1678 506 m 11 X s 1689 506 m 12 X s black 1689 506 m20 0 0 0.6 c 1712 481 m 11 Y s
 1712 492 m 9 Y s 1701 492 m 11 X s 1712 492 m 11 X s black 1712 492 m20 0 0 0.6 c 1735 483 m 10 Y s 1735 493 m 8 Y s 1723 493 m 12 X s 1735 493 m 11 X s black 1735 493 m20 0 0 0.6 c 1757 494 m 10 Y s 1757 504 m 8 Y s 1746 504 m 11 X s 1757 504 m 12
 X s black 1757 504 m20 0 0 0.6 c 1780 468 m 11 Y s 1780 479 m 9 Y s 1769 479 m 11 X s 1780 479 m 11 X s black 1780 479 m20 0 0 0.6 c 1803 449 m 13 Y s 1803 462 m 11 Y s 1791 462 m 12 X s 1803 462 m 11 X s black 1803 462 m20 0 0 0.6 c 1826 417 m 20 Y
 s 1826 437 m 15 Y s 1814 437 m 12 X s 1826 437 m 11 X s black 1826 437 m20 0 0 0.6 c 1848 423 m 21 Y s 1848 444 m 16 Y s 1837 444 m 11 X s 1848 444 m 12 X s black 1848 444 m20 0 0 0.6 c 1871 389 m 17 Y s 1871 406 m 13 Y s 1860 406 m 11 X s 1871 406
 m 11 X s black 1871 406 m20 0 0 0.6 c 1894 363 m 56 Y s 1894 419 m 30 Y s 1882 419 m 12 X s 1894 419 m 11 X s black 1894 419 m20 0 0 0.6 c 1916 282 m 59 Y s 1916 341 m 31 Y s 1905 341 m 11 X s 1916 341 m 12 X s black 1916 341 m20 0 0 0.6 c 1939 294
 m 56 Y s 1939 350 m 30 Y s 1928 350 m 11 X s 1939 350 m 11 X s black 1939 350 m20 0 0 0.6 c 1962 234 m 42 Y s 1962 276 m 26 Y s 1950 276 m 12 X s 1962 276 m 11 X s black 1962 276 m20 0 0 0.6 c 2007 154 m 42 Y s 2007 196 m 37 Y s 1996 196 m 11 X s
 2007 196 m 11 X s black 2007 196 m20 227 154 m 1814 X s 227 191 m -37 Y s 272 172 m -18 Y s 317 172 m -18 Y s 363 172 m -18 Y s 408 172 m -18 Y s 454 191 m -37 Y s 499 172 m -18 Y s 544 172 m -18 Y s 590 172 m -18 Y s 635 172 m -18 Y s 680 191 m -37
 Y s 726 172 m -18 Y s 771 172 m -18 Y s 816 172 m -18 Y s 862 172 m -18 Y s 907 191 m -37 Y s 952 172 m -18 Y s 998 172 m -18 Y s 1043 172 m -18 Y s 1089 172 m -18 Y s 1134 191 m -37 Y s 1179 172 m -18 Y s 1225 172 m -18 Y s 1270 172 m -18 Y s 1315
 172 m -18 Y s 1361 191 m -37 Y s 1406 172 m -18 Y s 1451 172 m -18 Y s 1497 172 m -18 Y s 1542 172 m -18 Y s 1587 191 m -37 Y s 1633 172 m -18 Y s 1678 172 m -18 Y s 1723 172 m -18 Y s 1769 172 m -18 Y s 1814 191 m -37 Y s 1860 172 m -18 Y s 1905
 172 m -18 Y s 1950 172 m -18 Y s 1996 172 m -18 Y s 2041 191 m -37 Y s
 gsave  2268 1540 0 0 C 211.177 103.964 t 0 r /Helvetica findfont 48.7332 sf 0 0 m (0) show NC gr 
 gsave  2268 1540 0 0 C 409.359 103.964 t 0 r /Helvetica findfont 48.7332 sf 0 0 m (100) show NC gr 
 gsave  2268 1540 0 0 C 636.78 103.964 t 0 r /Helvetica findfont 48.7332 sf 0 0 m (200) show NC gr 
 gsave  2268 1540 0 0 C 864.201 103.964 t 0 r /Helvetica findfont 48.7332 sf 0 0 m (300) show NC gr 
 gsave  2268 1540 0 0 C 1091.62 103.964 t 0 r /Helvetica findfont 48.7332 sf 0 0 m (400) show NC gr 
 gsave  2268 1540 0 0 C 1315.8 103.964 t 0 r /Helvetica findfont 48.7332 sf 0 0 m (500) show NC gr 
 gsave  2268 1540 0 0 C 1543.22 103.964 t 0 r /Helvetica findfont 48.7332 sf 0 0 m (600) show NC gr 
 gsave  2268 1540 0 0 C 1770.64 103.964 t 0 r /Helvetica findfont 48.7332 sf 0 0 m (700) show NC gr 
 gsave  2268 1540 0 0 C 1998.06 103.964 t 0 r /Helvetica findfont 48.7332 sf 0 0 m (800) show NC gr 
 gsave  2268 1540 0 0 C 1059.13 25.991 t 0 r /Helvetica findfont 64.9775 sf 0 0 m (r\(cm\)) show NC gr  227 154 m 1232 Y s 281 154 m -54 X s
 gsave  2268 1540 0 0 C 188.435 152.697 t 0 r /Helvetica findfont 32.4888 sf 0 0 m (4) show NC gr 
 gsave  2268 1540 0 0 C 168.942 152.697 t 0 r /Symbol findfont 32.4888 sf 0 0 m (-) show NC gr 
 gsave  2268 1540 0 0 C 113.711 133.204 t 0 r /Helvetica findfont 48.7332 sf 0 0 m (10) show NC gr  254 200 m -27 X s 254 227 m -27 X s 254 247 m -27 X s 254 262 m -27 X s 254 274 m -27 X s 254 284 m -27 X s 254 293 m -27 X s 254 301 m -27 X s 281
 308 m -54 X s
 gsave  2268 1540 0 0 C 188.435 308.643 t 0 r /Helvetica findfont 32.4888 sf 0 0 m (3) show NC gr 
 gsave  2268 1540 0 0 C 168.942 308.643 t 0 r /Symbol findfont 32.4888 sf 0 0 m (-) show NC gr 
 gsave  2268 1540 0 0 C 113.711 285.901 t 0 r /Helvetica findfont 48.7332 sf 0 0 m (10) show NC gr  254 354 m -27 X s 254 381 m -27 X s 254 401 m -27 X s 254 416 m -27 X s 254 428 m -27 X s 254 438 m -27 X s 254 447 m -27 X s 254 455 m -27 X s 281
 462 m -54 X s
 gsave  2268 1540 0 0 C 188.435 461.341 t 0 r /Helvetica findfont 32.4888 sf 0 0 m (2) show NC gr 
 gsave  2268 1540 0 0 C 168.942 461.341 t 0 r /Symbol findfont 32.4888 sf 0 0 m (-) show NC gr 
 gsave  2268 1540 0 0 C 113.711 441.847 t 0 r /Helvetica findfont 48.7332 sf 0 0 m (10) show NC gr  254 508 m -27 X s 254 535 m -27 X s 254 555 m -27 X s 254 570 m -27 X s 254 582 m -27 X s 254 592 m -27 X s 254 601 m -27 X s 254 609 m -27 X s 281
 616 m -54 X s
 gsave  2268 1540 0 0 C 194.933 614.038 t 0 r /Helvetica findfont 32.4888 sf 0 0 m (1) show NC gr 
 gsave  2268 1540 0 0 C 175.439 614.038 t 0 r /Symbol findfont 32.4888 sf 0 0 m (-) show NC gr 
 gsave  2268 1540 0 0 C 120.208 594.545 t 0 r /Helvetica findfont 48.7332 sf 0 0 m (10) show NC gr  254 662 m -27 X s 254 689 m -27 X s 254 709 m -27 X s 254 724 m -27 X s 254 736 m -27 X s 254 746 m -27 X s 254 755 m -27 X s 254 763 m -27 X s 281
 770 m -54 X s
 gsave  2268 1540 0 0 C 188.435 750.491 t 0 r /Helvetica findfont 48.7332 sf 0 0 m (1) show NC gr  254 816 m -27 X s 254 843 m -27 X s 254 863 m -27 X s 254 878 m -27 X s 254 890 m -27 X s 254 900 m -27 X s 254 909 m -27 X s 254 917 m -27 X s 281 924
 m -54 X s
 gsave  2268 1540 0 0 C 152.697 906.437 t 0 r /Helvetica findfont 48.7332 sf 0 0 m (10) show NC gr  254 970 m -27 X s 254 997 m -27 X s 254 1017 m -27 X s 254 1032 m -27 X s 254 1044 m -27 X s 254 1054 m -27 X s 254 1063 m -27 X s 254 1071 m -27 X s
 281 1078 m -54 X s
 gsave  2268 1540 0 0 C 188.435 1075.38 t 0 r /Helvetica findfont 32.4888 sf 0 0 m (2) show NC gr 
 gsave  2268 1540 0 0 C 133.204 1055.89 t 0 r /Helvetica findfont 48.7332 sf 0 0 m (10) show NC gr  254 1124 m -27 X s 254 1151 m -27 X s 254 1171 m -27 X s 254 1186 m -27 X s 254 1198 m -27 X s 254 1208 m -27 X s 254 1217 m -27 X s 254 1225 m -27 X
 s 281 1232 m -54 X s
 gsave  2268 1540 0 0 C 188.435 1234.57 t 0 r /Helvetica findfont 32.4888 sf 0 0 m (3) show NC gr 
 gsave  2268 1540 0 0 C 133.204 1211.83 t 0 r /Helvetica findfont 48.7332 sf 0 0 m (10) show NC gr  254 1278 m -27 X s 254 1305 m -27 X s 254 1325 m -27 X s 254 1340 m -27 X s 254 1352 m -27 X s 254 1362 m -27 X s 254 1371 m -27 X s 254 1379 m -27 X
 s 281 1386 m -54 X s
 gsave  2268 1540 0 0 C 188.435 1384.02 t 0 r /Helvetica findfont 32.4888 sf 0 0 m (4) show NC gr 
 gsave  2268 1540 0 0 C 133.204 1364.53 t 0 r /Helvetica findfont 48.7332 sf 0 0 m (10) show NC gr 
 gsave  2268 1540 0 0 C 103.964 1367.78 t 90 r /Helvetica findfont 64.9775 sf 0 0 m (\)) show NC gr 
 gsave  2268 1540 0 0 C 74.7242 1338.54 t 90 r /Helvetica findfont 42.2354 sf 0 0 m (\2551) show NC gr 
 gsave  2268 1540 0 0 C 100.715 1026.65 t 90 r /Helvetica findfont 64.9775 sf 0 0 m (density\(cm) show NC gr  1 1 1 c black
 gsave  2268 1540 0 0 C 743.993 1468.49 t 0 r /Helvetica findfont 74.7242 sf 0 0 m (:energy_deposition_density_vs_r) show NC gr 
 gsave  2268 1540 0 0 C 705.006 1468.49 t 0 r /Symbol findfont 74.7242 sf 0 0 m (g) show NC gr 
 gsave  2268 1540 0 0 C 432.101 1468.49 t 0 r /Helvetica findfont 74.7242 sf 0 0 m (nu11.4_) show NC gr  1 1 1 c black
 gsave  2268 1540 0 0 C 743.993 1468.49 t 0 r /Helvetica findfont 74.7242 sf 0 0 m (:energy_deposition_density_vs_r) show NC gr 
 gsave  2268 1540 0 0 C 705.006 1468.49 t 0 r /Symbol findfont 74.7242 sf 0 0 m (g) show NC gr 
 gsave  2268 1540 0 0 C 432.101 1468.49 t 0 r /Helvetica findfont 74.7242 sf 0 0 m (nu11.4_) show NC gr 
 gr  gr showpage
end
%%EOF
