%!PS-Adobe-2.0 EPSF-2.0
%%BoundingBox:  0 0 567 385
%%Title: ../plot_nu11.4/etr/e^{+}e^{-}_xyr.eps: nu11.4_e^{+}e^{-}:et_deposition_density_vs_r
%%Creator: ROOT Version 6.14/02
%%CreationDate: Thu Aug  9 13:32:05 2018
%%DocumentNeededResources: ProcSet (FontSetInit)
%%EndComments
%%BeginProlog
80 dict begin
/s {stroke} def /l {lineto} def /m {moveto} def /t {translate} def
/r {rotate} def /rl {roll}  def /R {repeat} def
/d {rlineto} def /rm {rmoveto} def /gr {grestore} def /f {eofill} def
/c {setrgbcolor} def /black {0 setgray} def /sd {setdash} def
/cl {closepath} def /sf {scalefont setfont} def /lw {setlinewidth} def
/box {m dup 0 exch d exch 0 d 0 exch neg d cl} def
/NC{systemdict begin initclip end}def/C{NC box clip newpath}def
/bl {box s} def /bf {gsave box gsave f grestore 1 lw [] 0 sd s grestore} def /Y { 0 exch d} def /X { 0 d} def 
/K {{pop pop 0 moveto} exch kshow} bind def
/ita {/ang 15 def gsave [1 0 ang dup sin exch cos div 1 0 0] concat} def 
/mp {newpath /y exch def /x exch def} def
/side {[w .77 mul w .23 mul] .385 w mul sd w 0 l currentpoint t -144 r} def
/mr {mp x y w2 0 360 arc} def /m24 {mr s} def /m20 {mr f} def
/mb {mp x y w2 add m w2 neg 0 d 0 w neg d w 0 d 0 w d cl} def
/mt {mp x y w2 add m w2 neg w neg d w 0 d cl} def
/w4 {w 4 div} def
/w6 {w 6 div} def
/w8 {w 8 div} def
/m21 {mb f} def /m25 {mb s} def /m22 {mt f} def /m26{mt s} def
/m23 {mp x y w2 sub m w2 w d w neg 0 d cl f} def
/m27 {mp x y w2 add m w3 neg w2 neg d w3 w2 neg d w3 w2 d cl s} def
/m28 {mp x w2 sub y w2 sub w3 add m w3 0 d  0 w3 neg d w3 0 d 0 w3 d w3 0 d  0 w3 d w3 neg 0 d 0 w3 d w3 neg 0 d 0 w3 neg d w3 neg 0 d cl s } def
/m29 {mp gsave x w2 sub y w2 add w3 sub m currentpoint t 4 {side} repeat cl fill gr} def
/m30 {mp gsave x w2 sub y w2 add w3 sub m currentpoint t 4 {side} repeat cl s gr} def
/m31 {mp x y w2 sub m 0 w d x w2 sub y m w 0 d x w2 sub y w2 add m w w neg d x w2 sub y w2 sub m w w d s} def
/m32 {mp x y w2 sub m w2 w d w neg 0 d cl s} def
/m33 {mp x y w2 add m w3 neg w2 neg d w3 w2 neg d w3 w2 d cl f} def
/m34 {mp x w2 sub y w2 sub w3 add m w3 0 d  0 w3 neg d w3 0 d 0 w3 d w3 0 d  0 w3 d w3 neg 0 d 0 w3 d w3 neg 0 d 0 w3 neg d w3 neg 0 d cl f } def
/m35 {mp x y w2 add m w2 neg w2 neg d w2 w2 neg d w2 w2 d w2 neg w2 d x y w2 sub m 0 w d x w2 sub y m w 0 d s} def
/m36 {mb x w2 sub y w2 add m w w neg d x w2 sub y w2 sub m w w d s} def
/m37 {mp x y m w4 neg w2 d w4 neg w2 neg d w2 0 d  w4 neg w2 neg d w2 0 d w4 neg w2 d w2 0 d w4 neg w2 d w4 neg w2 neg d cl s} def
/m38 {mp x w4 sub y w2 add m w4 neg w4 neg d 0 w2 neg d w4 w4 neg d w2 0 d w4 w4 d 0 w2 d w4 neg w4 d w2 neg 0 d x y w2 sub m 0 w d x w2 sub y m w 0 d cl s} def
/m39 {mp x y m w4 neg w2 d w4 neg w2 neg d w2 0 d  w4 neg w2 neg d w2 0 d w4 neg w2 d w2 0 d w4 neg w2 d w4 neg w2 neg d cl f} def
/m40 {mp x y m w4 w2 d w4 w4 neg d w2 neg w4 neg d w2 w4 neg d w4 neg w4 neg d w4 neg w2 d w4 neg w2 neg d w4 neg w4 d w2 w4 d w2 neg w4 d w4 w4 d w4 w2 neg d cl s} def
/m41 {mp x y m w4 w2 d w4 w4 neg d w2 neg w4 neg d w2 w4 neg d w4 neg w4 neg d w4 neg w2 d w4 neg w2 neg d w4 neg w4 d w2 w4 d w2 neg w4 d w4 w4 d w4 w2 neg d cl f} def
/m42 {mp x y w2 add m w8 neg w2 -3 4 div mul d w2 -3 4 div mul w8 neg d w2 3 4 div mul w8 neg d w8 w2 -3 4 div mul d w8 w2 3 4 div mul d w2 3 4 div mul w8 d w2 -3 4 div mul w8 d w8 neg w2 3 4 div mul d cl s} def
/m43 {mp x y w2 add m w8 neg w2 -3 4 div mul d w2 -3 4 div mul w8 neg d w2 3 4 div mul w8 neg d w8 w2 -3 4 div mul d w8 w2 3 4 div mul d w2 3 4 div mul w8 d w2 -3 4 div mul w8 d w8 neg w2 3 4 div mul d cl f} def
/m44 {mp x y m w6 neg w2 d w2 2 3 div mul 0 d w6 neg w2 neg d w2 w6 d 0 w2 -2 3 div mul d w2 neg w6 d w6 w2 neg d w2 -2 3 div mul 0 d w6 w2 d w2 neg w6 neg d 0 w2 2 3 div mul d w2 w6 neg d cl s} def
/m45 {mp x y m w6 neg w2 d w2 2 3 div mul 0 d w6 neg w2 neg d w2 w6 d 0 w2 -2 3 div mul d w2 neg w6 d w6 w2 neg d w2 -2 3 div mul 0 d w6 w2 d w2 neg w6 neg d 0 w2 2 3 div mul d w2 w6 neg d cl f} def
/m46 {mp x y w4 add m w4 neg w4 d w4 neg w4 neg d  w4 w4 neg d w4 neg w4 neg d w4 w4 neg d w4 w4 d w4 w4 neg d w4 w4 d w4 neg w4 d w4 w4 d w4 neg w4 d w4 neg w4 neg d cl s} def
/m47 {mp x y w4 add m w4 neg w4 d w4 neg w4 neg d w4 w4 neg d w4 neg w4 neg d  w4 w4 neg d w4 w4 d w4 w4 neg d w4 w4 d w4 neg w4 d w4 w4 d w4 neg w4 d w4 neg w4 neg d cl f} def
/m48 {mp x y w4 add m w4 neg w4 d w4 neg w4 neg d w4 w4 neg d  w4 neg w4 neg d w4 w4 neg d w4 w4 d w4 w4 neg d w4 w4 d w4 neg w4 d w4 w4 d w4 neg w4 d w4 neg w4 neg d  w4 w4 neg d w4 neg w4 neg d w4 neg w4 d w4 w4 d cl f} def
/m49 {mp x w2 sub w3 add y w2 sub w3 add m  0 w3 neg d w3 0 d 0 w3 d w3 0 d 0 w3 d w3 neg 0 d 0 w3 d w3 neg 0 d 0 w3 neg d w3 neg 0 d 0 w3 neg d w3 0 d 0 w3 d w3 0 d 0 w3 neg d w3 neg 0 d cl f } def
/m2 {mp x y w2 sub m 0 w d x w2 sub y m w 0 d s} def
/m5 {mp x w2 sub y w2 sub m w w d x w2 sub y w2 add m w w neg d s} def
%%IncludeResource: ProcSet (FontSetInit)
%%IncludeResource: font Times-Roman
%%IncludeResource: font Times-Italic
%%IncludeResource: font Times-Bold
%%IncludeResource: font Times-BoldItalic
%%IncludeResource: font Helvetica
%%IncludeResource: font Helvetica-Oblique
%%IncludeResource: font Helvetica-Bold
%%IncludeResource: font Helvetica-BoldOblique
%%IncludeResource: font Courier
%%IncludeResource: font Courier-Oblique
%%IncludeResource: font Courier-Bold
%%IncludeResource: font Courier-BoldOblique
%%IncludeResource: font Symbol
%%IncludeResource: font ZapfDingbats
/reEncode {exch findfont dup length dict begin {1 index /FID eq  {pop pop} {def} ifelse } forall /Encoding exch def currentdict end dup /FontName get exch definefont pop } def [/Times-Bold /Times-Italic /Times-BoldItalic /Helvetica /Helvetica-Oblique
 /Helvetica-Bold /Helvetica-BoldOblique /Courier /Courier-Oblique /Courier-Bold /Courier-BoldOblique /Times-Roman /AvantGarde-Book /AvantGarde-BookOblique /AvantGarde-Demi /AvantGarde-DemiOblique /Bookman-Demi /Bookman-DemiItalic /Bookman-Light
 /Bookman-LightItalic /Helvetica-Narrow /Helvetica-Narrow-Bold /Helvetica-Narrow-BoldOblique /Helvetica-Narrow-Oblique /NewCenturySchlbk-Roman /NewCenturySchlbk-Bold /NewCenturySchlbk-BoldItalic /NewCenturySchlbk-Italic /Palatino-Bold
 /Palatino-BoldItalic /Palatino-Italic /Palatino-Roman ] {ISOLatin1Encoding reEncode } forall
%%EndProlog
%%BeginSetup
%%EndSetup
newpath  gsave  .25 .25 scale  gsave  0 0 t black[  ] 0 sd 3 lw 1 1 1 c 2268 1540 0 0 bf black 1 1 1 c 1814 1232 227 154 bf black 1814 1232 227 154 bl 0 0 0.6 c 1 1 1 c black 0 0 0.6 c 261 1072 m 5 Y s 261 1077 m 4 Y s 249 1077 m 12 X s 261 1077 m 11
 X s black /w 2 def /w2 {w 2 div} def /w3 {w 3 div} def 261 1077 m20 0 0 0.6 c 283 1101 m 3 Y s 283 1104 m 3 Y s 272 1104 m 11 X s 283 1104 m 12 X s black 283 1104 m20 0 0 0.6 c 306 1057 m 4 Y s 306 1061 m 4 Y s 295 1061 m 11 X s 306 1061 m 11 X s
 black 306 1061 m20 0 0 0.6 c 329 1032 m 4 Y s 329 1036 m 3 Y s 317 1036 m 12 X s 329 1036 m 11 X s black 329 1036 m20 0 0 0.6 c 351 1005 m 4 Y s 351 1009 m 4 Y s 340 1009 m 11 X s 351 1009 m 12 X s black 351 1009 m20 0 0 0.6 c 374 983 m 4 Y s 374
 987 m 4 Y s 363 987 m 11 X s 374 987 m 12 X s black 374 987 m20 0 0 0.6 c 397 975 m 4 Y s 397 979 m 4 Y s 386 979 m 11 X s 397 979 m 11 X s black 397 979 m20 0 0 0.6 c 420 956 m 5 Y s 420 961 m 4 Y s 408 961 m 12 X s 420 961 m 11 X s black 420 961
 m20 0 0 0.6 c 442 948 m 4 Y s 442 952 m 5 Y s 431 952 m 11 X s 442 952 m 12 X s black 442 952 m20 0 0 0.6 c 465 931 m 6 Y s 465 937 m 5 Y s 454 937 m 11 X s 465 937 m 11 X s black 465 937 m20 0 0 0.6 c 488 921 m 5 Y s 488 926 m 5 Y s 476 926 m 12 X
 s 488 926 m 11 X s black 488 926 m20 0 0 0.6 c 510 912 m 6 Y s 510 918 m 5 Y s 499 918 m 11 X s 510 918 m 12 X s black 510 918 m20 0 0 0.6 c 533 901 m 6 Y s 533 907 m 7 Y s 522 907 m 11 X s 533 907 m 11 X s black 533 907 m20 0 0 0.6 c 556 882 m 7 Y
 s 556 889 m 5 Y s 544 889 m 12 X s 556 889 m 11 X s black 556 889 m20 0 0 0.6 c 578 875 m 7 Y s 578 882 m 5 Y s 567 882 m 11 X s 578 882 m 12 X s black 578 882 m20 0 0 0.6 c 601 869 m 8 Y s 601 877 m 6 Y s 590 877 m 11 X s 601 877 m 11 X s black 601
 877 m20 0 0 0.6 c 624 859 m 6 Y s 624 865 m 6 Y s 612 865 m 12 X s 624 865 m 11 X s black 624 865 m20 0 0 0.6 c 646 859 m 6 Y s 646 865 m 6 Y s 635 865 m 11 X s 646 865 m 12 X s black 646 865 m20 0 0 0.6 c 669 856 m 8 Y s 669 864 m 7 Y s 658 864 m
 11 X s 669 864 m 11 X s black 669 864 m20 0 0 0.6 c 692 844 m 6 Y s 692 850 m 7 Y s 680 850 m 12 X s 692 850 m 11 X s black 692 850 m20 0 0 0.6 c 714 836 m 6 Y s 714 842 m 6 Y s 703 842 m 11 X s 714 842 m 12 X s black 714 842 m20 0 0 0.6 c 737 822 m
 8 Y s 737 830 m 7 Y s 726 830 m 11 X s 737 830 m 11 X s black 737 830 m20 0 0 0.6 c 760 827 m 8 Y s 760 835 m 6 Y s 748 835 m 12 X s 760 835 m 11 X s black 760 835 m20 0 0 0.6 c 782 813 m 9 Y s 782 822 m 7 Y s 771 822 m 11 X s 782 822 m 12 X s black
 782 822 m20 0 0 0.6 c 805 813 m 8 Y s 805 821 m 8 Y s 794 821 m 11 X s 805 821 m 11 X s black 805 821 m20 0 0 0.6 c 828 798 m 9 Y s 828 807 m 7 Y s 816 807 m 12 X s 828 807 m 11 X s black 828 807 m20 0 0 0.6 c 850 807 m 9 Y s 850 816 m 7 Y s 839 816
 m 11 X s 850 816 m 12 X s black 850 816 m20 0 0 0.6 c 873 784 m 8 Y s 873 792 m 8 Y s 862 792 m 11 X s 873 792 m 11 X s black 873 792 m20 0 0 0.6 c 896 794 m 9 Y s 896 803 m 7 Y s 884 803 m 12 X s 896 803 m 11 X s black 896 803 m20 0 0 0.6 c 918 782
 m 10 Y s 918 792 m 8 Y s 907 792 m 11 X s 918 792 m 12 X s black 918 792 m20 0 0 0.6 c 941 792 m 8 Y s 941 800 m 7 Y s 930 800 m 11 X s 941 800 m 11 X s black 941 800 m20 0 0 0.6 c 964 780 m 8 Y s 964 788 m 8 Y s 952 788 m 12 X s 964 788 m 11 X s
 black 964 788 m20 0 0 0.6 c 986 767 m 9 Y s 986 776 m 9 Y s 975 776 m 11 X s 986 776 m 12 X s black 986 776 m20 0 0 0.6 c 1009 756 m 11 Y s 1009 767 m 9 Y s 998 767 m 11 X s 1009 767 m 11 X s black 1009 767 m20 0 0 0.6 c 1032 758 m 11 Y s 1032 769 m
 11 Y s 1020 769 m 12 X s 1032 769 m 11 X s black 1032 769 m20 0 0 0.6 c 1054 746 m 10 Y s 1054 756 m 10 Y s 1043 756 m 11 X s 1054 756 m 12 X s black 1054 756 m20 0 0 0.6 c 1077 716 m 12 Y s 1077 728 m 10 Y s 1066 728 m 11 X s 1077 728 m 12 X s
 black 1077 728 m20 0 0 0.6 c 1100 747 m 10 Y s 1100 757 m 9 Y s 1089 757 m 11 X s 1100 757 m 11 X s black 1100 757 m20 0 0 0.6 c 1123 733 m 13 Y s 1123 746 m 12 Y s 1111 746 m 12 X s 1123 746 m 11 X s black 1123 746 m20 0 0 0.6 c 1145 728 m 11 Y s
 1145 739 m 10 Y s 1134 739 m 11 X s 1145 739 m 12 X s black 1145 739 m20 0 0 0.6 c 1168 699 m 12 Y s 1168 711 m 11 Y s 1157 711 m 11 X s 1168 711 m 11 X s black 1168 711 m20 0 0 0.6 c 1191 671 m 11 Y s 1191 682 m 9 Y s 1179 682 m 12 X s 1191 682 m
 11 X s black 1191 682 m20 0 0 0.6 c 1213 672 m 12 Y s 1213 684 m 10 Y s 1202 684 m 11 X s 1213 684 m 12 X s black 1213 684 m20 0 0 0.6 c 1236 626 m 16 Y s 1236 642 m 12 Y s 1225 642 m 11 X s 1236 642 m 11 X s black 1236 642 m20 0 0 0.6 c 1259 567 m
 15 Y s 1259 582 m 12 Y s 1247 582 m 12 X s 1259 582 m 11 X s black 1259 582 m20 0 0 0.6 c 1281 556 m 41 Y s 1281 597 m 27 Y s 1270 597 m 11 X s 1281 597 m 12 X s black 1281 597 m20 0 0 0.6 c 1304 602 m 25 Y s 1304 627 m 18 Y s 1293 627 m 11 X s 1304
 627 m 11 X s black 1304 627 m20 0 0 0.6 c 1327 550 m 19 Y s 1327 569 m 15 Y s 1315 569 m 12 X s 1327 569 m 11 X s black 1327 569 m20 0 0 0.6 c 1349 543 m 23 Y s 1349 566 m 17 Y s 1338 566 m 11 X s 1349 566 m 12 X s black 1349 566 m20 0 0 0.6 c 1372
 507 m 16 Y s 1372 523 m 13 Y s 1361 523 m 11 X s 1372 523 m 11 X s black 1372 523 m20 0 0 0.6 c 1395 529 m 21 Y s 1395 550 m 16 Y s 1383 550 m 12 X s 1395 550 m 11 X s black 1395 550 m20 0 0 0.6 c 1417 573 m 19 Y s 1417 592 m 15 Y s 1406 592 m 11 X
 s 1417 592 m 12 X s black 1417 592 m20 0 0 0.6 c 1440 582 m 22 Y s 1440 604 m 17 Y s 1429 604 m 11 X s 1440 604 m 11 X s black 1440 604 m20 0 0 0.6 c 1463 571 m 28 Y s 1463 599 m 20 Y s 1451 599 m 12 X s 1463 599 m 11 X s black 1463 599 m20 0 0 0.6
 c 1485 516 m 25 Y s 1485 541 m 19 Y s 1474 541 m 11 X s 1485 541 m 12 X s black 1485 541 m20 0 0 0.6 c 1508 556 m 26 Y s 1508 582 m 20 Y s 1497 582 m 11 X s 1508 582 m 11 X s black 1508 582 m20 0 0 0.6 c 1531 531 m 28 Y s 1531 559 m 20 Y s 1519 559
 m 12 X s 1531 559 m 11 X s black 1531 559 m20 0 0 0.6 c 1553 393 m 34 Y s 1553 427 m 24 Y s 1542 427 m 11 X s 1553 427 m 12 X s black 1553 427 m20 0 0 0.6 c 1576 412 m 36 Y s 1576 448 m 25 Y s 1565 448 m 11 X s 1576 448 m 11 X s black 1576 448 m20 0
 0 0.6 c 1599 466 m 55 Y s 1599 521 m 32 Y s 1587 521 m 12 X s 1599 521 m 11 X s black 1599 521 m20 0 0 0.6 c 1621 425 m 63 Y s 1621 488 m 34 Y s 1610 488 m 11 X s 1621 488 m 12 X s black 1621 488 m20 0 0 0.6 c 1644 405 m 53 Y s 1644 458 m 31 Y s
 1633 458 m 11 X s 1644 458 m 11 X s black 1644 458 m20 0 0 0.6 c 1667 392 m 68 Y s 1667 460 m 35 Y s 1655 460 m 12 X s 1667 460 m 11 X s black 1667 460 m20 0 0 0.6 c 1689 366 m 38 Y s 1689 404 m 25 Y s 1678 404 m 11 X s 1689 404 m 12 X s black 1689
 404 m20 0 0 0.6 c 1712 439 m 26 Y s 1712 465 m 19 Y s 1701 465 m 11 X s 1712 465 m 11 X s black 1712 465 m20 0 0 0.6 c 1735 506 m 40 Y s 1735 546 m 27 Y s 1723 546 m 12 X s 1735 546 m 11 X s black 1735 546 m20 0 0 0.6 c 1757 552 m 41 Y s 1757 593 m
 27 Y s 1746 593 m 11 X s 1757 593 m 12 X s black 1757 593 m20 0 0 0.6 c 1780 494 m 46 Y s 1780 540 m 28 Y s 1769 540 m 11 X s 1780 540 m 11 X s black 1780 540 m20 0 0 0.6 c 1803 356 m 112 Y s 1803 468 m 43 Y s 1791 468 m 12 X s 1803 468 m 11 X s
 black 1803 468 m20 0 0 0.6 c 1826 154 m 110 Y s 1826 264 m 49 Y s 1814 264 m 12 X s 1826 264 m 11 X s black 1826 264 m20 0 0 0.6 c 1848 287 m 156 Y s 1848 443 m 48 Y s 1837 443 m 11 X s 1848 443 m 12 X s black 1848 443 m20 0 0 0.6 c 1871 199 m 248 Y
 s 1871 447 m 51 Y s 1860 447 m 11 X s 1871 447 m 11 X s black 1871 447 m20 0 0 0.6 c 1894 314 m 172 Y s 1894 486 m 48 Y s 1882 486 m 12 X s 1894 486 m 11 X s black 1894 486 m20 0 0 0.6 c 1916 154 m 7 Y s 1916 161 m 53 Y s 1905 161 m 11 X s 1916 161
 m 12 X s black 1916 161 m20 0 0 0.6 c 1939 158 m 66 Y s 1939 224 m 34 Y s 1928 224 m 11 X s 1939 224 m 11 X s black 1939 224 m20 227 154 m 1814 X s 227 191 m -37 Y s 272 172 m -18 Y s 317 172 m -18 Y s 363 172 m -18 Y s 408 172 m -18 Y s 454 191 m
 -37 Y s 499 172 m -18 Y s 544 172 m -18 Y s 590 172 m -18 Y s 635 172 m -18 Y s 680 191 m -37 Y s 726 172 m -18 Y s 771 172 m -18 Y s 816 172 m -18 Y s 862 172 m -18 Y s 907 191 m -37 Y s 952 172 m -18 Y s 998 172 m -18 Y s 1043 172 m -18 Y s 1089
 172 m -18 Y s 1134 191 m -37 Y s 1179 172 m -18 Y s 1225 172 m -18 Y s 1270 172 m -18 Y s 1315 172 m -18 Y s 1361 191 m -37 Y s 1406 172 m -18 Y s 1451 172 m -18 Y s 1497 172 m -18 Y s 1542 172 m -18 Y s 1587 191 m -37 Y s 1633 172 m -18 Y s 1678
 172 m -18 Y s 1723 172 m -18 Y s 1769 172 m -18 Y s 1814 191 m -37 Y s 1860 172 m -18 Y s 1905 172 m -18 Y s 1950 172 m -18 Y s 1996 172 m -18 Y s 2041 191 m -37 Y s
 gsave  2268 1540 0 0 C 211.177 103.964 t 0 r /Helvetica findfont 48.7332 sf 0 0 m (0) show NC gr 
 gsave  2268 1540 0 0 C 409.359 103.964 t 0 r /Helvetica findfont 48.7332 sf 0 0 m (100) show NC gr 
 gsave  2268 1540 0 0 C 636.78 103.964 t 0 r /Helvetica findfont 48.7332 sf 0 0 m (200) show NC gr 
 gsave  2268 1540 0 0 C 864.201 103.964 t 0 r /Helvetica findfont 48.7332 sf 0 0 m (300) show NC gr 
 gsave  2268 1540 0 0 C 1091.62 103.964 t 0 r /Helvetica findfont 48.7332 sf 0 0 m (400) show NC gr 
 gsave  2268 1540 0 0 C 1315.8 103.964 t 0 r /Helvetica findfont 48.7332 sf 0 0 m (500) show NC gr 
 gsave  2268 1540 0 0 C 1543.22 103.964 t 0 r /Helvetica findfont 48.7332 sf 0 0 m (600) show NC gr 
 gsave  2268 1540 0 0 C 1770.64 103.964 t 0 r /Helvetica findfont 48.7332 sf 0 0 m (700) show NC gr 
 gsave  2268 1540 0 0 C 1998.06 103.964 t 0 r /Helvetica findfont 48.7332 sf 0 0 m (800) show NC gr 
 gsave  2268 1540 0 0 C 1059.13 25.991 t 0 r /Helvetica findfont 64.9775 sf 0 0 m (r\(cm\)) show NC gr  227 154 m 1232 Y s 281 154 m -54 X s
 gsave  2268 1540 0 0 C 188.435 155.946 t 0 r /Helvetica findfont 32.4888 sf 0 0 m (5) show NC gr 
 gsave  2268 1540 0 0 C 168.942 155.946 t 0 r /Symbol findfont 32.4888 sf 0 0 m (-) show NC gr 
 gsave  2268 1540 0 0 C 113.711 133.204 t 0 r /Helvetica findfont 48.7332 sf 0 0 m (10) show NC gr  254 207 m -27 X s 254 238 m -27 X s 254 260 m -27 X s 254 277 m -27 X s 254 291 m -27 X s 254 303 m -27 X s 254 313 m -27 X s 254 322 m -27 X s 281
 330 m -54 X s
 gsave  2268 1540 0 0 C 188.435 328.137 t 0 r /Helvetica findfont 32.4888 sf 0 0 m (4) show NC gr 
 gsave  2268 1540 0 0 C 168.942 328.137 t 0 r /Symbol findfont 32.4888 sf 0 0 m (-) show NC gr 
 gsave  2268 1540 0 0 C 113.711 308.643 t 0 r /Helvetica findfont 48.7332 sf 0 0 m (10) show NC gr  254 383 m -27 X s 254 414 m -27 X s 254 436 m -27 X s 254 453 m -27 X s 254 467 m -27 X s 254 479 m -27 X s 254 489 m -27 X s 254 498 m -27 X s 281
 506 m -54 X s
 gsave  2268 1540 0 0 C 188.435 506.825 t 0 r /Helvetica findfont 32.4888 sf 0 0 m (3) show NC gr 
 gsave  2268 1540 0 0 C 168.942 506.825 t 0 r /Symbol findfont 32.4888 sf 0 0 m (-) show NC gr 
 gsave  2268 1540 0 0 C 113.711 484.083 t 0 r /Helvetica findfont 48.7332 sf 0 0 m (10) show NC gr  254 559 m -27 X s 254 590 m -27 X s 254 612 m -27 X s 254 629 m -27 X s 254 643 m -27 X s 254 655 m -27 X s 254 665 m -27 X s 254 674 m -27 X s 281
 682 m -54 X s
 gsave  2268 1540 0 0 C 188.435 679.015 t 0 r /Helvetica findfont 32.4888 sf 0 0 m (2) show NC gr 
 gsave  2268 1540 0 0 C 168.942 679.015 t 0 r /Symbol findfont 32.4888 sf 0 0 m (-) show NC gr 
 gsave  2268 1540 0 0 C 113.711 659.522 t 0 r /Helvetica findfont 48.7332 sf 0 0 m (10) show NC gr  254 735 m -27 X s 254 766 m -27 X s 254 788 m -27 X s 254 805 m -27 X s 254 819 m -27 X s 254 831 m -27 X s 254 841 m -27 X s 254 850 m -27 X s 281
 858 m -54 X s
 gsave  2268 1540 0 0 C 194.933 857.704 t 0 r /Helvetica findfont 32.4888 sf 0 0 m (1) show NC gr 
 gsave  2268 1540 0 0 C 175.439 857.704 t 0 r /Symbol findfont 32.4888 sf 0 0 m (-) show NC gr 
 gsave  2268 1540 0 0 C 120.208 838.21 t 0 r /Helvetica findfont 48.7332 sf 0 0 m (10) show NC gr  254 911 m -27 X s 254 942 m -27 X s 254 964 m -27 X s 254 981 m -27 X s 254 995 m -27 X s 254 1007 m -27 X s 254 1017 m -27 X s 254 1026 m -27 X s 281
 1034 m -54 X s
 gsave  2268 1540 0 0 C 188.435 1016.9 t 0 r /Helvetica findfont 48.7332 sf 0 0 m (1) show NC gr  254 1087 m -27 X s 254 1118 m -27 X s 254 1140 m -27 X s 254 1157 m -27 X s 254 1171 m -27 X s 254 1183 m -27 X s 254 1193 m -27 X s 254 1202 m -27 X s
 281 1210 m -54 X s
 gsave  2268 1540 0 0 C 152.697 1192.34 t 0 r /Helvetica findfont 48.7332 sf 0 0 m (10) show NC gr  254 1263 m -27 X s 254 1294 m -27 X s 254 1316 m -27 X s 254 1333 m -27 X s 254 1347 m -27 X s 254 1359 m -27 X s 254 1369 m -27 X s 254 1378 m -27 X
 s 281 1386 m -54 X s
 gsave  2268 1540 0 0 C 188.435 1384.02 t 0 r /Helvetica findfont 32.4888 sf 0 0 m (2) show NC gr 
 gsave  2268 1540 0 0 C 133.204 1364.53 t 0 r /Helvetica findfont 48.7332 sf 0 0 m (10) show NC gr 
 gsave  2268 1540 0 0 C 103.964 932.428 t 90 r /Helvetica findfont 64.9775 sf 0 0 m (\)) show NC gr 
 gsave  2268 1540 0 0 C 74.7242 903.188 t 90 r /Helvetica findfont 42.2354 sf 0 0 m (\2551) show NC gr 
 gsave  2268 1540 0 0 C 100.715 591.296 t 90 r /Helvetica findfont 64.9775 sf 0 0 m (density\(cm) show NC gr  1 1 1 c black
 gsave  2268 1540 0 0 C 867.45 1465.24 t 0 r /Helvetica findfont 74.7242 sf 0 0 m (:et_deposition_density_vs_r) show NC gr 
 gsave  2268 1540 0 0 C 851.206 1500.98 t 0 r /Helvetica findfont 48.7332 sf 0 0 m (\255) show NC gr 
 gsave  2268 1540 0 0 C 812.219 1465.24 t 0 r /Helvetica findfont 74.7242 sf 0 0 m (e) show NC gr 
 gsave  2268 1540 0 0 C 782.979 1504.23 t 0 r /Helvetica findfont 48.7332 sf 0 0 m (+) show NC gr 
 gsave  2268 1540 0 0 C 471.087 1465.24 t 0 r /Helvetica findfont 74.7242 sf 0 0 m (nu11.4_e) show NC gr  1 1 1 c black
 gsave  2268 1540 0 0 C 867.45 1465.24 t 0 r /Helvetica findfont 74.7242 sf 0 0 m (:et_deposition_density_vs_r) show NC gr 
 gsave  2268 1540 0 0 C 851.206 1500.98 t 0 r /Helvetica findfont 48.7332 sf 0 0 m (\255) show NC gr 
 gsave  2268 1540 0 0 C 812.219 1465.24 t 0 r /Helvetica findfont 74.7242 sf 0 0 m (e) show NC gr 
 gsave  2268 1540 0 0 C 782.979 1504.23 t 0 r /Helvetica findfont 48.7332 sf 0 0 m (+) show NC gr 
 gsave  2268 1540 0 0 C 471.087 1465.24 t 0 r /Helvetica findfont 74.7242 sf 0 0 m (nu11.4_e) show NC gr 
 gr  gr showpage
end
%%EOF
