%!PS-Adobe-2.0 EPSF-2.0
%%BoundingBox:  0 0 567 385
%%Title: ../plot_nu11.4/etr/nu11.4_others_xyr.eps: nu11.4_others:et_deposition_density_vs_r
%%Creator: ROOT Version 6.14/02
%%CreationDate: Thu Aug  9 14:34:32 2018
%%DocumentNeededResources: ProcSet (FontSetInit)
%%EndComments
%%BeginProlog
80 dict begin
/s {stroke} def /l {lineto} def /m {moveto} def /t {translate} def
/r {rotate} def /rl {roll}  def /R {repeat} def
/d {rlineto} def /rm {rmoveto} def /gr {grestore} def /f {eofill} def
/c {setrgbcolor} def /black {0 setgray} def /sd {setdash} def
/cl {closepath} def /sf {scalefont setfont} def /lw {setlinewidth} def
/box {m dup 0 exch d exch 0 d 0 exch neg d cl} def
/NC{systemdict begin initclip end}def/C{NC box clip newpath}def
/bl {box s} def /bf {gsave box gsave f grestore 1 lw [] 0 sd s grestore} def /Y { 0 exch d} def /X { 0 d} def 
/K {{pop pop 0 moveto} exch kshow} bind def
/ita {/ang 15 def gsave [1 0 ang dup sin exch cos div 1 0 0] concat} def 
/mp {newpath /y exch def /x exch def} def
/side {[w .77 mul w .23 mul] .385 w mul sd w 0 l currentpoint t -144 r} def
/mr {mp x y w2 0 360 arc} def /m24 {mr s} def /m20 {mr f} def
/mb {mp x y w2 add m w2 neg 0 d 0 w neg d w 0 d 0 w d cl} def
/mt {mp x y w2 add m w2 neg w neg d w 0 d cl} def
/w4 {w 4 div} def
/w6 {w 6 div} def
/w8 {w 8 div} def
/m21 {mb f} def /m25 {mb s} def /m22 {mt f} def /m26{mt s} def
/m23 {mp x y w2 sub m w2 w d w neg 0 d cl f} def
/m27 {mp x y w2 add m w3 neg w2 neg d w3 w2 neg d w3 w2 d cl s} def
/m28 {mp x w2 sub y w2 sub w3 add m w3 0 d  0 w3 neg d w3 0 d 0 w3 d w3 0 d  0 w3 d w3 neg 0 d 0 w3 d w3 neg 0 d 0 w3 neg d w3 neg 0 d cl s } def
/m29 {mp gsave x w2 sub y w2 add w3 sub m currentpoint t 4 {side} repeat cl fill gr} def
/m30 {mp gsave x w2 sub y w2 add w3 sub m currentpoint t 4 {side} repeat cl s gr} def
/m31 {mp x y w2 sub m 0 w d x w2 sub y m w 0 d x w2 sub y w2 add m w w neg d x w2 sub y w2 sub m w w d s} def
/m32 {mp x y w2 sub m w2 w d w neg 0 d cl s} def
/m33 {mp x y w2 add m w3 neg w2 neg d w3 w2 neg d w3 w2 d cl f} def
/m34 {mp x w2 sub y w2 sub w3 add m w3 0 d  0 w3 neg d w3 0 d 0 w3 d w3 0 d  0 w3 d w3 neg 0 d 0 w3 d w3 neg 0 d 0 w3 neg d w3 neg 0 d cl f } def
/m35 {mp x y w2 add m w2 neg w2 neg d w2 w2 neg d w2 w2 d w2 neg w2 d x y w2 sub m 0 w d x w2 sub y m w 0 d s} def
/m36 {mb x w2 sub y w2 add m w w neg d x w2 sub y w2 sub m w w d s} def
/m37 {mp x y m w4 neg w2 d w4 neg w2 neg d w2 0 d  w4 neg w2 neg d w2 0 d w4 neg w2 d w2 0 d w4 neg w2 d w4 neg w2 neg d cl s} def
/m38 {mp x w4 sub y w2 add m w4 neg w4 neg d 0 w2 neg d w4 w4 neg d w2 0 d w4 w4 d 0 w2 d w4 neg w4 d w2 neg 0 d x y w2 sub m 0 w d x w2 sub y m w 0 d cl s} def
/m39 {mp x y m w4 neg w2 d w4 neg w2 neg d w2 0 d  w4 neg w2 neg d w2 0 d w4 neg w2 d w2 0 d w4 neg w2 d w4 neg w2 neg d cl f} def
/m40 {mp x y m w4 w2 d w4 w4 neg d w2 neg w4 neg d w2 w4 neg d w4 neg w4 neg d w4 neg w2 d w4 neg w2 neg d w4 neg w4 d w2 w4 d w2 neg w4 d w4 w4 d w4 w2 neg d cl s} def
/m41 {mp x y m w4 w2 d w4 w4 neg d w2 neg w4 neg d w2 w4 neg d w4 neg w4 neg d w4 neg w2 d w4 neg w2 neg d w4 neg w4 d w2 w4 d w2 neg w4 d w4 w4 d w4 w2 neg d cl f} def
/m42 {mp x y w2 add m w8 neg w2 -3 4 div mul d w2 -3 4 div mul w8 neg d w2 3 4 div mul w8 neg d w8 w2 -3 4 div mul d w8 w2 3 4 div mul d w2 3 4 div mul w8 d w2 -3 4 div mul w8 d w8 neg w2 3 4 div mul d cl s} def
/m43 {mp x y w2 add m w8 neg w2 -3 4 div mul d w2 -3 4 div mul w8 neg d w2 3 4 div mul w8 neg d w8 w2 -3 4 div mul d w8 w2 3 4 div mul d w2 3 4 div mul w8 d w2 -3 4 div mul w8 d w8 neg w2 3 4 div mul d cl f} def
/m44 {mp x y m w6 neg w2 d w2 2 3 div mul 0 d w6 neg w2 neg d w2 w6 d 0 w2 -2 3 div mul d w2 neg w6 d w6 w2 neg d w2 -2 3 div mul 0 d w6 w2 d w2 neg w6 neg d 0 w2 2 3 div mul d w2 w6 neg d cl s} def
/m45 {mp x y m w6 neg w2 d w2 2 3 div mul 0 d w6 neg w2 neg d w2 w6 d 0 w2 -2 3 div mul d w2 neg w6 d w6 w2 neg d w2 -2 3 div mul 0 d w6 w2 d w2 neg w6 neg d 0 w2 2 3 div mul d w2 w6 neg d cl f} def
/m46 {mp x y w4 add m w4 neg w4 d w4 neg w4 neg d  w4 w4 neg d w4 neg w4 neg d w4 w4 neg d w4 w4 d w4 w4 neg d w4 w4 d w4 neg w4 d w4 w4 d w4 neg w4 d w4 neg w4 neg d cl s} def
/m47 {mp x y w4 add m w4 neg w4 d w4 neg w4 neg d w4 w4 neg d w4 neg w4 neg d  w4 w4 neg d w4 w4 d w4 w4 neg d w4 w4 d w4 neg w4 d w4 w4 d w4 neg w4 d w4 neg w4 neg d cl f} def
/m48 {mp x y w4 add m w4 neg w4 d w4 neg w4 neg d w4 w4 neg d  w4 neg w4 neg d w4 w4 neg d w4 w4 d w4 w4 neg d w4 w4 d w4 neg w4 d w4 w4 d w4 neg w4 d w4 neg w4 neg d  w4 w4 neg d w4 neg w4 neg d w4 neg w4 d w4 w4 d cl f} def
/m49 {mp x w2 sub w3 add y w2 sub w3 add m  0 w3 neg d w3 0 d 0 w3 d w3 0 d 0 w3 d w3 neg 0 d 0 w3 d w3 neg 0 d 0 w3 neg d w3 neg 0 d 0 w3 neg d w3 0 d 0 w3 d w3 0 d 0 w3 neg d w3 neg 0 d cl f } def
/m2 {mp x y w2 sub m 0 w d x w2 sub y m w 0 d s} def
/m5 {mp x w2 sub y w2 sub m w w d x w2 sub y w2 add m w w neg d s} def
%%IncludeResource: ProcSet (FontSetInit)
%%IncludeResource: font Times-Roman
%%IncludeResource: font Times-Italic
%%IncludeResource: font Times-Bold
%%IncludeResource: font Times-BoldItalic
%%IncludeResource: font Helvetica
%%IncludeResource: font Helvetica-Oblique
%%IncludeResource: font Helvetica-Bold
%%IncludeResource: font Helvetica-BoldOblique
%%IncludeResource: font Courier
%%IncludeResource: font Courier-Oblique
%%IncludeResource: font Courier-Bold
%%IncludeResource: font Courier-BoldOblique
%%IncludeResource: font Symbol
%%IncludeResource: font ZapfDingbats
/reEncode {exch findfont dup length dict begin {1 index /FID eq  {pop pop} {def} ifelse } forall /Encoding exch def currentdict end dup /FontName get exch definefont pop } def [/Times-Bold /Times-Italic /Times-BoldItalic /Helvetica /Helvetica-Oblique
 /Helvetica-Bold /Helvetica-BoldOblique /Courier /Courier-Oblique /Courier-Bold /Courier-BoldOblique /Times-Roman /AvantGarde-Book /AvantGarde-BookOblique /AvantGarde-Demi /AvantGarde-DemiOblique /Bookman-Demi /Bookman-DemiItalic /Bookman-Light
 /Bookman-LightItalic /Helvetica-Narrow /Helvetica-Narrow-Bold /Helvetica-Narrow-BoldOblique /Helvetica-Narrow-Oblique /NewCenturySchlbk-Roman /NewCenturySchlbk-Bold /NewCenturySchlbk-BoldItalic /NewCenturySchlbk-Italic /Palatino-Bold
 /Palatino-BoldItalic /Palatino-Italic /Palatino-Roman ] {ISOLatin1Encoding reEncode } forall
%%EndProlog
%%BeginSetup
%%EndSetup
newpath  gsave  .25 .25 scale  gsave  0 0 t black[  ] 0 sd 3 lw 1 1 1 c 2268 1540 0 0 bf black 1 1 1 c 1814 1232 227 154 bf black 1814 1232 227 154 bl 0 0 0.6 c 1 1 1 c black 0 0 0.6 c 295 862 m 28 Y s 295 890 m 20 Y s 290 890 m 5 X s 295 890 m 4 X s
 black /w 2 def /w2 {w 2 div} def /w3 {w 3 div} def 295 890 m20 0 0 0.6 c 304 995 m 9 Y s 304 1004 m 9 Y s 299 1004 m 5 X s 304 1004 m 4 X s black 304 1004 m20 0 0 0.6 c 313 962 m 11 Y s 313 973 m 9 Y s 308 973 m 5 X s 313 973 m 4 X s black 313 973
 m20 0 0 0.6 c 322 956 m 11 Y s 322 967 m 9 Y s 317 967 m 5 X s 322 967 m 5 X s black 322 967 m20 0 0 0.6 c 331 943 m 11 Y s 331 954 m 9 Y s 327 954 m 4 X s 331 954 m 5 X s black 331 954 m20 0 0 0.6 c 340 925 m 14 Y s 340 939 m 11 Y s 336 939 m 4 X s
 340 939 m 5 X s black 340 939 m20 0 0 0.6 c 349 955 m 11 Y s 349 966 m 9 Y s 345 966 m 4 X s 349 966 m 5 X s black 349 966 m20 0 0 0.6 c 358 925 m 12 Y s 358 937 m 10 Y s 354 937 m 4 X s 358 937 m 5 X s black 358 937 m20 0 0 0.6 c 367 894 m 13 Y s
 367 907 m 11 Y s 363 907 m 4 X s 367 907 m 5 X s black 367 907 m20 0 0 0.6 c 376 902 m 13 Y s 376 915 m 11 Y s 372 915 m 4 X s 376 915 m 5 X s black 376 915 m20 0 0 0.6 c 386 908 m 11 Y s 386 919 m 11 Y s 381 919 m 5 X s 386 919 m 4 X s black 386
 919 m20 0 0 0.6 c 395 906 m 12 Y s 395 918 m 10 Y s 390 918 m 5 X s 395 918 m 4 X s black 395 918 m20 0 0 0.6 c 404 890 m 12 Y s 404 902 m 10 Y s 399 902 m 5 X s 404 902 m 4 X s black 404 902 m20 0 0 0.6 c 413 898 m 15 Y s 413 913 m 12 Y s 408 913 m
 5 X s 413 913 m 4 X s black 413 913 m20 0 0 0.6 c 422 893 m 13 Y s 422 906 m 11 Y s 417 906 m 5 X s 422 906 m 4 X s black 422 906 m20 0 0 0.6 c 431 861 m 13 Y s 431 874 m 12 Y s 426 874 m 5 X s 431 874 m 4 X s black 431 874 m20 0 0 0.6 c 440 847 m
 15 Y s 440 862 m 12 Y s 435 862 m 5 X s 440 862 m 4 X s black 440 862 m20 0 0 0.6 c 449 868 m 16 Y s 449 884 m 13 Y s 444 884 m 5 X s 449 884 m 5 X s black 449 884 m20 0 0 0.6 c 458 859 m 14 Y s 458 873 m 12 Y s 454 873 m 4 X s 458 873 m 5 X s black
 458 873 m20 0 0 0.6 c 467 835 m 13 Y s 467 848 m 11 Y s 463 848 m 4 X s 467 848 m 5 X s black 467 848 m20 0 0 0.6 c 476 842 m 12 Y s 476 854 m 11 Y s 472 854 m 4 X s 476 854 m 5 X s black 476 854 m20 0 0 0.6 c 485 811 m 15 Y s 485 826 m 13 Y s 481
 826 m 4 X s 485 826 m 5 X s black 485 826 m20 0 0 0.6 c 494 840 m 16 Y s 494 856 m 13 Y s 490 856 m 4 X s 494 856 m 5 X s black 494 856 m20 0 0 0.6 c 503 840 m 15 Y s 503 855 m 13 Y s 499 855 m 4 X s 503 855 m 5 X s black 503 855 m20 0 0 0.6 c 513
 801 m 17 Y s 513 818 m 13 Y s 508 818 m 5 X s 513 818 m 4 X s black 513 818 m20 0 0 0.6 c 522 837 m 15 Y s 522 852 m 13 Y s 517 852 m 5 X s 522 852 m 4 X s black 522 852 m20 0 0 0.6 c 531 808 m 17 Y s 531 825 m 15 Y s 526 825 m 5 X s 531 825 m 4 X s
 black 531 825 m20 0 0 0.6 c 540 786 m 16 Y s 540 802 m 13 Y s 535 802 m 5 X s 540 802 m 4 X s black 540 802 m20 0 0 0.6 c 549 809 m 13 Y s 549 822 m 11 Y s 544 822 m 5 X s 549 822 m 4 X s black 549 822 m20 0 0 0.6 c 558 797 m 32 Y s 558 829 m 22 Y s
 553 829 m 5 X s 558 829 m 4 X s black 558 829 m20 0 0 0.6 c 567 806 m 14 Y s 567 820 m 12 Y s 562 820 m 5 X s 567 820 m 4 X s black 567 820 m20 0 0 0.6 c 576 755 m 18 Y s 576 773 m 15 Y s 571 773 m 5 X s 576 773 m 5 X s black 576 773 m20 0 0 0.6 c
 585 780 m 19 Y s 585 799 m 15 Y s 581 799 m 4 X s 585 799 m 5 X s black 585 799 m20 0 0 0.6 c 594 800 m 17 Y s 594 817 m 13 Y s 590 817 m 4 X s 594 817 m 5 X s black 594 817 m20 0 0 0.6 c 603 777 m 18 Y s 603 795 m 15 Y s 599 795 m 4 X s 603 795 m 5
 X s black 603 795 m20 0 0 0.6 c 612 752 m 17 Y s 612 769 m 13 Y s 608 769 m 4 X s 612 769 m 5 X s black 612 769 m20 0 0 0.6 c 621 798 m 17 Y s 621 815 m 14 Y s 617 815 m 4 X s 621 815 m 5 X s black 621 815 m20 0 0 0.6 c 630 735 m 23 Y s 630 758 m 17
 Y s 626 758 m 4 X s 630 758 m 5 X s black 630 758 m20 0 0 0.6 c 639 761 m 20 Y s 639 781 m 16 Y s 635 781 m 4 X s 639 781 m 5 X s black 639 781 m20 0 0 0.6 c 649 767 m 19 Y s 649 786 m 15 Y s 644 786 m 5 X s 649 786 m 4 X s black 649 786 m20 0 0 0.6
 c 658 772 m 16 Y s 658 788 m 14 Y s 653 788 m 5 X s 658 788 m 4 X s black 658 788 m20 0 0 0.6 c 667 764 m 43 Y s 667 807 m 28 Y s 662 807 m 5 X s 667 807 m 4 X s black 667 807 m20 0 0 0.6 c 676 731 m 17 Y s 676 748 m 14 Y s 671 748 m 5 X s 676 748 m
 4 X s black 676 748 m20 0 0 0.6 c 685 730 m 21 Y s 685 751 m 17 Y s 680 751 m 5 X s 685 751 m 4 X s black 685 751 m20 0 0 0.6 c 694 730 m 23 Y s 694 753 m 17 Y s 689 753 m 5 X s 694 753 m 4 X s black 694 753 m20 0 0 0.6 c 703 744 m 21 Y s 703 765 m
 17 Y s 698 765 m 5 X s 703 765 m 5 X s black 703 765 m20 0 0 0.6 c 712 740 m 19 Y s 712 759 m 15 Y s 708 759 m 4 X s 712 759 m 5 X s black 712 759 m20 0 0 0.6 c 721 741 m 20 Y s 721 761 m 16 Y s 717 761 m 4 X s 721 761 m 5 X s black 721 761 m20 0 0
 0.6 c 730 724 m 18 Y s 730 742 m 16 Y s 726 742 m 4 X s 730 742 m 5 X s black 730 742 m20 0 0 0.6 c 739 743 m 19 Y s 739 762 m 15 Y s 735 762 m 4 X s 739 762 m 5 X s black 739 762 m20 0 0 0.6 c 748 730 m 20 Y s 748 750 m 16 Y s 744 750 m 4 X s 748
 750 m 5 X s black 748 750 m20 0 0 0.6 c 757 743 m 22 Y s 757 765 m 17 Y s 753 765 m 4 X s 757 765 m 5 X s black 757 765 m20 0 0 0.6 c 766 775 m 17 Y s 766 792 m 14 Y s 762 792 m 4 X s 766 792 m 5 X s black 766 792 m20 0 0 0.6 c 776 744 m 20 Y s 776
 764 m 17 Y s 771 764 m 5 X s 776 764 m 4 X s black 776 764 m20 0 0 0.6 c 785 738 m 23 Y s 785 761 m 18 Y s 780 761 m 5 X s 785 761 m 4 X s black 785 761 m20 0 0 0.6 c 794 710 m 25 Y s 794 735 m 18 Y s 789 735 m 5 X s 794 735 m 4 X s black 794 735
 m20 0 0 0.6 c 803 760 m 22 Y s 803 782 m 17 Y s 798 782 m 5 X s 803 782 m 4 X s black 803 782 m20 0 0 0.6 c 812 747 m 19 Y s 812 766 m 15 Y s 807 766 m 5 X s 812 766 m 4 X s black 812 766 m20 0 0 0.6 c 821 746 m 20 Y s 821 766 m 15 Y s 816 766 m 5 X
 s 821 766 m 4 X s black 821 766 m20 0 0 0.6 c 830 682 m 26 Y s 830 708 m 19 Y s 825 708 m 5 X s 830 708 m 5 X s black 830 708 m20 0 0 0.6 c 839 712 m 22 Y s 839 734 m 18 Y s 835 734 m 4 X s 839 734 m 5 X s black 839 734 m20 0 0 0.6 c 848 694 m 22 Y
 s 848 716 m 17 Y s 844 716 m 4 X s 848 716 m 5 X s black 848 716 m20 0 0 0.6 c 857 736 m 25 Y s 857 761 m 18 Y s 853 761 m 4 X s 857 761 m 5 X s black 857 761 m20 0 0 0.6 c 866 708 m 22 Y s 866 730 m 16 Y s 862 730 m 4 X s 866 730 m 5 X s black 866
 730 m20 0 0 0.6 c 875 736 m 25 Y s 875 761 m 19 Y s 871 761 m 4 X s 875 761 m 5 X s black 875 761 m20 0 0 0.6 c 884 684 m 24 Y s 884 708 m 17 Y s 880 708 m 4 X s 884 708 m 5 X s black 884 708 m20 0 0 0.6 c 893 732 m 25 Y s 893 757 m 19 Y s 889 757 m
 4 X s 893 757 m 5 X s black 893 757 m20 0 0 0.6 c 903 656 m 23 Y s 903 679 m 17 Y s 898 679 m 5 X s 903 679 m 4 X s black 903 679 m20 0 0 0.6 c 912 680 m 30 Y s 912 710 m 21 Y s 907 710 m 5 X s 912 710 m 4 X s black 912 710 m20 0 0 0.6 c 921 707 m
 17 Y s 921 724 m 14 Y s 916 724 m 5 X s 921 724 m 4 X s black 921 724 m20 0 0 0.6 c 930 662 m 34 Y s 930 696 m 23 Y s 925 696 m 5 X s 930 696 m 4 X s black 930 696 m20 0 0 0.6 c 939 650 m 28 Y s 939 678 m 21 Y s 934 678 m 5 X s 939 678 m 4 X s black
 939 678 m20 0 0 0.6 c 948 660 m 28 Y s 948 688 m 19 Y s 943 688 m 5 X s 948 688 m 4 X s black 948 688 m20 0 0 0.6 c 957 698 m 18 Y s 957 716 m 15 Y s 952 716 m 5 X s 957 716 m 5 X s black 957 716 m20 0 0 0.6 c 966 679 m 28 Y s 966 707 m 21 Y s 962
 707 m 4 X s 966 707 m 5 X s black 966 707 m20 0 0 0.6 c 975 688 m 34 Y s 975 722 m 24 Y s 971 722 m 4 X s 975 722 m 5 X s black 975 722 m20 0 0 0.6 c 984 598 m 31 Y s 984 629 m 21 Y s 980 629 m 4 X s 984 629 m 5 X s black 984 629 m20 0 0 0.6 c 993
 694 m 20 Y s 993 714 m 15 Y s 989 714 m 4 X s 993 714 m 5 X s black 993 714 m20 0 0 0.6 c 1002 691 m 28 Y s 1002 719 m 20 Y s 998 719 m 4 X s 1002 719 m 5 X s black 1002 719 m20 0 0 0.6 c 1011 687 m 22 Y s 1011 709 m 17 Y s 1007 709 m 4 X s 1011 709
 m 5 X s black 1011 709 m20 0 0 0.6 c 1020 600 m 40 Y s 1020 640 m 26 Y s 1016 640 m 4 X s 1020 640 m 5 X s black 1020 640 m20 0 0 0.6 c 1030 677 m 23 Y s 1030 700 m 18 Y s 1025 700 m 5 X s 1030 700 m 4 X s black 1030 700 m20 0 0 0.6 c 1039 685 m 25
 Y s 1039 710 m 20 Y s 1034 710 m 5 X s 1039 710 m 4 X s black 1039 710 m20 0 0 0.6 c 1048 679 m 22 Y s 1048 701 m 17 Y s 1043 701 m 5 X s 1048 701 m 4 X s black 1048 701 m20 0 0 0.6 c 1057 666 m 24 Y s 1057 690 m 18 Y s 1052 690 m 5 X s 1057 690 m 4
 X s black 1057 690 m20 0 0 0.6 c 1066 634 m 33 Y s 1066 667 m 23 Y s 1061 667 m 5 X s 1066 667 m 4 X s black 1066 667 m20 0 0 0.6 c 1075 678 m 22 Y s 1075 700 m 18 Y s 1070 700 m 5 X s 1075 700 m 4 X s black 1075 700 m20 0 0 0.6 c 1084 684 m 23 Y s
 1084 707 m 17 Y s 1079 707 m 5 X s 1084 707 m 5 X s black 1084 707 m20 0 0 0.6 c 1093 643 m 25 Y s 1093 668 m 19 Y s 1089 668 m 4 X s 1093 668 m 5 X s black 1093 668 m20 0 0 0.6 c 1102 654 m 23 Y s 1102 677 m 18 Y s 1098 677 m 4 X s 1102 677 m 5 X s
 black 1102 677 m20 0 0 0.6 c 1111 610 m 34 Y s 1111 644 m 23 Y s 1107 644 m 4 X s 1111 644 m 5 X s black 1111 644 m20 0 0 0.6 c 1120 627 m 29 Y s 1120 656 m 21 Y s 1116 656 m 4 X s 1120 656 m 5 X s black 1120 656 m20 0 0 0.6 c 1129 655 m 30 Y s 1129
 685 m 21 Y s 1125 685 m 4 X s 1129 685 m 5 X s black 1129 685 m20 0 0 0.6 c 1138 648 m 31 Y s 1138 679 m 21 Y s 1134 679 m 4 X s 1138 679 m 5 X s black 1138 679 m20 0 0 0.6 c 1147 638 m 32 Y s 1147 670 m 22 Y s 1143 670 m 4 X s 1147 670 m 5 X s
 black 1147 670 m20 0 0 0.6 c 1157 638 m 34 Y s 1157 672 m 23 Y s 1152 672 m 5 X s 1157 672 m 4 X s black 1157 672 m20 0 0 0.6 c 1166 634 m 31 Y s 1166 665 m 22 Y s 1161 665 m 5 X s 1166 665 m 4 X s black 1166 665 m20 0 0 0.6 c 1175 542 m 46 Y s 1175
 588 m 29 Y s 1170 588 m 5 X s 1175 588 m 4 X s black 1175 588 m20 0 0 0.6 c 1184 645 m 25 Y s 1184 670 m 19 Y s 1179 670 m 5 X s 1184 670 m 4 X s black 1184 670 m20 0 0 0.6 c 1193 586 m 33 Y s 1193 619 m 23 Y s 1188 619 m 5 X s 1193 619 m 4 X s
 black 1193 619 m20 0 0 0.6 c 1202 653 m 25 Y s 1202 678 m 19 Y s 1197 678 m 5 X s 1202 678 m 4 X s black 1202 678 m20 0 0 0.6 c 1211 635 m 32 Y s 1211 667 m 22 Y s 1206 667 m 5 X s 1211 667 m 4 X s black 1211 667 m20 0 0 0.6 c 1220 662 m 42 Y s 1220
 704 m 26 Y s 1215 704 m 5 X s 1220 704 m 5 X s black 1220 704 m20 0 0 0.6 c 1229 666 m 26 Y s 1229 692 m 20 Y s 1225 692 m 4 X s 1229 692 m 5 X s black 1229 692 m20 0 0 0.6 c 1238 645 m 25 Y s 1238 670 m 19 Y s 1234 670 m 4 X s 1238 670 m 5 X s
 black 1238 670 m20 0 0 0.6 c 1247 548 m 42 Y s 1247 590 m 26 Y s 1243 590 m 4 X s 1247 590 m 5 X s black 1247 590 m20 0 0 0.6 c 1256 622 m 28 Y s 1256 650 m 20 Y s 1252 650 m 4 X s 1256 650 m 5 X s black 1256 650 m20 0 0 0.6 c 1265 609 m 33 Y s 1265
 642 m 23 Y s 1261 642 m 4 X s 1265 642 m 5 X s black 1265 642 m20 0 0 0.6 c 1274 673 m 27 Y s 1274 700 m 20 Y s 1270 700 m 4 X s 1274 700 m 5 X s black 1274 700 m20 0 0 0.6 c 1284 577 m 29 Y s 1284 606 m 21 Y s 1279 606 m 5 X s 1284 606 m 4 X s
 black 1284 606 m20 0 0 0.6 c 1293 627 m 43 Y s 1293 670 m 27 Y s 1288 670 m 5 X s 1293 670 m 4 X s black 1293 670 m20 0 0 0.6 c 1302 670 m 26 Y s 1302 696 m 20 Y s 1297 696 m 5 X s 1302 696 m 4 X s black 1302 696 m20 0 0 0.6 c 1311 614 m 27 Y s 1311
 641 m 19 Y s 1306 641 m 5 X s 1311 641 m 4 X s black 1311 641 m20 0 0 0.6 c 1320 648 m 39 Y s 1320 687 m 26 Y s 1315 687 m 5 X s 1320 687 m 4 X s black 1320 687 m20 0 0 0.6 c 1329 580 m 31 Y s 1329 611 m 22 Y s 1324 611 m 5 X s 1329 611 m 4 X s
 black 1329 611 m20 0 0 0.6 c 1338 622 m 29 Y s 1338 651 m 20 Y s 1333 651 m 5 X s 1338 651 m 4 X s black 1338 651 m20 0 0 0.6 c 1347 589 m 33 Y s 1347 622 m 23 Y s 1342 622 m 5 X s 1347 622 m 5 X s black 1347 622 m20 0 0 0.6 c 1356 632 m 28 Y s 1356
 660 m 20 Y s 1352 660 m 4 X s 1356 660 m 5 X s black 1356 660 m20 0 0 0.6 c 1365 616 m 29 Y s 1365 645 m 21 Y s 1361 645 m 4 X s 1365 645 m 5 X s black 1365 645 m20 0 0 0.6 c 1374 531 m 41 Y s 1374 572 m 26 Y s 1370 572 m 4 X s 1374 572 m 5 X s
 black 1374 572 m20 0 0 0.6 c 1383 607 m 33 Y s 1383 640 m 22 Y s 1379 640 m 4 X s 1383 640 m 5 X s black 1383 640 m20 0 0 0.6 c 1392 622 m 30 Y s 1392 652 m 21 Y s 1388 652 m 4 X s 1392 652 m 5 X s black 1392 652 m20 0 0 0.6 c 1401 601 m 32 Y s 1401
 633 m 22 Y s 1397 633 m 4 X s 1401 633 m 5 X s black 1401 633 m20 0 0 0.6 c 1411 617 m 33 Y s 1411 650 m 22 Y s 1406 650 m 5 X s 1411 650 m 4 X s black 1411 650 m20 0 0 0.6 c 1420 600 m 36 Y s 1420 636 m 24 Y s 1415 636 m 5 X s 1420 636 m 4 X s
 black 1420 636 m20 0 0 0.6 c 1429 625 m 30 Y s 1429 655 m 21 Y s 1424 655 m 5 X s 1429 655 m 4 X s black 1429 655 m20 0 0 0.6 c 1438 620 m 26 Y s 1438 646 m 20 Y s 1433 646 m 5 X s 1438 646 m 4 X s black 1438 646 m20 0 0 0.6 c 1447 599 m 35 Y s 1447
 634 m 24 Y s 1442 634 m 5 X s 1447 634 m 4 X s black 1447 634 m20 0 0 0.6 c 1456 621 m 27 Y s 1456 648 m 20 Y s 1451 648 m 5 X s 1456 648 m 4 X s black 1456 648 m20 0 0 0.6 c 1465 610 m 27 Y s 1465 637 m 20 Y s 1460 637 m 5 X s 1465 637 m 4 X s
 black 1465 637 m20 0 0 0.6 c 1474 579 m 28 Y s 1474 607 m 20 Y s 1469 607 m 5 X s 1474 607 m 5 X s black 1474 607 m20 0 0 0.6 c 1483 497 m 55 Y s 1483 552 m 31 Y s 1479 552 m 4 X s 1483 552 m 5 X s black 1483 552 m20 0 0 0.6 c 1492 575 m 44 Y s 1492
 619 m 28 Y s 1488 619 m 4 X s 1492 619 m 5 X s black 1492 619 m20 0 0 0.6 c 1501 620 m 27 Y s 1501 647 m 20 Y s 1497 647 m 4 X s 1501 647 m 5 X s black 1501 647 m20 0 0 0.6 c 1510 615 m 30 Y s 1510 645 m 22 Y s 1506 645 m 4 X s 1510 645 m 5 X s
 black 1510 645 m20 0 0 0.6 c 1519 621 m 29 Y s 1519 650 m 21 Y s 1515 650 m 4 X s 1519 650 m 5 X s black 1519 650 m20 0 0 0.6 c 1528 622 m 32 Y s 1528 654 m 22 Y s 1524 654 m 4 X s 1528 654 m 5 X s black 1528 654 m20 0 0 0.6 c 1538 518 m 54 Y s 1538
 572 m 32 Y s 1533 572 m 5 X s 1538 572 m 4 X s black 1538 572 m20 0 0 0.6 c 1547 595 m 30 Y s 1547 625 m 21 Y s 1542 625 m 5 X s 1547 625 m 4 X s black 1547 625 m20 0 0 0.6 c 1556 619 m 27 Y s 1556 646 m 20 Y s 1551 646 m 5 X s 1556 646 m 4 X s
 black 1556 646 m20 0 0 0.6 c 1565 592 m 26 Y s 1565 618 m 19 Y s 1560 618 m 5 X s 1565 618 m 4 X s black 1565 618 m20 0 0 0.6 c 1574 599 m 31 Y s 1574 630 m 22 Y s 1569 630 m 5 X s 1574 630 m 4 X s black 1574 630 m20 0 0 0.6 c 1583 575 m 54 Y s 1583
 629 m 32 Y s 1578 629 m 5 X s 1583 629 m 4 X s black 1583 629 m20 0 0 0.6 c 1592 574 m 33 Y s 1592 607 m 23 Y s 1587 607 m 5 X s 1592 607 m 4 X s black 1592 607 m20 0 0 0.6 c 1601 610 m 42 Y s 1601 652 m 26 Y s 1596 652 m 5 X s 1601 652 m 5 X s
 black 1601 652 m20 0 0 0.6 c 1610 608 m 36 Y s 1610 644 m 24 Y s 1606 644 m 4 X s 1610 644 m 5 X s black 1610 644 m20 0 0 0.6 c 1619 593 m 29 Y s 1619 622 m 21 Y s 1615 622 m 4 X s 1619 622 m 5 X s black 1619 622 m20 0 0 0.6 c 1628 558 m 32 Y s 1628
 590 m 23 Y s 1624 590 m 4 X s 1628 590 m 5 X s black 1628 590 m20 0 0 0.6 c 1637 553 m 51 Y s 1637 604 m 30 Y s 1633 604 m 4 X s 1637 604 m 5 X s black 1637 604 m20 0 0 0.6 c 1646 594 m 33 Y s 1646 627 m 22 Y s 1642 627 m 4 X s 1646 627 m 5 X s
 black 1646 627 m20 0 0 0.6 c 1655 606 m 25 Y s 1655 631 m 19 Y s 1651 631 m 4 X s 1655 631 m 5 X s black 1655 631 m20 0 0 0.6 c 1665 496 m 60 Y s 1665 556 m 34 Y s 1660 556 m 5 X s 1665 556 m 4 X s black 1665 556 m20 0 0 0.6 c 1674 524 m 43 Y s 1674
 567 m 28 Y s 1669 567 m 5 X s 1674 567 m 4 X s black 1674 567 m20 0 0 0.6 c 1683 527 m 43 Y s 1683 570 m 28 Y s 1678 570 m 5 X s 1683 570 m 4 X s black 1683 570 m20 0 0 0.6 c 1692 575 m 37 Y s 1692 612 m 26 Y s 1687 612 m 5 X s 1692 612 m 4 X s
 black 1692 612 m20 0 0 0.6 c 1701 402 m 84 Y s 1701 486 m 40 Y s 1696 486 m 5 X s 1701 486 m 4 X s black 1701 486 m20 0 0 0.6 c 1710 565 m 55 Y s 1710 620 m 31 Y s 1705 620 m 5 X s 1710 620 m 4 X s black 1710 620 m20 0 0 0.6 c 1719 427 m 76 Y s 1719
 503 m 38 Y s 1714 503 m 5 X s 1719 503 m 4 X s black 1719 503 m20 0 0 0.6 c 1728 553 m 36 Y s 1728 589 m 25 Y s 1723 589 m 5 X s 1728 589 m 5 X s black 1728 589 m20 0 0 0.6 c 1737 551 m 56 Y s 1737 607 m 32 Y s 1733 607 m 4 X s 1737 607 m 5 X s
 black 1737 607 m20 0 0 0.6 c 1746 545 m 39 Y s 1746 584 m 26 Y s 1742 584 m 4 X s 1746 584 m 5 X s black 1746 584 m20 0 0 0.6 c 1755 563 m 35 Y s 1755 598 m 23 Y s 1751 598 m 4 X s 1755 598 m 5 X s black 1755 598 m20 0 0 0.6 c 1764 514 m 43 Y s 1764
 557 m 27 Y s 1760 557 m 4 X s 1764 557 m 5 X s black 1764 557 m20 0 0 0.6 c 1773 514 m 44 Y s 1773 558 m 27 Y s 1769 558 m 4 X s 1773 558 m 5 X s black 1773 558 m20 0 0 0.6 c 1782 609 m 28 Y s 1782 637 m 21 Y s 1778 637 m 4 X s 1782 637 m 5 X s
 black 1782 637 m20 0 0 0.6 c 1791 569 m 34 Y s 1791 603 m 24 Y s 1787 603 m 4 X s 1791 603 m 5 X s black 1791 603 m20 0 0 0.6 c 1801 543 m 32 Y s 1801 575 m 23 Y s 1796 575 m 5 X s 1801 575 m 4 X s black 1801 575 m20 0 0 0.6 c 1810 573 m 35 Y s 1810
 608 m 23 Y s 1805 608 m 5 X s 1810 608 m 4 X s black 1810 608 m20 0 0 0.6 c 1819 544 m 39 Y s 1819 583 m 26 Y s 1814 583 m 5 X s 1819 583 m 4 X s black 1819 583 m20 0 0 0.6 c 1828 541 m 39 Y s 1828 580 m 25 Y s 1823 580 m 5 X s 1828 580 m 4 X s
 black 1828 580 m20 0 0 0.6 c 1837 401 m 85 Y s 1837 486 m 40 Y s 1832 486 m 5 X s 1837 486 m 4 X s black 1837 486 m20 0 0 0.6 c 1846 499 m 71 Y s 1846 570 m 36 Y s 1841 570 m 5 X s 1846 570 m 4 X s black 1846 570 m20 0 0 0.6 c 1855 562 m 54 Y s 1855
 616 m 31 Y s 1850 616 m 5 X s 1855 616 m 5 X s black 1855 616 m20 0 0 0.6 c 1864 506 m 44 Y s 1864 550 m 27 Y s 1860 550 m 4 X s 1864 550 m 5 X s black 1864 550 m20 0 0 0.6 c 1873 464 m 55 Y s 1873 519 m 31 Y s 1869 519 m 4 X s 1873 519 m 5 X s
 black 1873 519 m20 0 0 0.6 c 1882 589 m 41 Y s 1882 630 m 26 Y s 1878 630 m 4 X s 1882 630 m 5 X s black 1882 630 m20 0 0 0.6 c 1891 562 m 37 Y s 1891 599 m 24 Y s 1887 599 m 4 X s 1891 599 m 5 X s black 1891 599 m20 0 0 0.6 c 1900 550 m 35 Y s 1900
 585 m 24 Y s 1896 585 m 4 X s 1900 585 m 5 X s black 1900 585 m20 0 0 0.6 c 1909 512 m 37 Y s 1909 549 m 25 Y s 1905 549 m 4 X s 1909 549 m 5 X s black 1909 549 m20 0 0 0.6 c 1918 460 m 87 Y s 1918 547 m 40 Y s 1914 547 m 4 X s 1918 547 m 5 X s
 black 1918 547 m20 0 0 0.6 c 1928 531 m 40 Y s 1928 571 m 26 Y s 1923 571 m 5 X s 1928 571 m 4 X s black 1928 571 m20 0 0 0.6 c 1937 583 m 39 Y s 1937 622 m 26 Y s 1932 622 m 5 X s 1937 622 m 4 X s black 1937 622 m20 0 0 0.6 c 1946 463 m 55 Y s 1946
 518 m 31 Y s 1941 518 m 5 X s 1946 518 m 4 X s black 1946 518 m20 0 0 0.6 c 1955 428 m 60 Y s 1955 488 m 34 Y s 1950 488 m 5 X s 1955 488 m 4 X s black 1955 488 m20 0 0 0.6 c 1964 517 m 55 Y s 1964 572 m 31 Y s 1959 572 m 5 X s 1964 572 m 4 X s
 black 1964 572 m20 0 0 0.6 c 1973 522 m 44 Y s 1973 566 m 28 Y s 1968 566 m 5 X s 1973 566 m 4 X s black 1973 566 m20 0 0 0.6 c 1982 521 m 57 Y s 1982 578 m 32 Y s 1977 578 m 5 X s 1982 578 m 5 X s black 1982 578 m20 0 0 0.6 c 1991 475 m 53 Y s 1991
 528 m 31 Y s 1987 528 m 4 X s 1991 528 m 5 X s black 1991 528 m20 0 0 0.6 c 2000 532 m 46 Y s 2000 578 m 29 Y s 1996 578 m 4 X s 2000 578 m 5 X s black 2000 578 m20 0 0 0.6 c 2009 481 m 51 Y s 2009 532 m 30 Y s 2005 532 m 4 X s 2009 532 m 5 X s
 black 2009 532 m20 0 0 0.6 c 2018 495 m 67 Y s 2018 562 m 35 Y s 2014 562 m 4 X s 2018 562 m 5 X s black 2018 562 m20 0 0 0.6 c 2027 478 m 68 Y s 2027 546 m 35 Y s 2023 546 m 4 X s 2027 546 m 5 X s black 2027 546 m20 0 0 0.6 c 2036 544 m 79 Y s 2036
 623 m 38 Y s 2032 623 m 4 X s 2036 623 m 5 X s black 2036 623 m20 227 154 m 1814 X s 227 191 m -37 Y s 272 172 m -18 Y s 317 172 m -18 Y s 363 172 m -18 Y s 408 172 m -18 Y s 454 191 m -37 Y s 499 172 m -18 Y s 544 172 m -18 Y s 590 172 m -18 Y s
 635 172 m -18 Y s 680 191 m -37 Y s 726 172 m -18 Y s 771 172 m -18 Y s 816 172 m -18 Y s 862 172 m -18 Y s 907 191 m -37 Y s 952 172 m -18 Y s 998 172 m -18 Y s 1043 172 m -18 Y s 1089 172 m -18 Y s 1134 191 m -37 Y s 1179 172 m -18 Y s 1225 172 m
 -18 Y s 1270 172 m -18 Y s 1315 172 m -18 Y s 1361 191 m -37 Y s 1406 172 m -18 Y s 1451 172 m -18 Y s 1497 172 m -18 Y s 1542 172 m -18 Y s 1587 191 m -37 Y s 1633 172 m -18 Y s 1678 172 m -18 Y s 1723 172 m -18 Y s 1769 172 m -18 Y s 1814 191 m
 -37 Y s 1860 172 m -18 Y s 1905 172 m -18 Y s 1950 172 m -18 Y s 1996 172 m -18 Y s 2041 191 m -37 Y s
 gsave  2268 1540 0 0 C 211.177 103.964 t 0 r /Helvetica findfont 48.7332 sf 0 0 m (0) show NC gr 
 gsave  2268 1540 0 0 C 422.354 103.964 t 0 r /Helvetica findfont 48.7332 sf 0 0 m (50) show NC gr 
 gsave  2268 1540 0 0 C 636.78 103.964 t 0 r /Helvetica findfont 48.7332 sf 0 0 m (100) show NC gr 
 gsave  2268 1540 0 0 C 864.201 103.964 t 0 r /Helvetica findfont 48.7332 sf 0 0 m (150) show NC gr 
 gsave  2268 1540 0 0 C 1091.62 103.964 t 0 r /Helvetica findfont 48.7332 sf 0 0 m (200) show NC gr 
 gsave  2268 1540 0 0 C 1315.8 103.964 t 0 r /Helvetica findfont 48.7332 sf 0 0 m (250) show NC gr 
 gsave  2268 1540 0 0 C 1543.22 103.964 t 0 r /Helvetica findfont 48.7332 sf 0 0 m (300) show NC gr 
 gsave  2268 1540 0 0 C 1770.64 103.964 t 0 r /Helvetica findfont 48.7332 sf 0 0 m (350) show NC gr 
 gsave  2268 1540 0 0 C 1998.06 103.964 t 0 r /Helvetica findfont 48.7332 sf 0 0 m (400) show NC gr 
 gsave  2268 1540 0 0 C 1059.13 25.991 t 0 r /Helvetica findfont 64.9775 sf 0 0 m (r\(cm\)) show NC gr  227 154 m 1232 Y s 281 154 m -54 X s
 gsave  2268 1540 0 0 C 188.435 155.946 t 0 r /Helvetica findfont 32.4888 sf 0 0 m (5) show NC gr 
 gsave  2268 1540 0 0 C 168.942 155.946 t 0 r /Symbol findfont 32.4888 sf 0 0 m (-) show NC gr 
 gsave  2268 1540 0 0 C 113.711 133.204 t 0 r /Helvetica findfont 48.7332 sf 0 0 m (10) show NC gr  254 207 m -27 X s 254 238 m -27 X s 254 260 m -27 X s 254 277 m -27 X s 254 291 m -27 X s 254 303 m -27 X s 254 313 m -27 X s 254 322 m -27 X s 281
 330 m -54 X s
 gsave  2268 1540 0 0 C 188.435 328.137 t 0 r /Helvetica findfont 32.4888 sf 0 0 m (4) show NC gr 
 gsave  2268 1540 0 0 C 168.942 328.137 t 0 r /Symbol findfont 32.4888 sf 0 0 m (-) show NC gr 
 gsave  2268 1540 0 0 C 113.711 308.643 t 0 r /Helvetica findfont 48.7332 sf 0 0 m (10) show NC gr  254 383 m -27 X s 254 414 m -27 X s 254 436 m -27 X s 254 453 m -27 X s 254 467 m -27 X s 254 479 m -27 X s 254 489 m -27 X s 254 498 m -27 X s 281
 506 m -54 X s
 gsave  2268 1540 0 0 C 188.435 506.825 t 0 r /Helvetica findfont 32.4888 sf 0 0 m (3) show NC gr 
 gsave  2268 1540 0 0 C 168.942 506.825 t 0 r /Symbol findfont 32.4888 sf 0 0 m (-) show NC gr 
 gsave  2268 1540 0 0 C 113.711 484.083 t 0 r /Helvetica findfont 48.7332 sf 0 0 m (10) show NC gr  254 559 m -27 X s 254 590 m -27 X s 254 612 m -27 X s 254 629 m -27 X s 254 643 m -27 X s 254 655 m -27 X s 254 665 m -27 X s 254 674 m -27 X s 281
 682 m -54 X s
 gsave  2268 1540 0 0 C 188.435 679.015 t 0 r /Helvetica findfont 32.4888 sf 0 0 m (2) show NC gr 
 gsave  2268 1540 0 0 C 168.942 679.015 t 0 r /Symbol findfont 32.4888 sf 0 0 m (-) show NC gr 
 gsave  2268 1540 0 0 C 113.711 659.522 t 0 r /Helvetica findfont 48.7332 sf 0 0 m (10) show NC gr  254 735 m -27 X s 254 766 m -27 X s 254 788 m -27 X s 254 805 m -27 X s 254 819 m -27 X s 254 831 m -27 X s 254 841 m -27 X s 254 850 m -27 X s 281
 858 m -54 X s
 gsave  2268 1540 0 0 C 194.933 857.704 t 0 r /Helvetica findfont 32.4888 sf 0 0 m (1) show NC gr 
 gsave  2268 1540 0 0 C 175.439 857.704 t 0 r /Symbol findfont 32.4888 sf 0 0 m (-) show NC gr 
 gsave  2268 1540 0 0 C 120.208 838.21 t 0 r /Helvetica findfont 48.7332 sf 0 0 m (10) show NC gr  254 911 m -27 X s 254 942 m -27 X s 254 964 m -27 X s 254 981 m -27 X s 254 995 m -27 X s 254 1007 m -27 X s 254 1017 m -27 X s 254 1026 m -27 X s 281
 1034 m -54 X s
 gsave  2268 1540 0 0 C 188.435 1016.9 t 0 r /Helvetica findfont 48.7332 sf 0 0 m (1) show NC gr  254 1087 m -27 X s 254 1118 m -27 X s 254 1140 m -27 X s 254 1157 m -27 X s 254 1171 m -27 X s 254 1183 m -27 X s 254 1193 m -27 X s 254 1202 m -27 X s
 281 1210 m -54 X s
 gsave  2268 1540 0 0 C 152.697 1192.34 t 0 r /Helvetica findfont 48.7332 sf 0 0 m (10) show NC gr  254 1263 m -27 X s 254 1294 m -27 X s 254 1316 m -27 X s 254 1333 m -27 X s 254 1347 m -27 X s 254 1359 m -27 X s 254 1369 m -27 X s 254 1378 m -27 X
 s 281 1386 m -54 X s
 gsave  2268 1540 0 0 C 188.435 1384.02 t 0 r /Helvetica findfont 32.4888 sf 0 0 m (2) show NC gr 
 gsave  2268 1540 0 0 C 133.204 1364.53 t 0 r /Helvetica findfont 48.7332 sf 0 0 m (10) show NC gr 
 gsave  2268 1540 0 0 C 103.964 1367.78 t 90 r /Helvetica findfont 64.9775 sf 0 0 m (\)) show NC gr 
 gsave  2268 1540 0 0 C 74.7242 1338.54 t 90 r /Helvetica findfont 42.2354 sf 0 0 m (\2551) show NC gr 
 gsave  2268 1540 0 0 C 100.715 1026.65 t 90 r /Helvetica findfont 64.9775 sf 0 0 m (density\(cm) show NC gr  1 1 1 c black
 gsave  2268 1540 0 0 C 432.101 1468.49 t 0 r /Helvetica findfont 74.7242 sf 0 0 m (nu11.4_others:et_deposition_density_vs_r) show NC gr  1 1 1 c black
 gsave  2268 1540 0 0 C 432.101 1468.49 t 0 r /Helvetica findfont 74.7242 sf 0 0 m (nu11.4_others:et_deposition_density_vs_r) show NC gr 
 gr  gr showpage
end
%%EOF
