%!PS-Adobe-2.0 EPSF-2.0
%%BoundingBox:  0 0 567 385
%%Title: ../plot_nu11.4/etr/nu11.4_#pi^{+}#pi^{-}_xyr.eps: nu11.4_#pi^{+}#pi^{-}:et_deposition_density_vs_r
%%Creator: ROOT Version 6.14/02
%%CreationDate: Thu Aug  9 14:34:32 2018
%%DocumentNeededResources: ProcSet (FontSetInit)
%%EndComments
%%BeginProlog
80 dict begin
/s {stroke} def /l {lineto} def /m {moveto} def /t {translate} def
/r {rotate} def /rl {roll}  def /R {repeat} def
/d {rlineto} def /rm {rmoveto} def /gr {grestore} def /f {eofill} def
/c {setrgbcolor} def /black {0 setgray} def /sd {setdash} def
/cl {closepath} def /sf {scalefont setfont} def /lw {setlinewidth} def
/box {m dup 0 exch d exch 0 d 0 exch neg d cl} def
/NC{systemdict begin initclip end}def/C{NC box clip newpath}def
/bl {box s} def /bf {gsave box gsave f grestore 1 lw [] 0 sd s grestore} def /Y { 0 exch d} def /X { 0 d} def 
/K {{pop pop 0 moveto} exch kshow} bind def
/ita {/ang 15 def gsave [1 0 ang dup sin exch cos div 1 0 0] concat} def 
/mp {newpath /y exch def /x exch def} def
/side {[w .77 mul w .23 mul] .385 w mul sd w 0 l currentpoint t -144 r} def
/mr {mp x y w2 0 360 arc} def /m24 {mr s} def /m20 {mr f} def
/mb {mp x y w2 add m w2 neg 0 d 0 w neg d w 0 d 0 w d cl} def
/mt {mp x y w2 add m w2 neg w neg d w 0 d cl} def
/w4 {w 4 div} def
/w6 {w 6 div} def
/w8 {w 8 div} def
/m21 {mb f} def /m25 {mb s} def /m22 {mt f} def /m26{mt s} def
/m23 {mp x y w2 sub m w2 w d w neg 0 d cl f} def
/m27 {mp x y w2 add m w3 neg w2 neg d w3 w2 neg d w3 w2 d cl s} def
/m28 {mp x w2 sub y w2 sub w3 add m w3 0 d  0 w3 neg d w3 0 d 0 w3 d w3 0 d  0 w3 d w3 neg 0 d 0 w3 d w3 neg 0 d 0 w3 neg d w3 neg 0 d cl s } def
/m29 {mp gsave x w2 sub y w2 add w3 sub m currentpoint t 4 {side} repeat cl fill gr} def
/m30 {mp gsave x w2 sub y w2 add w3 sub m currentpoint t 4 {side} repeat cl s gr} def
/m31 {mp x y w2 sub m 0 w d x w2 sub y m w 0 d x w2 sub y w2 add m w w neg d x w2 sub y w2 sub m w w d s} def
/m32 {mp x y w2 sub m w2 w d w neg 0 d cl s} def
/m33 {mp x y w2 add m w3 neg w2 neg d w3 w2 neg d w3 w2 d cl f} def
/m34 {mp x w2 sub y w2 sub w3 add m w3 0 d  0 w3 neg d w3 0 d 0 w3 d w3 0 d  0 w3 d w3 neg 0 d 0 w3 d w3 neg 0 d 0 w3 neg d w3 neg 0 d cl f } def
/m35 {mp x y w2 add m w2 neg w2 neg d w2 w2 neg d w2 w2 d w2 neg w2 d x y w2 sub m 0 w d x w2 sub y m w 0 d s} def
/m36 {mb x w2 sub y w2 add m w w neg d x w2 sub y w2 sub m w w d s} def
/m37 {mp x y m w4 neg w2 d w4 neg w2 neg d w2 0 d  w4 neg w2 neg d w2 0 d w4 neg w2 d w2 0 d w4 neg w2 d w4 neg w2 neg d cl s} def
/m38 {mp x w4 sub y w2 add m w4 neg w4 neg d 0 w2 neg d w4 w4 neg d w2 0 d w4 w4 d 0 w2 d w4 neg w4 d w2 neg 0 d x y w2 sub m 0 w d x w2 sub y m w 0 d cl s} def
/m39 {mp x y m w4 neg w2 d w4 neg w2 neg d w2 0 d  w4 neg w2 neg d w2 0 d w4 neg w2 d w2 0 d w4 neg w2 d w4 neg w2 neg d cl f} def
/m40 {mp x y m w4 w2 d w4 w4 neg d w2 neg w4 neg d w2 w4 neg d w4 neg w4 neg d w4 neg w2 d w4 neg w2 neg d w4 neg w4 d w2 w4 d w2 neg w4 d w4 w4 d w4 w2 neg d cl s} def
/m41 {mp x y m w4 w2 d w4 w4 neg d w2 neg w4 neg d w2 w4 neg d w4 neg w4 neg d w4 neg w2 d w4 neg w2 neg d w4 neg w4 d w2 w4 d w2 neg w4 d w4 w4 d w4 w2 neg d cl f} def
/m42 {mp x y w2 add m w8 neg w2 -3 4 div mul d w2 -3 4 div mul w8 neg d w2 3 4 div mul w8 neg d w8 w2 -3 4 div mul d w8 w2 3 4 div mul d w2 3 4 div mul w8 d w2 -3 4 div mul w8 d w8 neg w2 3 4 div mul d cl s} def
/m43 {mp x y w2 add m w8 neg w2 -3 4 div mul d w2 -3 4 div mul w8 neg d w2 3 4 div mul w8 neg d w8 w2 -3 4 div mul d w8 w2 3 4 div mul d w2 3 4 div mul w8 d w2 -3 4 div mul w8 d w8 neg w2 3 4 div mul d cl f} def
/m44 {mp x y m w6 neg w2 d w2 2 3 div mul 0 d w6 neg w2 neg d w2 w6 d 0 w2 -2 3 div mul d w2 neg w6 d w6 w2 neg d w2 -2 3 div mul 0 d w6 w2 d w2 neg w6 neg d 0 w2 2 3 div mul d w2 w6 neg d cl s} def
/m45 {mp x y m w6 neg w2 d w2 2 3 div mul 0 d w6 neg w2 neg d w2 w6 d 0 w2 -2 3 div mul d w2 neg w6 d w6 w2 neg d w2 -2 3 div mul 0 d w6 w2 d w2 neg w6 neg d 0 w2 2 3 div mul d w2 w6 neg d cl f} def
/m46 {mp x y w4 add m w4 neg w4 d w4 neg w4 neg d  w4 w4 neg d w4 neg w4 neg d w4 w4 neg d w4 w4 d w4 w4 neg d w4 w4 d w4 neg w4 d w4 w4 d w4 neg w4 d w4 neg w4 neg d cl s} def
/m47 {mp x y w4 add m w4 neg w4 d w4 neg w4 neg d w4 w4 neg d w4 neg w4 neg d  w4 w4 neg d w4 w4 d w4 w4 neg d w4 w4 d w4 neg w4 d w4 w4 d w4 neg w4 d w4 neg w4 neg d cl f} def
/m48 {mp x y w4 add m w4 neg w4 d w4 neg w4 neg d w4 w4 neg d  w4 neg w4 neg d w4 w4 neg d w4 w4 d w4 w4 neg d w4 w4 d w4 neg w4 d w4 w4 d w4 neg w4 d w4 neg w4 neg d  w4 w4 neg d w4 neg w4 neg d w4 neg w4 d w4 w4 d cl f} def
/m49 {mp x w2 sub w3 add y w2 sub w3 add m  0 w3 neg d w3 0 d 0 w3 d w3 0 d 0 w3 d w3 neg 0 d 0 w3 d w3 neg 0 d 0 w3 neg d w3 neg 0 d 0 w3 neg d w3 0 d 0 w3 d w3 0 d 0 w3 neg d w3 neg 0 d cl f } def
/m2 {mp x y w2 sub m 0 w d x w2 sub y m w 0 d s} def
/m5 {mp x w2 sub y w2 sub m w w d x w2 sub y w2 add m w w neg d s} def
%%IncludeResource: ProcSet (FontSetInit)
%%IncludeResource: font Times-Roman
%%IncludeResource: font Times-Italic
%%IncludeResource: font Times-Bold
%%IncludeResource: font Times-BoldItalic
%%IncludeResource: font Helvetica
%%IncludeResource: font Helvetica-Oblique
%%IncludeResource: font Helvetica-Bold
%%IncludeResource: font Helvetica-BoldOblique
%%IncludeResource: font Courier
%%IncludeResource: font Courier-Oblique
%%IncludeResource: font Courier-Bold
%%IncludeResource: font Courier-BoldOblique
%%IncludeResource: font Symbol
%%IncludeResource: font ZapfDingbats
/reEncode {exch findfont dup length dict begin {1 index /FID eq  {pop pop} {def} ifelse } forall /Encoding exch def currentdict end dup /FontName get exch definefont pop } def [/Times-Bold /Times-Italic /Times-BoldItalic /Helvetica /Helvetica-Oblique
 /Helvetica-Bold /Helvetica-BoldOblique /Courier /Courier-Oblique /Courier-Bold /Courier-BoldOblique /Times-Roman /AvantGarde-Book /AvantGarde-BookOblique /AvantGarde-Demi /AvantGarde-DemiOblique /Bookman-Demi /Bookman-DemiItalic /Bookman-Light
 /Bookman-LightItalic /Helvetica-Narrow /Helvetica-Narrow-Bold /Helvetica-Narrow-BoldOblique /Helvetica-Narrow-Oblique /NewCenturySchlbk-Roman /NewCenturySchlbk-Bold /NewCenturySchlbk-BoldItalic /NewCenturySchlbk-Italic /Palatino-Bold
 /Palatino-BoldItalic /Palatino-Italic /Palatino-Roman ] {ISOLatin1Encoding reEncode } forall
%%EndProlog
%%BeginSetup
%%EndSetup
newpath  gsave  .25 .25 scale  gsave  0 0 t black[  ] 0 sd 3 lw 1 1 1 c 2268 1540 0 0 bf black 1 1 1 c 1814 1232 227 154 bf black 1814 1232 227 154 bl 0 0 0.6 c black 0 0 0.6 c 295 1005 m 11 Y s 295 1016 m 9 Y s 290 1016 m 5 X s 295 1016 m 4 X s
 black /w 2 def /w2 {w 2 div} def /w3 {w 3 div} def 295 1016 m20 0 0 0.6 c 304 1122 m 5 Y s 304 1127 m 5 Y s 299 1127 m 5 X s 304 1127 m 4 X s black 304 1127 m20 0 0 0.6 c 313 1070 m 7 Y s 313 1077 m 5 Y s 308 1077 m 5 X s 313 1077 m 4 X s black 313
 1077 m20 0 0 0.6 c 322 1039 m 6 Y s 322 1045 m 6 Y s 317 1045 m 5 X s 322 1045 m 5 X s black 322 1045 m20 0 0 0.6 c 331 1040 m 7 Y s 331 1047 m 6 Y s 327 1047 m 4 X s 331 1047 m 5 X s black 331 1047 m20 0 0 0.6 c 340 1040 m 7 Y s 340 1047 m 7 Y s
 336 1047 m 4 X s 340 1047 m 5 X s black 340 1047 m20 0 0 0.6 c 349 1024 m 7 Y s 349 1031 m 7 Y s 345 1031 m 4 X s 349 1031 m 5 X s black 349 1031 m20 0 0 0.6 c 358 1018 m 7 Y s 358 1025 m 6 Y s 354 1025 m 4 X s 358 1025 m 5 X s black 358 1025 m20 0
 0 0.6 c 367 1005 m 7 Y s 367 1012 m 6 Y s 363 1012 m 4 X s 367 1012 m 5 X s black 367 1012 m20 0 0 0.6 c 376 996 m 7 Y s 376 1003 m 6 Y s 372 1003 m 4 X s 376 1003 m 5 X s black 376 1003 m20 0 0 0.6 c 386 996 m 7 Y s 386 1003 m 6 Y s 381 1003 m 5 X
 s 386 1003 m 4 X s black 386 1003 m20 0 0 0.6 c 395 983 m 8 Y s 395 991 m 7 Y s 390 991 m 5 X s 395 991 m 4 X s black 395 991 m20 0 0 0.6 c 404 990 m 7 Y s 404 997 m 7 Y s 399 997 m 5 X s 404 997 m 4 X s black 404 997 m20 0 0 0.6 c 413 977 m 9 Y s
 413 986 m 7 Y s 408 986 m 5 X s 413 986 m 4 X s black 413 986 m20 0 0 0.6 c 422 973 m 7 Y s 422 980 m 6 Y s 417 980 m 5 X s 422 980 m 4 X s black 422 980 m20 0 0 0.6 c 431 960 m 7 Y s 431 967 m 7 Y s 426 967 m 5 X s 431 967 m 4 X s black 431 967 m20
 0 0 0.6 c 440 967 m 8 Y s 440 975 m 8 Y s 435 975 m 5 X s 440 975 m 4 X s black 440 975 m20 0 0 0.6 c 449 962 m 8 Y s 449 970 m 7 Y s 444 970 m 5 X s 449 970 m 5 X s black 449 970 m20 0 0 0.6 c 458 943 m 8 Y s 458 951 m 7 Y s 454 951 m 4 X s 458 951
 m 5 X s black 458 951 m20 0 0 0.6 c 467 948 m 8 Y s 467 956 m 8 Y s 463 956 m 4 X s 467 956 m 5 X s black 467 956 m20 0 0 0.6 c 476 945 m 7 Y s 476 952 m 7 Y s 472 952 m 4 X s 476 952 m 5 X s black 476 952 m20 0 0 0.6 c 485 923 m 8 Y s 485 931 m 7 Y
 s 481 931 m 4 X s 485 931 m 5 X s black 485 931 m20 0 0 0.6 c 494 941 m 8 Y s 494 949 m 7 Y s 490 949 m 4 X s 494 949 m 5 X s black 494 949 m20 0 0 0.6 c 503 922 m 10 Y s 503 932 m 8 Y s 499 932 m 4 X s 503 932 m 5 X s black 503 932 m20 0 0 0.6 c
 513 923 m 10 Y s 513 933 m 9 Y s 508 933 m 5 X s 513 933 m 4 X s black 513 933 m20 0 0 0.6 c 522 912 m 9 Y s 522 921 m 8 Y s 517 921 m 5 X s 522 921 m 4 X s black 522 921 m20 0 0 0.6 c 531 917 m 8 Y s 531 925 m 8 Y s 526 925 m 5 X s 531 925 m 4 X s
 black 531 925 m20 0 0 0.6 c 540 916 m 9 Y s 540 925 m 7 Y s 535 925 m 5 X s 540 925 m 4 X s black 540 925 m20 0 0 0.6 c 549 913 m 8 Y s 549 921 m 8 Y s 544 921 m 5 X s 549 921 m 4 X s black 549 921 m20 0 0 0.6 c 558 910 m 9 Y s 558 919 m 7 Y s 553
 919 m 5 X s 558 919 m 4 X s black 558 919 m20 0 0 0.6 c 567 886 m 9 Y s 567 895 m 8 Y s 562 895 m 5 X s 567 895 m 4 X s black 567 895 m20 0 0 0.6 c 576 907 m 9 Y s 576 916 m 8 Y s 571 916 m 5 X s 576 916 m 5 X s black 576 916 m20 0 0 0.6 c 585 899 m
 9 Y s 585 908 m 8 Y s 581 908 m 4 X s 585 908 m 5 X s black 585 908 m20 0 0 0.6 c 594 871 m 11 Y s 594 882 m 9 Y s 590 882 m 4 X s 594 882 m 5 X s black 594 882 m20 0 0 0.6 c 603 887 m 9 Y s 603 896 m 7 Y s 599 896 m 4 X s 603 896 m 5 X s black 603
 896 m20 0 0 0.6 c 612 885 m 10 Y s 612 895 m 8 Y s 608 895 m 4 X s 612 895 m 5 X s black 612 895 m20 0 0 0.6 c 621 878 m 11 Y s 621 889 m 9 Y s 617 889 m 4 X s 621 889 m 5 X s black 621 889 m20 0 0 0.6 c 630 881 m 9 Y s 630 890 m 8 Y s 626 890 m 4 X
 s 630 890 m 5 X s black 630 890 m20 0 0 0.6 c 639 896 m 10 Y s 639 906 m 9 Y s 635 906 m 4 X s 639 906 m 5 X s black 639 906 m20 0 0 0.6 c 649 862 m 10 Y s 649 872 m 9 Y s 644 872 m 5 X s 649 872 m 4 X s black 649 872 m20 0 0 0.6 c 658 866 m 10 Y s
 658 876 m 8 Y s 653 876 m 5 X s 658 876 m 4 X s black 658 876 m20 0 0 0.6 c 667 860 m 10 Y s 667 870 m 9 Y s 662 870 m 5 X s 667 870 m 4 X s black 667 870 m20 0 0 0.6 c 676 868 m 13 Y s 676 881 m 11 Y s 671 881 m 5 X s 676 881 m 4 X s black 676 881
 m20 0 0 0.6 c 685 858 m 10 Y s 685 868 m 8 Y s 680 868 m 5 X s 685 868 m 4 X s black 685 868 m20 0 0 0.6 c 694 858 m 10 Y s 694 868 m 8 Y s 689 868 m 5 X s 694 868 m 4 X s black 694 868 m20 0 0 0.6 c 703 844 m 12 Y s 703 856 m 11 Y s 698 856 m 5 X s
 703 856 m 5 X s black 703 856 m20 0 0 0.6 c 712 831 m 11 Y s 712 842 m 10 Y s 708 842 m 4 X s 712 842 m 5 X s black 712 842 m20 0 0 0.6 c 721 849 m 10 Y s 721 859 m 9 Y s 717 859 m 4 X s 721 859 m 5 X s black 721 859 m20 0 0 0.6 c 730 860 m 10 Y s
 730 870 m 10 Y s 726 870 m 4 X s 730 870 m 5 X s black 730 870 m20 0 0 0.6 c 739 847 m 11 Y s 739 858 m 10 Y s 735 858 m 4 X s 739 858 m 5 X s black 739 858 m20 0 0 0.6 c 748 842 m 11 Y s 748 853 m 10 Y s 744 853 m 4 X s 748 853 m 5 X s black 748
 853 m20 0 0 0.6 c 757 845 m 11 Y s 757 856 m 9 Y s 753 856 m 4 X s 757 856 m 5 X s black 757 856 m20 0 0 0.6 c 766 849 m 10 Y s 766 859 m 9 Y s 762 859 m 4 X s 766 859 m 5 X s black 766 859 m20 0 0 0.6 c 776 840 m 9 Y s 776 849 m 9 Y s 771 849 m 5 X
 s 776 849 m 4 X s black 776 849 m20 0 0 0.6 c 785 834 m 11 Y s 785 845 m 10 Y s 780 845 m 5 X s 785 845 m 4 X s black 785 845 m20 0 0 0.6 c 794 826 m 11 Y s 794 837 m 10 Y s 789 837 m 5 X s 794 837 m 4 X s black 794 837 m20 0 0 0.6 c 803 828 m 11 Y
 s 803 839 m 9 Y s 798 839 m 5 X s 803 839 m 4 X s black 803 839 m20 0 0 0.6 c 812 804 m 13 Y s 812 817 m 11 Y s 807 817 m 5 X s 812 817 m 4 X s black 812 817 m20 0 0 0.6 c 821 846 m 12 Y s 821 858 m 10 Y s 816 858 m 5 X s 821 858 m 4 X s black 821
 858 m20 0 0 0.6 c 830 835 m 11 Y s 830 846 m 10 Y s 825 846 m 5 X s 830 846 m 5 X s black 830 846 m20 0 0 0.6 c 839 833 m 12 Y s 839 845 m 10 Y s 835 845 m 4 X s 839 845 m 5 X s black 839 845 m20 0 0 0.6 c 848 814 m 13 Y s 848 827 m 12 Y s 844 827 m
 4 X s 848 827 m 5 X s black 848 827 m20 0 0 0.6 c 857 812 m 13 Y s 857 825 m 11 Y s 853 825 m 4 X s 857 825 m 5 X s black 857 825 m20 0 0 0.6 c 866 823 m 10 Y s 866 833 m 10 Y s 862 833 m 4 X s 866 833 m 5 X s black 866 833 m20 0 0 0.6 c 875 807 m
 14 Y s 875 821 m 11 Y s 871 821 m 4 X s 875 821 m 5 X s black 875 821 m20 0 0 0.6 c 884 820 m 12 Y s 884 832 m 10 Y s 880 832 m 4 X s 884 832 m 5 X s black 884 832 m20 0 0 0.6 c 893 800 m 13 Y s 893 813 m 11 Y s 889 813 m 4 X s 893 813 m 5 X s black
 893 813 m20 0 0 0.6 c 903 813 m 13 Y s 903 826 m 10 Y s 898 826 m 5 X s 903 826 m 4 X s black 903 826 m20 0 0 0.6 c 912 817 m 14 Y s 912 831 m 12 Y s 907 831 m 5 X s 912 831 m 4 X s black 912 831 m20 0 0 0.6 c 921 775 m 15 Y s 921 790 m 13 Y s 916
 790 m 5 X s 921 790 m 4 X s black 921 790 m20 0 0 0.6 c 930 806 m 14 Y s 930 820 m 12 Y s 925 820 m 5 X s 930 820 m 4 X s black 930 820 m20 0 0 0.6 c 939 785 m 14 Y s 939 799 m 12 Y s 934 799 m 5 X s 939 799 m 4 X s black 939 799 m20 0 0 0.6 c 948
 809 m 11 Y s 948 820 m 10 Y s 943 820 m 5 X s 948 820 m 4 X s black 948 820 m20 0 0 0.6 c 957 805 m 12 Y s 957 817 m 11 Y s 952 817 m 5 X s 957 817 m 5 X s black 957 817 m20 0 0 0.6 c 966 797 m 11 Y s 966 808 m 10 Y s 962 808 m 4 X s 966 808 m 5 X s
 black 966 808 m20 0 0 0.6 c 975 801 m 12 Y s 975 813 m 11 Y s 971 813 m 4 X s 975 813 m 5 X s black 975 813 m20 0 0 0.6 c 984 812 m 12 Y s 984 824 m 10 Y s 980 824 m 4 X s 984 824 m 5 X s black 984 824 m20 0 0 0.6 c 993 798 m 12 Y s 993 810 m 10 Y s
 989 810 m 4 X s 993 810 m 5 X s black 993 810 m20 0 0 0.6 c 1002 795 m 13 Y s 1002 808 m 11 Y s 998 808 m 4 X s 1002 808 m 5 X s black 1002 808 m20 0 0 0.6 c 1011 796 m 13 Y s 1011 809 m 11 Y s 1007 809 m 4 X s 1011 809 m 5 X s black 1011 809 m20 0
 0 0.6 c 1020 756 m 17 Y s 1020 773 m 14 Y s 1016 773 m 4 X s 1020 773 m 5 X s black 1020 773 m20 0 0 0.6 c 1030 781 m 14 Y s 1030 795 m 12 Y s 1025 795 m 5 X s 1030 795 m 4 X s black 1030 795 m20 0 0 0.6 c 1039 798 m 12 Y s 1039 810 m 10 Y s 1034
 810 m 5 X s 1039 810 m 4 X s black 1039 810 m20 0 0 0.6 c 1048 771 m 14 Y s 1048 785 m 12 Y s 1043 785 m 5 X s 1048 785 m 4 X s black 1048 785 m20 0 0 0.6 c 1057 789 m 14 Y s 1057 803 m 11 Y s 1052 803 m 5 X s 1057 803 m 4 X s black 1057 803 m20 0 0
 0.6 c 1066 780 m 16 Y s 1066 796 m 13 Y s 1061 796 m 5 X s 1066 796 m 4 X s black 1066 796 m20 0 0 0.6 c 1075 792 m 14 Y s 1075 806 m 12 Y s 1070 806 m 5 X s 1075 806 m 4 X s black 1075 806 m20 0 0 0.6 c 1084 770 m 21 Y s 1084 791 m 16 Y s 1079 791
 m 5 X s 1084 791 m 5 X s black 1084 791 m20 0 0 0.6 c 1093 768 m 14 Y s 1093 782 m 11 Y s 1089 782 m 4 X s 1093 782 m 5 X s black 1093 782 m20 0 0 0.6 c 1102 766 m 13 Y s 1102 779 m 12 Y s 1098 779 m 4 X s 1102 779 m 5 X s black 1102 779 m20 0 0 0.6
 c 1111 796 m 16 Y s 1111 812 m 14 Y s 1107 812 m 4 X s 1111 812 m 5 X s black 1111 812 m20 0 0 0.6 c 1120 757 m 16 Y s 1120 773 m 14 Y s 1116 773 m 4 X s 1120 773 m 5 X s black 1120 773 m20 0 0 0.6 c 1129 766 m 17 Y s 1129 783 m 14 Y s 1125 783 m 4
 X s 1129 783 m 5 X s black 1129 783 m20 0 0 0.6 c 1138 777 m 13 Y s 1138 790 m 11 Y s 1134 790 m 4 X s 1138 790 m 5 X s black 1138 790 m20 0 0 0.6 c 1147 759 m 13 Y s 1147 772 m 11 Y s 1143 772 m 4 X s 1147 772 m 5 X s black 1147 772 m20 0 0 0.6 c
 1157 755 m 14 Y s 1157 769 m 11 Y s 1152 769 m 5 X s 1157 769 m 4 X s black 1157 769 m20 0 0 0.6 c 1166 730 m 18 Y s 1166 748 m 14 Y s 1161 748 m 5 X s 1166 748 m 4 X s black 1166 748 m20 0 0 0.6 c 1175 761 m 15 Y s 1175 776 m 13 Y s 1170 776 m 5 X
 s 1175 776 m 4 X s black 1175 776 m20 0 0 0.6 c 1184 757 m 21 Y s 1184 778 m 16 Y s 1179 778 m 5 X s 1184 778 m 4 X s black 1184 778 m20 0 0 0.6 c 1193 749 m 14 Y s 1193 763 m 11 Y s 1188 763 m 5 X s 1193 763 m 4 X s black 1193 763 m20 0 0 0.6 c
 1202 760 m 14 Y s 1202 774 m 12 Y s 1197 774 m 5 X s 1202 774 m 4 X s black 1202 774 m20 0 0 0.6 c 1211 729 m 15 Y s 1211 744 m 13 Y s 1206 744 m 5 X s 1211 744 m 4 X s black 1211 744 m20 0 0 0.6 c 1220 749 m 15 Y s 1220 764 m 13 Y s 1215 764 m 5 X
 s 1220 764 m 5 X s black 1220 764 m20 0 0 0.6 c 1229 753 m 14 Y s 1229 767 m 12 Y s 1225 767 m 4 X s 1229 767 m 5 X s black 1229 767 m20 0 0 0.6 c 1238 716 m 15 Y s 1238 731 m 12 Y s 1234 731 m 4 X s 1238 731 m 5 X s black 1238 731 m20 0 0 0.6 c
 1247 744 m 14 Y s 1247 758 m 11 Y s 1243 758 m 4 X s 1247 758 m 5 X s black 1247 758 m20 0 0 0.6 c 1256 737 m 13 Y s 1256 750 m 12 Y s 1252 750 m 4 X s 1256 750 m 5 X s black 1256 750 m20 0 0 0.6 c 1265 712 m 20 Y s 1265 732 m 15 Y s 1261 732 m 4 X
 s 1265 732 m 5 X s black 1265 732 m20 0 0 0.6 c 1274 736 m 15 Y s 1274 751 m 12 Y s 1270 751 m 4 X s 1274 751 m 5 X s black 1274 751 m20 0 0 0.6 c 1284 752 m 15 Y s 1284 767 m 12 Y s 1279 767 m 5 X s 1284 767 m 4 X s black 1284 767 m20 0 0 0.6 c
 1293 736 m 17 Y s 1293 753 m 14 Y s 1288 753 m 5 X s 1293 753 m 4 X s black 1293 753 m20 0 0 0.6 c 1302 729 m 17 Y s 1302 746 m 15 Y s 1297 746 m 5 X s 1302 746 m 4 X s black 1302 746 m20 0 0 0.6 c 1311 724 m 14 Y s 1311 738 m 13 Y s 1306 738 m 5 X
 s 1311 738 m 4 X s black 1311 738 m20 0 0 0.6 c 1320 745 m 16 Y s 1320 761 m 13 Y s 1315 761 m 5 X s 1320 761 m 4 X s black 1320 761 m20 0 0 0.6 c 1329 707 m 19 Y s 1329 726 m 16 Y s 1324 726 m 5 X s 1329 726 m 4 X s black 1329 726 m20 0 0 0.6 c
 1338 750 m 19 Y s 1338 769 m 15 Y s 1333 769 m 5 X s 1338 769 m 4 X s black 1338 769 m20 0 0 0.6 c 1347 729 m 14 Y s 1347 743 m 12 Y s 1342 743 m 5 X s 1347 743 m 5 X s black 1347 743 m20 0 0 0.6 c 1356 714 m 16 Y s 1356 730 m 13 Y s 1352 730 m 4 X
 s 1356 730 m 5 X s black 1356 730 m20 0 0 0.6 c 1365 692 m 17 Y s 1365 709 m 14 Y s 1361 709 m 4 X s 1365 709 m 5 X s black 1365 709 m20 0 0 0.6 c 1374 738 m 17 Y s 1374 755 m 14 Y s 1370 755 m 4 X s 1374 755 m 5 X s black 1374 755 m20 0 0 0.6 c
 1383 737 m 16 Y s 1383 753 m 13 Y s 1379 753 m 4 X s 1383 753 m 5 X s black 1383 753 m20 0 0 0.6 c 1392 734 m 18 Y s 1392 752 m 15 Y s 1388 752 m 4 X s 1392 752 m 5 X s black 1392 752 m20 0 0 0.6 c 1401 722 m 16 Y s 1401 738 m 14 Y s 1397 738 m 4 X
 s 1401 738 m 5 X s black 1401 738 m20 0 0 0.6 c 1411 739 m 16 Y s 1411 755 m 14 Y s 1406 755 m 5 X s 1411 755 m 4 X s black 1411 755 m20 0 0 0.6 c 1420 683 m 19 Y s 1420 702 m 15 Y s 1415 702 m 5 X s 1420 702 m 4 X s black 1420 702 m20 0 0 0.6 c
 1429 735 m 17 Y s 1429 752 m 13 Y s 1424 752 m 5 X s 1429 752 m 4 X s black 1429 752 m20 0 0 0.6 c 1438 704 m 16 Y s 1438 720 m 13 Y s 1433 720 m 5 X s 1438 720 m 4 X s black 1438 720 m20 0 0 0.6 c 1447 683 m 16 Y s 1447 699 m 14 Y s 1442 699 m 5 X
 s 1447 699 m 4 X s black 1447 699 m20 0 0 0.6 c 1456 704 m 16 Y s 1456 720 m 14 Y s 1451 720 m 5 X s 1456 720 m 4 X s black 1456 720 m20 0 0 0.6 c 1465 726 m 16 Y s 1465 742 m 13 Y s 1460 742 m 5 X s 1465 742 m 4 X s black 1465 742 m20 0 0 0.6 c
 1474 698 m 20 Y s 1474 718 m 17 Y s 1469 718 m 5 X s 1474 718 m 5 X s black 1474 718 m20 0 0 0.6 c 1483 720 m 19 Y s 1483 739 m 16 Y s 1479 739 m 4 X s 1483 739 m 5 X s black 1483 739 m20 0 0 0.6 c 1492 689 m 17 Y s 1492 706 m 14 Y s 1488 706 m 4 X
 s 1492 706 m 5 X s black 1492 706 m20 0 0 0.6 c 1501 698 m 18 Y s 1501 716 m 14 Y s 1497 716 m 4 X s 1501 716 m 5 X s black 1501 716 m20 0 0 0.6 c 1510 711 m 19 Y s 1510 730 m 15 Y s 1506 730 m 4 X s 1510 730 m 5 X s black 1510 730 m20 0 0 0.6 c
 1519 717 m 15 Y s 1519 732 m 13 Y s 1515 732 m 4 X s 1519 732 m 5 X s black 1519 732 m20 0 0 0.6 c 1528 694 m 24 Y s 1528 718 m 19 Y s 1524 718 m 4 X s 1528 718 m 5 X s black 1528 718 m20 0 0 0.6 c 1538 717 m 14 Y s 1538 731 m 13 Y s 1533 731 m 5 X
 s 1538 731 m 4 X s black 1538 731 m20 0 0 0.6 c 1547 685 m 17 Y s 1547 702 m 14 Y s 1542 702 m 5 X s 1547 702 m 4 X s black 1547 702 m20 0 0 0.6 c 1556 708 m 17 Y s 1556 725 m 13 Y s 1551 725 m 5 X s 1556 725 m 4 X s black 1556 725 m20 0 0 0.6 c
 1565 724 m 15 Y s 1565 739 m 13 Y s 1560 739 m 5 X s 1565 739 m 4 X s black 1565 739 m20 0 0 0.6 c 1574 703 m 19 Y s 1574 722 m 14 Y s 1569 722 m 5 X s 1574 722 m 4 X s black 1574 722 m20 0 0 0.6 c 1583 699 m 19 Y s 1583 718 m 15 Y s 1578 718 m 5 X
 s 1583 718 m 4 X s black 1583 718 m20 0 0 0.6 c 1592 719 m 18 Y s 1592 737 m 14 Y s 1587 737 m 5 X s 1592 737 m 4 X s black 1592 737 m20 0 0 0.6 c 1601 707 m 15 Y s 1601 722 m 13 Y s 1596 722 m 5 X s 1601 722 m 5 X s black 1601 722 m20 0 0 0.6 c
 1610 679 m 20 Y s 1610 699 m 17 Y s 1606 699 m 4 X s 1610 699 m 5 X s black 1610 699 m20 0 0 0.6 c 1619 715 m 17 Y s 1619 732 m 14 Y s 1615 732 m 4 X s 1619 732 m 5 X s black 1619 732 m20 0 0 0.6 c 1628 686 m 17 Y s 1628 703 m 14 Y s 1624 703 m 4 X
 s 1628 703 m 5 X s black 1628 703 m20 0 0 0.6 c 1637 676 m 19 Y s 1637 695 m 16 Y s 1633 695 m 4 X s 1637 695 m 5 X s black 1637 695 m20 0 0 0.6 c 1646 704 m 17 Y s 1646 721 m 13 Y s 1642 721 m 4 X s 1646 721 m 5 X s black 1646 721 m20 0 0 0.6 c
 1655 681 m 19 Y s 1655 700 m 15 Y s 1651 700 m 4 X s 1655 700 m 5 X s black 1655 700 m20 0 0 0.6 c 1665 708 m 17 Y s 1665 725 m 14 Y s 1660 725 m 5 X s 1665 725 m 4 X s black 1665 725 m20 0 0 0.6 c 1674 671 m 18 Y s 1674 689 m 15 Y s 1669 689 m 5 X
 s 1674 689 m 4 X s black 1674 689 m20 0 0 0.6 c 1683 709 m 18 Y s 1683 727 m 14 Y s 1678 727 m 5 X s 1683 727 m 4 X s black 1683 727 m20 0 0 0.6 c 1692 708 m 22 Y s 1692 730 m 17 Y s 1687 730 m 5 X s 1692 730 m 4 X s black 1692 730 m20 0 0 0.6 c
 1701 681 m 22 Y s 1701 703 m 16 Y s 1696 703 m 5 X s 1701 703 m 4 X s black 1701 703 m20 0 0 0.6 c 1710 673 m 19 Y s 1710 692 m 14 Y s 1705 692 m 5 X s 1710 692 m 4 X s black 1710 692 m20 0 0 0.6 c 1719 680 m 20 Y s 1719 700 m 15 Y s 1714 700 m 5 X
 s 1719 700 m 4 X s black 1719 700 m20 0 0 0.6 c 1728 690 m 19 Y s 1728 709 m 14 Y s 1723 709 m 5 X s 1728 709 m 5 X s black 1728 709 m20 0 0 0.6 c 1737 673 m 19 Y s 1737 692 m 15 Y s 1733 692 m 4 X s 1737 692 m 5 X s black 1737 692 m20 0 0 0.6 c
 1746 664 m 24 Y s 1746 688 m 18 Y s 1742 688 m 4 X s 1746 688 m 5 X s black 1746 688 m20 0 0 0.6 c 1755 668 m 24 Y s 1755 692 m 18 Y s 1751 692 m 4 X s 1755 692 m 5 X s black 1755 692 m20 0 0 0.6 c 1764 713 m 18 Y s 1764 731 m 14 Y s 1760 731 m 4 X
 s 1764 731 m 5 X s black 1764 731 m20 0 0 0.6 c 1773 692 m 18 Y s 1773 710 m 14 Y s 1769 710 m 4 X s 1773 710 m 5 X s black 1773 710 m20 0 0 0.6 c 1782 671 m 23 Y s 1782 694 m 18 Y s 1778 694 m 4 X s 1782 694 m 5 X s black 1782 694 m20 0 0 0.6 c
 1791 681 m 19 Y s 1791 700 m 15 Y s 1787 700 m 4 X s 1791 700 m 5 X s black 1791 700 m20 0 0 0.6 c 1801 690 m 15 Y s 1801 705 m 13 Y s 1796 705 m 5 X s 1801 705 m 4 X s black 1801 705 m20 0 0 0.6 c 1810 656 m 19 Y s 1810 675 m 15 Y s 1805 675 m 5 X
 s 1810 675 m 4 X s black 1810 675 m20 0 0 0.6 c 1819 659 m 28 Y s 1819 687 m 21 Y s 1814 687 m 5 X s 1819 687 m 4 X s black 1819 687 m20 0 0 0.6 c 1828 675 m 18 Y s 1828 693 m 14 Y s 1823 693 m 5 X s 1828 693 m 4 X s black 1828 693 m20 0 0 0.6 c
 1837 634 m 24 Y s 1837 658 m 19 Y s 1832 658 m 5 X s 1837 658 m 4 X s black 1837 658 m20 0 0 0.6 c 1846 633 m 22 Y s 1846 655 m 17 Y s 1841 655 m 5 X s 1846 655 m 4 X s black 1846 655 m20 0 0 0.6 c 1855 622 m 32 Y s 1855 654 m 22 Y s 1850 654 m 5 X
 s 1855 654 m 5 X s black 1855 654 m20 0 0 0.6 c 1864 673 m 21 Y s 1864 694 m 16 Y s 1860 694 m 4 X s 1864 694 m 5 X s black 1864 694 m20 0 0 0.6 c 1873 658 m 19 Y s 1873 677 m 15 Y s 1869 677 m 4 X s 1873 677 m 5 X s black 1873 677 m20 0 0 0.6 c
 1882 644 m 23 Y s 1882 667 m 17 Y s 1878 667 m 4 X s 1882 667 m 5 X s black 1882 667 m20 0 0 0.6 c 1891 628 m 23 Y s 1891 651 m 17 Y s 1887 651 m 4 X s 1891 651 m 5 X s black 1891 651 m20 0 0 0.6 c 1900 668 m 20 Y s 1900 688 m 16 Y s 1896 688 m 4 X
 s 1900 688 m 5 X s black 1900 688 m20 0 0 0.6 c 1909 656 m 22 Y s 1909 678 m 17 Y s 1905 678 m 4 X s 1909 678 m 5 X s black 1909 678 m20 0 0 0.6 c 1918 660 m 21 Y s 1918 681 m 17 Y s 1914 681 m 4 X s 1918 681 m 5 X s black 1918 681 m20 0 0 0.6 c
 1928 651 m 21 Y s 1928 672 m 16 Y s 1923 672 m 5 X s 1928 672 m 4 X s black 1928 672 m20 0 0 0.6 c 1937 679 m 20 Y s 1937 699 m 16 Y s 1932 699 m 5 X s 1937 699 m 4 X s black 1937 699 m20 0 0 0.6 c 1946 619 m 24 Y s 1946 643 m 18 Y s 1941 643 m 5 X
 s 1946 643 m 4 X s black 1946 643 m20 0 0 0.6 c 1955 627 m 24 Y s 1955 651 m 18 Y s 1950 651 m 5 X s 1955 651 m 4 X s black 1955 651 m20 0 0 0.6 c 1964 626 m 23 Y s 1964 649 m 17 Y s 1959 649 m 5 X s 1964 649 m 4 X s black 1964 649 m20 0 0 0.6 c
 1973 617 m 23 Y s 1973 640 m 17 Y s 1968 640 m 5 X s 1973 640 m 4 X s black 1973 640 m20 0 0 0.6 c 1982 536 m 37 Y s 1982 573 m 24 Y s 1977 573 m 5 X s 1982 573 m 5 X s black 1982 573 m20 0 0 0.6 c 1991 640 m 29 Y s 1991 669 m 22 Y s 1987 669 m 4 X
 s 1991 669 m 5 X s black 1991 669 m20 0 0 0.6 c 2000 636 m 24 Y s 2000 660 m 19 Y s 1996 660 m 4 X s 2000 660 m 5 X s black 2000 660 m20 0 0 0.6 c 2009 624 m 25 Y s 2009 649 m 19 Y s 2005 649 m 4 X s 2009 649 m 5 X s black 2009 649 m20 0 0 0.6 c
 2018 659 m 20 Y s 2018 679 m 16 Y s 2014 679 m 4 X s 2018 679 m 5 X s black 2018 679 m20 0 0 0.6 c 2027 638 m 23 Y s 2027 661 m 17 Y s 2023 661 m 4 X s 2027 661 m 5 X s black 2027 661 m20 0 0 0.6 c 2036 604 m 25 Y s 2036 629 m 19 Y s 2032 629 m 4 X
 s 2036 629 m 5 X s black 2036 629 m20 227 154 m 1814 X s 227 191 m -37 Y s 272 172 m -18 Y s 317 172 m -18 Y s 363 172 m -18 Y s 408 172 m -18 Y s 454 191 m -37 Y s 499 172 m -18 Y s 544 172 m -18 Y s 590 172 m -18 Y s 635 172 m -18 Y s 680 191 m
 -37 Y s 726 172 m -18 Y s 771 172 m -18 Y s 816 172 m -18 Y s 862 172 m -18 Y s 907 191 m -37 Y s 952 172 m -18 Y s 998 172 m -18 Y s 1043 172 m -18 Y s 1089 172 m -18 Y s 1134 191 m -37 Y s 1179 172 m -18 Y s 1225 172 m -18 Y s 1270 172 m -18 Y s
 1315 172 m -18 Y s 1361 191 m -37 Y s 1406 172 m -18 Y s 1451 172 m -18 Y s 1497 172 m -18 Y s 1542 172 m -18 Y s 1587 191 m -37 Y s 1633 172 m -18 Y s 1678 172 m -18 Y s 1723 172 m -18 Y s 1769 172 m -18 Y s 1814 191 m -37 Y s 1860 172 m -18 Y s
 1905 172 m -18 Y s 1950 172 m -18 Y s 1996 172 m -18 Y s 2041 191 m -37 Y s
 gsave  2268 1540 0 0 C 211.177 103.964 t 0 r /Helvetica findfont 48.7332 sf 0 0 m (0) show NC gr 
 gsave  2268 1540 0 0 C 422.354 103.964 t 0 r /Helvetica findfont 48.7332 sf 0 0 m (50) show NC gr 
 gsave  2268 1540 0 0 C 636.78 103.964 t 0 r /Helvetica findfont 48.7332 sf 0 0 m (100) show NC gr 
 gsave  2268 1540 0 0 C 864.201 103.964 t 0 r /Helvetica findfont 48.7332 sf 0 0 m (150) show NC gr 
 gsave  2268 1540 0 0 C 1091.62 103.964 t 0 r /Helvetica findfont 48.7332 sf 0 0 m (200) show NC gr 
 gsave  2268 1540 0 0 C 1315.8 103.964 t 0 r /Helvetica findfont 48.7332 sf 0 0 m (250) show NC gr 
 gsave  2268 1540 0 0 C 1543.22 103.964 t 0 r /Helvetica findfont 48.7332 sf 0 0 m (300) show NC gr 
 gsave  2268 1540 0 0 C 1770.64 103.964 t 0 r /Helvetica findfont 48.7332 sf 0 0 m (350) show NC gr 
 gsave  2268 1540 0 0 C 1998.06 103.964 t 0 r /Helvetica findfont 48.7332 sf 0 0 m (400) show NC gr 
 gsave  2268 1540 0 0 C 1059.13 25.991 t 0 r /Helvetica findfont 64.9775 sf 0 0 m (r\(cm\)) show NC gr  227 154 m 1232 Y s 281 154 m -54 X s
 gsave  2268 1540 0 0 C 188.435 155.946 t 0 r /Helvetica findfont 32.4888 sf 0 0 m (5) show NC gr 
 gsave  2268 1540 0 0 C 168.942 155.946 t 0 r /Symbol findfont 32.4888 sf 0 0 m (-) show NC gr 
 gsave  2268 1540 0 0 C 113.711 133.204 t 0 r /Helvetica findfont 48.7332 sf 0 0 m (10) show NC gr  254 207 m -27 X s 254 238 m -27 X s 254 260 m -27 X s 254 277 m -27 X s 254 291 m -27 X s 254 303 m -27 X s 254 313 m -27 X s 254 322 m -27 X s 281
 330 m -54 X s
 gsave  2268 1540 0 0 C 188.435 328.137 t 0 r /Helvetica findfont 32.4888 sf 0 0 m (4) show NC gr 
 gsave  2268 1540 0 0 C 168.942 328.137 t 0 r /Symbol findfont 32.4888 sf 0 0 m (-) show NC gr 
 gsave  2268 1540 0 0 C 113.711 308.643 t 0 r /Helvetica findfont 48.7332 sf 0 0 m (10) show NC gr  254 383 m -27 X s 254 414 m -27 X s 254 436 m -27 X s 254 453 m -27 X s 254 467 m -27 X s 254 479 m -27 X s 254 489 m -27 X s 254 498 m -27 X s 281
 506 m -54 X s
 gsave  2268 1540 0 0 C 188.435 506.825 t 0 r /Helvetica findfont 32.4888 sf 0 0 m (3) show NC gr 
 gsave  2268 1540 0 0 C 168.942 506.825 t 0 r /Symbol findfont 32.4888 sf 0 0 m (-) show NC gr 
 gsave  2268 1540 0 0 C 113.711 484.083 t 0 r /Helvetica findfont 48.7332 sf 0 0 m (10) show NC gr  254 559 m -27 X s 254 590 m -27 X s 254 612 m -27 X s 254 629 m -27 X s 254 643 m -27 X s 254 655 m -27 X s 254 665 m -27 X s 254 674 m -27 X s 281
 682 m -54 X s
 gsave  2268 1540 0 0 C 188.435 679.015 t 0 r /Helvetica findfont 32.4888 sf 0 0 m (2) show NC gr 
 gsave  2268 1540 0 0 C 168.942 679.015 t 0 r /Symbol findfont 32.4888 sf 0 0 m (-) show NC gr 
 gsave  2268 1540 0 0 C 113.711 659.522 t 0 r /Helvetica findfont 48.7332 sf 0 0 m (10) show NC gr  254 735 m -27 X s 254 766 m -27 X s 254 788 m -27 X s 254 805 m -27 X s 254 819 m -27 X s 254 831 m -27 X s 254 841 m -27 X s 254 850 m -27 X s 281
 858 m -54 X s
 gsave  2268 1540 0 0 C 194.933 857.704 t 0 r /Helvetica findfont 32.4888 sf 0 0 m (1) show NC gr 
 gsave  2268 1540 0 0 C 175.439 857.704 t 0 r /Symbol findfont 32.4888 sf 0 0 m (-) show NC gr 
 gsave  2268 1540 0 0 C 120.208 838.21 t 0 r /Helvetica findfont 48.7332 sf 0 0 m (10) show NC gr  254 911 m -27 X s 254 942 m -27 X s 254 964 m -27 X s 254 981 m -27 X s 254 995 m -27 X s 254 1007 m -27 X s 254 1017 m -27 X s 254 1026 m -27 X s 281
 1034 m -54 X s
 gsave  2268 1540 0 0 C 188.435 1016.9 t 0 r /Helvetica findfont 48.7332 sf 0 0 m (1) show NC gr  254 1087 m -27 X s 254 1118 m -27 X s 254 1140 m -27 X s 254 1157 m -27 X s 254 1171 m -27 X s 254 1183 m -27 X s 254 1193 m -27 X s 254 1202 m -27 X s
 281 1210 m -54 X s
 gsave  2268 1540 0 0 C 152.697 1192.34 t 0 r /Helvetica findfont 48.7332 sf 0 0 m (10) show NC gr  254 1263 m -27 X s 254 1294 m -27 X s 254 1316 m -27 X s 254 1333 m -27 X s 254 1347 m -27 X s 254 1359 m -27 X s 254 1369 m -27 X s 254 1378 m -27 X
 s 281 1386 m -54 X s
 gsave  2268 1540 0 0 C 188.435 1384.02 t 0 r /Helvetica findfont 32.4888 sf 0 0 m (2) show NC gr 
 gsave  2268 1540 0 0 C 133.204 1364.53 t 0 r /Helvetica findfont 48.7332 sf 0 0 m (10) show NC gr 
 gsave  2268 1540 0 0 C 103.964 1367.78 t 90 r /Helvetica findfont 64.9775 sf 0 0 m (\)) show NC gr 
 gsave  2268 1540 0 0 C 74.7242 1338.54 t 90 r /Helvetica findfont 42.2354 sf 0 0 m (\2551) show NC gr 
 gsave  2268 1540 0 0 C 100.715 1026.65 t 90 r /Helvetica findfont 64.9775 sf 0 0 m (density\(cm) show NC gr  1 1 1 c black
 gsave  2268 1540 0 0 C 870.699 1468.49 t 0 r /Helvetica findfont 74.7242 sf 0 0 m (:et_deposition_density_vs_r) show NC gr 
 gsave  2268 1540 0 0 C 854.455 1500.98 t 0 r /Helvetica findfont 48.7332 sf 0 0 m (\255) show NC gr 
 gsave  2268 1540 0 0 C 812.219 1468.49 t 0 r /Symbol findfont 74.7242 sf 0 0 m (p) show NC gr 
 gsave  2268 1540 0 0 C 782.979 1494.48 t 0 r /Helvetica findfont 48.7332 sf 0 0 m (+) show NC gr 
 gsave  2268 1540 0 0 C 740.744 1468.49 t 0 r /Symbol findfont 74.7242 sf 0 0 m (p) show NC gr 
 gsave  2268 1540 0 0 C 467.838 1468.49 t 0 r /Helvetica findfont 74.7242 sf 0 0 m (nu11.4_) show NC gr  1 1 1 c black
 gsave  2268 1540 0 0 C 870.699 1468.49 t 0 r /Helvetica findfont 74.7242 sf 0 0 m (:et_deposition_density_vs_r) show NC gr 
 gsave  2268 1540 0 0 C 854.455 1500.98 t 0 r /Helvetica findfont 48.7332 sf 0 0 m (\255) show NC gr 
 gsave  2268 1540 0 0 C 812.219 1468.49 t 0 r /Symbol findfont 74.7242 sf 0 0 m (p) show NC gr 
 gsave  2268 1540 0 0 C 782.979 1494.48 t 0 r /Helvetica findfont 48.7332 sf 0 0 m (+) show NC gr 
 gsave  2268 1540 0 0 C 740.744 1468.49 t 0 r /Symbol findfont 74.7242 sf 0 0 m (p) show NC gr 
 gsave  2268 1540 0 0 C 467.838 1468.49 t 0 r /Helvetica findfont 74.7242 sf 0 0 m (nu11.4_) show NC gr 
 gr  gr showpage
end
%%EOF
