%!PS-Adobe-2.0 EPSF-2.0
%%BoundingBox:  0 0 567 385
%%Title: ../plot_nu11.4/etr/nu11.4_nn~_xyr.eps: nu11.4_nn~:et_deposition_density_vs_r
%%Creator: ROOT Version 6.14/02
%%CreationDate: Thu Aug  9 14:34:32 2018
%%DocumentNeededResources: ProcSet (FontSetInit)
%%EndComments
%%BeginProlog
80 dict begin
/s {stroke} def /l {lineto} def /m {moveto} def /t {translate} def
/r {rotate} def /rl {roll}  def /R {repeat} def
/d {rlineto} def /rm {rmoveto} def /gr {grestore} def /f {eofill} def
/c {setrgbcolor} def /black {0 setgray} def /sd {setdash} def
/cl {closepath} def /sf {scalefont setfont} def /lw {setlinewidth} def
/box {m dup 0 exch d exch 0 d 0 exch neg d cl} def
/NC{systemdict begin initclip end}def/C{NC box clip newpath}def
/bl {box s} def /bf {gsave box gsave f grestore 1 lw [] 0 sd s grestore} def /Y { 0 exch d} def /X { 0 d} def 
/K {{pop pop 0 moveto} exch kshow} bind def
/ita {/ang 15 def gsave [1 0 ang dup sin exch cos div 1 0 0] concat} def 
/mp {newpath /y exch def /x exch def} def
/side {[w .77 mul w .23 mul] .385 w mul sd w 0 l currentpoint t -144 r} def
/mr {mp x y w2 0 360 arc} def /m24 {mr s} def /m20 {mr f} def
/mb {mp x y w2 add m w2 neg 0 d 0 w neg d w 0 d 0 w d cl} def
/mt {mp x y w2 add m w2 neg w neg d w 0 d cl} def
/w4 {w 4 div} def
/w6 {w 6 div} def
/w8 {w 8 div} def
/m21 {mb f} def /m25 {mb s} def /m22 {mt f} def /m26{mt s} def
/m23 {mp x y w2 sub m w2 w d w neg 0 d cl f} def
/m27 {mp x y w2 add m w3 neg w2 neg d w3 w2 neg d w3 w2 d cl s} def
/m28 {mp x w2 sub y w2 sub w3 add m w3 0 d  0 w3 neg d w3 0 d 0 w3 d w3 0 d  0 w3 d w3 neg 0 d 0 w3 d w3 neg 0 d 0 w3 neg d w3 neg 0 d cl s } def
/m29 {mp gsave x w2 sub y w2 add w3 sub m currentpoint t 4 {side} repeat cl fill gr} def
/m30 {mp gsave x w2 sub y w2 add w3 sub m currentpoint t 4 {side} repeat cl s gr} def
/m31 {mp x y w2 sub m 0 w d x w2 sub y m w 0 d x w2 sub y w2 add m w w neg d x w2 sub y w2 sub m w w d s} def
/m32 {mp x y w2 sub m w2 w d w neg 0 d cl s} def
/m33 {mp x y w2 add m w3 neg w2 neg d w3 w2 neg d w3 w2 d cl f} def
/m34 {mp x w2 sub y w2 sub w3 add m w3 0 d  0 w3 neg d w3 0 d 0 w3 d w3 0 d  0 w3 d w3 neg 0 d 0 w3 d w3 neg 0 d 0 w3 neg d w3 neg 0 d cl f } def
/m35 {mp x y w2 add m w2 neg w2 neg d w2 w2 neg d w2 w2 d w2 neg w2 d x y w2 sub m 0 w d x w2 sub y m w 0 d s} def
/m36 {mb x w2 sub y w2 add m w w neg d x w2 sub y w2 sub m w w d s} def
/m37 {mp x y m w4 neg w2 d w4 neg w2 neg d w2 0 d  w4 neg w2 neg d w2 0 d w4 neg w2 d w2 0 d w4 neg w2 d w4 neg w2 neg d cl s} def
/m38 {mp x w4 sub y w2 add m w4 neg w4 neg d 0 w2 neg d w4 w4 neg d w2 0 d w4 w4 d 0 w2 d w4 neg w4 d w2 neg 0 d x y w2 sub m 0 w d x w2 sub y m w 0 d cl s} def
/m39 {mp x y m w4 neg w2 d w4 neg w2 neg d w2 0 d  w4 neg w2 neg d w2 0 d w4 neg w2 d w2 0 d w4 neg w2 d w4 neg w2 neg d cl f} def
/m40 {mp x y m w4 w2 d w4 w4 neg d w2 neg w4 neg d w2 w4 neg d w4 neg w4 neg d w4 neg w2 d w4 neg w2 neg d w4 neg w4 d w2 w4 d w2 neg w4 d w4 w4 d w4 w2 neg d cl s} def
/m41 {mp x y m w4 w2 d w4 w4 neg d w2 neg w4 neg d w2 w4 neg d w4 neg w4 neg d w4 neg w2 d w4 neg w2 neg d w4 neg w4 d w2 w4 d w2 neg w4 d w4 w4 d w4 w2 neg d cl f} def
/m42 {mp x y w2 add m w8 neg w2 -3 4 div mul d w2 -3 4 div mul w8 neg d w2 3 4 div mul w8 neg d w8 w2 -3 4 div mul d w8 w2 3 4 div mul d w2 3 4 div mul w8 d w2 -3 4 div mul w8 d w8 neg w2 3 4 div mul d cl s} def
/m43 {mp x y w2 add m w8 neg w2 -3 4 div mul d w2 -3 4 div mul w8 neg d w2 3 4 div mul w8 neg d w8 w2 -3 4 div mul d w8 w2 3 4 div mul d w2 3 4 div mul w8 d w2 -3 4 div mul w8 d w8 neg w2 3 4 div mul d cl f} def
/m44 {mp x y m w6 neg w2 d w2 2 3 div mul 0 d w6 neg w2 neg d w2 w6 d 0 w2 -2 3 div mul d w2 neg w6 d w6 w2 neg d w2 -2 3 div mul 0 d w6 w2 d w2 neg w6 neg d 0 w2 2 3 div mul d w2 w6 neg d cl s} def
/m45 {mp x y m w6 neg w2 d w2 2 3 div mul 0 d w6 neg w2 neg d w2 w6 d 0 w2 -2 3 div mul d w2 neg w6 d w6 w2 neg d w2 -2 3 div mul 0 d w6 w2 d w2 neg w6 neg d 0 w2 2 3 div mul d w2 w6 neg d cl f} def
/m46 {mp x y w4 add m w4 neg w4 d w4 neg w4 neg d  w4 w4 neg d w4 neg w4 neg d w4 w4 neg d w4 w4 d w4 w4 neg d w4 w4 d w4 neg w4 d w4 w4 d w4 neg w4 d w4 neg w4 neg d cl s} def
/m47 {mp x y w4 add m w4 neg w4 d w4 neg w4 neg d w4 w4 neg d w4 neg w4 neg d  w4 w4 neg d w4 w4 d w4 w4 neg d w4 w4 d w4 neg w4 d w4 w4 d w4 neg w4 d w4 neg w4 neg d cl f} def
/m48 {mp x y w4 add m w4 neg w4 d w4 neg w4 neg d w4 w4 neg d  w4 neg w4 neg d w4 w4 neg d w4 w4 d w4 w4 neg d w4 w4 d w4 neg w4 d w4 w4 d w4 neg w4 d w4 neg w4 neg d  w4 w4 neg d w4 neg w4 neg d w4 neg w4 d w4 w4 d cl f} def
/m49 {mp x w2 sub w3 add y w2 sub w3 add m  0 w3 neg d w3 0 d 0 w3 d w3 0 d 0 w3 d w3 neg 0 d 0 w3 d w3 neg 0 d 0 w3 neg d w3 neg 0 d 0 w3 neg d w3 0 d 0 w3 d w3 0 d 0 w3 neg d w3 neg 0 d cl f } def
/m2 {mp x y w2 sub m 0 w d x w2 sub y m w 0 d s} def
/m5 {mp x w2 sub y w2 sub m w w d x w2 sub y w2 add m w w neg d s} def
%%IncludeResource: ProcSet (FontSetInit)
%%IncludeResource: font Times-Roman
%%IncludeResource: font Times-Italic
%%IncludeResource: font Times-Bold
%%IncludeResource: font Times-BoldItalic
%%IncludeResource: font Helvetica
%%IncludeResource: font Helvetica-Oblique
%%IncludeResource: font Helvetica-Bold
%%IncludeResource: font Helvetica-BoldOblique
%%IncludeResource: font Courier
%%IncludeResource: font Courier-Oblique
%%IncludeResource: font Courier-Bold
%%IncludeResource: font Courier-BoldOblique
%%IncludeResource: font Symbol
%%IncludeResource: font ZapfDingbats
/reEncode {exch findfont dup length dict begin {1 index /FID eq  {pop pop} {def} ifelse } forall /Encoding exch def currentdict end dup /FontName get exch definefont pop } def [/Times-Bold /Times-Italic /Times-BoldItalic /Helvetica /Helvetica-Oblique
 /Helvetica-Bold /Helvetica-BoldOblique /Courier /Courier-Oblique /Courier-Bold /Courier-BoldOblique /Times-Roman /AvantGarde-Book /AvantGarde-BookOblique /AvantGarde-Demi /AvantGarde-DemiOblique /Bookman-Demi /Bookman-DemiItalic /Bookman-Light
 /Bookman-LightItalic /Helvetica-Narrow /Helvetica-Narrow-Bold /Helvetica-Narrow-BoldOblique /Helvetica-Narrow-Oblique /NewCenturySchlbk-Roman /NewCenturySchlbk-Bold /NewCenturySchlbk-BoldItalic /NewCenturySchlbk-Italic /Palatino-Bold
 /Palatino-BoldItalic /Palatino-Italic /Palatino-Roman ] {ISOLatin1Encoding reEncode } forall
%%EndProlog
%%BeginSetup
%%EndSetup
newpath  gsave  .25 .25 scale  gsave  0 0 t black[  ] 0 sd 3 lw 1 1 1 c 2268 1540 0 0 bf black 1 1 1 c 1814 1232 227 154 bf black 1814 1232 227 154 bl 0 0 0.6 c 1 1 1 c black 0 0 0.6 c 295 899 m 16 Y s 295 915 m 14 Y s 290 915 m 5 X s 295 915 m 4 X s
 black /w 2 def /w2 {w 2 div} def /w3 {w 3 div} def 295 915 m20 0 0 0.6 c 304 1015 m 9 Y s 304 1024 m 9 Y s 299 1024 m 5 X s 304 1024 m 4 X s black 304 1024 m20 0 0 0.6 c 313 992 m 9 Y s 313 1001 m 7 Y s 308 1001 m 5 X s 313 1001 m 4 X s black 313
 1001 m20 0 0 0.6 c 322 966 m 9 Y s 322 975 m 8 Y s 317 975 m 5 X s 322 975 m 5 X s black 322 975 m20 0 0 0.6 c 331 984 m 8 Y s 331 992 m 8 Y s 327 992 m 4 X s 331 992 m 5 X s black 331 992 m20 0 0 0.6 c 340 986 m 7 Y s 340 993 m 7 Y s 336 993 m 4 X
 s 340 993 m 5 X s black 340 993 m20 0 0 0.6 c 349 1000 m 8 Y s 349 1008 m 6 Y s 345 1008 m 4 X s 349 1008 m 5 X s black 349 1008 m20 0 0 0.6 c 358 970 m 9 Y s 358 979 m 7 Y s 354 979 m 4 X s 358 979 m 5 X s black 358 979 m20 0 0 0.6 c 367 960 m 8 Y
 s 367 968 m 7 Y s 363 968 m 4 X s 367 968 m 5 X s black 367 968 m20 0 0 0.6 c 376 940 m 7 Y s 376 947 m 7 Y s 372 947 m 4 X s 376 947 m 5 X s black 376 947 m20 0 0 0.6 c 386 948 m 8 Y s 386 956 m 7 Y s 381 956 m 5 X s 386 956 m 4 X s black 386 956
 m20 0 0 0.6 c 395 957 m 7 Y s 395 964 m 6 Y s 390 964 m 5 X s 395 964 m 4 X s black 395 964 m20 0 0 0.6 c 404 957 m 7 Y s 404 964 m 7 Y s 399 964 m 5 X s 404 964 m 4 X s black 404 964 m20 0 0 0.6 c 413 946 m 8 Y s 413 954 m 7 Y s 408 954 m 5 X s 413
 954 m 4 X s black 413 954 m20 0 0 0.6 c 422 931 m 9 Y s 422 940 m 7 Y s 417 940 m 5 X s 422 940 m 4 X s black 422 940 m20 0 0 0.6 c 431 933 m 8 Y s 431 941 m 7 Y s 426 941 m 5 X s 431 941 m 4 X s black 431 941 m20 0 0 0.6 c 440 937 m 8 Y s 440 945 m
 7 Y s 435 945 m 5 X s 440 945 m 4 X s black 440 945 m20 0 0 0.6 c 449 923 m 8 Y s 449 931 m 7 Y s 444 931 m 5 X s 449 931 m 5 X s black 449 931 m20 0 0 0.6 c 458 923 m 8 Y s 458 931 m 8 Y s 454 931 m 4 X s 458 931 m 5 X s black 458 931 m20 0 0 0.6 c
 467 928 m 8 Y s 467 936 m 7 Y s 463 936 m 4 X s 467 936 m 5 X s black 467 936 m20 0 0 0.6 c 476 922 m 8 Y s 476 930 m 7 Y s 472 930 m 4 X s 476 930 m 5 X s black 476 930 m20 0 0 0.6 c 485 905 m 9 Y s 485 914 m 7 Y s 481 914 m 4 X s 485 914 m 5 X s
 black 485 914 m20 0 0 0.6 c 494 928 m 8 Y s 494 936 m 7 Y s 490 936 m 4 X s 494 936 m 5 X s black 494 936 m20 0 0 0.6 c 503 911 m 8 Y s 503 919 m 7 Y s 499 919 m 4 X s 503 919 m 5 X s black 503 919 m20 0 0 0.6 c 513 904 m 7 Y s 513 911 m 7 Y s 508
 911 m 5 X s 513 911 m 4 X s black 513 911 m20 0 0 0.6 c 522 901 m 8 Y s 522 909 m 7 Y s 517 909 m 5 X s 522 909 m 4 X s black 522 909 m20 0 0 0.6 c 531 899 m 8 Y s 531 907 m 8 Y s 526 907 m 5 X s 531 907 m 4 X s black 531 907 m20 0 0 0.6 c 540 899 m
 7 Y s 540 906 m 6 Y s 535 906 m 5 X s 540 906 m 4 X s black 540 906 m20 0 0 0.6 c 549 899 m 7 Y s 549 906 m 7 Y s 544 906 m 5 X s 549 906 m 4 X s black 549 906 m20 0 0 0.6 c 558 892 m 7 Y s 558 899 m 7 Y s 553 899 m 5 X s 558 899 m 4 X s black 558
 899 m20 0 0 0.6 c 567 890 m 7 Y s 567 897 m 6 Y s 562 897 m 5 X s 567 897 m 4 X s black 567 897 m20 0 0 0.6 c 576 894 m 9 Y s 576 903 m 8 Y s 571 903 m 5 X s 576 903 m 5 X s black 576 903 m20 0 0 0.6 c 585 886 m 9 Y s 585 895 m 7 Y s 581 895 m 4 X s
 585 895 m 5 X s black 585 895 m20 0 0 0.6 c 594 882 m 8 Y s 594 890 m 7 Y s 590 890 m 4 X s 594 890 m 5 X s black 594 890 m20 0 0 0.6 c 603 885 m 7 Y s 603 892 m 7 Y s 599 892 m 4 X s 603 892 m 5 X s black 603 892 m20 0 0 0.6 c 612 875 m 7 Y s 612
 882 m 6 Y s 608 882 m 4 X s 612 882 m 5 X s black 612 882 m20 0 0 0.6 c 621 870 m 9 Y s 621 879 m 7 Y s 617 879 m 4 X s 621 879 m 5 X s black 621 879 m20 0 0 0.6 c 630 878 m 7 Y s 630 885 m 6 Y s 626 885 m 4 X s 630 885 m 5 X s black 630 885 m20 0 0
 0.6 c 639 865 m 7 Y s 639 872 m 7 Y s 635 872 m 4 X s 639 872 m 5 X s black 639 872 m20 0 0 0.6 c 649 862 m 8 Y s 649 870 m 8 Y s 644 870 m 5 X s 649 870 m 4 X s black 649 870 m20 0 0 0.6 c 658 860 m 7 Y s 658 867 m 7 Y s 653 867 m 5 X s 658 867 m 4
 X s black 658 867 m20 0 0 0.6 c 667 852 m 7 Y s 667 859 m 6 Y s 662 859 m 5 X s 667 859 m 4 X s black 667 859 m20 0 0 0.6 c 676 853 m 8 Y s 676 861 m 7 Y s 671 861 m 5 X s 676 861 m 4 X s black 676 861 m20 0 0 0.6 c 685 857 m 8 Y s 685 865 m 6 Y s
 680 865 m 5 X s 685 865 m 4 X s black 685 865 m20 0 0 0.6 c 694 841 m 7 Y s 694 848 m 7 Y s 689 848 m 5 X s 694 848 m 4 X s black 694 848 m20 0 0 0.6 c 703 848 m 8 Y s 703 856 m 7 Y s 698 856 m 5 X s 703 856 m 5 X s black 703 856 m20 0 0 0.6 c 712
 857 m 9 Y s 712 866 m 8 Y s 708 866 m 4 X s 712 866 m 5 X s black 712 866 m20 0 0 0.6 c 721 846 m 9 Y s 721 855 m 7 Y s 717 855 m 4 X s 721 855 m 5 X s black 721 855 m20 0 0 0.6 c 730 848 m 7 Y s 730 855 m 7 Y s 726 855 m 4 X s 730 855 m 5 X s black
 730 855 m20 0 0 0.6 c 739 842 m 8 Y s 739 850 m 7 Y s 735 850 m 4 X s 739 850 m 5 X s black 739 850 m20 0 0 0.6 c 748 827 m 7 Y s 748 834 m 7 Y s 744 834 m 4 X s 748 834 m 5 X s black 748 834 m20 0 0 0.6 c 757 838 m 8 Y s 757 846 m 6 Y s 753 846 m 4
 X s 757 846 m 5 X s black 757 846 m20 0 0 0.6 c 766 836 m 8 Y s 766 844 m 7 Y s 762 844 m 4 X s 766 844 m 5 X s black 766 844 m20 0 0 0.6 c 776 819 m 13 Y s 776 832 m 10 Y s 771 832 m 5 X s 776 832 m 4 X s black 776 832 m20 0 0 0.6 c 785 830 m 9 Y s
 785 839 m 8 Y s 780 839 m 5 X s 785 839 m 4 X s black 785 839 m20 0 0 0.6 c 794 827 m 10 Y s 794 837 m 9 Y s 789 837 m 5 X s 794 837 m 4 X s black 794 837 m20 0 0 0.6 c 803 822 m 8 Y s 803 830 m 8 Y s 798 830 m 5 X s 803 830 m 4 X s black 803 830
 m20 0 0 0.6 c 812 823 m 8 Y s 812 831 m 7 Y s 807 831 m 5 X s 812 831 m 4 X s black 812 831 m20 0 0 0.6 c 821 824 m 9 Y s 821 833 m 9 Y s 816 833 m 5 X s 821 833 m 4 X s black 821 833 m20 0 0 0.6 c 830 830 m 10 Y s 830 840 m 8 Y s 825 840 m 5 X s
 830 840 m 5 X s black 830 840 m20 0 0 0.6 c 839 804 m 9 Y s 839 813 m 7 Y s 835 813 m 4 X s 839 813 m 5 X s black 839 813 m20 0 0 0.6 c 848 819 m 9 Y s 848 828 m 9 Y s 844 828 m 4 X s 848 828 m 5 X s black 848 828 m20 0 0 0.6 c 857 802 m 9 Y s 857
 811 m 9 Y s 853 811 m 4 X s 857 811 m 5 X s black 857 811 m20 0 0 0.6 c 866 802 m 9 Y s 866 811 m 7 Y s 862 811 m 4 X s 866 811 m 5 X s black 866 811 m20 0 0 0.6 c 875 796 m 8 Y s 875 804 m 8 Y s 871 804 m 4 X s 875 804 m 5 X s black 875 804 m20 0 0
 0.6 c 884 820 m 10 Y s 884 830 m 8 Y s 880 830 m 4 X s 884 830 m 5 X s black 884 830 m20 0 0 0.6 c 893 797 m 9 Y s 893 806 m 9 Y s 889 806 m 4 X s 893 806 m 5 X s black 893 806 m20 0 0 0.6 c 903 786 m 11 Y s 903 797 m 10 Y s 898 797 m 5 X s 903 797
 m 4 X s black 903 797 m20 0 0 0.6 c 912 793 m 11 Y s 912 804 m 9 Y s 907 804 m 5 X s 912 804 m 4 X s black 912 804 m20 0 0 0.6 c 921 798 m 9 Y s 921 807 m 7 Y s 916 807 m 5 X s 921 807 m 4 X s black 921 807 m20 0 0 0.6 c 930 776 m 10 Y s 930 786 m 9
 Y s 925 786 m 5 X s 930 786 m 4 X s black 930 786 m20 0 0 0.6 c 939 789 m 8 Y s 939 797 m 8 Y s 934 797 m 5 X s 939 797 m 4 X s black 939 797 m20 0 0 0.6 c 948 798 m 14 Y s 948 812 m 12 Y s 943 812 m 5 X s 948 812 m 4 X s black 948 812 m20 0 0 0.6 c
 957 791 m 9 Y s 957 800 m 9 Y s 952 800 m 5 X s 957 800 m 5 X s black 957 800 m20 0 0 0.6 c 966 780 m 10 Y s 966 790 m 8 Y s 962 790 m 4 X s 966 790 m 5 X s black 966 790 m20 0 0 0.6 c 975 789 m 10 Y s 975 799 m 9 Y s 971 799 m 4 X s 975 799 m 5 X s
 black 975 799 m20 0 0 0.6 c 984 781 m 11 Y s 984 792 m 9 Y s 980 792 m 4 X s 984 792 m 5 X s black 984 792 m20 0 0 0.6 c 993 791 m 9 Y s 993 800 m 9 Y s 989 800 m 4 X s 993 800 m 5 X s black 993 800 m20 0 0 0.6 c 1002 777 m 10 Y s 1002 787 m 9 Y s
 998 787 m 4 X s 1002 787 m 5 X s black 1002 787 m20 0 0 0.6 c 1011 776 m 12 Y s 1011 788 m 11 Y s 1007 788 m 4 X s 1011 788 m 5 X s black 1011 788 m20 0 0 0.6 c 1020 771 m 10 Y s 1020 781 m 9 Y s 1016 781 m 4 X s 1020 781 m 5 X s black 1020 781 m20
 0 0 0.6 c 1030 796 m 14 Y s 1030 810 m 12 Y s 1025 810 m 5 X s 1030 810 m 4 X s black 1030 810 m20 0 0 0.6 c 1039 770 m 11 Y s 1039 781 m 9 Y s 1034 781 m 5 X s 1039 781 m 4 X s black 1039 781 m20 0 0 0.6 c 1048 777 m 12 Y s 1048 789 m 11 Y s 1043
 789 m 5 X s 1048 789 m 4 X s black 1048 789 m20 0 0 0.6 c 1057 770 m 10 Y s 1057 780 m 10 Y s 1052 780 m 5 X s 1057 780 m 4 X s black 1057 780 m20 0 0 0.6 c 1066 768 m 11 Y s 1066 779 m 9 Y s 1061 779 m 5 X s 1066 779 m 4 X s black 1066 779 m20 0 0
 0.6 c 1075 753 m 11 Y s 1075 764 m 10 Y s 1070 764 m 5 X s 1075 764 m 4 X s black 1075 764 m20 0 0 0.6 c 1084 779 m 10 Y s 1084 789 m 9 Y s 1079 789 m 5 X s 1084 789 m 5 X s black 1084 789 m20 0 0 0.6 c 1093 753 m 11 Y s 1093 764 m 10 Y s 1089 764 m
 4 X s 1093 764 m 5 X s black 1093 764 m20 0 0 0.6 c 1102 730 m 12 Y s 1102 742 m 11 Y s 1098 742 m 4 X s 1102 742 m 5 X s black 1102 742 m20 0 0 0.6 c 1111 772 m 11 Y s 1111 783 m 9 Y s 1107 783 m 4 X s 1111 783 m 5 X s black 1111 783 m20 0 0 0.6 c
 1120 769 m 12 Y s 1120 781 m 9 Y s 1116 781 m 4 X s 1120 781 m 5 X s black 1120 781 m20 0 0 0.6 c 1129 762 m 11 Y s 1129 773 m 10 Y s 1125 773 m 4 X s 1129 773 m 5 X s black 1129 773 m20 0 0 0.6 c 1138 746 m 12 Y s 1138 758 m 10 Y s 1134 758 m 4 X s
 1138 758 m 5 X s black 1138 758 m20 0 0 0.6 c 1147 741 m 18 Y s 1147 759 m 14 Y s 1143 759 m 4 X s 1147 759 m 5 X s black 1147 759 m20 0 0 0.6 c 1157 756 m 12 Y s 1157 768 m 10 Y s 1152 768 m 5 X s 1157 768 m 4 X s black 1157 768 m20 0 0 0.6 c 1166
 754 m 15 Y s 1166 769 m 12 Y s 1161 769 m 5 X s 1166 769 m 4 X s black 1166 769 m20 0 0 0.6 c 1175 717 m 11 Y s 1175 728 m 10 Y s 1170 728 m 5 X s 1175 728 m 4 X s black 1175 728 m20 0 0 0.6 c 1184 751 m 12 Y s 1184 763 m 11 Y s 1179 763 m 5 X s
 1184 763 m 4 X s black 1184 763 m20 0 0 0.6 c 1193 755 m 12 Y s 1193 767 m 11 Y s 1188 767 m 5 X s 1193 767 m 4 X s black 1193 767 m20 0 0 0.6 c 1202 719 m 15 Y s 1202 734 m 12 Y s 1197 734 m 5 X s 1202 734 m 4 X s black 1202 734 m20 0 0 0.6 c 1211
 745 m 14 Y s 1211 759 m 12 Y s 1206 759 m 5 X s 1211 759 m 4 X s black 1211 759 m20 0 0 0.6 c 1220 749 m 13 Y s 1220 762 m 11 Y s 1215 762 m 5 X s 1220 762 m 5 X s black 1220 762 m20 0 0 0.6 c 1229 750 m 12 Y s 1229 762 m 11 Y s 1225 762 m 4 X s
 1229 762 m 5 X s black 1229 762 m20 0 0 0.6 c 1238 746 m 15 Y s 1238 761 m 12 Y s 1234 761 m 4 X s 1238 761 m 5 X s black 1238 761 m20 0 0 0.6 c 1247 733 m 14 Y s 1247 747 m 12 Y s 1243 747 m 4 X s 1247 747 m 5 X s black 1247 747 m20 0 0 0.6 c 1256
 743 m 13 Y s 1256 756 m 11 Y s 1252 756 m 4 X s 1256 756 m 5 X s black 1256 756 m20 0 0 0.6 c 1265 744 m 11 Y s 1265 755 m 10 Y s 1261 755 m 4 X s 1265 755 m 5 X s black 1265 755 m20 0 0 0.6 c 1274 747 m 12 Y s 1274 759 m 10 Y s 1270 759 m 4 X s
 1274 759 m 5 X s black 1274 759 m20 0 0 0.6 c 1284 727 m 11 Y s 1284 738 m 9 Y s 1279 738 m 5 X s 1284 738 m 4 X s black 1284 738 m20 0 0 0.6 c 1293 732 m 15 Y s 1293 747 m 13 Y s 1288 747 m 5 X s 1293 747 m 4 X s black 1293 747 m20 0 0 0.6 c 1302
 713 m 13 Y s 1302 726 m 11 Y s 1297 726 m 5 X s 1302 726 m 4 X s black 1302 726 m20 0 0 0.6 c 1311 735 m 12 Y s 1311 747 m 10 Y s 1306 747 m 5 X s 1311 747 m 4 X s black 1311 747 m20 0 0 0.6 c 1320 726 m 11 Y s 1320 737 m 10 Y s 1315 737 m 5 X s
 1320 737 m 4 X s black 1320 737 m20 0 0 0.6 c 1329 697 m 15 Y s 1329 712 m 12 Y s 1324 712 m 5 X s 1329 712 m 4 X s black 1329 712 m20 0 0 0.6 c 1338 733 m 14 Y s 1338 747 m 12 Y s 1333 747 m 5 X s 1338 747 m 4 X s black 1338 747 m20 0 0 0.6 c 1347
 725 m 15 Y s 1347 740 m 12 Y s 1342 740 m 5 X s 1347 740 m 5 X s black 1347 740 m20 0 0 0.6 c 1356 695 m 16 Y s 1356 711 m 12 Y s 1352 711 m 4 X s 1356 711 m 5 X s black 1356 711 m20 0 0 0.6 c 1365 723 m 13 Y s 1365 736 m 11 Y s 1361 736 m 4 X s
 1365 736 m 5 X s black 1365 736 m20 0 0 0.6 c 1374 705 m 13 Y s 1374 718 m 12 Y s 1370 718 m 4 X s 1374 718 m 5 X s black 1374 718 m20 0 0 0.6 c 1383 719 m 16 Y s 1383 735 m 13 Y s 1379 735 m 4 X s 1383 735 m 5 X s black 1383 735 m20 0 0 0.6 c 1392
 700 m 13 Y s 1392 713 m 11 Y s 1388 713 m 4 X s 1392 713 m 5 X s black 1392 713 m20 0 0 0.6 c 1401 704 m 16 Y s 1401 720 m 13 Y s 1397 720 m 4 X s 1401 720 m 5 X s black 1401 720 m20 0 0 0.6 c 1411 696 m 13 Y s 1411 709 m 12 Y s 1406 709 m 5 X s
 1411 709 m 4 X s black 1411 709 m20 0 0 0.6 c 1420 710 m 12 Y s 1420 722 m 11 Y s 1415 722 m 5 X s 1420 722 m 4 X s black 1420 722 m20 0 0 0.6 c 1429 729 m 15 Y s 1429 744 m 13 Y s 1424 744 m 5 X s 1429 744 m 4 X s black 1429 744 m20 0 0 0.6 c 1438
 705 m 13 Y s 1438 718 m 11 Y s 1433 718 m 5 X s 1438 718 m 4 X s black 1438 718 m20 0 0 0.6 c 1447 721 m 12 Y s 1447 733 m 10 Y s 1442 733 m 5 X s 1447 733 m 4 X s black 1447 733 m20 0 0 0.6 c 1456 693 m 14 Y s 1456 707 m 13 Y s 1451 707 m 5 X s
 1456 707 m 4 X s black 1456 707 m20 0 0 0.6 c 1465 687 m 14 Y s 1465 701 m 12 Y s 1460 701 m 5 X s 1465 701 m 4 X s black 1465 701 m20 0 0 0.6 c 1474 681 m 16 Y s 1474 697 m 14 Y s 1469 697 m 5 X s 1474 697 m 5 X s black 1474 697 m20 0 0 0.6 c 1483
 707 m 12 Y s 1483 719 m 10 Y s 1479 719 m 4 X s 1483 719 m 5 X s black 1483 719 m20 0 0 0.6 c 1492 703 m 17 Y s 1492 720 m 15 Y s 1488 720 m 4 X s 1492 720 m 5 X s black 1492 720 m20 0 0 0.6 c 1501 669 m 17 Y s 1501 686 m 14 Y s 1497 686 m 4 X s
 1501 686 m 5 X s black 1501 686 m20 0 0 0.6 c 1510 682 m 15 Y s 1510 697 m 13 Y s 1506 697 m 4 X s 1510 697 m 5 X s black 1510 697 m20 0 0 0.6 c 1519 678 m 14 Y s 1519 692 m 13 Y s 1515 692 m 4 X s 1519 692 m 5 X s black 1519 692 m20 0 0 0.6 c 1528
 717 m 15 Y s 1528 732 m 14 Y s 1524 732 m 4 X s 1528 732 m 5 X s black 1528 732 m20 0 0 0.6 c 1538 698 m 14 Y s 1538 712 m 13 Y s 1533 712 m 5 X s 1538 712 m 4 X s black 1538 712 m20 0 0 0.6 c 1547 676 m 19 Y s 1547 695 m 15 Y s 1542 695 m 5 X s
 1547 695 m 4 X s black 1547 695 m20 0 0 0.6 c 1556 698 m 18 Y s 1556 716 m 14 Y s 1551 716 m 5 X s 1556 716 m 4 X s black 1556 716 m20 0 0 0.6 c 1565 692 m 17 Y s 1565 709 m 15 Y s 1560 709 m 5 X s 1565 709 m 4 X s black 1565 709 m20 0 0 0.6 c 1574
 690 m 16 Y s 1574 706 m 13 Y s 1569 706 m 5 X s 1574 706 m 4 X s black 1574 706 m20 0 0 0.6 c 1583 686 m 16 Y s 1583 702 m 13 Y s 1578 702 m 5 X s 1583 702 m 4 X s black 1583 702 m20 0 0 0.6 c 1592 670 m 18 Y s 1592 688 m 14 Y s 1587 688 m 5 X s
 1592 688 m 4 X s black 1592 688 m20 0 0 0.6 c 1601 680 m 17 Y s 1601 697 m 14 Y s 1596 697 m 5 X s 1601 697 m 5 X s black 1601 697 m20 0 0 0.6 c 1610 657 m 20 Y s 1610 677 m 16 Y s 1606 677 m 4 X s 1610 677 m 5 X s black 1610 677 m20 0 0 0.6 c 1619
 690 m 19 Y s 1619 709 m 15 Y s 1615 709 m 4 X s 1619 709 m 5 X s black 1619 709 m20 0 0 0.6 c 1628 682 m 17 Y s 1628 699 m 14 Y s 1624 699 m 4 X s 1628 699 m 5 X s black 1628 699 m20 0 0 0.6 c 1637 673 m 21 Y s 1637 694 m 17 Y s 1633 694 m 4 X s
 1637 694 m 5 X s black 1637 694 m20 0 0 0.6 c 1646 658 m 22 Y s 1646 680 m 17 Y s 1642 680 m 4 X s 1646 680 m 5 X s black 1646 680 m20 0 0 0.6 c 1655 687 m 24 Y s 1655 711 m 18 Y s 1651 711 m 4 X s 1655 711 m 5 X s black 1655 711 m20 0 0 0.6 c 1665
 652 m 20 Y s 1665 672 m 16 Y s 1660 672 m 5 X s 1665 672 m 4 X s black 1665 672 m20 0 0 0.6 c 1674 658 m 26 Y s 1674 684 m 20 Y s 1669 684 m 5 X s 1674 684 m 4 X s black 1674 684 m20 0 0 0.6 c 1683 643 m 19 Y s 1683 662 m 16 Y s 1678 662 m 5 X s
 1683 662 m 4 X s black 1683 662 m20 0 0 0.6 c 1692 658 m 21 Y s 1692 679 m 16 Y s 1687 679 m 5 X s 1692 679 m 4 X s black 1692 679 m20 0 0 0.6 c 1701 649 m 25 Y s 1701 674 m 19 Y s 1696 674 m 5 X s 1701 674 m 4 X s black 1701 674 m20 0 0 0.6 c 1710
 680 m 18 Y s 1710 698 m 15 Y s 1705 698 m 5 X s 1710 698 m 4 X s black 1710 698 m20 0 0 0.6 c 1719 620 m 26 Y s 1719 646 m 19 Y s 1714 646 m 5 X s 1719 646 m 4 X s black 1719 646 m20 0 0 0.6 c 1728 667 m 20 Y s 1728 687 m 16 Y s 1723 687 m 5 X s
 1728 687 m 5 X s black 1728 687 m20 0 0 0.6 c 1737 631 m 29 Y s 1737 660 m 22 Y s 1733 660 m 4 X s 1737 660 m 5 X s black 1737 660 m20 0 0 0.6 c 1746 617 m 24 Y s 1746 641 m 18 Y s 1742 641 m 4 X s 1746 641 m 5 X s black 1746 641 m20 0 0 0.6 c 1755
 600 m 23 Y s 1755 623 m 17 Y s 1751 623 m 4 X s 1755 623 m 5 X s black 1755 623 m20 0 0 0.6 c 1764 598 m 28 Y s 1764 626 m 21 Y s 1760 626 m 4 X s 1764 626 m 5 X s black 1764 626 m20 0 0 0.6 c 1773 621 m 20 Y s 1773 641 m 16 Y s 1769 641 m 4 X s
 1773 641 m 5 X s black 1773 641 m20 0 0 0.6 c 1782 619 m 22 Y s 1782 641 m 18 Y s 1778 641 m 4 X s 1782 641 m 5 X s black 1782 641 m20 0 0 0.6 c 1791 630 m 22 Y s 1791 652 m 17 Y s 1787 652 m 4 X s 1791 652 m 5 X s black 1791 652 m20 0 0 0.6 c 1801
 580 m 26 Y s 1801 606 m 19 Y s 1796 606 m 5 X s 1801 606 m 4 X s black 1801 606 m20 0 0 0.6 c 1810 642 m 21 Y s 1810 663 m 17 Y s 1805 663 m 5 X s 1810 663 m 4 X s black 1810 663 m20 0 0 0.6 c 1819 612 m 23 Y s 1819 635 m 18 Y s 1814 635 m 5 X s
 1819 635 m 4 X s black 1819 635 m20 0 0 0.6 c 1828 622 m 23 Y s 1828 645 m 18 Y s 1823 645 m 5 X s 1828 645 m 4 X s black 1828 645 m20 0 0 0.6 c 1837 587 m 29 Y s 1837 616 m 21 Y s 1832 616 m 5 X s 1837 616 m 4 X s black 1837 616 m20 0 0 0.6 c 1846
 625 m 19 Y s 1846 644 m 15 Y s 1841 644 m 5 X s 1846 644 m 4 X s black 1846 644 m20 0 0 0.6 c 1855 615 m 32 Y s 1855 647 m 22 Y s 1850 647 m 5 X s 1855 647 m 5 X s black 1855 647 m20 0 0 0.6 c 1864 626 m 22 Y s 1864 648 m 18 Y s 1860 648 m 4 X s
 1864 648 m 5 X s black 1864 648 m20 0 0 0.6 c 1873 636 m 21 Y s 1873 657 m 16 Y s 1869 657 m 4 X s 1873 657 m 5 X s black 1873 657 m20 0 0 0.6 c 1882 622 m 27 Y s 1882 649 m 20 Y s 1878 649 m 4 X s 1882 649 m 5 X s black 1882 649 m20 0 0 0.6 c 1891
 628 m 21 Y s 1891 649 m 16 Y s 1887 649 m 4 X s 1891 649 m 5 X s black 1891 649 m20 0 0 0.6 c 1900 576 m 29 Y s 1900 605 m 20 Y s 1896 605 m 4 X s 1900 605 m 5 X s black 1900 605 m20 0 0 0.6 c 1909 605 m 25 Y s 1909 630 m 19 Y s 1905 630 m 4 X s
 1909 630 m 5 X s black 1909 630 m20 0 0 0.6 c 1918 631 m 20 Y s 1918 651 m 16 Y s 1914 651 m 4 X s 1918 651 m 5 X s black 1918 651 m20 0 0 0.6 c 1928 594 m 26 Y s 1928 620 m 19 Y s 1923 620 m 5 X s 1928 620 m 4 X s black 1928 620 m20 0 0 0.6 c 1937
 585 m 25 Y s 1937 610 m 18 Y s 1932 610 m 5 X s 1937 610 m 4 X s black 1937 610 m20 0 0 0.6 c 1946 582 m 27 Y s 1946 609 m 20 Y s 1941 609 m 5 X s 1946 609 m 4 X s black 1946 609 m20 0 0 0.6 c 1955 595 m 25 Y s 1955 620 m 18 Y s 1950 620 m 5 X s
 1955 620 m 4 X s black 1955 620 m20 0 0 0.6 c 1964 618 m 27 Y s 1964 645 m 20 Y s 1959 645 m 5 X s 1964 645 m 4 X s black 1964 645 m20 0 0 0.6 c 1973 602 m 25 Y s 1973 627 m 19 Y s 1968 627 m 5 X s 1973 627 m 4 X s black 1973 627 m20 0 0 0.6 c 1982
 626 m 24 Y s 1982 650 m 18 Y s 1977 650 m 5 X s 1982 650 m 5 X s black 1982 650 m20 0 0 0.6 c 1991 607 m 24 Y s 1991 631 m 18 Y s 1987 631 m 4 X s 1991 631 m 5 X s black 1991 631 m20 0 0 0.6 c 2000 606 m 31 Y s 2000 637 m 22 Y s 1996 637 m 4 X s
 2000 637 m 5 X s black 2000 637 m20 0 0 0.6 c 2009 514 m 37 Y s 2009 551 m 26 Y s 2005 551 m 4 X s 2009 551 m 5 X s black 2009 551 m20 0 0 0.6 c 2018 585 m 24 Y s 2018 609 m 19 Y s 2014 609 m 4 X s 2018 609 m 5 X s black 2018 609 m20 0 0 0.6 c 2027
 585 m 27 Y s 2027 612 m 20 Y s 2023 612 m 4 X s 2027 612 m 5 X s black 2027 612 m20 0 0 0.6 c 2036 596 m 27 Y s 2036 623 m 20 Y s 2032 623 m 4 X s 2036 623 m 5 X s black 2036 623 m20 227 154 m 1814 X s 227 191 m -37 Y s 272 172 m -18 Y s 317 172 m
 -18 Y s 363 172 m -18 Y s 408 172 m -18 Y s 454 191 m -37 Y s 499 172 m -18 Y s 544 172 m -18 Y s 590 172 m -18 Y s 635 172 m -18 Y s 680 191 m -37 Y s 726 172 m -18 Y s 771 172 m -18 Y s 816 172 m -18 Y s 862 172 m -18 Y s 907 191 m -37 Y s 952 172
 m -18 Y s 998 172 m -18 Y s 1043 172 m -18 Y s 1089 172 m -18 Y s 1134 191 m -37 Y s 1179 172 m -18 Y s 1225 172 m -18 Y s 1270 172 m -18 Y s 1315 172 m -18 Y s 1361 191 m -37 Y s 1406 172 m -18 Y s 1451 172 m -18 Y s 1497 172 m -18 Y s 1542 172 m
 -18 Y s 1587 191 m -37 Y s 1633 172 m -18 Y s 1678 172 m -18 Y s 1723 172 m -18 Y s 1769 172 m -18 Y s 1814 191 m -37 Y s 1860 172 m -18 Y s 1905 172 m -18 Y s 1950 172 m -18 Y s 1996 172 m -18 Y s 2041 191 m -37 Y s
 gsave  2268 1540 0 0 C 211.177 103.964 t 0 r /Helvetica findfont 48.7332 sf 0 0 m (0) show NC gr 
 gsave  2268 1540 0 0 C 422.354 103.964 t 0 r /Helvetica findfont 48.7332 sf 0 0 m (50) show NC gr 
 gsave  2268 1540 0 0 C 636.78 103.964 t 0 r /Helvetica findfont 48.7332 sf 0 0 m (100) show NC gr 
 gsave  2268 1540 0 0 C 864.201 103.964 t 0 r /Helvetica findfont 48.7332 sf 0 0 m (150) show NC gr 
 gsave  2268 1540 0 0 C 1091.62 103.964 t 0 r /Helvetica findfont 48.7332 sf 0 0 m (200) show NC gr 
 gsave  2268 1540 0 0 C 1315.8 103.964 t 0 r /Helvetica findfont 48.7332 sf 0 0 m (250) show NC gr 
 gsave  2268 1540 0 0 C 1543.22 103.964 t 0 r /Helvetica findfont 48.7332 sf 0 0 m (300) show NC gr 
 gsave  2268 1540 0 0 C 1770.64 103.964 t 0 r /Helvetica findfont 48.7332 sf 0 0 m (350) show NC gr 
 gsave  2268 1540 0 0 C 1998.06 103.964 t 0 r /Helvetica findfont 48.7332 sf 0 0 m (400) show NC gr 
 gsave  2268 1540 0 0 C 1059.13 25.991 t 0 r /Helvetica findfont 64.9775 sf 0 0 m (r\(cm\)) show NC gr  227 154 m 1232 Y s 281 154 m -54 X s
 gsave  2268 1540 0 0 C 188.435 155.946 t 0 r /Helvetica findfont 32.4888 sf 0 0 m (5) show NC gr 
 gsave  2268 1540 0 0 C 168.942 155.946 t 0 r /Symbol findfont 32.4888 sf 0 0 m (-) show NC gr 
 gsave  2268 1540 0 0 C 113.711 133.204 t 0 r /Helvetica findfont 48.7332 sf 0 0 m (10) show NC gr  254 207 m -27 X s 254 238 m -27 X s 254 260 m -27 X s 254 277 m -27 X s 254 291 m -27 X s 254 303 m -27 X s 254 313 m -27 X s 254 322 m -27 X s 281
 330 m -54 X s
 gsave  2268 1540 0 0 C 188.435 328.137 t 0 r /Helvetica findfont 32.4888 sf 0 0 m (4) show NC gr 
 gsave  2268 1540 0 0 C 168.942 328.137 t 0 r /Symbol findfont 32.4888 sf 0 0 m (-) show NC gr 
 gsave  2268 1540 0 0 C 113.711 308.643 t 0 r /Helvetica findfont 48.7332 sf 0 0 m (10) show NC gr  254 383 m -27 X s 254 414 m -27 X s 254 436 m -27 X s 254 453 m -27 X s 254 467 m -27 X s 254 479 m -27 X s 254 489 m -27 X s 254 498 m -27 X s 281
 506 m -54 X s
 gsave  2268 1540 0 0 C 188.435 506.825 t 0 r /Helvetica findfont 32.4888 sf 0 0 m (3) show NC gr 
 gsave  2268 1540 0 0 C 168.942 506.825 t 0 r /Symbol findfont 32.4888 sf 0 0 m (-) show NC gr 
 gsave  2268 1540 0 0 C 113.711 484.083 t 0 r /Helvetica findfont 48.7332 sf 0 0 m (10) show NC gr  254 559 m -27 X s 254 590 m -27 X s 254 612 m -27 X s 254 629 m -27 X s 254 643 m -27 X s 254 655 m -27 X s 254 665 m -27 X s 254 674 m -27 X s 281
 682 m -54 X s
 gsave  2268 1540 0 0 C 188.435 679.015 t 0 r /Helvetica findfont 32.4888 sf 0 0 m (2) show NC gr 
 gsave  2268 1540 0 0 C 168.942 679.015 t 0 r /Symbol findfont 32.4888 sf 0 0 m (-) show NC gr 
 gsave  2268 1540 0 0 C 113.711 659.522 t 0 r /Helvetica findfont 48.7332 sf 0 0 m (10) show NC gr  254 735 m -27 X s 254 766 m -27 X s 254 788 m -27 X s 254 805 m -27 X s 254 819 m -27 X s 254 831 m -27 X s 254 841 m -27 X s 254 850 m -27 X s 281
 858 m -54 X s
 gsave  2268 1540 0 0 C 194.933 857.704 t 0 r /Helvetica findfont 32.4888 sf 0 0 m (1) show NC gr 
 gsave  2268 1540 0 0 C 175.439 857.704 t 0 r /Symbol findfont 32.4888 sf 0 0 m (-) show NC gr 
 gsave  2268 1540 0 0 C 120.208 838.21 t 0 r /Helvetica findfont 48.7332 sf 0 0 m (10) show NC gr  254 911 m -27 X s 254 942 m -27 X s 254 964 m -27 X s 254 981 m -27 X s 254 995 m -27 X s 254 1007 m -27 X s 254 1017 m -27 X s 254 1026 m -27 X s 281
 1034 m -54 X s
 gsave  2268 1540 0 0 C 188.435 1016.9 t 0 r /Helvetica findfont 48.7332 sf 0 0 m (1) show NC gr  254 1087 m -27 X s 254 1118 m -27 X s 254 1140 m -27 X s 254 1157 m -27 X s 254 1171 m -27 X s 254 1183 m -27 X s 254 1193 m -27 X s 254 1202 m -27 X s
 281 1210 m -54 X s
 gsave  2268 1540 0 0 C 152.697 1192.34 t 0 r /Helvetica findfont 48.7332 sf 0 0 m (10) show NC gr  254 1263 m -27 X s 254 1294 m -27 X s 254 1316 m -27 X s 254 1333 m -27 X s 254 1347 m -27 X s 254 1359 m -27 X s 254 1369 m -27 X s 254 1378 m -27 X
 s 281 1386 m -54 X s
 gsave  2268 1540 0 0 C 188.435 1384.02 t 0 r /Helvetica findfont 32.4888 sf 0 0 m (2) show NC gr 
 gsave  2268 1540 0 0 C 133.204 1364.53 t 0 r /Helvetica findfont 48.7332 sf 0 0 m (10) show NC gr 
 gsave  2268 1540 0 0 C 103.964 1367.78 t 90 r /Helvetica findfont 64.9775 sf 0 0 m (\)) show NC gr 
 gsave  2268 1540 0 0 C 74.7242 1338.54 t 90 r /Helvetica findfont 42.2354 sf 0 0 m (\2551) show NC gr 
 gsave  2268 1540 0 0 C 100.715 1026.65 t 90 r /Helvetica findfont 64.9775 sf 0 0 m (density\(cm) show NC gr  1 1 1 c black
 gsave  2268 1540 0 0 C 471.087 1468.49 t 0 r /Helvetica findfont 74.7242 sf 0 0 m (nu11.4_nn~:et_deposition_density_vs_r) show NC gr  1 1 1 c black
 gsave  2268 1540 0 0 C 471.087 1468.49 t 0 r /Helvetica findfont 74.7242 sf 0 0 m (nu11.4_nn~:et_deposition_density_vs_r) show NC gr 
 gr  gr showpage
end
%%EOF
