%!PS-Adobe-2.0 EPSF-2.0
%%BoundingBox:  0 0 567 385
%%Title: ../plot_nu11.4/etr/nu11.4_K^{+}K^{-}_xyr.eps: nu11.4_K^{+}K^{-}:et_deposition_density_vs_r
%%Creator: ROOT Version 6.14/02
%%CreationDate: Thu Aug  9 14:34:32 2018
%%DocumentNeededResources: ProcSet (FontSetInit)
%%EndComments
%%BeginProlog
80 dict begin
/s {stroke} def /l {lineto} def /m {moveto} def /t {translate} def
/r {rotate} def /rl {roll}  def /R {repeat} def
/d {rlineto} def /rm {rmoveto} def /gr {grestore} def /f {eofill} def
/c {setrgbcolor} def /black {0 setgray} def /sd {setdash} def
/cl {closepath} def /sf {scalefont setfont} def /lw {setlinewidth} def
/box {m dup 0 exch d exch 0 d 0 exch neg d cl} def
/NC{systemdict begin initclip end}def/C{NC box clip newpath}def
/bl {box s} def /bf {gsave box gsave f grestore 1 lw [] 0 sd s grestore} def /Y { 0 exch d} def /X { 0 d} def 
/K {{pop pop 0 moveto} exch kshow} bind def
/ita {/ang 15 def gsave [1 0 ang dup sin exch cos div 1 0 0] concat} def 
/mp {newpath /y exch def /x exch def} def
/side {[w .77 mul w .23 mul] .385 w mul sd w 0 l currentpoint t -144 r} def
/mr {mp x y w2 0 360 arc} def /m24 {mr s} def /m20 {mr f} def
/mb {mp x y w2 add m w2 neg 0 d 0 w neg d w 0 d 0 w d cl} def
/mt {mp x y w2 add m w2 neg w neg d w 0 d cl} def
/w4 {w 4 div} def
/w6 {w 6 div} def
/w8 {w 8 div} def
/m21 {mb f} def /m25 {mb s} def /m22 {mt f} def /m26{mt s} def
/m23 {mp x y w2 sub m w2 w d w neg 0 d cl f} def
/m27 {mp x y w2 add m w3 neg w2 neg d w3 w2 neg d w3 w2 d cl s} def
/m28 {mp x w2 sub y w2 sub w3 add m w3 0 d  0 w3 neg d w3 0 d 0 w3 d w3 0 d  0 w3 d w3 neg 0 d 0 w3 d w3 neg 0 d 0 w3 neg d w3 neg 0 d cl s } def
/m29 {mp gsave x w2 sub y w2 add w3 sub m currentpoint t 4 {side} repeat cl fill gr} def
/m30 {mp gsave x w2 sub y w2 add w3 sub m currentpoint t 4 {side} repeat cl s gr} def
/m31 {mp x y w2 sub m 0 w d x w2 sub y m w 0 d x w2 sub y w2 add m w w neg d x w2 sub y w2 sub m w w d s} def
/m32 {mp x y w2 sub m w2 w d w neg 0 d cl s} def
/m33 {mp x y w2 add m w3 neg w2 neg d w3 w2 neg d w3 w2 d cl f} def
/m34 {mp x w2 sub y w2 sub w3 add m w3 0 d  0 w3 neg d w3 0 d 0 w3 d w3 0 d  0 w3 d w3 neg 0 d 0 w3 d w3 neg 0 d 0 w3 neg d w3 neg 0 d cl f } def
/m35 {mp x y w2 add m w2 neg w2 neg d w2 w2 neg d w2 w2 d w2 neg w2 d x y w2 sub m 0 w d x w2 sub y m w 0 d s} def
/m36 {mb x w2 sub y w2 add m w w neg d x w2 sub y w2 sub m w w d s} def
/m37 {mp x y m w4 neg w2 d w4 neg w2 neg d w2 0 d  w4 neg w2 neg d w2 0 d w4 neg w2 d w2 0 d w4 neg w2 d w4 neg w2 neg d cl s} def
/m38 {mp x w4 sub y w2 add m w4 neg w4 neg d 0 w2 neg d w4 w4 neg d w2 0 d w4 w4 d 0 w2 d w4 neg w4 d w2 neg 0 d x y w2 sub m 0 w d x w2 sub y m w 0 d cl s} def
/m39 {mp x y m w4 neg w2 d w4 neg w2 neg d w2 0 d  w4 neg w2 neg d w2 0 d w4 neg w2 d w2 0 d w4 neg w2 d w4 neg w2 neg d cl f} def
/m40 {mp x y m w4 w2 d w4 w4 neg d w2 neg w4 neg d w2 w4 neg d w4 neg w4 neg d w4 neg w2 d w4 neg w2 neg d w4 neg w4 d w2 w4 d w2 neg w4 d w4 w4 d w4 w2 neg d cl s} def
/m41 {mp x y m w4 w2 d w4 w4 neg d w2 neg w4 neg d w2 w4 neg d w4 neg w4 neg d w4 neg w2 d w4 neg w2 neg d w4 neg w4 d w2 w4 d w2 neg w4 d w4 w4 d w4 w2 neg d cl f} def
/m42 {mp x y w2 add m w8 neg w2 -3 4 div mul d w2 -3 4 div mul w8 neg d w2 3 4 div mul w8 neg d w8 w2 -3 4 div mul d w8 w2 3 4 div mul d w2 3 4 div mul w8 d w2 -3 4 div mul w8 d w8 neg w2 3 4 div mul d cl s} def
/m43 {mp x y w2 add m w8 neg w2 -3 4 div mul d w2 -3 4 div mul w8 neg d w2 3 4 div mul w8 neg d w8 w2 -3 4 div mul d w8 w2 3 4 div mul d w2 3 4 div mul w8 d w2 -3 4 div mul w8 d w8 neg w2 3 4 div mul d cl f} def
/m44 {mp x y m w6 neg w2 d w2 2 3 div mul 0 d w6 neg w2 neg d w2 w6 d 0 w2 -2 3 div mul d w2 neg w6 d w6 w2 neg d w2 -2 3 div mul 0 d w6 w2 d w2 neg w6 neg d 0 w2 2 3 div mul d w2 w6 neg d cl s} def
/m45 {mp x y m w6 neg w2 d w2 2 3 div mul 0 d w6 neg w2 neg d w2 w6 d 0 w2 -2 3 div mul d w2 neg w6 d w6 w2 neg d w2 -2 3 div mul 0 d w6 w2 d w2 neg w6 neg d 0 w2 2 3 div mul d w2 w6 neg d cl f} def
/m46 {mp x y w4 add m w4 neg w4 d w4 neg w4 neg d  w4 w4 neg d w4 neg w4 neg d w4 w4 neg d w4 w4 d w4 w4 neg d w4 w4 d w4 neg w4 d w4 w4 d w4 neg w4 d w4 neg w4 neg d cl s} def
/m47 {mp x y w4 add m w4 neg w4 d w4 neg w4 neg d w4 w4 neg d w4 neg w4 neg d  w4 w4 neg d w4 w4 d w4 w4 neg d w4 w4 d w4 neg w4 d w4 w4 d w4 neg w4 d w4 neg w4 neg d cl f} def
/m48 {mp x y w4 add m w4 neg w4 d w4 neg w4 neg d w4 w4 neg d  w4 neg w4 neg d w4 w4 neg d w4 w4 d w4 w4 neg d w4 w4 d w4 neg w4 d w4 w4 d w4 neg w4 d w4 neg w4 neg d  w4 w4 neg d w4 neg w4 neg d w4 neg w4 d w4 w4 d cl f} def
/m49 {mp x w2 sub w3 add y w2 sub w3 add m  0 w3 neg d w3 0 d 0 w3 d w3 0 d 0 w3 d w3 neg 0 d 0 w3 d w3 neg 0 d 0 w3 neg d w3 neg 0 d 0 w3 neg d w3 0 d 0 w3 d w3 0 d 0 w3 neg d w3 neg 0 d cl f } def
/m2 {mp x y w2 sub m 0 w d x w2 sub y m w 0 d s} def
/m5 {mp x w2 sub y w2 sub m w w d x w2 sub y w2 add m w w neg d s} def
%%IncludeResource: ProcSet (FontSetInit)
%%IncludeResource: font Times-Roman
%%IncludeResource: font Times-Italic
%%IncludeResource: font Times-Bold
%%IncludeResource: font Times-BoldItalic
%%IncludeResource: font Helvetica
%%IncludeResource: font Helvetica-Oblique
%%IncludeResource: font Helvetica-Bold
%%IncludeResource: font Helvetica-BoldOblique
%%IncludeResource: font Courier
%%IncludeResource: font Courier-Oblique
%%IncludeResource: font Courier-Bold
%%IncludeResource: font Courier-BoldOblique
%%IncludeResource: font Symbol
%%IncludeResource: font ZapfDingbats
/reEncode {exch findfont dup length dict begin {1 index /FID eq  {pop pop} {def} ifelse } forall /Encoding exch def currentdict end dup /FontName get exch definefont pop } def [/Times-Bold /Times-Italic /Times-BoldItalic /Helvetica /Helvetica-Oblique
 /Helvetica-Bold /Helvetica-BoldOblique /Courier /Courier-Oblique /Courier-Bold /Courier-BoldOblique /Times-Roman /AvantGarde-Book /AvantGarde-BookOblique /AvantGarde-Demi /AvantGarde-DemiOblique /Bookman-Demi /Bookman-DemiItalic /Bookman-Light
 /Bookman-LightItalic /Helvetica-Narrow /Helvetica-Narrow-Bold /Helvetica-Narrow-BoldOblique /Helvetica-Narrow-Oblique /NewCenturySchlbk-Roman /NewCenturySchlbk-Bold /NewCenturySchlbk-BoldItalic /NewCenturySchlbk-Italic /Palatino-Bold
 /Palatino-BoldItalic /Palatino-Italic /Palatino-Roman ] {ISOLatin1Encoding reEncode } forall
%%EndProlog
%%BeginSetup
%%EndSetup
newpath  gsave  .25 .25 scale  gsave  0 0 t black[  ] 0 sd 3 lw 1 1 1 c 2268 1540 0 0 bf black 1 1 1 c 1814 1232 227 154 bf black 1814 1232 227 154 bl 0 0 0.6 c 1 1 1 c black 0 0 0.6 c 295 823 m 27 Y s 295 850 m 20 Y s 290 850 m 5 X s 295 850 m 4 X s
 black /w 2 def /w2 {w 2 div} def /w3 {w 3 div} def 295 850 m20 0 0 0.6 c 304 974 m 14 Y s 304 988 m 11 Y s 299 988 m 5 X s 304 988 m 4 X s black 304 988 m20 0 0 0.6 c 313 942 m 13 Y s 313 955 m 11 Y s 308 955 m 5 X s 313 955 m 4 X s black 313 955
 m20 0 0 0.6 c 322 877 m 19 Y s 322 896 m 16 Y s 317 896 m 5 X s 322 896 m 5 X s black 322 896 m20 0 0 0.6 c 331 881 m 19 Y s 331 900 m 15 Y s 327 900 m 4 X s 331 900 m 5 X s black 331 900 m20 0 0 0.6 c 340 885 m 18 Y s 340 903 m 14 Y s 336 903 m 4 X
 s 340 903 m 5 X s black 340 903 m20 0 0 0.6 c 349 854 m 26 Y s 349 880 m 19 Y s 345 880 m 4 X s 349 880 m 5 X s black 349 880 m20 0 0 0.6 c 358 837 m 20 Y s 358 857 m 16 Y s 354 857 m 4 X s 358 857 m 5 X s black 358 857 m20 0 0 0.6 c 367 816 m 23 Y
 s 367 839 m 17 Y s 363 839 m 4 X s 367 839 m 5 X s black 367 839 m20 0 0 0.6 c 376 860 m 18 Y s 376 878 m 14 Y s 372 878 m 4 X s 376 878 m 5 X s black 376 878 m20 0 0 0.6 c 386 862 m 19 Y s 386 881 m 15 Y s 381 881 m 5 X s 386 881 m 4 X s black 386
 881 m20 0 0 0.6 c 395 827 m 21 Y s 395 848 m 17 Y s 390 848 m 5 X s 395 848 m 4 X s black 395 848 m20 0 0 0.6 c 404 780 m 23 Y s 404 803 m 18 Y s 399 803 m 5 X s 404 803 m 4 X s black 404 803 m20 0 0 0.6 c 413 756 m 30 Y s 413 786 m 21 Y s 408 786 m
 5 X s 413 786 m 4 X s black 413 786 m20 0 0 0.6 c 422 769 m 28 Y s 422 797 m 21 Y s 417 797 m 5 X s 422 797 m 4 X s black 422 797 m20 0 0 0.6 c 431 805 m 27 Y s 431 832 m 20 Y s 426 832 m 5 X s 431 832 m 4 X s black 431 832 m20 0 0 0.6 c 440 785 m
 22 Y s 440 807 m 16 Y s 435 807 m 5 X s 440 807 m 4 X s black 440 807 m20 0 0 0.6 c 449 811 m 22 Y s 449 833 m 17 Y s 444 833 m 5 X s 449 833 m 5 X s black 449 833 m20 0 0 0.6 c 458 805 m 25 Y s 458 830 m 19 Y s 454 830 m 4 X s 458 830 m 5 X s black
 458 830 m20 0 0 0.6 c 467 742 m 24 Y s 467 766 m 18 Y s 463 766 m 4 X s 467 766 m 5 X s black 467 766 m20 0 0 0.6 c 476 798 m 23 Y s 476 821 m 18 Y s 472 821 m 4 X s 476 821 m 5 X s black 476 821 m20 0 0 0.6 c 485 753 m 27 Y s 485 780 m 20 Y s 481
 780 m 4 X s 485 780 m 5 X s black 485 780 m20 0 0 0.6 c 494 734 m 32 Y s 494 766 m 23 Y s 490 766 m 4 X s 494 766 m 5 X s black 494 766 m20 0 0 0.6 c 503 754 m 28 Y s 503 782 m 20 Y s 499 782 m 4 X s 503 782 m 5 X s black 503 782 m20 0 0 0.6 c 513
 760 m 25 Y s 513 785 m 18 Y s 508 785 m 5 X s 513 785 m 4 X s black 513 785 m20 0 0 0.6 c 522 750 m 23 Y s 522 773 m 18 Y s 517 773 m 5 X s 522 773 m 4 X s black 522 773 m20 0 0 0.6 c 531 760 m 22 Y s 531 782 m 16 Y s 526 782 m 5 X s 531 782 m 4 X s
 black 531 782 m20 0 0 0.6 c 540 750 m 33 Y s 540 783 m 22 Y s 535 783 m 5 X s 540 783 m 4 X s black 540 783 m20 0 0 0.6 c 549 677 m 37 Y s 549 714 m 24 Y s 544 714 m 5 X s 549 714 m 4 X s black 549 714 m20 0 0 0.6 c 558 745 m 23 Y s 558 768 m 18 Y s
 553 768 m 5 X s 558 768 m 4 X s black 558 768 m20 0 0 0.6 c 567 712 m 35 Y s 567 747 m 24 Y s 562 747 m 5 X s 567 747 m 4 X s black 567 747 m20 0 0 0.6 c 576 753 m 25 Y s 576 778 m 19 Y s 571 778 m 5 X s 576 778 m 5 X s black 576 778 m20 0 0 0.6 c
 585 691 m 46 Y s 585 737 m 29 Y s 581 737 m 4 X s 585 737 m 5 X s black 585 737 m20 0 0 0.6 c 594 704 m 29 Y s 594 733 m 21 Y s 590 733 m 4 X s 594 733 m 5 X s black 594 733 m20 0 0 0.6 c 603 717 m 27 Y s 603 744 m 20 Y s 599 744 m 4 X s 603 744 m 5
 X s black 603 744 m20 0 0 0.6 c 612 731 m 26 Y s 612 757 m 20 Y s 608 757 m 4 X s 612 757 m 5 X s black 612 757 m20 0 0 0.6 c 621 716 m 27 Y s 621 743 m 20 Y s 617 743 m 4 X s 621 743 m 5 X s black 621 743 m20 0 0 0.6 c 630 659 m 32 Y s 630 691 m 23
 Y s 626 691 m 4 X s 630 691 m 5 X s black 630 691 m20 0 0 0.6 c 639 679 m 31 Y s 639 710 m 22 Y s 635 710 m 4 X s 639 710 m 5 X s black 639 710 m20 0 0 0.6 c 649 703 m 29 Y s 649 732 m 21 Y s 644 732 m 5 X s 649 732 m 4 X s black 649 732 m20 0 0 0.6
 c 658 712 m 34 Y s 658 746 m 24 Y s 653 746 m 5 X s 658 746 m 4 X s black 658 746 m20 0 0 0.6 c 667 669 m 31 Y s 667 700 m 22 Y s 662 700 m 5 X s 667 700 m 4 X s black 667 700 m20 0 0 0.6 c 676 621 m 36 Y s 676 657 m 25 Y s 671 657 m 5 X s 676 657 m
 4 X s black 676 657 m20 0 0 0.6 c 685 708 m 38 Y s 685 746 m 26 Y s 680 746 m 5 X s 685 746 m 4 X s black 685 746 m20 0 0 0.6 c 694 661 m 36 Y s 694 697 m 25 Y s 689 697 m 5 X s 694 697 m 4 X s black 694 697 m20 0 0 0.6 c 703 687 m 38 Y s 703 725 m
 25 Y s 698 725 m 5 X s 703 725 m 5 X s black 703 725 m20 0 0 0.6 c 712 639 m 41 Y s 712 680 m 26 Y s 708 680 m 4 X s 712 680 m 5 X s black 712 680 m20 0 0 0.6 c 721 649 m 45 Y s 721 694 m 28 Y s 717 694 m 4 X s 721 694 m 5 X s black 721 694 m20 0 0
 0.6 c 730 567 m 75 Y s 730 642 m 37 Y s 726 642 m 4 X s 730 642 m 5 X s black 730 642 m20 0 0 0.6 c 739 709 m 29 Y s 739 738 m 21 Y s 735 738 m 4 X s 739 738 m 5 X s black 739 738 m20 0 0 0.6 c 748 689 m 28 Y s 748 717 m 20 Y s 744 717 m 4 X s 748
 717 m 5 X s black 748 717 m20 0 0 0.6 c 757 661 m 47 Y s 757 708 m 29 Y s 753 708 m 4 X s 757 708 m 5 X s black 757 708 m20 0 0 0.6 c 766 576 m 48 Y s 766 624 m 29 Y s 762 624 m 4 X s 766 624 m 5 X s black 766 624 m20 0 0 0.6 c 776 649 m 65 Y s 776
 714 m 35 Y s 771 714 m 5 X s 776 714 m 4 X s black 776 714 m20 0 0 0.6 c 785 595 m 37 Y s 785 632 m 25 Y s 780 632 m 5 X s 785 632 m 4 X s black 785 632 m20 0 0 0.6 c 794 595 m 39 Y s 794 634 m 25 Y s 789 634 m 5 X s 794 634 m 4 X s black 794 634
 m20 0 0 0.6 c 803 634 m 43 Y s 803 677 m 27 Y s 798 677 m 5 X s 803 677 m 4 X s black 803 677 m20 0 0 0.6 c 812 619 m 54 Y s 812 673 m 31 Y s 807 673 m 5 X s 812 673 m 4 X s black 812 673 m20 0 0 0.6 c 821 658 m 34 Y s 821 692 m 23 Y s 816 692 m 5 X
 s 821 692 m 4 X s black 821 692 m20 0 0 0.6 c 830 595 m 41 Y s 830 636 m 27 Y s 825 636 m 5 X s 830 636 m 5 X s black 830 636 m20 0 0 0.6 c 839 654 m 34 Y s 839 688 m 23 Y s 835 688 m 4 X s 839 688 m 5 X s black 839 688 m20 0 0 0.6 c 848 619 m 35 Y
 s 848 654 m 24 Y s 844 654 m 4 X s 848 654 m 5 X s black 848 654 m20 0 0 0.6 c 857 635 m 42 Y s 857 677 m 27 Y s 853 677 m 4 X s 857 677 m 5 X s black 857 677 m20 0 0 0.6 c 866 510 m 75 Y s 866 585 m 37 Y s 862 585 m 4 X s 866 585 m 5 X s black 866
 585 m20 0 0 0.6 c 875 601 m 41 Y s 875 642 m 26 Y s 871 642 m 4 X s 875 642 m 5 X s black 875 642 m20 0 0 0.6 c 884 667 m 32 Y s 884 699 m 22 Y s 880 699 m 4 X s 884 699 m 5 X s black 884 699 m20 0 0 0.6 c 893 654 m 36 Y s 893 690 m 25 Y s 889 690 m
 4 X s 893 690 m 5 X s black 893 690 m20 0 0 0.6 c 903 579 m 58 Y s 903 637 m 33 Y s 898 637 m 5 X s 903 637 m 4 X s black 903 637 m20 0 0 0.6 c 912 641 m 33 Y s 912 674 m 23 Y s 907 674 m 5 X s 912 674 m 4 X s black 912 674 m20 0 0 0.6 c 921 629 m
 37 Y s 921 666 m 25 Y s 916 666 m 5 X s 921 666 m 4 X s black 921 666 m20 0 0 0.6 c 930 638 m 43 Y s 930 681 m 27 Y s 925 681 m 5 X s 930 681 m 4 X s black 930 681 m20 0 0 0.6 c 939 549 m 50 Y s 939 599 m 30 Y s 934 599 m 5 X s 939 599 m 4 X s black
 939 599 m20 0 0 0.6 c 948 544 m 63 Y s 948 607 m 34 Y s 943 607 m 5 X s 948 607 m 4 X s black 948 607 m20 0 0 0.6 c 957 639 m 32 Y s 957 671 m 22 Y s 952 671 m 5 X s 957 671 m 5 X s black 957 671 m20 0 0 0.6 c 966 637 m 46 Y s 966 683 m 28 Y s 962
 683 m 4 X s 966 683 m 5 X s black 966 683 m20 0 0 0.6 c 975 559 m 49 Y s 975 608 m 30 Y s 971 608 m 4 X s 975 608 m 5 X s black 975 608 m20 0 0 0.6 c 984 608 m 43 Y s 984 651 m 27 Y s 980 651 m 4 X s 984 651 m 5 X s black 984 651 m20 0 0 0.6 c 993
 522 m 68 Y s 993 590 m 36 Y s 989 590 m 4 X s 993 590 m 5 X s black 993 590 m20 0 0 0.6 c 1002 638 m 40 Y s 1002 678 m 25 Y s 998 678 m 4 X s 1002 678 m 5 X s black 1002 678 m20 0 0 0.6 c 1011 666 m 40 Y s 1011 706 m 26 Y s 1007 706 m 4 X s 1011 706
 m 5 X s black 1011 706 m20 0 0 0.6 c 1020 640 m 35 Y s 1020 675 m 24 Y s 1016 675 m 4 X s 1020 675 m 5 X s black 1020 675 m20 0 0 0.6 c 1030 553 m 46 Y s 1030 599 m 29 Y s 1025 599 m 5 X s 1030 599 m 4 X s black 1030 599 m20 0 0 0.6 c 1039 617 m 42
 Y s 1039 659 m 27 Y s 1034 659 m 5 X s 1039 659 m 4 X s black 1039 659 m20 0 0 0.6 c 1048 154 m 391 Y s 1048 545 m 53 Y s 1043 545 m 5 X s 1048 545 m 4 X s black 1048 545 m20 0 0 0.6 c 1057 558 m 61 Y s 1057 619 m 33 Y s 1052 619 m 5 X s 1057 619 m
 4 X s black 1057 619 m20 0 0 0.6 c 1066 579 m 52 Y s 1066 631 m 31 Y s 1061 631 m 5 X s 1066 631 m 4 X s black 1066 631 m20 0 0 0.6 c 1075 493 m 67 Y s 1075 560 m 35 Y s 1070 560 m 5 X s 1075 560 m 4 X s black 1075 560 m20 0 0 0.6 c 1084 540 m 72 Y
 s 1084 612 m 36 Y s 1079 612 m 5 X s 1084 612 m 5 X s black 1084 612 m20 0 0 0.6 c 1093 475 m 94 Y s 1093 569 m 41 Y s 1089 569 m 4 X s 1093 569 m 5 X s black 1093 569 m20 0 0 0.6 c 1102 565 m 67 Y s 1102 632 m 35 Y s 1098 632 m 4 X s 1102 632 m 5 X
 s black 1102 632 m20 0 0 0.6 c 1111 459 m 94 Y s 1111 553 m 41 Y s 1107 553 m 4 X s 1111 553 m 5 X s black 1111 553 m20 0 0 0.6 c 1120 611 m 33 Y s 1120 644 m 23 Y s 1116 644 m 4 X s 1120 644 m 5 X s black 1120 644 m20 0 0 0.6 c 1129 595 m 55 Y s
 1129 650 m 32 Y s 1125 650 m 4 X s 1129 650 m 5 X s black 1129 650 m20 0 0 0.6 c 1138 493 m 70 Y s 1138 563 m 36 Y s 1134 563 m 4 X s 1138 563 m 5 X s black 1138 563 m20 0 0 0.6 c 1147 507 m 72 Y s 1147 579 m 37 Y s 1143 579 m 4 X s 1147 579 m 5 X s
 black 1147 579 m20 0 0 0.6 c 1157 154 m 318 Y s 1157 472 m 53 Y s 1152 472 m 5 X s 1157 472 m 4 X s black 1157 472 m20 0 0 0.6 c 1166 522 m 64 Y s 1166 586 m 34 Y s 1161 586 m 5 X s 1166 586 m 4 X s black 1166 586 m20 0 0 0.6 c 1175 515 m 84 Y s
 1175 599 m 39 Y s 1170 599 m 5 X s 1175 599 m 4 X s black 1175 599 m20 0 0 0.6 c 1184 154 m 323 Y s 1184 477 m 53 Y s 1179 477 m 5 X s 1184 477 m 4 X s black 1184 477 m20 0 0 0.6 c 1193 455 m 71 Y s 1193 526 m 36 Y s 1188 526 m 5 X s 1193 526 m 4 X
 s black 1193 526 m20 0 0 0.6 c 1202 588 m 46 Y s 1202 634 m 28 Y s 1197 634 m 5 X s 1202 634 m 4 X s black 1202 634 m20 0 0 0.6 c 1211 545 m 66 Y s 1211 611 m 35 Y s 1206 611 m 5 X s 1211 611 m 4 X s black 1211 611 m20 0 0 0.6 c 1220 489 m 66 Y s
 1220 555 m 35 Y s 1215 555 m 5 X s 1220 555 m 5 X s black 1220 555 m20 0 0 0.6 c 1229 483 m 84 Y s 1229 567 m 39 Y s 1225 567 m 4 X s 1229 567 m 5 X s black 1229 567 m20 0 0 0.6 c 1238 518 m 57 Y s 1238 575 m 32 Y s 1234 575 m 4 X s 1238 575 m 5 X s
 black 1238 575 m20 0 0 0.6 c 1247 510 m 54 Y s 1247 564 m 32 Y s 1243 564 m 4 X s 1247 564 m 5 X s black 1247 564 m20 0 0 0.6 c 1256 596 m 43 Y s 1256 639 m 27 Y s 1252 639 m 4 X s 1256 639 m 5 X s black 1256 639 m20 0 0 0.6 c 1265 391 m 94 Y s 1265
 485 m 41 Y s 1261 485 m 4 X s 1265 485 m 5 X s black 1265 485 m20 0 0 0.6 c 1274 470 m 122 Y s 1274 592 m 45 Y s 1270 592 m 4 X s 1274 592 m 5 X s black 1274 592 m20 0 0 0.6 c 1284 531 m 60 Y s 1284 591 m 33 Y s 1279 591 m 5 X s 1284 591 m 4 X s
 black 1284 591 m20 0 0 0.6 c 1293 496 m 69 Y s 1293 565 m 35 Y s 1288 565 m 5 X s 1293 565 m 4 X s black 1293 565 m20 0 0 0.6 c 1302 549 m 51 Y s 1302 600 m 30 Y s 1297 600 m 5 X s 1302 600 m 4 X s black 1302 600 m20 0 0 0.6 c 1311 154 m 276 Y s
 1311 430 m 53 Y s 1306 430 m 5 X s 1311 430 m 4 X s black 1311 430 m20 0 0 0.6 c 1320 591 m 35 Y s 1320 626 m 24 Y s 1315 626 m 5 X s 1320 626 m 4 X s black 1320 626 m20 0 0 0.6 c 1329 154 m 349 Y s 1329 503 m 53 Y s 1324 503 m 5 X s 1329 503 m 4 X
 s black 1329 503 m20 0 0 0.6 c 1338 490 m 67 Y s 1338 557 m 36 Y s 1333 557 m 5 X s 1338 557 m 4 X s black 1338 557 m20 0 0 0.6 c 1347 569 m 49 Y s 1347 618 m 30 Y s 1342 618 m 5 X s 1347 618 m 5 X s black 1347 618 m20 0 0 0.6 c 1356 542 m 71 Y s
 1356 613 m 36 Y s 1352 613 m 4 X s 1356 613 m 5 X s black 1356 613 m20 0 0 0.6 c 1365 389 m 105 Y s 1365 494 m 43 Y s 1361 494 m 4 X s 1365 494 m 5 X s black 1365 494 m20 0 0 0.6 c 1374 609 m 38 Y s 1374 647 m 26 Y s 1370 647 m 4 X s 1374 647 m 5 X
 s black 1374 647 m20 0 0 0.6 c 1383 471 m 80 Y s 1383 551 m 39 Y s 1379 551 m 4 X s 1383 551 m 5 X s black 1383 551 m20 0 0 0.6 c 1392 414 m 149 Y s 1392 563 m 48 Y s 1388 563 m 4 X s 1392 563 m 5 X s black 1392 563 m20 0 0 0.6 c 1420 558 m 50 Y s
 1420 608 m 29 Y s 1415 608 m 5 X s 1420 608 m 4 X s black 1420 608 m20 0 0 0.6 c 1429 492 m 73 Y s 1429 565 m 37 Y s 1424 565 m 5 X s 1429 565 m 4 X s black 1429 565 m20 0 0 0.6 c 1447 521 m 60 Y s 1447 581 m 34 Y s 1442 581 m 5 X s 1447 581 m 4 X s
 black 1447 581 m20 0 0 0.6 c 1456 532 m 55 Y s 1456 587 m 32 Y s 1451 587 m 5 X s 1456 587 m 4 X s black 1456 587 m20 0 0 0.6 c 1474 467 m 69 Y s 1474 536 m 36 Y s 1469 536 m 5 X s 1474 536 m 5 X s black 1474 536 m20 0 0 0.6 c 1483 448 m 94 Y s 1483
 542 m 41 Y s 1479 542 m 4 X s 1483 542 m 5 X s black 1483 542 m20 0 0 0.6 c 1492 523 m 61 Y s 1492 584 m 33 Y s 1488 584 m 4 X s 1492 584 m 5 X s black 1492 584 m20 0 0 0.6 c 1501 501 m 58 Y s 1501 559 m 33 Y s 1497 559 m 4 X s 1501 559 m 5 X s
 black 1501 559 m20 0 0 0.6 c 1510 428 m 96 Y s 1510 524 m 41 Y s 1506 524 m 4 X s 1510 524 m 5 X s black 1510 524 m20 0 0 0.6 c 1519 405 m 126 Y s 1519 531 m 45 Y s 1515 531 m 4 X s 1519 531 m 5 X s black 1519 531 m20 0 0 0.6 c 1538 477 m 73 Y s
 1538 550 m 37 Y s 1533 550 m 5 X s 1538 550 m 4 X s black 1538 550 m20 0 0 0.6 c 1547 423 m 98 Y s 1547 521 m 42 Y s 1542 521 m 5 X s 1547 521 m 4 X s black 1547 521 m20 0 0 0.6 c 1556 433 m 131 Y s 1556 564 m 45 Y s 1551 564 m 5 X s 1556 564 m 4 X
 s black 1556 564 m20 0 0 0.6 c 1565 485 m 68 Y s 1565 553 m 36 Y s 1560 553 m 5 X s 1565 553 m 4 X s black 1565 553 m20 0 0 0.6 c 1574 516 m 66 Y s 1574 582 m 35 Y s 1569 582 m 5 X s 1574 582 m 4 X s black 1574 582 m20 0 0 0.6 c 1619 486 m 79 Y s
 1619 565 m 38 Y s 1615 565 m 4 X s 1619 565 m 5 X s black 1619 565 m20 0 0 0.6 c 1628 447 m 108 Y s 1628 555 m 43 Y s 1624 555 m 4 X s 1628 555 m 5 X s black 1628 555 m20 0 0 0.6 c 1637 382 m 99 Y s 1637 481 m 42 Y s 1633 481 m 4 X s 1637 481 m 5 X
 s black 1637 481 m20 0 0 0.6 c 1646 474 m 72 Y s 1646 546 m 37 Y s 1642 546 m 4 X s 1646 546 m 5 X s black 1646 546 m20 0 0 0.6 c 1655 527 m 55 Y s 1655 582 m 32 Y s 1651 582 m 4 X s 1655 582 m 5 X s black 1655 582 m20 0 0 0.6 c 1665 154 m 383 Y s
 1665 537 m 53 Y s 1660 537 m 5 X s 1665 537 m 4 X s black 1665 537 m20 0 0 0.6 c 1674 154 m 286 Y s 1674 440 m 53 Y s 1669 440 m 5 X s 1674 440 m 4 X s black 1674 440 m20 0 0 0.6 c 1683 424 m 94 Y s 1683 518 m 40 Y s 1678 518 m 5 X s 1683 518 m 4 X
 s black 1683 518 m20 0 0 0.6 c 1692 154 m 286 Y s 1692 440 m 53 Y s 1687 440 m 5 X s 1692 440 m 4 X s black 1692 440 m20 0 0 0.6 c 1701 380 m 104 Y s 1701 484 m 43 Y s 1696 484 m 5 X s 1701 484 m 4 X s black 1701 484 m20 0 0 0.6 c 1710 419 m 96 Y s
 1710 515 m 42 Y s 1705 515 m 5 X s 1710 515 m 4 X s black 1710 515 m20 0 0 0.6 c 1737 154 m 296 Y s 1737 450 m 53 Y s 1733 450 m 4 X s 1737 450 m 5 X s black 1737 450 m20 0 0 0.6 c 1746 154 m 302 Y s 1746 456 m 53 Y s 1742 456 m 4 X s 1746 456 m 5 X
 s black 1746 456 m20 0 0 0.6 c 1755 154 m 285 Y s 1755 439 m 53 Y s 1751 439 m 4 X s 1755 439 m 5 X s black 1755 439 m20 0 0 0.6 c 1764 401 m 96 Y s 1764 497 m 41 Y s 1760 497 m 4 X s 1764 497 m 5 X s black 1764 497 m20 0 0 0.6 c 1773 518 m 66 Y s
 1773 584 m 35 Y s 1769 584 m 4 X s 1773 584 m 5 X s black 1773 584 m20 0 0 0.6 c 1782 381 m 111 Y s 1782 492 m 43 Y s 1778 492 m 4 X s 1782 492 m 5 X s black 1782 492 m20 0 0 0.6 c 1791 409 m 95 Y s 1791 504 m 41 Y s 1787 504 m 4 X s 1791 504 m 5 X
 s black 1791 504 m20 0 0 0.6 c 1801 154 m 277 Y s 1801 431 m 53 Y s 1796 431 m 5 X s 1801 431 m 4 X s black 1801 431 m20 0 0 0.6 c 1819 407 m 94 Y s 1819 501 m 41 Y s 1814 501 m 5 X s 1819 501 m 4 X s black 1819 501 m20 0 0 0.6 c 1846 154 m 312 Y s
 1846 466 m 53 Y s 1841 466 m 5 X s 1846 466 m 4 X s black 1846 466 m20 0 0 0.6 c 1855 154 m 262 Y s 1855 416 m 53 Y s 1850 416 m 5 X s 1855 416 m 5 X s black 1855 416 m20 0 0 0.6 c 1864 511 m 58 Y s 1864 569 m 33 Y s 1860 569 m 4 X s 1864 569 m 5 X
 s black 1864 569 m20 0 0 0.6 c 1873 484 m 96 Y s 1873 580 m 41 Y s 1869 580 m 4 X s 1873 580 m 5 X s black 1873 580 m20 0 0 0.6 c 1891 154 m 335 Y s 1891 489 m 53 Y s 1887 489 m 4 X s 1891 489 m 5 X s black 1891 489 m20 0 0 0.6 c 1900 154 m 339 Y s
 1900 493 m 53 Y s 1896 493 m 4 X s 1900 493 m 5 X s black 1900 493 m20 0 0 0.6 c 1909 154 m 302 Y s 1909 456 m 53 Y s 1905 456 m 4 X s 1909 456 m 5 X s black 1909 456 m20 0 0 0.6 c 1918 333 m 94 Y s 1918 427 m 41 Y s 1914 427 m 4 X s 1918 427 m 5 X
 s black 1918 427 m20 0 0 0.6 c 1928 154 m 300 Y s 1928 454 m 53 Y s 1923 454 m 5 X s 1928 454 m 4 X s black 1928 454 m20 0 0 0.6 c 1937 154 m 347 Y s 1937 501 m 53 Y s 1932 501 m 5 X s 1937 501 m 4 X s black 1937 501 m20 0 0 0.6 c 1946 448 m 68 Y s
 1946 516 m 35 Y s 1941 516 m 5 X s 1946 516 m 4 X s black 1946 516 m20 0 0 0.6 c 1973 395 m 118 Y s 1973 513 m 44 Y s 1968 513 m 5 X s 1973 513 m 4 X s black 1973 513 m20 0 0 0.6 c 1982 154 m 307 Y s 1982 461 m 53 Y s 1977 461 m 5 X s 1982 461 m 5 X
 s black 1982 461 m20 0 0 0.6 c 1991 499 m 75 Y s 1991 574 m 37 Y s 1987 574 m 4 X s 1991 574 m 5 X s black 1991 574 m20 0 0 0.6 c 2000 154 m 297 Y s 2000 451 m 53 Y s 1996 451 m 4 X s 2000 451 m 5 X s black 2000 451 m20 0 0 0.6 c 2027 154 m 255 Y s
 2027 409 m 53 Y s 2023 409 m 4 X s 2027 409 m 5 X s black 2027 409 m20 0 0 0.6 c 2036 154 m 339 Y s 2036 493 m 53 Y s 2032 493 m 4 X s 2036 493 m 5 X s black 2036 493 m20 227 154 m 1814 X s 227 191 m -37 Y s 272 172 m -18 Y s 317 172 m -18 Y s 363
 172 m -18 Y s 408 172 m -18 Y s 454 191 m -37 Y s 499 172 m -18 Y s 544 172 m -18 Y s 590 172 m -18 Y s 635 172 m -18 Y s 680 191 m -37 Y s 726 172 m -18 Y s 771 172 m -18 Y s 816 172 m -18 Y s 862 172 m -18 Y s 907 191 m -37 Y s 952 172 m -18 Y s
 998 172 m -18 Y s 1043 172 m -18 Y s 1089 172 m -18 Y s 1134 191 m -37 Y s 1179 172 m -18 Y s 1225 172 m -18 Y s 1270 172 m -18 Y s 1315 172 m -18 Y s 1361 191 m -37 Y s 1406 172 m -18 Y s 1451 172 m -18 Y s 1497 172 m -18 Y s 1542 172 m -18 Y s
 1587 191 m -37 Y s 1633 172 m -18 Y s 1678 172 m -18 Y s 1723 172 m -18 Y s 1769 172 m -18 Y s 1814 191 m -37 Y s 1860 172 m -18 Y s 1905 172 m -18 Y s 1950 172 m -18 Y s 1996 172 m -18 Y s 2041 191 m -37 Y s
 gsave  2268 1540 0 0 C 211.177 103.964 t 0 r /Helvetica findfont 48.7332 sf 0 0 m (0) show NC gr 
 gsave  2268 1540 0 0 C 422.354 103.964 t 0 r /Helvetica findfont 48.7332 sf 0 0 m (50) show NC gr 
 gsave  2268 1540 0 0 C 636.78 103.964 t 0 r /Helvetica findfont 48.7332 sf 0 0 m (100) show NC gr 
 gsave  2268 1540 0 0 C 864.201 103.964 t 0 r /Helvetica findfont 48.7332 sf 0 0 m (150) show NC gr 
 gsave  2268 1540 0 0 C 1091.62 103.964 t 0 r /Helvetica findfont 48.7332 sf 0 0 m (200) show NC gr 
 gsave  2268 1540 0 0 C 1315.8 103.964 t 0 r /Helvetica findfont 48.7332 sf 0 0 m (250) show NC gr 
 gsave  2268 1540 0 0 C 1543.22 103.964 t 0 r /Helvetica findfont 48.7332 sf 0 0 m (300) show NC gr 
 gsave  2268 1540 0 0 C 1770.64 103.964 t 0 r /Helvetica findfont 48.7332 sf 0 0 m (350) show NC gr 
 gsave  2268 1540 0 0 C 1998.06 103.964 t 0 r /Helvetica findfont 48.7332 sf 0 0 m (400) show NC gr 
 gsave  2268 1540 0 0 C 1059.13 25.991 t 0 r /Helvetica findfont 64.9775 sf 0 0 m (r\(cm\)) show NC gr  227 154 m 1232 Y s 281 154 m -54 X s
 gsave  2268 1540 0 0 C 188.435 155.946 t 0 r /Helvetica findfont 32.4888 sf 0 0 m (5) show NC gr 
 gsave  2268 1540 0 0 C 168.942 155.946 t 0 r /Symbol findfont 32.4888 sf 0 0 m (-) show NC gr 
 gsave  2268 1540 0 0 C 113.711 133.204 t 0 r /Helvetica findfont 48.7332 sf 0 0 m (10) show NC gr  254 207 m -27 X s 254 238 m -27 X s 254 260 m -27 X s 254 277 m -27 X s 254 291 m -27 X s 254 303 m -27 X s 254 313 m -27 X s 254 322 m -27 X s 281
 330 m -54 X s
 gsave  2268 1540 0 0 C 188.435 328.137 t 0 r /Helvetica findfont 32.4888 sf 0 0 m (4) show NC gr 
 gsave  2268 1540 0 0 C 168.942 328.137 t 0 r /Symbol findfont 32.4888 sf 0 0 m (-) show NC gr 
 gsave  2268 1540 0 0 C 113.711 308.643 t 0 r /Helvetica findfont 48.7332 sf 0 0 m (10) show NC gr  254 383 m -27 X s 254 414 m -27 X s 254 436 m -27 X s 254 453 m -27 X s 254 467 m -27 X s 254 479 m -27 X s 254 489 m -27 X s 254 498 m -27 X s 281
 506 m -54 X s
 gsave  2268 1540 0 0 C 188.435 506.825 t 0 r /Helvetica findfont 32.4888 sf 0 0 m (3) show NC gr 
 gsave  2268 1540 0 0 C 168.942 506.825 t 0 r /Symbol findfont 32.4888 sf 0 0 m (-) show NC gr 
 gsave  2268 1540 0 0 C 113.711 484.083 t 0 r /Helvetica findfont 48.7332 sf 0 0 m (10) show NC gr  254 559 m -27 X s 254 590 m -27 X s 254 612 m -27 X s 254 629 m -27 X s 254 643 m -27 X s 254 655 m -27 X s 254 665 m -27 X s 254 674 m -27 X s 281
 682 m -54 X s
 gsave  2268 1540 0 0 C 188.435 679.015 t 0 r /Helvetica findfont 32.4888 sf 0 0 m (2) show NC gr 
 gsave  2268 1540 0 0 C 168.942 679.015 t 0 r /Symbol findfont 32.4888 sf 0 0 m (-) show NC gr 
 gsave  2268 1540 0 0 C 113.711 659.522 t 0 r /Helvetica findfont 48.7332 sf 0 0 m (10) show NC gr  254 735 m -27 X s 254 766 m -27 X s 254 788 m -27 X s 254 805 m -27 X s 254 819 m -27 X s 254 831 m -27 X s 254 841 m -27 X s 254 850 m -27 X s 281
 858 m -54 X s
 gsave  2268 1540 0 0 C 194.933 857.704 t 0 r /Helvetica findfont 32.4888 sf 0 0 m (1) show NC gr 
 gsave  2268 1540 0 0 C 175.439 857.704 t 0 r /Symbol findfont 32.4888 sf 0 0 m (-) show NC gr 
 gsave  2268 1540 0 0 C 120.208 838.21 t 0 r /Helvetica findfont 48.7332 sf 0 0 m (10) show NC gr  254 911 m -27 X s 254 942 m -27 X s 254 964 m -27 X s 254 981 m -27 X s 254 995 m -27 X s 254 1007 m -27 X s 254 1017 m -27 X s 254 1026 m -27 X s 281
 1034 m -54 X s
 gsave  2268 1540 0 0 C 188.435 1016.9 t 0 r /Helvetica findfont 48.7332 sf 0 0 m (1) show NC gr  254 1087 m -27 X s 254 1118 m -27 X s 254 1140 m -27 X s 254 1157 m -27 X s 254 1171 m -27 X s 254 1183 m -27 X s 254 1193 m -27 X s 254 1202 m -27 X s
 281 1210 m -54 X s
 gsave  2268 1540 0 0 C 152.697 1192.34 t 0 r /Helvetica findfont 48.7332 sf 0 0 m (10) show NC gr  254 1263 m -27 X s 254 1294 m -27 X s 254 1316 m -27 X s 254 1333 m -27 X s 254 1347 m -27 X s 254 1359 m -27 X s 254 1369 m -27 X s 254 1378 m -27 X
 s 281 1386 m -54 X s
 gsave  2268 1540 0 0 C 188.435 1384.02 t 0 r /Helvetica findfont 32.4888 sf 0 0 m (2) show NC gr 
 gsave  2268 1540 0 0 C 133.204 1364.53 t 0 r /Helvetica findfont 48.7332 sf 0 0 m (10) show NC gr 
 gsave  2268 1540 0 0 C 103.964 1367.78 t 90 r /Helvetica findfont 64.9775 sf 0 0 m (\)) show NC gr 
 gsave  2268 1540 0 0 C 74.7242 1338.54 t 90 r /Helvetica findfont 42.2354 sf 0 0 m (\2551) show NC gr 
 gsave  2268 1540 0 0 C 100.715 1026.65 t 90 r /Helvetica findfont 64.9775 sf 0 0 m (density\(cm) show NC gr  1 1 1 c black
 gsave  2268 1540 0 0 C 880.446 1465.24 t 0 r /Helvetica findfont 74.7242 sf 0 0 m (:et_deposition_density_vs_r) show NC gr 
 gsave  2268 1540 0 0 C 864.201 1510.73 t 0 r /Helvetica findfont 48.7332 sf 0 0 m (\255) show NC gr 
 gsave  2268 1540 0 0 C 812.219 1465.24 t 0 r /Helvetica findfont 74.7242 sf 0 0 m (K) show NC gr 
 gsave  2268 1540 0 0 C 782.979 1504.23 t 0 r /Helvetica findfont 48.7332 sf 0 0 m (+) show NC gr 
 gsave  2268 1540 0 0 C 461.341 1465.24 t 0 r /Helvetica findfont 74.7242 sf 0 0 m (nu11.4_K) show NC gr  1 1 1 c black
 gsave  2268 1540 0 0 C 880.446 1465.24 t 0 r /Helvetica findfont 74.7242 sf 0 0 m (:et_deposition_density_vs_r) show NC gr 
 gsave  2268 1540 0 0 C 864.201 1510.73 t 0 r /Helvetica findfont 48.7332 sf 0 0 m (\255) show NC gr 
 gsave  2268 1540 0 0 C 812.219 1465.24 t 0 r /Helvetica findfont 74.7242 sf 0 0 m (K) show NC gr 
 gsave  2268 1540 0 0 C 782.979 1504.23 t 0 r /Helvetica findfont 48.7332 sf 0 0 m (+) show NC gr 
 gsave  2268 1540 0 0 C 461.341 1465.24 t 0 r /Helvetica findfont 74.7242 sf 0 0 m (nu11.4_K) show NC gr 
 gr  gr showpage
end
%%EOF
