%!PS-Adobe-2.0 EPSF-2.0
%%BoundingBox:  0 0 567 385
%%Title: ../plot_nu11.4/etr/nu11.4_#gamma_xyr.eps: nu11.4_#gamma:et_deposition_density_vs_r
%%Creator: ROOT Version 6.14/02
%%CreationDate: Thu Aug  9 14:34:32 2018
%%DocumentNeededResources: ProcSet (FontSetInit)
%%EndComments
%%BeginProlog
80 dict begin
/s {stroke} def /l {lineto} def /m {moveto} def /t {translate} def
/r {rotate} def /rl {roll}  def /R {repeat} def
/d {rlineto} def /rm {rmoveto} def /gr {grestore} def /f {eofill} def
/c {setrgbcolor} def /black {0 setgray} def /sd {setdash} def
/cl {closepath} def /sf {scalefont setfont} def /lw {setlinewidth} def
/box {m dup 0 exch d exch 0 d 0 exch neg d cl} def
/NC{systemdict begin initclip end}def/C{NC box clip newpath}def
/bl {box s} def /bf {gsave box gsave f grestore 1 lw [] 0 sd s grestore} def /Y { 0 exch d} def /X { 0 d} def 
/K {{pop pop 0 moveto} exch kshow} bind def
/ita {/ang 15 def gsave [1 0 ang dup sin exch cos div 1 0 0] concat} def 
/mp {newpath /y exch def /x exch def} def
/side {[w .77 mul w .23 mul] .385 w mul sd w 0 l currentpoint t -144 r} def
/mr {mp x y w2 0 360 arc} def /m24 {mr s} def /m20 {mr f} def
/mb {mp x y w2 add m w2 neg 0 d 0 w neg d w 0 d 0 w d cl} def
/mt {mp x y w2 add m w2 neg w neg d w 0 d cl} def
/w4 {w 4 div} def
/w6 {w 6 div} def
/w8 {w 8 div} def
/m21 {mb f} def /m25 {mb s} def /m22 {mt f} def /m26{mt s} def
/m23 {mp x y w2 sub m w2 w d w neg 0 d cl f} def
/m27 {mp x y w2 add m w3 neg w2 neg d w3 w2 neg d w3 w2 d cl s} def
/m28 {mp x w2 sub y w2 sub w3 add m w3 0 d  0 w3 neg d w3 0 d 0 w3 d w3 0 d  0 w3 d w3 neg 0 d 0 w3 d w3 neg 0 d 0 w3 neg d w3 neg 0 d cl s } def
/m29 {mp gsave x w2 sub y w2 add w3 sub m currentpoint t 4 {side} repeat cl fill gr} def
/m30 {mp gsave x w2 sub y w2 add w3 sub m currentpoint t 4 {side} repeat cl s gr} def
/m31 {mp x y w2 sub m 0 w d x w2 sub y m w 0 d x w2 sub y w2 add m w w neg d x w2 sub y w2 sub m w w d s} def
/m32 {mp x y w2 sub m w2 w d w neg 0 d cl s} def
/m33 {mp x y w2 add m w3 neg w2 neg d w3 w2 neg d w3 w2 d cl f} def
/m34 {mp x w2 sub y w2 sub w3 add m w3 0 d  0 w3 neg d w3 0 d 0 w3 d w3 0 d  0 w3 d w3 neg 0 d 0 w3 d w3 neg 0 d 0 w3 neg d w3 neg 0 d cl f } def
/m35 {mp x y w2 add m w2 neg w2 neg d w2 w2 neg d w2 w2 d w2 neg w2 d x y w2 sub m 0 w d x w2 sub y m w 0 d s} def
/m36 {mb x w2 sub y w2 add m w w neg d x w2 sub y w2 sub m w w d s} def
/m37 {mp x y m w4 neg w2 d w4 neg w2 neg d w2 0 d  w4 neg w2 neg d w2 0 d w4 neg w2 d w2 0 d w4 neg w2 d w4 neg w2 neg d cl s} def
/m38 {mp x w4 sub y w2 add m w4 neg w4 neg d 0 w2 neg d w4 w4 neg d w2 0 d w4 w4 d 0 w2 d w4 neg w4 d w2 neg 0 d x y w2 sub m 0 w d x w2 sub y m w 0 d cl s} def
/m39 {mp x y m w4 neg w2 d w4 neg w2 neg d w2 0 d  w4 neg w2 neg d w2 0 d w4 neg w2 d w2 0 d w4 neg w2 d w4 neg w2 neg d cl f} def
/m40 {mp x y m w4 w2 d w4 w4 neg d w2 neg w4 neg d w2 w4 neg d w4 neg w4 neg d w4 neg w2 d w4 neg w2 neg d w4 neg w4 d w2 w4 d w2 neg w4 d w4 w4 d w4 w2 neg d cl s} def
/m41 {mp x y m w4 w2 d w4 w4 neg d w2 neg w4 neg d w2 w4 neg d w4 neg w4 neg d w4 neg w2 d w4 neg w2 neg d w4 neg w4 d w2 w4 d w2 neg w4 d w4 w4 d w4 w2 neg d cl f} def
/m42 {mp x y w2 add m w8 neg w2 -3 4 div mul d w2 -3 4 div mul w8 neg d w2 3 4 div mul w8 neg d w8 w2 -3 4 div mul d w8 w2 3 4 div mul d w2 3 4 div mul w8 d w2 -3 4 div mul w8 d w8 neg w2 3 4 div mul d cl s} def
/m43 {mp x y w2 add m w8 neg w2 -3 4 div mul d w2 -3 4 div mul w8 neg d w2 3 4 div mul w8 neg d w8 w2 -3 4 div mul d w8 w2 3 4 div mul d w2 3 4 div mul w8 d w2 -3 4 div mul w8 d w8 neg w2 3 4 div mul d cl f} def
/m44 {mp x y m w6 neg w2 d w2 2 3 div mul 0 d w6 neg w2 neg d w2 w6 d 0 w2 -2 3 div mul d w2 neg w6 d w6 w2 neg d w2 -2 3 div mul 0 d w6 w2 d w2 neg w6 neg d 0 w2 2 3 div mul d w2 w6 neg d cl s} def
/m45 {mp x y m w6 neg w2 d w2 2 3 div mul 0 d w6 neg w2 neg d w2 w6 d 0 w2 -2 3 div mul d w2 neg w6 d w6 w2 neg d w2 -2 3 div mul 0 d w6 w2 d w2 neg w6 neg d 0 w2 2 3 div mul d w2 w6 neg d cl f} def
/m46 {mp x y w4 add m w4 neg w4 d w4 neg w4 neg d  w4 w4 neg d w4 neg w4 neg d w4 w4 neg d w4 w4 d w4 w4 neg d w4 w4 d w4 neg w4 d w4 w4 d w4 neg w4 d w4 neg w4 neg d cl s} def
/m47 {mp x y w4 add m w4 neg w4 d w4 neg w4 neg d w4 w4 neg d w4 neg w4 neg d  w4 w4 neg d w4 w4 d w4 w4 neg d w4 w4 d w4 neg w4 d w4 w4 d w4 neg w4 d w4 neg w4 neg d cl f} def
/m48 {mp x y w4 add m w4 neg w4 d w4 neg w4 neg d w4 w4 neg d  w4 neg w4 neg d w4 w4 neg d w4 w4 d w4 w4 neg d w4 w4 d w4 neg w4 d w4 w4 d w4 neg w4 d w4 neg w4 neg d  w4 w4 neg d w4 neg w4 neg d w4 neg w4 d w4 w4 d cl f} def
/m49 {mp x w2 sub w3 add y w2 sub w3 add m  0 w3 neg d w3 0 d 0 w3 d w3 0 d 0 w3 d w3 neg 0 d 0 w3 d w3 neg 0 d 0 w3 neg d w3 neg 0 d 0 w3 neg d w3 0 d 0 w3 d w3 0 d 0 w3 neg d w3 neg 0 d cl f } def
/m2 {mp x y w2 sub m 0 w d x w2 sub y m w 0 d s} def
/m5 {mp x w2 sub y w2 sub m w w d x w2 sub y w2 add m w w neg d s} def
%%IncludeResource: ProcSet (FontSetInit)
%%IncludeResource: font Times-Roman
%%IncludeResource: font Times-Italic
%%IncludeResource: font Times-Bold
%%IncludeResource: font Times-BoldItalic
%%IncludeResource: font Helvetica
%%IncludeResource: font Helvetica-Oblique
%%IncludeResource: font Helvetica-Bold
%%IncludeResource: font Helvetica-BoldOblique
%%IncludeResource: font Courier
%%IncludeResource: font Courier-Oblique
%%IncludeResource: font Courier-Bold
%%IncludeResource: font Courier-BoldOblique
%%IncludeResource: font Symbol
%%IncludeResource: font ZapfDingbats
/reEncode {exch findfont dup length dict begin {1 index /FID eq  {pop pop} {def} ifelse } forall /Encoding exch def currentdict end dup /FontName get exch definefont pop } def [/Times-Bold /Times-Italic /Times-BoldItalic /Helvetica /Helvetica-Oblique
 /Helvetica-Bold /Helvetica-BoldOblique /Courier /Courier-Oblique /Courier-Bold /Courier-BoldOblique /Times-Roman /AvantGarde-Book /AvantGarde-BookOblique /AvantGarde-Demi /AvantGarde-DemiOblique /Bookman-Demi /Bookman-DemiItalic /Bookman-Light
 /Bookman-LightItalic /Helvetica-Narrow /Helvetica-Narrow-Bold /Helvetica-Narrow-BoldOblique /Helvetica-Narrow-Oblique /NewCenturySchlbk-Roman /NewCenturySchlbk-Bold /NewCenturySchlbk-BoldItalic /NewCenturySchlbk-Italic /Palatino-Bold
 /Palatino-BoldItalic /Palatino-Italic /Palatino-Roman ] {ISOLatin1Encoding reEncode } forall
%%EndProlog
%%BeginSetup
%%EndSetup
newpath  gsave  .25 .25 scale  gsave  0 0 t black[  ] 0 sd 3 lw 1 1 1 c 2268 1540 0 0 bf black 1 1 1 c 1814 1232 227 154 bf black 1814 1232 227 154 bl 0 0 0.6 c 0 0 1 c black 0 0 0.6 c 295 973 m 8 Y s 295 981 m 7 Y s 290 981 m 5 X s 295 981 m 4 X s
 black /w 2 def /w2 {w 2 div} def /w3 {w 3 div} def 295 981 m20 0 0 0.6 c 304 1121 m 3 Y s 304 1124 m 3 Y s 299 1124 m 5 X s 304 1124 m 4 X s black 304 1124 m20 0 0 0.6 c 313 1114 m 2 Y s 313 1116 m 3 Y s 308 1116 m 5 X s 313 1116 m 4 X s black 313
 1116 m20 0 0 0.6 c 322 1104 m 2 Y s 322 1106 m 3 Y s 317 1106 m 5 X s 322 1106 m 5 X s black 322 1106 m20 0 0 0.6 c 331 1105 m 3 Y s 331 1108 m 3 Y s 327 1108 m 4 X s 331 1108 m 5 X s black 331 1108 m20 0 0 0.6 c 340 1096 m 3 Y s 340 1099 m 2 Y s
 336 1099 m 4 X s 340 1099 m 5 X s black 340 1099 m20 0 0 0.6 c 349 1081 m 3 Y s 349 1084 m 2 Y s 345 1084 m 4 X s 349 1084 m 5 X s black 349 1084 m20 0 0 0.6 c 358 1080 m 3 Y s 358 1083 m 3 Y s 354 1083 m 4 X s 358 1083 m 5 X s black 358 1083 m20 0
 0 0.6 c 367 1069 m 3 Y s 367 1072 m 4 Y s 363 1072 m 4 X s 367 1072 m 5 X s black 367 1072 m20 0 0 0.6 c 376 1050 m 3 Y s 376 1053 m 4 Y s 372 1053 m 4 X s 376 1053 m 5 X s black 376 1053 m20 0 0 0.6 c 386 1053 m 3 Y s 386 1056 m 3 Y s 381 1056 m 5
 X s 386 1056 m 4 X s black 386 1056 m20 0 0 0.6 c 395 1050 m 3 Y s 395 1053 m 3 Y s 390 1053 m 5 X s 395 1053 m 4 X s black 395 1053 m20 0 0 0.6 c 404 1044 m 3 Y s 404 1047 m 4 Y s 399 1047 m 5 X s 404 1047 m 4 X s black 404 1047 m20 0 0 0.6 c 413
 1037 m 3 Y s 413 1040 m 3 Y s 408 1040 m 5 X s 413 1040 m 4 X s black 413 1040 m20 0 0 0.6 c 422 1032 m 3 Y s 422 1035 m 3 Y s 417 1035 m 5 X s 422 1035 m 4 X s black 422 1035 m20 0 0 0.6 c 431 1024 m 4 Y s 431 1028 m 3 Y s 426 1028 m 5 X s 431 1028
 m 4 X s black 431 1028 m20 0 0 0.6 c 440 1015 m 3 Y s 440 1018 m 3 Y s 435 1018 m 5 X s 440 1018 m 4 X s black 440 1018 m20 0 0 0.6 c 449 1021 m 3 Y s 449 1024 m 3 Y s 444 1024 m 5 X s 449 1024 m 5 X s black 449 1024 m20 0 0 0.6 c 458 1010 m 3 Y s
 458 1013 m 3 Y s 454 1013 m 4 X s 458 1013 m 5 X s black 458 1013 m20 0 0 0.6 c 467 1013 m 3 Y s 467 1016 m 3 Y s 463 1016 m 4 X s 467 1016 m 5 X s black 467 1016 m20 0 0 0.6 c 476 998 m 4 Y s 476 1002 m 3 Y s 472 1002 m 4 X s 476 1002 m 5 X s black
 476 1002 m20 0 0 0.6 c 485 1000 m 4 Y s 485 1004 m 3 Y s 481 1004 m 4 X s 485 1004 m 5 X s black 485 1004 m20 0 0 0.6 c 494 991 m 3 Y s 494 994 m 3 Y s 490 994 m 4 X s 494 994 m 5 X s black 494 994 m20 0 0 0.6 c 503 983 m 3 Y s 503 986 m 3 Y s 499
 986 m 4 X s 503 986 m 5 X s black 503 986 m20 0 0 0.6 c 513 982 m 4 Y s 513 986 m 3 Y s 508 986 m 5 X s 513 986 m 4 X s black 513 986 m20 0 0 0.6 c 522 983 m 4 Y s 522 987 m 4 Y s 517 987 m 5 X s 522 987 m 4 X s black 522 987 m20 0 0 0.6 c 531 977 m
 4 Y s 531 981 m 4 Y s 526 981 m 5 X s 531 981 m 4 X s black 531 981 m20 0 0 0.6 c 540 981 m 4 Y s 540 985 m 4 Y s 535 985 m 5 X s 540 985 m 4 X s black 540 985 m20 0 0 0.6 c 549 975 m 4 Y s 549 979 m 4 Y s 544 979 m 5 X s 549 979 m 4 X s black 549
 979 m20 0 0 0.6 c 558 968 m 4 Y s 558 972 m 3 Y s 553 972 m 5 X s 558 972 m 4 X s black 558 972 m20 0 0 0.6 c 567 963 m 4 Y s 567 967 m 4 Y s 562 967 m 5 X s 567 967 m 4 X s black 567 967 m20 0 0 0.6 c 576 955 m 3 Y s 576 958 m 3 Y s 571 958 m 5 X s
 576 958 m 5 X s black 576 958 m20 0 0 0.6 c 585 959 m 3 Y s 585 962 m 4 Y s 581 962 m 4 X s 585 962 m 5 X s black 585 962 m20 0 0 0.6 c 594 947 m 4 Y s 594 951 m 4 Y s 590 951 m 4 X s 594 951 m 5 X s black 594 951 m20 0 0 0.6 c 603 957 m 4 Y s 603
 961 m 4 Y s 599 961 m 4 X s 603 961 m 5 X s black 603 961 m20 0 0 0.6 c 612 947 m 4 Y s 612 951 m 3 Y s 608 951 m 4 X s 612 951 m 5 X s black 612 951 m20 0 0 0.6 c 621 942 m 4 Y s 621 946 m 4 Y s 617 946 m 4 X s 621 946 m 5 X s black 621 946 m20 0 0
 0.6 c 630 946 m 4 Y s 630 950 m 3 Y s 626 950 m 4 X s 630 950 m 5 X s black 630 950 m20 0 0 0.6 c 639 935 m 4 Y s 639 939 m 3 Y s 635 939 m 4 X s 639 939 m 5 X s black 639 939 m20 0 0 0.6 c 649 936 m 3 Y s 649 939 m 4 Y s 644 939 m 5 X s 649 939 m 4
 X s black 649 939 m20 0 0 0.6 c 658 930 m 4 Y s 658 934 m 3 Y s 653 934 m 5 X s 658 934 m 4 X s black 658 934 m20 0 0 0.6 c 667 931 m 4 Y s 667 935 m 3 Y s 662 935 m 5 X s 667 935 m 4 X s black 667 935 m20 0 0 0.6 c 676 924 m 4 Y s 676 928 m 3 Y s
 671 928 m 5 X s 676 928 m 4 X s black 676 928 m20 0 0 0.6 c 685 923 m 4 Y s 685 927 m 3 Y s 680 927 m 5 X s 685 927 m 4 X s black 685 927 m20 0 0 0.6 c 694 918 m 4 Y s 694 922 m 3 Y s 689 922 m 5 X s 694 922 m 4 X s black 694 922 m20 0 0 0.6 c 703
 916 m 4 Y s 703 920 m 4 Y s 698 920 m 5 X s 703 920 m 5 X s black 703 920 m20 0 0 0.6 c 712 916 m 4 Y s 712 920 m 4 Y s 708 920 m 4 X s 712 920 m 5 X s black 712 920 m20 0 0 0.6 c 721 915 m 4 Y s 721 919 m 4 Y s 717 919 m 4 X s 721 919 m 5 X s black
 721 919 m20 0 0 0.6 c 730 913 m 4 Y s 730 917 m 5 Y s 726 917 m 4 X s 730 917 m 5 X s black 730 917 m20 0 0 0.6 c 739 914 m 6 Y s 739 920 m 4 Y s 735 920 m 4 X s 739 920 m 5 X s black 739 920 m20 0 0 0.6 c 748 916 m 5 Y s 748 921 m 4 Y s 744 921 m 4
 X s 748 921 m 5 X s black 748 921 m20 0 0 0.6 c 757 910 m 4 Y s 757 914 m 4 Y s 753 914 m 4 X s 757 914 m 5 X s black 757 914 m20 0 0 0.6 c 766 906 m 5 Y s 766 911 m 4 Y s 762 911 m 4 X s 766 911 m 5 X s black 766 911 m20 0 0 0.6 c 776 905 m 5 Y s
 776 910 m 5 Y s 771 910 m 5 X s 776 910 m 4 X s black 776 910 m20 0 0 0.6 c 785 890 m 4 Y s 785 894 m 5 Y s 780 894 m 5 X s 785 894 m 4 X s black 785 894 m20 0 0 0.6 c 794 899 m 5 Y s 794 904 m 5 Y s 789 904 m 5 X s 794 904 m 4 X s black 794 904 m20
 0 0 0.6 c 803 899 m 4 Y s 803 903 m 5 Y s 798 903 m 5 X s 803 903 m 4 X s black 803 903 m20 0 0 0.6 c 812 894 m 6 Y s 812 900 m 5 Y s 807 900 m 5 X s 812 900 m 4 X s black 812 900 m20 0 0 0.6 c 821 886 m 4 Y s 821 890 m 5 Y s 816 890 m 5 X s 821 890
 m 4 X s black 821 890 m20 0 0 0.6 c 830 885 m 5 Y s 830 890 m 4 Y s 825 890 m 5 X s 830 890 m 5 X s black 830 890 m20 0 0 0.6 c 839 886 m 5 Y s 839 891 m 4 Y s 835 891 m 4 X s 839 891 m 5 X s black 839 891 m20 0 0 0.6 c 848 886 m 5 Y s 848 891 m 5 Y
 s 844 891 m 4 X s 848 891 m 5 X s black 848 891 m20 0 0 0.6 c 857 887 m 5 Y s 857 892 m 5 Y s 853 892 m 4 X s 857 892 m 5 X s black 857 892 m20 0 0 0.6 c 866 876 m 4 Y s 866 880 m 4 Y s 862 880 m 4 X s 866 880 m 5 X s black 866 880 m20 0 0 0.6 c 875
 875 m 5 Y s 875 880 m 4 Y s 871 880 m 4 X s 875 880 m 5 X s black 875 880 m20 0 0 0.6 c 884 878 m 5 Y s 884 883 m 4 Y s 880 883 m 4 X s 884 883 m 5 X s black 884 883 m20 0 0 0.6 c 893 874 m 5 Y s 893 879 m 5 Y s 889 879 m 4 X s 893 879 m 5 X s black
 893 879 m20 0 0 0.6 c 903 885 m 5 Y s 903 890 m 5 Y s 898 890 m 5 X s 903 890 m 4 X s black 903 890 m20 0 0 0.6 c 912 875 m 5 Y s 912 880 m 4 Y s 907 880 m 5 X s 912 880 m 4 X s black 912 880 m20 0 0 0.6 c 921 858 m 5 Y s 921 863 m 4 Y s 916 863 m 5
 X s 921 863 m 4 X s black 921 863 m20 0 0 0.6 c 930 866 m 5 Y s 930 871 m 5 Y s 925 871 m 5 X s 930 871 m 4 X s black 930 871 m20 0 0 0.6 c 939 874 m 6 Y s 939 880 m 5 Y s 934 880 m 5 X s 939 880 m 4 X s black 939 880 m20 0 0 0.6 c 948 864 m 6 Y s
 948 870 m 5 Y s 943 870 m 5 X s 948 870 m 4 X s black 948 870 m20 0 0 0.6 c 957 862 m 5 Y s 957 867 m 5 Y s 952 867 m 5 X s 957 867 m 5 X s black 957 867 m20 0 0 0.6 c 966 866 m 6 Y s 966 872 m 6 Y s 962 872 m 4 X s 966 872 m 5 X s black 966 872 m20
 0 0 0.6 c 975 849 m 5 Y s 975 854 m 4 Y s 971 854 m 4 X s 975 854 m 5 X s black 975 854 m20 0 0 0.6 c 984 849 m 5 Y s 984 854 m 4 Y s 980 854 m 4 X s 984 854 m 5 X s black 984 854 m20 0 0 0.6 c 993 851 m 6 Y s 993 857 m 4 Y s 989 857 m 4 X s 993 857
 m 5 X s black 993 857 m20 0 0 0.6 c 1002 848 m 5 Y s 1002 853 m 6 Y s 998 853 m 4 X s 1002 853 m 5 X s black 1002 853 m20 0 0 0.6 c 1011 848 m 6 Y s 1011 854 m 5 Y s 1007 854 m 4 X s 1011 854 m 5 X s black 1011 854 m20 0 0 0.6 c 1020 853 m 6 Y s
 1020 859 m 5 Y s 1016 859 m 4 X s 1020 859 m 5 X s black 1020 859 m20 0 0 0.6 c 1030 840 m 5 Y s 1030 845 m 5 Y s 1025 845 m 5 X s 1030 845 m 4 X s black 1030 845 m20 0 0 0.6 c 1039 849 m 6 Y s 1039 855 m 5 Y s 1034 855 m 5 X s 1039 855 m 4 X s
 black 1039 855 m20 0 0 0.6 c 1048 841 m 5 Y s 1048 846 m 4 Y s 1043 846 m 5 X s 1048 846 m 4 X s black 1048 846 m20 0 0 0.6 c 1057 850 m 6 Y s 1057 856 m 6 Y s 1052 856 m 5 X s 1057 856 m 4 X s black 1057 856 m20 0 0 0.6 c 1066 836 m 7 Y s 1066 843
 m 7 Y s 1061 843 m 5 X s 1066 843 m 4 X s black 1066 843 m20 0 0 0.6 c 1075 840 m 5 Y s 1075 845 m 5 Y s 1070 845 m 5 X s 1075 845 m 4 X s black 1075 845 m20 0 0 0.6 c 1084 841 m 5 Y s 1084 846 m 6 Y s 1079 846 m 5 X s 1084 846 m 5 X s black 1084
 846 m20 0 0 0.6 c 1093 834 m 5 Y s 1093 839 m 5 Y s 1089 839 m 4 X s 1093 839 m 5 X s black 1093 839 m20 0 0 0.6 c 1102 825 m 5 Y s 1102 830 m 6 Y s 1098 830 m 4 X s 1102 830 m 5 X s black 1102 830 m20 0 0 0.6 c 1111 835 m 6 Y s 1111 841 m 6 Y s
 1107 841 m 4 X s 1111 841 m 5 X s black 1111 841 m20 0 0 0.6 c 1120 827 m 5 Y s 1120 832 m 6 Y s 1116 832 m 4 X s 1120 832 m 5 X s black 1120 832 m20 0 0 0.6 c 1129 835 m 6 Y s 1129 841 m 7 Y s 1125 841 m 4 X s 1129 841 m 5 X s black 1129 841 m20 0
 0 0.6 c 1138 825 m 6 Y s 1138 831 m 6 Y s 1134 831 m 4 X s 1138 831 m 5 X s black 1138 831 m20 0 0 0.6 c 1147 831 m 6 Y s 1147 837 m 5 Y s 1143 837 m 4 X s 1147 837 m 5 X s black 1147 837 m20 0 0 0.6 c 1157 830 m 6 Y s 1157 836 m 5 Y s 1152 836 m 5
 X s 1157 836 m 4 X s black 1157 836 m20 0 0 0.6 c 1166 826 m 5 Y s 1166 831 m 5 Y s 1161 831 m 5 X s 1166 831 m 4 X s black 1166 831 m20 0 0 0.6 c 1175 821 m 7 Y s 1175 828 m 6 Y s 1170 828 m 5 X s 1175 828 m 4 X s black 1175 828 m20 0 0 0.6 c 1184
 829 m 5 Y s 1184 834 m 5 Y s 1179 834 m 5 X s 1184 834 m 4 X s black 1184 834 m20 0 0 0.6 c 1193 823 m 6 Y s 1193 829 m 5 Y s 1188 829 m 5 X s 1193 829 m 4 X s black 1193 829 m20 0 0 0.6 c 1202 820 m 6 Y s 1202 826 m 5 Y s 1197 826 m 5 X s 1202 826
 m 4 X s black 1202 826 m20 0 0 0.6 c 1211 822 m 6 Y s 1211 828 m 6 Y s 1206 828 m 5 X s 1211 828 m 4 X s black 1211 828 m20 0 0 0.6 c 1220 821 m 6 Y s 1220 827 m 5 Y s 1215 827 m 5 X s 1220 827 m 5 X s black 1220 827 m20 0 0 0.6 c 1229 815 m 6 Y s
 1229 821 m 6 Y s 1225 821 m 4 X s 1229 821 m 5 X s black 1229 821 m20 0 0 0.6 c 1238 815 m 6 Y s 1238 821 m 5 Y s 1234 821 m 4 X s 1238 821 m 5 X s black 1238 821 m20 0 0 0.6 c 1247 807 m 6 Y s 1247 813 m 6 Y s 1243 813 m 4 X s 1247 813 m 5 X s
 black 1247 813 m20 0 0 0.6 c 1256 814 m 5 Y s 1256 819 m 5 Y s 1252 819 m 4 X s 1256 819 m 5 X s black 1256 819 m20 0 0 0.6 c 1265 800 m 7 Y s 1265 807 m 6 Y s 1261 807 m 4 X s 1265 807 m 5 X s black 1265 807 m20 0 0 0.6 c 1274 810 m 6 Y s 1274 816
 m 6 Y s 1270 816 m 4 X s 1274 816 m 5 X s black 1274 816 m20 0 0 0.6 c 1284 815 m 6 Y s 1284 821 m 6 Y s 1279 821 m 5 X s 1284 821 m 4 X s black 1284 821 m20 0 0 0.6 c 1293 809 m 6 Y s 1293 815 m 5 Y s 1288 815 m 5 X s 1293 815 m 4 X s black 1293
 815 m20 0 0 0.6 c 1302 808 m 6 Y s 1302 814 m 6 Y s 1297 814 m 5 X s 1302 814 m 4 X s black 1302 814 m20 0 0 0.6 c 1311 803 m 6 Y s 1311 809 m 6 Y s 1306 809 m 5 X s 1311 809 m 4 X s black 1311 809 m20 0 0 0.6 c 1320 806 m 8 Y s 1320 814 m 7 Y s
 1315 814 m 5 X s 1320 814 m 4 X s black 1320 814 m20 0 0 0.6 c 1329 799 m 8 Y s 1329 807 m 7 Y s 1324 807 m 5 X s 1329 807 m 4 X s black 1329 807 m20 0 0 0.6 c 1338 808 m 6 Y s 1338 814 m 6 Y s 1333 814 m 5 X s 1338 814 m 4 X s black 1338 814 m20 0
 0 0.6 c 1347 806 m 7 Y s 1347 813 m 5 Y s 1342 813 m 5 X s 1347 813 m 5 X s black 1347 813 m20 0 0 0.6 c 1356 798 m 7 Y s 1356 805 m 6 Y s 1352 805 m 4 X s 1356 805 m 5 X s black 1356 805 m20 0 0 0.6 c 1365 805 m 5 Y s 1365 810 m 6 Y s 1361 810 m 4
 X s 1365 810 m 5 X s black 1365 810 m20 0 0 0.6 c 1374 796 m 7 Y s 1374 803 m 7 Y s 1370 803 m 4 X s 1374 803 m 5 X s black 1374 803 m20 0 0 0.6 c 1383 803 m 7 Y s 1383 810 m 6 Y s 1379 810 m 4 X s 1383 810 m 5 X s black 1383 810 m20 0 0 0.6 c 1392
 806 m 7 Y s 1392 813 m 6 Y s 1388 813 m 4 X s 1392 813 m 5 X s black 1392 813 m20 0 0 0.6 c 1401 801 m 6 Y s 1401 807 m 6 Y s 1397 807 m 4 X s 1401 807 m 5 X s black 1401 807 m20 0 0 0.6 c 1411 800 m 6 Y s 1411 806 m 6 Y s 1406 806 m 5 X s 1411 806
 m 4 X s black 1411 806 m20 0 0 0.6 c 1420 790 m 8 Y s 1420 798 m 8 Y s 1415 798 m 5 X s 1420 798 m 4 X s black 1420 798 m20 0 0 0.6 c 1429 795 m 6 Y s 1429 801 m 7 Y s 1424 801 m 5 X s 1429 801 m 4 X s black 1429 801 m20 0 0 0.6 c 1438 790 m 6 Y s
 1438 796 m 6 Y s 1433 796 m 5 X s 1438 796 m 4 X s black 1438 796 m20 0 0 0.6 c 1447 788 m 6 Y s 1447 794 m 6 Y s 1442 794 m 5 X s 1447 794 m 4 X s black 1447 794 m20 0 0 0.6 c 1456 792 m 7 Y s 1456 799 m 6 Y s 1451 799 m 5 X s 1456 799 m 4 X s
 black 1456 799 m20 0 0 0.6 c 1465 788 m 6 Y s 1465 794 m 6 Y s 1460 794 m 5 X s 1465 794 m 4 X s black 1465 794 m20 0 0 0.6 c 1474 784 m 8 Y s 1474 792 m 7 Y s 1469 792 m 5 X s 1474 792 m 5 X s black 1474 792 m20 0 0 0.6 c 1483 782 m 7 Y s 1483 789
 m 6 Y s 1479 789 m 4 X s 1483 789 m 5 X s black 1483 789 m20 0 0 0.6 c 1492 775 m 8 Y s 1492 783 m 7 Y s 1488 783 m 4 X s 1492 783 m 5 X s black 1492 783 m20 0 0 0.6 c 1501 789 m 8 Y s 1501 797 m 7 Y s 1497 797 m 4 X s 1501 797 m 5 X s black 1501
 797 m20 0 0 0.6 c 1510 777 m 7 Y s 1510 784 m 6 Y s 1506 784 m 4 X s 1510 784 m 5 X s black 1510 784 m20 0 0 0.6 c 1519 769 m 8 Y s 1519 777 m 7 Y s 1515 777 m 4 X s 1519 777 m 5 X s black 1519 777 m20 0 0 0.6 c 1528 770 m 10 Y s 1528 780 m 9 Y s
 1524 780 m 4 X s 1528 780 m 5 X s black 1528 780 m20 0 0 0.6 c 1538 780 m 8 Y s 1538 788 m 7 Y s 1533 788 m 5 X s 1538 788 m 4 X s black 1538 788 m20 0 0 0.6 c 1547 775 m 7 Y s 1547 782 m 7 Y s 1542 782 m 5 X s 1547 782 m 4 X s black 1547 782 m20 0
 0 0.6 c 1556 774 m 8 Y s 1556 782 m 7 Y s 1551 782 m 5 X s 1556 782 m 4 X s black 1556 782 m20 0 0 0.6 c 1565 773 m 6 Y s 1565 779 m 7 Y s 1560 779 m 5 X s 1565 779 m 4 X s black 1565 779 m20 0 0 0.6 c 1574 763 m 7 Y s 1574 770 m 7 Y s 1569 770 m 5
 X s 1574 770 m 4 X s black 1574 770 m20 0 0 0.6 c 1583 761 m 6 Y s 1583 767 m 6 Y s 1578 767 m 5 X s 1583 767 m 4 X s black 1583 767 m20 0 0 0.6 c 1592 753 m 7 Y s 1592 760 m 6 Y s 1587 760 m 5 X s 1592 760 m 4 X s black 1592 760 m20 0 0 0.6 c 1601
 772 m 7 Y s 1601 779 m 7 Y s 1596 779 m 5 X s 1601 779 m 5 X s black 1601 779 m20 0 0 0.6 c 1610 763 m 9 Y s 1610 772 m 8 Y s 1606 772 m 4 X s 1610 772 m 5 X s black 1610 772 m20 0 0 0.6 c 1619 781 m 10 Y s 1619 791 m 8 Y s 1615 791 m 4 X s 1619 791
 m 5 X s black 1619 791 m20 0 0 0.6 c 1628 762 m 11 Y s 1628 773 m 9 Y s 1624 773 m 4 X s 1628 773 m 5 X s black 1628 773 m20 0 0 0.6 c 1637 759 m 7 Y s 1637 766 m 7 Y s 1633 766 m 4 X s 1637 766 m 5 X s black 1637 766 m20 0 0 0.6 c 1646 754 m 7 Y s
 1646 761 m 7 Y s 1642 761 m 4 X s 1646 761 m 5 X s black 1646 761 m20 0 0 0.6 c 1655 767 m 6 Y s 1655 773 m 7 Y s 1651 773 m 4 X s 1655 773 m 5 X s black 1655 773 m20 0 0 0.6 c 1665 760 m 8 Y s 1665 768 m 7 Y s 1660 768 m 5 X s 1665 768 m 4 X s
 black 1665 768 m20 0 0 0.6 c 1674 760 m 8 Y s 1674 768 m 6 Y s 1669 768 m 5 X s 1674 768 m 4 X s black 1674 768 m20 0 0 0.6 c 1683 756 m 10 Y s 1683 766 m 8 Y s 1678 766 m 5 X s 1683 766 m 4 X s black 1683 766 m20 0 0 0.6 c 1692 752 m 7 Y s 1692 759
 m 7 Y s 1687 759 m 5 X s 1692 759 m 4 X s black 1692 759 m20 0 0 0.6 c 1701 748 m 8 Y s 1701 756 m 7 Y s 1696 756 m 5 X s 1701 756 m 4 X s black 1701 756 m20 0 0 0.6 c 1710 760 m 9 Y s 1710 769 m 8 Y s 1705 769 m 5 X s 1710 769 m 4 X s black 1710
 769 m20 0 0 0.6 c 1719 747 m 8 Y s 1719 755 m 7 Y s 1714 755 m 5 X s 1719 755 m 4 X s black 1719 755 m20 0 0 0.6 c 1728 733 m 9 Y s 1728 742 m 7 Y s 1723 742 m 5 X s 1728 742 m 5 X s black 1728 742 m20 0 0 0.6 c 1737 737 m 8 Y s 1737 745 m 8 Y s
 1733 745 m 4 X s 1737 745 m 5 X s black 1737 745 m20 0 0 0.6 c 1746 749 m 8 Y s 1746 757 m 8 Y s 1742 757 m 4 X s 1746 757 m 5 X s black 1746 757 m20 0 0 0.6 c 1755 741 m 8 Y s 1755 749 m 7 Y s 1751 749 m 4 X s 1755 749 m 5 X s black 1755 749 m20 0
 0 0.6 c 1764 740 m 9 Y s 1764 749 m 8 Y s 1760 749 m 4 X s 1764 749 m 5 X s black 1764 749 m20 0 0 0.6 c 1773 733 m 9 Y s 1773 742 m 8 Y s 1769 742 m 4 X s 1773 742 m 5 X s black 1773 742 m20 0 0 0.6 c 1782 740 m 9 Y s 1782 749 m 9 Y s 1778 749 m 4
 X s 1782 749 m 5 X s black 1782 749 m20 0 0 0.6 c 1791 738 m 14 Y s 1791 752 m 12 Y s 1787 752 m 4 X s 1791 752 m 5 X s black 1791 752 m20 0 0 0.6 c 1801 722 m 9 Y s 1801 731 m 9 Y s 1796 731 m 5 X s 1801 731 m 4 X s black 1801 731 m20 0 0 0.6 c
 1810 727 m 12 Y s 1810 739 m 10 Y s 1805 739 m 5 X s 1810 739 m 4 X s black 1810 739 m20 0 0 0.6 c 1819 732 m 9 Y s 1819 741 m 9 Y s 1814 741 m 5 X s 1819 741 m 4 X s black 1819 741 m20 0 0 0.6 c 1828 709 m 9 Y s 1828 718 m 8 Y s 1823 718 m 5 X s
 1828 718 m 4 X s black 1828 718 m20 0 0 0.6 c 1837 729 m 9 Y s 1837 738 m 7 Y s 1832 738 m 5 X s 1837 738 m 4 X s black 1837 738 m20 0 0 0.6 c 1846 724 m 9 Y s 1846 733 m 8 Y s 1841 733 m 5 X s 1846 733 m 4 X s black 1846 733 m20 0 0 0.6 c 1855 727
 m 8 Y s 1855 735 m 8 Y s 1850 735 m 5 X s 1855 735 m 5 X s black 1855 735 m20 0 0 0.6 c 1864 723 m 8 Y s 1864 731 m 7 Y s 1860 731 m 4 X s 1864 731 m 5 X s black 1864 731 m20 0 0 0.6 c 1873 728 m 8 Y s 1873 736 m 8 Y s 1869 736 m 4 X s 1873 736 m 5
 X s black 1873 736 m20 0 0 0.6 c 1882 730 m 8 Y s 1882 738 m 8 Y s 1878 738 m 4 X s 1882 738 m 5 X s black 1882 738 m20 0 0 0.6 c 1891 713 m 9 Y s 1891 722 m 8 Y s 1887 722 m 4 X s 1891 722 m 5 X s black 1891 722 m20 0 0 0.6 c 1900 706 m 10 Y s 1900
 716 m 9 Y s 1896 716 m 4 X s 1900 716 m 5 X s black 1900 716 m20 0 0 0.6 c 1909 721 m 12 Y s 1909 733 m 10 Y s 1905 733 m 4 X s 1909 733 m 5 X s black 1909 733 m20 0 0 0.6 c 1918 704 m 9 Y s 1918 713 m 9 Y s 1914 713 m 4 X s 1918 713 m 5 X s black
 1918 713 m20 0 0 0.6 c 1928 711 m 9 Y s 1928 720 m 9 Y s 1923 720 m 5 X s 1928 720 m 4 X s black 1928 720 m20 0 0 0.6 c 1937 720 m 9 Y s 1937 729 m 8 Y s 1932 729 m 5 X s 1937 729 m 4 X s black 1937 729 m20 0 0 0.6 c 1946 709 m 9 Y s 1946 718 m 8 Y
 s 1941 718 m 5 X s 1946 718 m 4 X s black 1946 718 m20 0 0 0.6 c 1955 699 m 10 Y s 1955 709 m 9 Y s 1950 709 m 5 X s 1955 709 m 4 X s black 1955 709 m20 0 0 0.6 c 1964 710 m 12 Y s 1964 722 m 9 Y s 1959 722 m 5 X s 1964 722 m 4 X s black 1964 722
 m20 0 0 0.6 c 1973 694 m 11 Y s 1973 705 m 9 Y s 1968 705 m 5 X s 1973 705 m 4 X s black 1973 705 m20 0 0 0.6 c 1982 713 m 9 Y s 1982 722 m 8 Y s 1977 722 m 5 X s 1982 722 m 5 X s black 1982 722 m20 0 0 0.6 c 1991 698 m 14 Y s 1991 712 m 11 Y s 1987
 712 m 4 X s 1991 712 m 5 X s black 1991 712 m20 0 0 0.6 c 2000 693 m 11 Y s 2000 704 m 9 Y s 1996 704 m 4 X s 2000 704 m 5 X s black 2000 704 m20 0 0 0.6 c 2009 680 m 11 Y s 2009 691 m 10 Y s 2005 691 m 4 X s 2009 691 m 5 X s black 2009 691 m20 0 0
 0.6 c 2018 686 m 11 Y s 2018 697 m 10 Y s 2014 697 m 4 X s 2018 697 m 5 X s black 2018 697 m20 0 0 0.6 c 2027 706 m 18 Y s 2027 724 m 15 Y s 2023 724 m 4 X s 2027 724 m 5 X s black 2027 724 m20 0 0 0.6 c 2036 674 m 9 Y s 2036 683 m 9 Y s 2032 683 m
 4 X s 2036 683 m 5 X s black 2036 683 m20 227 154 m 1814 X s 227 191 m -37 Y s 272 172 m -18 Y s 317 172 m -18 Y s 363 172 m -18 Y s 408 172 m -18 Y s 454 191 m -37 Y s 499 172 m -18 Y s 544 172 m -18 Y s 590 172 m -18 Y s 635 172 m -18 Y s 680 191
 m -37 Y s 726 172 m -18 Y s 771 172 m -18 Y s 816 172 m -18 Y s 862 172 m -18 Y s 907 191 m -37 Y s 952 172 m -18 Y s 998 172 m -18 Y s 1043 172 m -18 Y s 1089 172 m -18 Y s 1134 191 m -37 Y s 1179 172 m -18 Y s 1225 172 m -18 Y s 1270 172 m -18 Y s
 1315 172 m -18 Y s 1361 191 m -37 Y s 1406 172 m -18 Y s 1451 172 m -18 Y s 1497 172 m -18 Y s 1542 172 m -18 Y s 1587 191 m -37 Y s 1633 172 m -18 Y s 1678 172 m -18 Y s 1723 172 m -18 Y s 1769 172 m -18 Y s 1814 191 m -37 Y s 1860 172 m -18 Y s
 1905 172 m -18 Y s 1950 172 m -18 Y s 1996 172 m -18 Y s 2041 191 m -37 Y s
 gsave  2268 1540 0 0 C 211.177 103.964 t 0 r /Helvetica findfont 48.7332 sf 0 0 m (0) show NC gr 
 gsave  2268 1540 0 0 C 422.354 103.964 t 0 r /Helvetica findfont 48.7332 sf 0 0 m (50) show NC gr 
 gsave  2268 1540 0 0 C 636.78 103.964 t 0 r /Helvetica findfont 48.7332 sf 0 0 m (100) show NC gr 
 gsave  2268 1540 0 0 C 864.201 103.964 t 0 r /Helvetica findfont 48.7332 sf 0 0 m (150) show NC gr 
 gsave  2268 1540 0 0 C 1091.62 103.964 t 0 r /Helvetica findfont 48.7332 sf 0 0 m (200) show NC gr 
 gsave  2268 1540 0 0 C 1315.8 103.964 t 0 r /Helvetica findfont 48.7332 sf 0 0 m (250) show NC gr 
 gsave  2268 1540 0 0 C 1543.22 103.964 t 0 r /Helvetica findfont 48.7332 sf 0 0 m (300) show NC gr 
 gsave  2268 1540 0 0 C 1770.64 103.964 t 0 r /Helvetica findfont 48.7332 sf 0 0 m (350) show NC gr 
 gsave  2268 1540 0 0 C 1998.06 103.964 t 0 r /Helvetica findfont 48.7332 sf 0 0 m (400) show NC gr 
 gsave  2268 1540 0 0 C 1059.13 25.991 t 0 r /Helvetica findfont 64.9775 sf 0 0 m (r\(cm\)) show NC gr  227 154 m 1232 Y s 281 154 m -54 X s
 gsave  2268 1540 0 0 C 188.435 155.946 t 0 r /Helvetica findfont 32.4888 sf 0 0 m (5) show NC gr 
 gsave  2268 1540 0 0 C 168.942 155.946 t 0 r /Symbol findfont 32.4888 sf 0 0 m (-) show NC gr 
 gsave  2268 1540 0 0 C 113.711 133.204 t 0 r /Helvetica findfont 48.7332 sf 0 0 m (10) show NC gr  254 207 m -27 X s 254 238 m -27 X s 254 260 m -27 X s 254 277 m -27 X s 254 291 m -27 X s 254 303 m -27 X s 254 313 m -27 X s 254 322 m -27 X s 281
 330 m -54 X s
 gsave  2268 1540 0 0 C 188.435 328.137 t 0 r /Helvetica findfont 32.4888 sf 0 0 m (4) show NC gr 
 gsave  2268 1540 0 0 C 168.942 328.137 t 0 r /Symbol findfont 32.4888 sf 0 0 m (-) show NC gr 
 gsave  2268 1540 0 0 C 113.711 308.643 t 0 r /Helvetica findfont 48.7332 sf 0 0 m (10) show NC gr  254 383 m -27 X s 254 414 m -27 X s 254 436 m -27 X s 254 453 m -27 X s 254 467 m -27 X s 254 479 m -27 X s 254 489 m -27 X s 254 498 m -27 X s 281
 506 m -54 X s
 gsave  2268 1540 0 0 C 188.435 506.825 t 0 r /Helvetica findfont 32.4888 sf 0 0 m (3) show NC gr 
 gsave  2268 1540 0 0 C 168.942 506.825 t 0 r /Symbol findfont 32.4888 sf 0 0 m (-) show NC gr 
 gsave  2268 1540 0 0 C 113.711 484.083 t 0 r /Helvetica findfont 48.7332 sf 0 0 m (10) show NC gr  254 559 m -27 X s 254 590 m -27 X s 254 612 m -27 X s 254 629 m -27 X s 254 643 m -27 X s 254 655 m -27 X s 254 665 m -27 X s 254 674 m -27 X s 281
 682 m -54 X s
 gsave  2268 1540 0 0 C 188.435 679.015 t 0 r /Helvetica findfont 32.4888 sf 0 0 m (2) show NC gr 
 gsave  2268 1540 0 0 C 168.942 679.015 t 0 r /Symbol findfont 32.4888 sf 0 0 m (-) show NC gr 
 gsave  2268 1540 0 0 C 113.711 659.522 t 0 r /Helvetica findfont 48.7332 sf 0 0 m (10) show NC gr  254 735 m -27 X s 254 766 m -27 X s 254 788 m -27 X s 254 805 m -27 X s 254 819 m -27 X s 254 831 m -27 X s 254 841 m -27 X s 254 850 m -27 X s 281
 858 m -54 X s
 gsave  2268 1540 0 0 C 194.933 857.704 t 0 r /Helvetica findfont 32.4888 sf 0 0 m (1) show NC gr 
 gsave  2268 1540 0 0 C 175.439 857.704 t 0 r /Symbol findfont 32.4888 sf 0 0 m (-) show NC gr 
 gsave  2268 1540 0 0 C 120.208 838.21 t 0 r /Helvetica findfont 48.7332 sf 0 0 m (10) show NC gr  254 911 m -27 X s 254 942 m -27 X s 254 964 m -27 X s 254 981 m -27 X s 254 995 m -27 X s 254 1007 m -27 X s 254 1017 m -27 X s 254 1026 m -27 X s 281
 1034 m -54 X s
 gsave  2268 1540 0 0 C 188.435 1016.9 t 0 r /Helvetica findfont 48.7332 sf 0 0 m (1) show NC gr  254 1087 m -27 X s 254 1118 m -27 X s 254 1140 m -27 X s 254 1157 m -27 X s 254 1171 m -27 X s 254 1183 m -27 X s 254 1193 m -27 X s 254 1202 m -27 X s
 281 1210 m -54 X s
 gsave  2268 1540 0 0 C 152.697 1192.34 t 0 r /Helvetica findfont 48.7332 sf 0 0 m (10) show NC gr  254 1263 m -27 X s 254 1294 m -27 X s 254 1316 m -27 X s 254 1333 m -27 X s 254 1347 m -27 X s 254 1359 m -27 X s 254 1369 m -27 X s 254 1378 m -27 X
 s 281 1386 m -54 X s
 gsave  2268 1540 0 0 C 188.435 1384.02 t 0 r /Helvetica findfont 32.4888 sf 0 0 m (2) show NC gr 
 gsave  2268 1540 0 0 C 133.204 1364.53 t 0 r /Helvetica findfont 48.7332 sf 0 0 m (10) show NC gr 
 gsave  2268 1540 0 0 C 103.964 1367.78 t 90 r /Helvetica findfont 64.9775 sf 0 0 m (\)) show NC gr 
 gsave  2268 1540 0 0 C 74.7242 1338.54 t 90 r /Helvetica findfont 42.2354 sf 0 0 m (\2551) show NC gr 
 gsave  2268 1540 0 0 C 100.715 1026.65 t 90 r /Helvetica findfont 64.9775 sf 0 0 m (density\(cm) show NC gr  1 1 1 c black
 gsave  2268 1540 0 0 C 825.215 1468.49 t 0 r /Helvetica findfont 74.7242 sf 0 0 m (:et_deposition_density_vs_r) show NC gr 
 gsave  2268 1540 0 0 C 786.228 1468.49 t 0 r /Symbol findfont 74.7242 sf 0 0 m (g) show NC gr 
 gsave  2268 1540 0 0 C 513.323 1468.49 t 0 r /Helvetica findfont 74.7242 sf 0 0 m (nu11.4_) show NC gr  1 1 1 c black
 gsave  2268 1540 0 0 C 825.215 1468.49 t 0 r /Helvetica findfont 74.7242 sf 0 0 m (:et_deposition_density_vs_r) show NC gr 
 gsave  2268 1540 0 0 C 786.228 1468.49 t 0 r /Symbol findfont 74.7242 sf 0 0 m (g) show NC gr 
 gsave  2268 1540 0 0 C 513.323 1468.49 t 0 r /Helvetica findfont 74.7242 sf 0 0 m (nu11.4_) show NC gr 
 gr  gr showpage
end
%%EOF
