%!PS-Adobe-2.0 EPSF-2.0
%%BoundingBox:  0 0 567 385
%%Title: ../plot_nu11.4/etr/nu11.4_p^{+}p^{-}_xyr.eps: nu11.4_p^{+}p^{-}:et_deposition_density_vs_r
%%Creator: ROOT Version 6.14/02
%%CreationDate: Thu Aug  9 14:34:32 2018
%%DocumentNeededResources: ProcSet (FontSetInit)
%%EndComments
%%BeginProlog
80 dict begin
/s {stroke} def /l {lineto} def /m {moveto} def /t {translate} def
/r {rotate} def /rl {roll}  def /R {repeat} def
/d {rlineto} def /rm {rmoveto} def /gr {grestore} def /f {eofill} def
/c {setrgbcolor} def /black {0 setgray} def /sd {setdash} def
/cl {closepath} def /sf {scalefont setfont} def /lw {setlinewidth} def
/box {m dup 0 exch d exch 0 d 0 exch neg d cl} def
/NC{systemdict begin initclip end}def/C{NC box clip newpath}def
/bl {box s} def /bf {gsave box gsave f grestore 1 lw [] 0 sd s grestore} def /Y { 0 exch d} def /X { 0 d} def 
/K {{pop pop 0 moveto} exch kshow} bind def
/ita {/ang 15 def gsave [1 0 ang dup sin exch cos div 1 0 0] concat} def 
/mp {newpath /y exch def /x exch def} def
/side {[w .77 mul w .23 mul] .385 w mul sd w 0 l currentpoint t -144 r} def
/mr {mp x y w2 0 360 arc} def /m24 {mr s} def /m20 {mr f} def
/mb {mp x y w2 add m w2 neg 0 d 0 w neg d w 0 d 0 w d cl} def
/mt {mp x y w2 add m w2 neg w neg d w 0 d cl} def
/w4 {w 4 div} def
/w6 {w 6 div} def
/w8 {w 8 div} def
/m21 {mb f} def /m25 {mb s} def /m22 {mt f} def /m26{mt s} def
/m23 {mp x y w2 sub m w2 w d w neg 0 d cl f} def
/m27 {mp x y w2 add m w3 neg w2 neg d w3 w2 neg d w3 w2 d cl s} def
/m28 {mp x w2 sub y w2 sub w3 add m w3 0 d  0 w3 neg d w3 0 d 0 w3 d w3 0 d  0 w3 d w3 neg 0 d 0 w3 d w3 neg 0 d 0 w3 neg d w3 neg 0 d cl s } def
/m29 {mp gsave x w2 sub y w2 add w3 sub m currentpoint t 4 {side} repeat cl fill gr} def
/m30 {mp gsave x w2 sub y w2 add w3 sub m currentpoint t 4 {side} repeat cl s gr} def
/m31 {mp x y w2 sub m 0 w d x w2 sub y m w 0 d x w2 sub y w2 add m w w neg d x w2 sub y w2 sub m w w d s} def
/m32 {mp x y w2 sub m w2 w d w neg 0 d cl s} def
/m33 {mp x y w2 add m w3 neg w2 neg d w3 w2 neg d w3 w2 d cl f} def
/m34 {mp x w2 sub y w2 sub w3 add m w3 0 d  0 w3 neg d w3 0 d 0 w3 d w3 0 d  0 w3 d w3 neg 0 d 0 w3 d w3 neg 0 d 0 w3 neg d w3 neg 0 d cl f } def
/m35 {mp x y w2 add m w2 neg w2 neg d w2 w2 neg d w2 w2 d w2 neg w2 d x y w2 sub m 0 w d x w2 sub y m w 0 d s} def
/m36 {mb x w2 sub y w2 add m w w neg d x w2 sub y w2 sub m w w d s} def
/m37 {mp x y m w4 neg w2 d w4 neg w2 neg d w2 0 d  w4 neg w2 neg d w2 0 d w4 neg w2 d w2 0 d w4 neg w2 d w4 neg w2 neg d cl s} def
/m38 {mp x w4 sub y w2 add m w4 neg w4 neg d 0 w2 neg d w4 w4 neg d w2 0 d w4 w4 d 0 w2 d w4 neg w4 d w2 neg 0 d x y w2 sub m 0 w d x w2 sub y m w 0 d cl s} def
/m39 {mp x y m w4 neg w2 d w4 neg w2 neg d w2 0 d  w4 neg w2 neg d w2 0 d w4 neg w2 d w2 0 d w4 neg w2 d w4 neg w2 neg d cl f} def
/m40 {mp x y m w4 w2 d w4 w4 neg d w2 neg w4 neg d w2 w4 neg d w4 neg w4 neg d w4 neg w2 d w4 neg w2 neg d w4 neg w4 d w2 w4 d w2 neg w4 d w4 w4 d w4 w2 neg d cl s} def
/m41 {mp x y m w4 w2 d w4 w4 neg d w2 neg w4 neg d w2 w4 neg d w4 neg w4 neg d w4 neg w2 d w4 neg w2 neg d w4 neg w4 d w2 w4 d w2 neg w4 d w4 w4 d w4 w2 neg d cl f} def
/m42 {mp x y w2 add m w8 neg w2 -3 4 div mul d w2 -3 4 div mul w8 neg d w2 3 4 div mul w8 neg d w8 w2 -3 4 div mul d w8 w2 3 4 div mul d w2 3 4 div mul w8 d w2 -3 4 div mul w8 d w8 neg w2 3 4 div mul d cl s} def
/m43 {mp x y w2 add m w8 neg w2 -3 4 div mul d w2 -3 4 div mul w8 neg d w2 3 4 div mul w8 neg d w8 w2 -3 4 div mul d w8 w2 3 4 div mul d w2 3 4 div mul w8 d w2 -3 4 div mul w8 d w8 neg w2 3 4 div mul d cl f} def
/m44 {mp x y m w6 neg w2 d w2 2 3 div mul 0 d w6 neg w2 neg d w2 w6 d 0 w2 -2 3 div mul d w2 neg w6 d w6 w2 neg d w2 -2 3 div mul 0 d w6 w2 d w2 neg w6 neg d 0 w2 2 3 div mul d w2 w6 neg d cl s} def
/m45 {mp x y m w6 neg w2 d w2 2 3 div mul 0 d w6 neg w2 neg d w2 w6 d 0 w2 -2 3 div mul d w2 neg w6 d w6 w2 neg d w2 -2 3 div mul 0 d w6 w2 d w2 neg w6 neg d 0 w2 2 3 div mul d w2 w6 neg d cl f} def
/m46 {mp x y w4 add m w4 neg w4 d w4 neg w4 neg d  w4 w4 neg d w4 neg w4 neg d w4 w4 neg d w4 w4 d w4 w4 neg d w4 w4 d w4 neg w4 d w4 w4 d w4 neg w4 d w4 neg w4 neg d cl s} def
/m47 {mp x y w4 add m w4 neg w4 d w4 neg w4 neg d w4 w4 neg d w4 neg w4 neg d  w4 w4 neg d w4 w4 d w4 w4 neg d w4 w4 d w4 neg w4 d w4 w4 d w4 neg w4 d w4 neg w4 neg d cl f} def
/m48 {mp x y w4 add m w4 neg w4 d w4 neg w4 neg d w4 w4 neg d  w4 neg w4 neg d w4 w4 neg d w4 w4 d w4 w4 neg d w4 w4 d w4 neg w4 d w4 w4 d w4 neg w4 d w4 neg w4 neg d  w4 w4 neg d w4 neg w4 neg d w4 neg w4 d w4 w4 d cl f} def
/m49 {mp x w2 sub w3 add y w2 sub w3 add m  0 w3 neg d w3 0 d 0 w3 d w3 0 d 0 w3 d w3 neg 0 d 0 w3 d w3 neg 0 d 0 w3 neg d w3 neg 0 d 0 w3 neg d w3 0 d 0 w3 d w3 0 d 0 w3 neg d w3 neg 0 d cl f } def
/m2 {mp x y w2 sub m 0 w d x w2 sub y m w 0 d s} def
/m5 {mp x w2 sub y w2 sub m w w d x w2 sub y w2 add m w w neg d s} def
%%IncludeResource: ProcSet (FontSetInit)
%%IncludeResource: font Times-Roman
%%IncludeResource: font Times-Italic
%%IncludeResource: font Times-Bold
%%IncludeResource: font Times-BoldItalic
%%IncludeResource: font Helvetica
%%IncludeResource: font Helvetica-Oblique
%%IncludeResource: font Helvetica-Bold
%%IncludeResource: font Helvetica-BoldOblique
%%IncludeResource: font Courier
%%IncludeResource: font Courier-Oblique
%%IncludeResource: font Courier-Bold
%%IncludeResource: font Courier-BoldOblique
%%IncludeResource: font Symbol
%%IncludeResource: font ZapfDingbats
/reEncode {exch findfont dup length dict begin {1 index /FID eq  {pop pop} {def} ifelse } forall /Encoding exch def currentdict end dup /FontName get exch definefont pop } def [/Times-Bold /Times-Italic /Times-BoldItalic /Helvetica /Helvetica-Oblique
 /Helvetica-Bold /Helvetica-BoldOblique /Courier /Courier-Oblique /Courier-Bold /Courier-BoldOblique /Times-Roman /AvantGarde-Book /AvantGarde-BookOblique /AvantGarde-Demi /AvantGarde-DemiOblique /Bookman-Demi /Bookman-DemiItalic /Bookman-Light
 /Bookman-LightItalic /Helvetica-Narrow /Helvetica-Narrow-Bold /Helvetica-Narrow-BoldOblique /Helvetica-Narrow-Oblique /NewCenturySchlbk-Roman /NewCenturySchlbk-Bold /NewCenturySchlbk-BoldItalic /NewCenturySchlbk-Italic /Palatino-Bold
 /Palatino-BoldItalic /Palatino-Italic /Palatino-Roman ] {ISOLatin1Encoding reEncode } forall
%%EndProlog
%%BeginSetup
%%EndSetup
newpath  gsave  .25 .25 scale  gsave  0 0 t black[  ] 0 sd 3 lw 1 1 1 c 2268 1540 0 0 bf black 1 1 1 c 1814 1232 227 154 bf black 1814 1232 227 154 bl 0 0 0.6 c 1 1 1 c black 0 0 0.6 c 295 866 m 22 Y s 295 888 m 18 Y s 290 888 m 5 X s 295 888 m 4 X s
 black /w 2 def /w2 {w 2 div} def /w3 {w 3 div} def 295 888 m20 0 0 0.6 c 304 960 m 12 Y s 304 972 m 10 Y s 299 972 m 5 X s 304 972 m 4 X s black 304 972 m20 0 0 0.6 c 313 887 m 17 Y s 313 904 m 15 Y s 308 904 m 5 X s 313 904 m 4 X s black 313 904
 m20 0 0 0.6 c 322 907 m 20 Y s 322 927 m 15 Y s 317 927 m 5 X s 322 927 m 5 X s black 322 927 m20 0 0 0.6 c 331 864 m 22 Y s 331 886 m 17 Y s 327 886 m 4 X s 331 886 m 5 X s black 331 886 m20 0 0 0.6 c 340 887 m 18 Y s 340 905 m 14 Y s 336 905 m 4 X
 s 340 905 m 5 X s black 340 905 m20 0 0 0.6 c 349 813 m 30 Y s 349 843 m 21 Y s 345 843 m 4 X s 349 843 m 5 X s black 349 843 m20 0 0 0.6 c 358 842 m 24 Y s 358 866 m 19 Y s 354 866 m 4 X s 358 866 m 5 X s black 358 866 m20 0 0 0.6 c 367 853 m 19 Y
 s 367 872 m 16 Y s 363 872 m 4 X s 367 872 m 5 X s black 367 872 m20 0 0 0.6 c 376 822 m 20 Y s 376 842 m 16 Y s 372 842 m 4 X s 376 842 m 5 X s black 376 842 m20 0 0 0.6 c 386 774 m 30 Y s 386 804 m 22 Y s 381 804 m 5 X s 386 804 m 4 X s black 386
 804 m20 0 0 0.6 c 395 785 m 24 Y s 395 809 m 18 Y s 390 809 m 5 X s 395 809 m 4 X s black 395 809 m20 0 0 0.6 c 404 743 m 30 Y s 404 773 m 21 Y s 399 773 m 5 X s 404 773 m 4 X s black 404 773 m20 0 0 0.6 c 413 832 m 18 Y s 413 850 m 15 Y s 408 850 m
 5 X s 413 850 m 4 X s black 413 850 m20 0 0 0.6 c 422 805 m 22 Y s 422 827 m 18 Y s 417 827 m 5 X s 422 827 m 4 X s black 422 827 m20 0 0 0.6 c 431 795 m 22 Y s 431 817 m 17 Y s 426 817 m 5 X s 431 817 m 4 X s black 431 817 m20 0 0 0.6 c 440 844 m
 22 Y s 440 866 m 17 Y s 435 866 m 5 X s 440 866 m 4 X s black 440 866 m20 0 0 0.6 c 449 809 m 19 Y s 449 828 m 16 Y s 444 828 m 5 X s 449 828 m 5 X s black 449 828 m20 0 0 0.6 c 458 770 m 20 Y s 458 790 m 16 Y s 454 790 m 4 X s 458 790 m 5 X s black
 458 790 m20 0 0 0.6 c 467 763 m 22 Y s 467 785 m 17 Y s 463 785 m 4 X s 467 785 m 5 X s black 467 785 m20 0 0 0.6 c 476 753 m 20 Y s 476 773 m 16 Y s 472 773 m 4 X s 476 773 m 5 X s black 476 773 m20 0 0 0.6 c 485 752 m 26 Y s 485 778 m 20 Y s 481
 778 m 4 X s 485 778 m 5 X s black 485 778 m20 0 0 0.6 c 494 751 m 24 Y s 494 775 m 19 Y s 490 775 m 4 X s 494 775 m 5 X s black 494 775 m20 0 0 0.6 c 503 735 m 36 Y s 503 771 m 24 Y s 499 771 m 4 X s 503 771 m 5 X s black 503 771 m20 0 0 0.6 c 513
 750 m 26 Y s 513 776 m 20 Y s 508 776 m 5 X s 513 776 m 4 X s black 513 776 m20 0 0 0.6 c 522 723 m 26 Y s 522 749 m 19 Y s 517 749 m 5 X s 522 749 m 4 X s black 522 749 m20 0 0 0.6 c 531 790 m 24 Y s 531 814 m 18 Y s 526 814 m 5 X s 531 814 m 4 X s
 black 531 814 m20 0 0 0.6 c 540 762 m 21 Y s 540 783 m 16 Y s 535 783 m 5 X s 540 783 m 4 X s black 540 783 m20 0 0 0.6 c 549 744 m 22 Y s 549 766 m 16 Y s 544 766 m 5 X s 549 766 m 4 X s black 549 766 m20 0 0 0.6 c 558 767 m 25 Y s 558 792 m 19 Y s
 553 792 m 5 X s 558 792 m 4 X s black 558 792 m20 0 0 0.6 c 567 755 m 24 Y s 567 779 m 18 Y s 562 779 m 5 X s 567 779 m 4 X s black 567 779 m20 0 0 0.6 c 576 730 m 26 Y s 576 756 m 19 Y s 571 756 m 5 X s 576 756 m 5 X s black 576 756 m20 0 0 0.6 c
 585 700 m 28 Y s 585 728 m 21 Y s 581 728 m 4 X s 585 728 m 5 X s black 585 728 m20 0 0 0.6 c 594 711 m 30 Y s 594 741 m 22 Y s 590 741 m 4 X s 594 741 m 5 X s black 594 741 m20 0 0 0.6 c 603 730 m 22 Y s 603 752 m 17 Y s 599 752 m 4 X s 603 752 m 5
 X s black 603 752 m20 0 0 0.6 c 612 702 m 22 Y s 612 724 m 18 Y s 608 724 m 4 X s 612 724 m 5 X s black 612 724 m20 0 0 0.6 c 621 687 m 29 Y s 621 716 m 21 Y s 617 716 m 4 X s 621 716 m 5 X s black 621 716 m20 0 0 0.6 c 630 731 m 28 Y s 630 759 m 20
 Y s 626 759 m 4 X s 630 759 m 5 X s black 630 759 m20 0 0 0.6 c 639 703 m 26 Y s 639 729 m 20 Y s 635 729 m 4 X s 639 729 m 5 X s black 639 729 m20 0 0 0.6 c 649 693 m 28 Y s 649 721 m 20 Y s 644 721 m 5 X s 649 721 m 4 X s black 649 721 m20 0 0 0.6
 c 658 617 m 39 Y s 658 656 m 26 Y s 653 656 m 5 X s 658 656 m 4 X s black 658 656 m20 0 0 0.6 c 667 678 m 30 Y s 667 708 m 22 Y s 662 708 m 5 X s 667 708 m 4 X s black 667 708 m20 0 0 0.6 c 676 652 m 30 Y s 676 682 m 21 Y s 671 682 m 5 X s 676 682 m
 4 X s black 676 682 m20 0 0 0.6 c 685 636 m 39 Y s 685 675 m 25 Y s 680 675 m 5 X s 685 675 m 4 X s black 685 675 m20 0 0 0.6 c 694 656 m 37 Y s 694 693 m 25 Y s 689 693 m 5 X s 694 693 m 4 X s black 694 693 m20 0 0 0.6 c 703 660 m 47 Y s 703 707 m
 29 Y s 698 707 m 5 X s 703 707 m 5 X s black 703 707 m20 0 0 0.6 c 712 646 m 29 Y s 712 675 m 22 Y s 708 675 m 4 X s 712 675 m 5 X s black 712 675 m20 0 0 0.6 c 721 663 m 32 Y s 721 695 m 22 Y s 717 695 m 4 X s 721 695 m 5 X s black 721 695 m20 0 0
 0.6 c 730 679 m 31 Y s 730 710 m 22 Y s 726 710 m 4 X s 730 710 m 5 X s black 730 710 m20 0 0 0.6 c 739 729 m 28 Y s 739 757 m 20 Y s 735 757 m 4 X s 739 757 m 5 X s black 739 757 m20 0 0 0.6 c 748 685 m 25 Y s 748 710 m 18 Y s 744 710 m 4 X s 748
 710 m 5 X s black 748 710 m20 0 0 0.6 c 757 653 m 59 Y s 757 712 m 32 Y s 753 712 m 4 X s 757 712 m 5 X s black 757 712 m20 0 0 0.6 c 766 654 m 28 Y s 766 682 m 20 Y s 762 682 m 4 X s 766 682 m 5 X s black 766 682 m20 0 0 0.6 c 776 656 m 43 Y s 776
 699 m 27 Y s 771 699 m 5 X s 776 699 m 4 X s black 776 699 m20 0 0 0.6 c 785 663 m 29 Y s 785 692 m 21 Y s 780 692 m 5 X s 785 692 m 4 X s black 785 692 m20 0 0 0.6 c 794 669 m 30 Y s 794 699 m 22 Y s 789 699 m 5 X s 794 699 m 4 X s black 794 699
 m20 0 0 0.6 c 803 656 m 38 Y s 803 694 m 26 Y s 798 694 m 5 X s 803 694 m 4 X s black 803 694 m20 0 0 0.6 c 812 584 m 57 Y s 812 641 m 33 Y s 807 641 m 5 X s 812 641 m 4 X s black 812 641 m20 0 0 0.6 c 821 622 m 35 Y s 821 657 m 25 Y s 816 657 m 5 X
 s 821 657 m 4 X s black 821 657 m20 0 0 0.6 c 830 648 m 34 Y s 830 682 m 23 Y s 825 682 m 5 X s 830 682 m 5 X s black 830 682 m20 0 0 0.6 c 839 642 m 40 Y s 839 682 m 26 Y s 835 682 m 4 X s 839 682 m 5 X s black 839 682 m20 0 0 0.6 c 848 697 m 34 Y
 s 848 731 m 24 Y s 844 731 m 4 X s 848 731 m 5 X s black 848 731 m20 0 0 0.6 c 857 637 m 34 Y s 857 671 m 23 Y s 853 671 m 4 X s 857 671 m 5 X s black 857 671 m20 0 0 0.6 c 866 618 m 40 Y s 866 658 m 27 Y s 862 658 m 4 X s 866 658 m 5 X s black 866
 658 m20 0 0 0.6 c 875 679 m 31 Y s 875 710 m 22 Y s 871 710 m 4 X s 875 710 m 5 X s black 875 710 m20 0 0 0.6 c 884 638 m 36 Y s 884 674 m 25 Y s 880 674 m 4 X s 884 674 m 5 X s black 884 674 m20 0 0 0.6 c 893 640 m 36 Y s 893 676 m 24 Y s 889 676 m
 4 X s 893 676 m 5 X s black 893 676 m20 0 0 0.6 c 903 622 m 40 Y s 903 662 m 25 Y s 898 662 m 5 X s 903 662 m 4 X s black 903 662 m20 0 0 0.6 c 912 691 m 26 Y s 912 717 m 19 Y s 907 717 m 5 X s 912 717 m 4 X s black 912 717 m20 0 0 0.6 c 921 574 m
 74 Y s 921 648 m 37 Y s 916 648 m 5 X s 921 648 m 4 X s black 921 648 m20 0 0 0.6 c 930 612 m 42 Y s 930 654 m 27 Y s 925 654 m 5 X s 930 654 m 4 X s black 930 654 m20 0 0 0.6 c 939 600 m 53 Y s 939 653 m 31 Y s 934 653 m 5 X s 939 653 m 4 X s black
 939 653 m20 0 0 0.6 c 948 607 m 43 Y s 948 650 m 28 Y s 943 650 m 5 X s 948 650 m 4 X s black 948 650 m20 0 0 0.6 c 957 624 m 37 Y s 957 661 m 25 Y s 952 661 m 5 X s 957 661 m 5 X s black 957 661 m20 0 0 0.6 c 966 659 m 28 Y s 966 687 m 21 Y s 962
 687 m 4 X s 966 687 m 5 X s black 966 687 m20 0 0 0.6 c 975 615 m 46 Y s 975 661 m 29 Y s 971 661 m 4 X s 975 661 m 5 X s black 975 661 m20 0 0 0.6 c 984 618 m 36 Y s 984 654 m 25 Y s 980 654 m 4 X s 984 654 m 5 X s black 984 654 m20 0 0 0.6 c 993
 582 m 40 Y s 993 622 m 26 Y s 989 622 m 4 X s 993 622 m 5 X s black 993 622 m20 0 0 0.6 c 1002 635 m 31 Y s 1002 666 m 22 Y s 998 666 m 4 X s 1002 666 m 5 X s black 1002 666 m20 0 0 0.6 c 1011 660 m 35 Y s 1011 695 m 24 Y s 1007 695 m 4 X s 1011 695
 m 5 X s black 1011 695 m20 0 0 0.6 c 1020 568 m 52 Y s 1020 620 m 31 Y s 1016 620 m 4 X s 1020 620 m 5 X s black 1020 620 m20 0 0 0.6 c 1030 669 m 36 Y s 1030 705 m 24 Y s 1025 705 m 5 X s 1030 705 m 4 X s black 1030 705 m20 0 0 0.6 c 1039 504 m 67
 Y s 1039 571 m 35 Y s 1034 571 m 5 X s 1039 571 m 4 X s black 1039 571 m20 0 0 0.6 c 1048 648 m 38 Y s 1048 686 m 25 Y s 1043 686 m 5 X s 1048 686 m 4 X s black 1048 686 m20 0 0 0.6 c 1057 641 m 43 Y s 1057 684 m 27 Y s 1052 684 m 5 X s 1057 684 m 4
 X s black 1057 684 m20 0 0 0.6 c 1066 634 m 27 Y s 1066 661 m 20 Y s 1061 661 m 5 X s 1066 661 m 4 X s black 1066 661 m20 0 0 0.6 c 1075 598 m 43 Y s 1075 641 m 27 Y s 1070 641 m 5 X s 1075 641 m 4 X s black 1075 641 m20 0 0 0.6 c 1084 568 m 47 Y s
 1084 615 m 28 Y s 1079 615 m 5 X s 1084 615 m 5 X s black 1084 615 m20 0 0 0.6 c 1093 621 m 49 Y s 1093 670 m 30 Y s 1089 670 m 4 X s 1093 670 m 5 X s black 1093 670 m20 0 0 0.6 c 1102 627 m 36 Y s 1102 663 m 24 Y s 1098 663 m 4 X s 1102 663 m 5 X s
 black 1102 663 m20 0 0 0.6 c 1111 609 m 34 Y s 1111 643 m 24 Y s 1107 643 m 4 X s 1111 643 m 5 X s black 1111 643 m20 0 0 0.6 c 1120 579 m 47 Y s 1120 626 m 29 Y s 1116 626 m 4 X s 1120 626 m 5 X s black 1120 626 m20 0 0 0.6 c 1129 598 m 38 Y s 1129
 636 m 26 Y s 1125 636 m 4 X s 1129 636 m 5 X s black 1129 636 m20 0 0 0.6 c 1138 535 m 60 Y s 1138 595 m 33 Y s 1134 595 m 4 X s 1138 595 m 5 X s black 1138 595 m20 0 0 0.6 c 1147 544 m 55 Y s 1147 599 m 32 Y s 1143 599 m 4 X s 1147 599 m 5 X s
 black 1147 599 m20 0 0 0.6 c 1157 495 m 59 Y s 1157 554 m 32 Y s 1152 554 m 5 X s 1157 554 m 4 X s black 1157 554 m20 0 0 0.6 c 1166 596 m 38 Y s 1166 634 m 25 Y s 1161 634 m 5 X s 1166 634 m 4 X s black 1166 634 m20 0 0 0.6 c 1175 580 m 40 Y s 1175
 620 m 26 Y s 1170 620 m 5 X s 1175 620 m 4 X s black 1175 620 m20 0 0 0.6 c 1184 508 m 46 Y s 1184 554 m 28 Y s 1179 554 m 5 X s 1184 554 m 4 X s black 1184 554 m20 0 0 0.6 c 1193 618 m 32 Y s 1193 650 m 22 Y s 1188 650 m 5 X s 1193 650 m 4 X s
 black 1193 650 m20 0 0 0.6 c 1202 561 m 62 Y s 1202 623 m 34 Y s 1197 623 m 5 X s 1202 623 m 4 X s black 1202 623 m20 0 0 0.6 c 1211 520 m 52 Y s 1211 572 m 31 Y s 1206 572 m 5 X s 1211 572 m 4 X s black 1211 572 m20 0 0 0.6 c 1220 558 m 45 Y s 1220
 603 m 28 Y s 1215 603 m 5 X s 1220 603 m 5 X s black 1220 603 m20 0 0 0.6 c 1229 154 m 350 Y s 1229 504 m 53 Y s 1225 504 m 4 X s 1229 504 m 5 X s black 1229 504 m20 0 0 0.6 c 1238 567 m 46 Y s 1238 613 m 28 Y s 1234 613 m 4 X s 1238 613 m 5 X s
 black 1238 613 m20 0 0 0.6 c 1247 570 m 39 Y s 1247 609 m 26 Y s 1243 609 m 4 X s 1247 609 m 5 X s black 1247 609 m20 0 0 0.6 c 1256 565 m 45 Y s 1256 610 m 28 Y s 1252 610 m 4 X s 1256 610 m 5 X s black 1256 610 m20 0 0 0.6 c 1265 575 m 48 Y s 1265
 623 m 29 Y s 1261 623 m 4 X s 1265 623 m 5 X s black 1265 623 m20 0 0 0.6 c 1274 577 m 50 Y s 1274 627 m 30 Y s 1270 627 m 4 X s 1274 627 m 5 X s black 1274 627 m20 0 0 0.6 c 1284 595 m 41 Y s 1284 636 m 26 Y s 1279 636 m 5 X s 1284 636 m 4 X s
 black 1284 636 m20 0 0 0.6 c 1293 479 m 55 Y s 1293 534 m 32 Y s 1288 534 m 5 X s 1293 534 m 4 X s black 1293 534 m20 0 0 0.6 c 1302 557 m 37 Y s 1302 594 m 24 Y s 1297 594 m 5 X s 1302 594 m 4 X s black 1302 594 m20 0 0 0.6 c 1311 593 m 32 Y s 1311
 625 m 22 Y s 1306 625 m 5 X s 1311 625 m 4 X s black 1311 625 m20 0 0 0.6 c 1320 574 m 50 Y s 1320 624 m 30 Y s 1315 624 m 5 X s 1320 624 m 4 X s black 1320 624 m20 0 0 0.6 c 1329 562 m 47 Y s 1329 609 m 29 Y s 1324 609 m 5 X s 1329 609 m 4 X s
 black 1329 609 m20 0 0 0.6 c 1338 502 m 58 Y s 1338 560 m 32 Y s 1333 560 m 5 X s 1338 560 m 4 X s black 1338 560 m20 0 0 0.6 c 1347 569 m 49 Y s 1347 618 m 30 Y s 1342 618 m 5 X s 1347 618 m 5 X s black 1347 618 m20 0 0 0.6 c 1356 538 m 63 Y s 1356
 601 m 34 Y s 1352 601 m 4 X s 1356 601 m 5 X s black 1356 601 m20 0 0 0.6 c 1365 431 m 68 Y s 1365 499 m 35 Y s 1361 499 m 4 X s 1365 499 m 5 X s black 1365 499 m20 0 0 0.6 c 1374 546 m 52 Y s 1374 598 m 31 Y s 1370 598 m 4 X s 1374 598 m 5 X s
 black 1374 598 m20 0 0 0.6 c 1383 470 m 56 Y s 1383 526 m 32 Y s 1379 526 m 4 X s 1383 526 m 5 X s black 1383 526 m20 0 0 0.6 c 1392 379 m 170 Y s 1392 549 m 49 Y s 1388 549 m 4 X s 1392 549 m 5 X s black 1392 549 m20 0 0 0.6 c 1401 561 m 42 Y s
 1401 603 m 27 Y s 1397 603 m 4 X s 1401 603 m 5 X s black 1401 603 m20 0 0 0.6 c 1411 561 m 67 Y s 1411 628 m 35 Y s 1406 628 m 5 X s 1411 628 m 4 X s black 1411 628 m20 0 0 0.6 c 1420 587 m 47 Y s 1420 634 m 29 Y s 1415 634 m 5 X s 1420 634 m 4 X s
 black 1420 634 m20 0 0 0.6 c 1429 505 m 59 Y s 1429 564 m 33 Y s 1424 564 m 5 X s 1429 564 m 4 X s black 1429 564 m20 0 0 0.6 c 1438 541 m 48 Y s 1438 589 m 29 Y s 1433 589 m 5 X s 1438 589 m 4 X s black 1438 589 m20 0 0 0.6 c 1447 521 m 62 Y s 1447
 583 m 33 Y s 1442 583 m 5 X s 1447 583 m 4 X s black 1447 583 m20 0 0 0.6 c 1456 154 m 244 Y s 1456 398 m 53 Y s 1451 398 m 5 X s 1456 398 m 4 X s black 1456 398 m20 0 0 0.6 c 1465 605 m 36 Y s 1465 641 m 25 Y s 1460 641 m 5 X s 1465 641 m 4 X s
 black 1465 641 m20 0 0 0.6 c 1474 572 m 43 Y s 1474 615 m 27 Y s 1469 615 m 5 X s 1474 615 m 5 X s black 1474 615 m20 0 0 0.6 c 1483 486 m 57 Y s 1483 543 m 32 Y s 1479 543 m 4 X s 1483 543 m 5 X s black 1483 543 m20 0 0 0.6 c 1492 487 m 63 Y s 1492
 550 m 34 Y s 1488 550 m 4 X s 1492 550 m 5 X s black 1492 550 m20 0 0 0.6 c 1501 541 m 62 Y s 1501 603 m 34 Y s 1497 603 m 4 X s 1501 603 m 5 X s black 1501 603 m20 0 0 0.6 c 1510 494 m 86 Y s 1510 580 m 40 Y s 1506 580 m 4 X s 1510 580 m 5 X s
 black 1510 580 m20 0 0 0.6 c 1519 516 m 69 Y s 1519 585 m 35 Y s 1515 585 m 4 X s 1519 585 m 5 X s black 1519 585 m20 0 0 0.6 c 1528 546 m 45 Y s 1528 591 m 28 Y s 1524 591 m 4 X s 1528 591 m 5 X s black 1528 591 m20 0 0 0.6 c 1538 438 m 126 Y s
 1538 564 m 45 Y s 1533 564 m 5 X s 1538 564 m 4 X s black 1538 564 m20 0 0 0.6 c 1547 486 m 75 Y s 1547 561 m 37 Y s 1542 561 m 5 X s 1547 561 m 4 X s black 1547 561 m20 0 0 0.6 c 1556 363 m 147 Y s 1556 510 m 47 Y s 1551 510 m 5 X s 1556 510 m 4 X
 s black 1556 510 m20 0 0 0.6 c 1565 518 m 49 Y s 1565 567 m 30 Y s 1560 567 m 5 X s 1565 567 m 4 X s black 1565 567 m20 0 0 0.6 c 1574 462 m 97 Y s 1574 559 m 42 Y s 1569 559 m 5 X s 1574 559 m 4 X s black 1574 559 m20 0 0 0.6 c 1583 573 m 40 Y s
 1583 613 m 26 Y s 1578 613 m 5 X s 1583 613 m 4 X s black 1583 613 m20 0 0 0.6 c 1592 441 m 68 Y s 1592 509 m 36 Y s 1587 509 m 5 X s 1592 509 m 4 X s black 1592 509 m20 0 0 0.6 c 1601 534 m 50 Y s 1601 584 m 30 Y s 1596 584 m 5 X s 1601 584 m 5 X s
 black 1601 584 m20 0 0 0.6 c 1610 441 m 98 Y s 1610 539 m 41 Y s 1606 539 m 4 X s 1610 539 m 5 X s black 1610 539 m20 0 0 0.6 c 1619 531 m 55 Y s 1619 586 m 32 Y s 1615 586 m 4 X s 1619 586 m 5 X s black 1619 586 m20 0 0 0.6 c 1628 489 m 71 Y s 1628
 560 m 36 Y s 1624 560 m 4 X s 1628 560 m 5 X s black 1628 560 m20 0 0 0.6 c 1637 531 m 54 Y s 1637 585 m 31 Y s 1633 585 m 4 X s 1637 585 m 5 X s black 1637 585 m20 0 0 0.6 c 1646 547 m 51 Y s 1646 598 m 30 Y s 1642 598 m 4 X s 1646 598 m 5 X s
 black 1646 598 m20 0 0 0.6 c 1655 546 m 50 Y s 1655 596 m 30 Y s 1651 596 m 4 X s 1655 596 m 5 X s black 1655 596 m20 0 0 0.6 c 1665 550 m 52 Y s 1665 602 m 31 Y s 1660 602 m 5 X s 1665 602 m 4 X s black 1665 602 m20 0 0 0.6 c 1674 561 m 43 Y s 1674
 604 m 27 Y s 1669 604 m 5 X s 1674 604 m 4 X s black 1674 604 m20 0 0 0.6 c 1683 502 m 48 Y s 1683 550 m 30 Y s 1678 550 m 5 X s 1683 550 m 4 X s black 1683 550 m20 0 0 0.6 c 1692 488 m 46 Y s 1692 534 m 28 Y s 1687 534 m 5 X s 1692 534 m 4 X s
 black 1692 534 m20 0 0 0.6 c 1701 473 m 81 Y s 1701 554 m 38 Y s 1696 554 m 5 X s 1701 554 m 4 X s black 1701 554 m20 0 0 0.6 c 1710 462 m 71 Y s 1710 533 m 36 Y s 1705 533 m 5 X s 1710 533 m 4 X s black 1710 533 m20 0 0 0.6 c 1719 399 m 116 Y s
 1719 515 m 44 Y s 1714 515 m 5 X s 1719 515 m 4 X s black 1719 515 m20 0 0 0.6 c 1737 388 m 95 Y s 1737 483 m 41 Y s 1733 483 m 4 X s 1737 483 m 5 X s black 1737 483 m20 0 0 0.6 c 1746 560 m 45 Y s 1746 605 m 28 Y s 1742 605 m 4 X s 1746 605 m 5 X s
 black 1746 605 m20 0 0 0.6 c 1764 465 m 95 Y s 1764 560 m 41 Y s 1760 560 m 4 X s 1764 560 m 5 X s black 1764 560 m20 0 0 0.6 c 1773 494 m 58 Y s 1773 552 m 32 Y s 1769 552 m 4 X s 1773 552 m 5 X s black 1773 552 m20 0 0 0.6 c 1782 154 m 365 Y s
 1782 519 m 53 Y s 1778 519 m 4 X s 1782 519 m 5 X s black 1782 519 m20 0 0 0.6 c 1801 540 m 53 Y s 1801 593 m 31 Y s 1796 593 m 5 X s 1801 593 m 4 X s black 1801 593 m20 0 0 0.6 c 1810 509 m 48 Y s 1810 557 m 30 Y s 1805 557 m 5 X s 1810 557 m 4 X s
 black 1810 557 m20 0 0 0.6 c 1819 384 m 95 Y s 1819 479 m 41 Y s 1814 479 m 5 X s 1819 479 m 4 X s black 1819 479 m20 0 0 0.6 c 1828 154 m 252 Y s 1828 406 m 53 Y s 1823 406 m 5 X s 1828 406 m 4 X s black 1828 406 m20 0 0 0.6 c 1837 374 m 106 Y s
 1837 480 m 42 Y s 1832 480 m 5 X s 1837 480 m 4 X s black 1837 480 m20 0 0 0.6 c 1846 359 m 105 Y s 1846 464 m 42 Y s 1841 464 m 5 X s 1846 464 m 4 X s black 1846 464 m20 0 0 0.6 c 1855 536 m 50 Y s 1855 586 m 30 Y s 1850 586 m 5 X s 1855 586 m 5 X
 s black 1855 586 m20 0 0 0.6 c 1864 492 m 57 Y s 1864 549 m 32 Y s 1860 549 m 4 X s 1864 549 m 5 X s black 1864 549 m20 0 0 0.6 c 1882 424 m 101 Y s 1882 525 m 42 Y s 1878 525 m 4 X s 1882 525 m 5 X s black 1882 525 m20 0 0 0.6 c 1891 381 m 96 Y s
 1891 477 m 42 Y s 1887 477 m 4 X s 1891 477 m 5 X s black 1891 477 m20 0 0 0.6 c 1900 363 m 94 Y s 1900 457 m 41 Y s 1896 457 m 4 X s 1900 457 m 5 X s black 1900 457 m20 0 0 0.6 c 1909 375 m 97 Y s 1909 472 m 42 Y s 1905 472 m 4 X s 1909 472 m 5 X s
 black 1909 472 m20 0 0 0.6 c 1918 461 m 71 Y s 1918 532 m 36 Y s 1914 532 m 4 X s 1918 532 m 5 X s black 1918 532 m20 0 0 0.6 c 1928 436 m 66 Y s 1928 502 m 35 Y s 1923 502 m 5 X s 1928 502 m 4 X s black 1928 502 m20 0 0 0.6 c 1937 526 m 72 Y s 1937
 598 m 37 Y s 1932 598 m 5 X s 1937 598 m 4 X s black 1937 598 m20 0 0 0.6 c 1946 435 m 88 Y s 1946 523 m 39 Y s 1941 523 m 5 X s 1946 523 m 4 X s black 1946 523 m20 0 0 0.6 c 1955 437 m 71 Y s 1955 508 m 37 Y s 1950 508 m 5 X s 1955 508 m 4 X s
 black 1955 508 m20 0 0 0.6 c 1964 384 m 99 Y s 1964 483 m 42 Y s 1959 483 m 5 X s 1964 483 m 4 X s black 1964 483 m20 0 0 0.6 c 1973 367 m 94 Y s 1973 461 m 41 Y s 1968 461 m 5 X s 1973 461 m 4 X s black 1973 461 m20 0 0 0.6 c 1982 534 m 95 Y s 1982
 629 m 41 Y s 1977 629 m 5 X s 1982 629 m 5 X s black 1982 629 m20 0 0 0.6 c 1991 388 m 94 Y s 1991 482 m 41 Y s 1987 482 m 4 X s 1991 482 m 5 X s black 1991 482 m20 0 0 0.6 c 2000 462 m 70 Y s 2000 532 m 36 Y s 1996 532 m 4 X s 2000 532 m 5 X s
 black 2000 532 m20 0 0 0.6 c 2009 401 m 95 Y s 2009 496 m 41 Y s 2005 496 m 4 X s 2009 496 m 5 X s black 2009 496 m20 0 0 0.6 c 2027 431 m 107 Y s 2027 538 m 43 Y s 2023 538 m 4 X s 2027 538 m 5 X s black 2027 538 m20 0 0 0.6 c 2036 484 m 71 Y s
 2036 555 m 36 Y s 2032 555 m 4 X s 2036 555 m 5 X s black 2036 555 m20 227 154 m 1814 X s 227 191 m -37 Y s 272 172 m -18 Y s 317 172 m -18 Y s 363 172 m -18 Y s 408 172 m -18 Y s 454 191 m -37 Y s 499 172 m -18 Y s 544 172 m -18 Y s 590 172 m -18 Y
 s 635 172 m -18 Y s 680 191 m -37 Y s 726 172 m -18 Y s 771 172 m -18 Y s 816 172 m -18 Y s 862 172 m -18 Y s 907 191 m -37 Y s 952 172 m -18 Y s 998 172 m -18 Y s 1043 172 m -18 Y s 1089 172 m -18 Y s 1134 191 m -37 Y s 1179 172 m -18 Y s 1225 172
 m -18 Y s 1270 172 m -18 Y s 1315 172 m -18 Y s 1361 191 m -37 Y s 1406 172 m -18 Y s 1451 172 m -18 Y s 1497 172 m -18 Y s 1542 172 m -18 Y s 1587 191 m -37 Y s 1633 172 m -18 Y s 1678 172 m -18 Y s 1723 172 m -18 Y s 1769 172 m -18 Y s 1814 191 m
 -37 Y s 1860 172 m -18 Y s 1905 172 m -18 Y s 1950 172 m -18 Y s 1996 172 m -18 Y s 2041 191 m -37 Y s
 gsave  2268 1540 0 0 C 211.177 103.964 t 0 r /Helvetica findfont 48.7332 sf 0 0 m (0) show NC gr 
 gsave  2268 1540 0 0 C 422.354 103.964 t 0 r /Helvetica findfont 48.7332 sf 0 0 m (50) show NC gr 
 gsave  2268 1540 0 0 C 636.78 103.964 t 0 r /Helvetica findfont 48.7332 sf 0 0 m (100) show NC gr 
 gsave  2268 1540 0 0 C 864.201 103.964 t 0 r /Helvetica findfont 48.7332 sf 0 0 m (150) show NC gr 
 gsave  2268 1540 0 0 C 1091.62 103.964 t 0 r /Helvetica findfont 48.7332 sf 0 0 m (200) show NC gr 
 gsave  2268 1540 0 0 C 1315.8 103.964 t 0 r /Helvetica findfont 48.7332 sf 0 0 m (250) show NC gr 
 gsave  2268 1540 0 0 C 1543.22 103.964 t 0 r /Helvetica findfont 48.7332 sf 0 0 m (300) show NC gr 
 gsave  2268 1540 0 0 C 1770.64 103.964 t 0 r /Helvetica findfont 48.7332 sf 0 0 m (350) show NC gr 
 gsave  2268 1540 0 0 C 1998.06 103.964 t 0 r /Helvetica findfont 48.7332 sf 0 0 m (400) show NC gr 
 gsave  2268 1540 0 0 C 1059.13 25.991 t 0 r /Helvetica findfont 64.9775 sf 0 0 m (r\(cm\)) show NC gr  227 154 m 1232 Y s 281 154 m -54 X s
 gsave  2268 1540 0 0 C 188.435 155.946 t 0 r /Helvetica findfont 32.4888 sf 0 0 m (5) show NC gr 
 gsave  2268 1540 0 0 C 168.942 155.946 t 0 r /Symbol findfont 32.4888 sf 0 0 m (-) show NC gr 
 gsave  2268 1540 0 0 C 113.711 133.204 t 0 r /Helvetica findfont 48.7332 sf 0 0 m (10) show NC gr  254 207 m -27 X s 254 238 m -27 X s 254 260 m -27 X s 254 277 m -27 X s 254 291 m -27 X s 254 303 m -27 X s 254 313 m -27 X s 254 322 m -27 X s 281
 330 m -54 X s
 gsave  2268 1540 0 0 C 188.435 328.137 t 0 r /Helvetica findfont 32.4888 sf 0 0 m (4) show NC gr 
 gsave  2268 1540 0 0 C 168.942 328.137 t 0 r /Symbol findfont 32.4888 sf 0 0 m (-) show NC gr 
 gsave  2268 1540 0 0 C 113.711 308.643 t 0 r /Helvetica findfont 48.7332 sf 0 0 m (10) show NC gr  254 383 m -27 X s 254 414 m -27 X s 254 436 m -27 X s 254 453 m -27 X s 254 467 m -27 X s 254 479 m -27 X s 254 489 m -27 X s 254 498 m -27 X s 281
 506 m -54 X s
 gsave  2268 1540 0 0 C 188.435 506.825 t 0 r /Helvetica findfont 32.4888 sf 0 0 m (3) show NC gr 
 gsave  2268 1540 0 0 C 168.942 506.825 t 0 r /Symbol findfont 32.4888 sf 0 0 m (-) show NC gr 
 gsave  2268 1540 0 0 C 113.711 484.083 t 0 r /Helvetica findfont 48.7332 sf 0 0 m (10) show NC gr  254 559 m -27 X s 254 590 m -27 X s 254 612 m -27 X s 254 629 m -27 X s 254 643 m -27 X s 254 655 m -27 X s 254 665 m -27 X s 254 674 m -27 X s 281
 682 m -54 X s
 gsave  2268 1540 0 0 C 188.435 679.015 t 0 r /Helvetica findfont 32.4888 sf 0 0 m (2) show NC gr 
 gsave  2268 1540 0 0 C 168.942 679.015 t 0 r /Symbol findfont 32.4888 sf 0 0 m (-) show NC gr 
 gsave  2268 1540 0 0 C 113.711 659.522 t 0 r /Helvetica findfont 48.7332 sf 0 0 m (10) show NC gr  254 735 m -27 X s 254 766 m -27 X s 254 788 m -27 X s 254 805 m -27 X s 254 819 m -27 X s 254 831 m -27 X s 254 841 m -27 X s 254 850 m -27 X s 281
 858 m -54 X s
 gsave  2268 1540 0 0 C 194.933 857.704 t 0 r /Helvetica findfont 32.4888 sf 0 0 m (1) show NC gr 
 gsave  2268 1540 0 0 C 175.439 857.704 t 0 r /Symbol findfont 32.4888 sf 0 0 m (-) show NC gr 
 gsave  2268 1540 0 0 C 120.208 838.21 t 0 r /Helvetica findfont 48.7332 sf 0 0 m (10) show NC gr  254 911 m -27 X s 254 942 m -27 X s 254 964 m -27 X s 254 981 m -27 X s 254 995 m -27 X s 254 1007 m -27 X s 254 1017 m -27 X s 254 1026 m -27 X s 281
 1034 m -54 X s
 gsave  2268 1540 0 0 C 188.435 1016.9 t 0 r /Helvetica findfont 48.7332 sf 0 0 m (1) show NC gr  254 1087 m -27 X s 254 1118 m -27 X s 254 1140 m -27 X s 254 1157 m -27 X s 254 1171 m -27 X s 254 1183 m -27 X s 254 1193 m -27 X s 254 1202 m -27 X s
 281 1210 m -54 X s
 gsave  2268 1540 0 0 C 152.697 1192.34 t 0 r /Helvetica findfont 48.7332 sf 0 0 m (10) show NC gr  254 1263 m -27 X s 254 1294 m -27 X s 254 1316 m -27 X s 254 1333 m -27 X s 254 1347 m -27 X s 254 1359 m -27 X s 254 1369 m -27 X s 254 1378 m -27 X
 s 281 1386 m -54 X s
 gsave  2268 1540 0 0 C 188.435 1384.02 t 0 r /Helvetica findfont 32.4888 sf 0 0 m (2) show NC gr 
 gsave  2268 1540 0 0 C 133.204 1364.53 t 0 r /Helvetica findfont 48.7332 sf 0 0 m (10) show NC gr 
 gsave  2268 1540 0 0 C 103.964 1367.78 t 90 r /Helvetica findfont 64.9775 sf 0 0 m (\)) show NC gr 
 gsave  2268 1540 0 0 C 74.7242 1338.54 t 90 r /Helvetica findfont 42.2354 sf 0 0 m (\2551) show NC gr 
 gsave  2268 1540 0 0 C 100.715 1026.65 t 90 r /Helvetica findfont 64.9775 sf 0 0 m (density\(cm) show NC gr  1 1 1 c black
 gsave  2268 1540 0 0 C 870.699 1465.24 t 0 r /Helvetica findfont 74.7242 sf 0 0 m (:et_deposition_density_vs_r) show NC gr 
 gsave  2268 1540 0 0 C 854.455 1500.98 t 0 r /Helvetica findfont 48.7332 sf 0 0 m (\255) show NC gr 
 gsave  2268 1540 0 0 C 812.219 1465.24 t 0 r /Helvetica findfont 74.7242 sf 0 0 m (p) show NC gr 
 gsave  2268 1540 0 0 C 782.979 1504.23 t 0 r /Helvetica findfont 48.7332 sf 0 0 m (+) show NC gr 
 gsave  2268 1540 0 0 C 471.087 1465.24 t 0 r /Helvetica findfont 74.7242 sf 0 0 m (nu11.4_p) show NC gr  1 1 1 c black
 gsave  2268 1540 0 0 C 870.699 1465.24 t 0 r /Helvetica findfont 74.7242 sf 0 0 m (:et_deposition_density_vs_r) show NC gr 
 gsave  2268 1540 0 0 C 854.455 1500.98 t 0 r /Helvetica findfont 48.7332 sf 0 0 m (\255) show NC gr 
 gsave  2268 1540 0 0 C 812.219 1465.24 t 0 r /Helvetica findfont 74.7242 sf 0 0 m (p) show NC gr 
 gsave  2268 1540 0 0 C 782.979 1504.23 t 0 r /Helvetica findfont 48.7332 sf 0 0 m (+) show NC gr 
 gsave  2268 1540 0 0 C 471.087 1465.24 t 0 r /Helvetica findfont 74.7242 sf 0 0 m (nu11.4_p) show NC gr 
 gr  gr showpage
end
%%EOF
