%!PS-Adobe-2.0 EPSF-2.0
%%BoundingBox:  0 0 567 385
%%Title: ../plot_nu11.4/etr/nu11.4_e^{+}e^{-}_xyr.eps: nu11.4_e^{+}e^{-}:et_deposition_density_vs_r
%%Creator: ROOT Version 6.14/02
%%CreationDate: Thu Aug  9 14:34:32 2018
%%DocumentNeededResources: ProcSet (FontSetInit)
%%EndComments
%%BeginProlog
80 dict begin
/s {stroke} def /l {lineto} def /m {moveto} def /t {translate} def
/r {rotate} def /rl {roll}  def /R {repeat} def
/d {rlineto} def /rm {rmoveto} def /gr {grestore} def /f {eofill} def
/c {setrgbcolor} def /black {0 setgray} def /sd {setdash} def
/cl {closepath} def /sf {scalefont setfont} def /lw {setlinewidth} def
/box {m dup 0 exch d exch 0 d 0 exch neg d cl} def
/NC{systemdict begin initclip end}def/C{NC box clip newpath}def
/bl {box s} def /bf {gsave box gsave f grestore 1 lw [] 0 sd s grestore} def /Y { 0 exch d} def /X { 0 d} def 
/K {{pop pop 0 moveto} exch kshow} bind def
/ita {/ang 15 def gsave [1 0 ang dup sin exch cos div 1 0 0] concat} def 
/mp {newpath /y exch def /x exch def} def
/side {[w .77 mul w .23 mul] .385 w mul sd w 0 l currentpoint t -144 r} def
/mr {mp x y w2 0 360 arc} def /m24 {mr s} def /m20 {mr f} def
/mb {mp x y w2 add m w2 neg 0 d 0 w neg d w 0 d 0 w d cl} def
/mt {mp x y w2 add m w2 neg w neg d w 0 d cl} def
/w4 {w 4 div} def
/w6 {w 6 div} def
/w8 {w 8 div} def
/m21 {mb f} def /m25 {mb s} def /m22 {mt f} def /m26{mt s} def
/m23 {mp x y w2 sub m w2 w d w neg 0 d cl f} def
/m27 {mp x y w2 add m w3 neg w2 neg d w3 w2 neg d w3 w2 d cl s} def
/m28 {mp x w2 sub y w2 sub w3 add m w3 0 d  0 w3 neg d w3 0 d 0 w3 d w3 0 d  0 w3 d w3 neg 0 d 0 w3 d w3 neg 0 d 0 w3 neg d w3 neg 0 d cl s } def
/m29 {mp gsave x w2 sub y w2 add w3 sub m currentpoint t 4 {side} repeat cl fill gr} def
/m30 {mp gsave x w2 sub y w2 add w3 sub m currentpoint t 4 {side} repeat cl s gr} def
/m31 {mp x y w2 sub m 0 w d x w2 sub y m w 0 d x w2 sub y w2 add m w w neg d x w2 sub y w2 sub m w w d s} def
/m32 {mp x y w2 sub m w2 w d w neg 0 d cl s} def
/m33 {mp x y w2 add m w3 neg w2 neg d w3 w2 neg d w3 w2 d cl f} def
/m34 {mp x w2 sub y w2 sub w3 add m w3 0 d  0 w3 neg d w3 0 d 0 w3 d w3 0 d  0 w3 d w3 neg 0 d 0 w3 d w3 neg 0 d 0 w3 neg d w3 neg 0 d cl f } def
/m35 {mp x y w2 add m w2 neg w2 neg d w2 w2 neg d w2 w2 d w2 neg w2 d x y w2 sub m 0 w d x w2 sub y m w 0 d s} def
/m36 {mb x w2 sub y w2 add m w w neg d x w2 sub y w2 sub m w w d s} def
/m37 {mp x y m w4 neg w2 d w4 neg w2 neg d w2 0 d  w4 neg w2 neg d w2 0 d w4 neg w2 d w2 0 d w4 neg w2 d w4 neg w2 neg d cl s} def
/m38 {mp x w4 sub y w2 add m w4 neg w4 neg d 0 w2 neg d w4 w4 neg d w2 0 d w4 w4 d 0 w2 d w4 neg w4 d w2 neg 0 d x y w2 sub m 0 w d x w2 sub y m w 0 d cl s} def
/m39 {mp x y m w4 neg w2 d w4 neg w2 neg d w2 0 d  w4 neg w2 neg d w2 0 d w4 neg w2 d w2 0 d w4 neg w2 d w4 neg w2 neg d cl f} def
/m40 {mp x y m w4 w2 d w4 w4 neg d w2 neg w4 neg d w2 w4 neg d w4 neg w4 neg d w4 neg w2 d w4 neg w2 neg d w4 neg w4 d w2 w4 d w2 neg w4 d w4 w4 d w4 w2 neg d cl s} def
/m41 {mp x y m w4 w2 d w4 w4 neg d w2 neg w4 neg d w2 w4 neg d w4 neg w4 neg d w4 neg w2 d w4 neg w2 neg d w4 neg w4 d w2 w4 d w2 neg w4 d w4 w4 d w4 w2 neg d cl f} def
/m42 {mp x y w2 add m w8 neg w2 -3 4 div mul d w2 -3 4 div mul w8 neg d w2 3 4 div mul w8 neg d w8 w2 -3 4 div mul d w8 w2 3 4 div mul d w2 3 4 div mul w8 d w2 -3 4 div mul w8 d w8 neg w2 3 4 div mul d cl s} def
/m43 {mp x y w2 add m w8 neg w2 -3 4 div mul d w2 -3 4 div mul w8 neg d w2 3 4 div mul w8 neg d w8 w2 -3 4 div mul d w8 w2 3 4 div mul d w2 3 4 div mul w8 d w2 -3 4 div mul w8 d w8 neg w2 3 4 div mul d cl f} def
/m44 {mp x y m w6 neg w2 d w2 2 3 div mul 0 d w6 neg w2 neg d w2 w6 d 0 w2 -2 3 div mul d w2 neg w6 d w6 w2 neg d w2 -2 3 div mul 0 d w6 w2 d w2 neg w6 neg d 0 w2 2 3 div mul d w2 w6 neg d cl s} def
/m45 {mp x y m w6 neg w2 d w2 2 3 div mul 0 d w6 neg w2 neg d w2 w6 d 0 w2 -2 3 div mul d w2 neg w6 d w6 w2 neg d w2 -2 3 div mul 0 d w6 w2 d w2 neg w6 neg d 0 w2 2 3 div mul d w2 w6 neg d cl f} def
/m46 {mp x y w4 add m w4 neg w4 d w4 neg w4 neg d  w4 w4 neg d w4 neg w4 neg d w4 w4 neg d w4 w4 d w4 w4 neg d w4 w4 d w4 neg w4 d w4 w4 d w4 neg w4 d w4 neg w4 neg d cl s} def
/m47 {mp x y w4 add m w4 neg w4 d w4 neg w4 neg d w4 w4 neg d w4 neg w4 neg d  w4 w4 neg d w4 w4 d w4 w4 neg d w4 w4 d w4 neg w4 d w4 w4 d w4 neg w4 d w4 neg w4 neg d cl f} def
/m48 {mp x y w4 add m w4 neg w4 d w4 neg w4 neg d w4 w4 neg d  w4 neg w4 neg d w4 w4 neg d w4 w4 d w4 w4 neg d w4 w4 d w4 neg w4 d w4 w4 d w4 neg w4 d w4 neg w4 neg d  w4 w4 neg d w4 neg w4 neg d w4 neg w4 d w4 w4 d cl f} def
/m49 {mp x w2 sub w3 add y w2 sub w3 add m  0 w3 neg d w3 0 d 0 w3 d w3 0 d 0 w3 d w3 neg 0 d 0 w3 d w3 neg 0 d 0 w3 neg d w3 neg 0 d 0 w3 neg d w3 0 d 0 w3 d w3 0 d 0 w3 neg d w3 neg 0 d cl f } def
/m2 {mp x y w2 sub m 0 w d x w2 sub y m w 0 d s} def
/m5 {mp x w2 sub y w2 sub m w w d x w2 sub y w2 add m w w neg d s} def
%%IncludeResource: ProcSet (FontSetInit)
%%IncludeResource: font Times-Roman
%%IncludeResource: font Times-Italic
%%IncludeResource: font Times-Bold
%%IncludeResource: font Times-BoldItalic
%%IncludeResource: font Helvetica
%%IncludeResource: font Helvetica-Oblique
%%IncludeResource: font Helvetica-Bold
%%IncludeResource: font Helvetica-BoldOblique
%%IncludeResource: font Courier
%%IncludeResource: font Courier-Oblique
%%IncludeResource: font Courier-Bold
%%IncludeResource: font Courier-BoldOblique
%%IncludeResource: font Symbol
%%IncludeResource: font ZapfDingbats
/reEncode {exch findfont dup length dict begin {1 index /FID eq  {pop pop} {def} ifelse } forall /Encoding exch def currentdict end dup /FontName get exch definefont pop } def [/Times-Bold /Times-Italic /Times-BoldItalic /Helvetica /Helvetica-Oblique
 /Helvetica-Bold /Helvetica-BoldOblique /Courier /Courier-Oblique /Courier-Bold /Courier-BoldOblique /Times-Roman /AvantGarde-Book /AvantGarde-BookOblique /AvantGarde-Demi /AvantGarde-DemiOblique /Bookman-Demi /Bookman-DemiItalic /Bookman-Light
 /Bookman-LightItalic /Helvetica-Narrow /Helvetica-Narrow-Bold /Helvetica-Narrow-BoldOblique /Helvetica-Narrow-Oblique /NewCenturySchlbk-Roman /NewCenturySchlbk-Bold /NewCenturySchlbk-BoldItalic /NewCenturySchlbk-Italic /Palatino-Bold
 /Palatino-BoldItalic /Palatino-Italic /Palatino-Roman ] {ISOLatin1Encoding reEncode } forall
%%EndProlog
%%BeginSetup
%%EndSetup
newpath  gsave  .25 .25 scale  gsave  0 0 t black[  ] 0 sd 3 lw 1 1 1 c 2268 1540 0 0 bf black 1 1 1 c 1814 1232 227 154 bf black 1814 1232 227 154 bl 0 0 0.6 c 1 1 1 c black 0 0 0.6 c 295 785 m 27 Y s 295 812 m 20 Y s 290 812 m 5 X s 295 812 m 4 X s
 black /w 2 def /w2 {w 2 div} def /w3 {w 3 div} def 295 812 m20 0 0 0.6 c 304 971 m 7 Y s 304 978 m 7 Y s 299 978 m 5 X s 304 978 m 4 X s black 304 978 m20 0 0 0.6 c 313 965 m 5 Y s 313 970 m 5 Y s 308 970 m 5 X s 313 970 m 4 X s black 313 970 m20 0
 0 0.6 c 322 941 m 6 Y s 322 947 m 5 Y s 317 947 m 5 X s 322 947 m 5 X s black 322 947 m20 0 0 0.6 c 331 943 m 6 Y s 331 949 m 6 Y s 327 949 m 4 X s 331 949 m 5 X s black 331 949 m20 0 0 0.6 c 340 923 m 6 Y s 340 929 m 6 Y s 336 929 m 4 X s 340 929 m
 5 X s black 340 929 m20 0 0 0.6 c 349 921 m 7 Y s 349 928 m 6 Y s 345 928 m 4 X s 349 928 m 5 X s black 349 928 m20 0 0 0.6 c 358 914 m 8 Y s 358 922 m 7 Y s 354 922 m 4 X s 358 922 m 5 X s black 358 922 m20 0 0 0.6 c 367 902 m 8 Y s 367 910 m 7 Y s
 363 910 m 4 X s 367 910 m 5 X s black 367 910 m20 0 0 0.6 c 376 884 m 6 Y s 376 890 m 6 Y s 372 890 m 4 X s 376 890 m 5 X s black 376 890 m20 0 0 0.6 c 386 880 m 14 Y s 386 894 m 12 Y s 381 894 m 5 X s 386 894 m 4 X s black 386 894 m20 0 0 0.6 c 395
 887 m 8 Y s 395 895 m 7 Y s 390 895 m 5 X s 395 895 m 4 X s black 395 895 m20 0 0 0.6 c 404 863 m 8 Y s 404 871 m 6 Y s 399 871 m 5 X s 404 871 m 4 X s black 404 871 m20 0 0 0.6 c 413 874 m 9 Y s 413 883 m 8 Y s 408 883 m 5 X s 413 883 m 4 X s black
 413 883 m20 0 0 0.6 c 422 851 m 8 Y s 422 859 m 8 Y s 417 859 m 5 X s 422 859 m 4 X s black 422 859 m20 0 0 0.6 c 431 857 m 7 Y s 431 864 m 7 Y s 426 864 m 5 X s 431 864 m 4 X s black 431 864 m20 0 0 0.6 c 440 852 m 10 Y s 440 862 m 10 Y s 435 862 m
 5 X s 440 862 m 4 X s black 440 862 m20 0 0 0.6 c 449 857 m 9 Y s 449 866 m 9 Y s 444 866 m 5 X s 449 866 m 5 X s black 449 866 m20 0 0 0.6 c 458 833 m 8 Y s 458 841 m 8 Y s 454 841 m 4 X s 458 841 m 5 X s black 458 841 m20 0 0 0.6 c 467 840 m 8 Y s
 467 848 m 7 Y s 463 848 m 4 X s 467 848 m 5 X s black 467 848 m20 0 0 0.6 c 476 825 m 11 Y s 476 836 m 8 Y s 472 836 m 4 X s 476 836 m 5 X s black 476 836 m20 0 0 0.6 c 485 830 m 7 Y s 485 837 m 7 Y s 481 837 m 4 X s 485 837 m 5 X s black 485 837
 m20 0 0 0.6 c 494 831 m 11 Y s 494 842 m 9 Y s 490 842 m 4 X s 494 842 m 5 X s black 494 842 m20 0 0 0.6 c 503 821 m 8 Y s 503 829 m 8 Y s 499 829 m 4 X s 503 829 m 5 X s black 503 829 m20 0 0 0.6 c 513 803 m 9 Y s 513 812 m 8 Y s 508 812 m 5 X s
 513 812 m 4 X s black 513 812 m20 0 0 0.6 c 522 802 m 8 Y s 522 810 m 8 Y s 517 810 m 5 X s 522 810 m 4 X s black 522 810 m20 0 0 0.6 c 531 817 m 9 Y s 531 826 m 8 Y s 526 826 m 5 X s 531 826 m 4 X s black 531 826 m20 0 0 0.6 c 540 806 m 10 Y s 540
 816 m 9 Y s 535 816 m 5 X s 540 816 m 4 X s black 540 816 m20 0 0 0.6 c 549 788 m 9 Y s 549 797 m 8 Y s 544 797 m 5 X s 549 797 m 4 X s black 549 797 m20 0 0 0.6 c 558 811 m 9 Y s 558 820 m 9 Y s 553 820 m 5 X s 558 820 m 4 X s black 558 820 m20 0 0
 0.6 c 567 799 m 9 Y s 567 808 m 8 Y s 562 808 m 5 X s 567 808 m 4 X s black 567 808 m20 0 0 0.6 c 576 798 m 9 Y s 576 807 m 8 Y s 571 807 m 5 X s 576 807 m 5 X s black 576 807 m20 0 0 0.6 c 585 809 m 10 Y s 585 819 m 9 Y s 581 819 m 4 X s 585 819 m
 5 X s black 585 819 m20 0 0 0.6 c 594 794 m 9 Y s 594 803 m 9 Y s 590 803 m 4 X s 594 803 m 5 X s black 594 803 m20 0 0 0.6 c 603 793 m 9 Y s 603 802 m 8 Y s 599 802 m 4 X s 603 802 m 5 X s black 603 802 m20 0 0 0.6 c 612 790 m 11 Y s 612 801 m 9 Y
 s 608 801 m 4 X s 612 801 m 5 X s black 612 801 m20 0 0 0.6 c 621 763 m 9 Y s 621 772 m 9 Y s 617 772 m 4 X s 621 772 m 5 X s black 621 772 m20 0 0 0.6 c 630 770 m 9 Y s 630 779 m 9 Y s 626 779 m 4 X s 630 779 m 5 X s black 630 779 m20 0 0 0.6 c 639
 788 m 10 Y s 639 798 m 9 Y s 635 798 m 4 X s 639 798 m 5 X s black 639 798 m20 0 0 0.6 c 649 785 m 11 Y s 649 796 m 9 Y s 644 796 m 5 X s 649 796 m 4 X s black 649 796 m20 0 0 0.6 c 658 769 m 8 Y s 658 777 m 8 Y s 653 777 m 5 X s 658 777 m 4 X s
 black 658 777 m20 0 0 0.6 c 667 765 m 10 Y s 667 775 m 8 Y s 662 775 m 5 X s 667 775 m 4 X s black 667 775 m20 0 0 0.6 c 676 761 m 11 Y s 676 772 m 10 Y s 671 772 m 5 X s 676 772 m 4 X s black 676 772 m20 0 0 0.6 c 685 765 m 11 Y s 685 776 m 10 Y s
 680 776 m 5 X s 685 776 m 4 X s black 685 776 m20 0 0 0.6 c 694 751 m 11 Y s 694 762 m 9 Y s 689 762 m 5 X s 694 762 m 4 X s black 694 762 m20 0 0 0.6 c 703 745 m 12 Y s 703 757 m 10 Y s 698 757 m 5 X s 703 757 m 5 X s black 703 757 m20 0 0 0.6 c
 712 740 m 18 Y s 712 758 m 15 Y s 708 758 m 4 X s 712 758 m 5 X s black 712 758 m20 0 0 0.6 c 721 772 m 14 Y s 721 786 m 12 Y s 717 786 m 4 X s 721 786 m 5 X s black 721 786 m20 0 0 0.6 c 730 768 m 12 Y s 730 780 m 11 Y s 726 780 m 4 X s 730 780 m 5
 X s black 730 780 m20 0 0 0.6 c 739 744 m 12 Y s 739 756 m 11 Y s 735 756 m 4 X s 739 756 m 5 X s black 739 756 m20 0 0 0.6 c 748 754 m 11 Y s 748 765 m 9 Y s 744 765 m 4 X s 748 765 m 5 X s black 748 765 m20 0 0 0.6 c 757 744 m 14 Y s 757 758 m 12
 Y s 753 758 m 4 X s 757 758 m 5 X s black 757 758 m20 0 0 0.6 c 766 706 m 14 Y s 766 720 m 12 Y s 762 720 m 4 X s 766 720 m 5 X s black 766 720 m20 0 0 0.6 c 776 742 m 15 Y s 776 757 m 12 Y s 771 757 m 5 X s 776 757 m 4 X s black 776 757 m20 0 0 0.6
 c 785 735 m 13 Y s 785 748 m 12 Y s 780 748 m 5 X s 785 748 m 4 X s black 785 748 m20 0 0 0.6 c 794 732 m 13 Y s 794 745 m 10 Y s 789 745 m 5 X s 794 745 m 4 X s black 794 745 m20 0 0 0.6 c 803 732 m 12 Y s 803 744 m 11 Y s 798 744 m 5 X s 803 744 m
 4 X s black 803 744 m20 0 0 0.6 c 812 743 m 12 Y s 812 755 m 10 Y s 807 755 m 5 X s 812 755 m 4 X s black 812 755 m20 0 0 0.6 c 821 730 m 17 Y s 821 747 m 14 Y s 816 747 m 5 X s 821 747 m 4 X s black 821 747 m20 0 0 0.6 c 830 722 m 14 Y s 830 736 m
 12 Y s 825 736 m 5 X s 830 736 m 5 X s black 830 736 m20 0 0 0.6 c 839 727 m 20 Y s 839 747 m 16 Y s 835 747 m 4 X s 839 747 m 5 X s black 839 747 m20 0 0 0.6 c 848 711 m 13 Y s 848 724 m 11 Y s 844 724 m 4 X s 848 724 m 5 X s black 848 724 m20 0 0
 0.6 c 857 728 m 12 Y s 857 740 m 10 Y s 853 740 m 4 X s 857 740 m 5 X s black 857 740 m20 0 0 0.6 c 866 729 m 13 Y s 866 742 m 11 Y s 862 742 m 4 X s 866 742 m 5 X s black 866 742 m20 0 0 0.6 c 875 692 m 14 Y s 875 706 m 11 Y s 871 706 m 4 X s 875
 706 m 5 X s black 875 706 m20 0 0 0.6 c 884 724 m 15 Y s 884 739 m 12 Y s 880 739 m 4 X s 884 739 m 5 X s black 884 739 m20 0 0 0.6 c 893 694 m 15 Y s 893 709 m 13 Y s 889 709 m 4 X s 893 709 m 5 X s black 893 709 m20 0 0 0.6 c 903 682 m 15 Y s 903
 697 m 13 Y s 898 697 m 5 X s 903 697 m 4 X s black 903 697 m20 0 0 0.6 c 912 697 m 16 Y s 912 713 m 14 Y s 907 713 m 5 X s 912 713 m 4 X s black 912 713 m20 0 0 0.6 c 921 695 m 13 Y s 921 708 m 11 Y s 916 708 m 5 X s 921 708 m 4 X s black 921 708
 m20 0 0 0.6 c 930 683 m 15 Y s 930 698 m 13 Y s 925 698 m 5 X s 930 698 m 4 X s black 930 698 m20 0 0 0.6 c 939 709 m 14 Y s 939 723 m 11 Y s 934 723 m 5 X s 939 723 m 4 X s black 939 723 m20 0 0 0.6 c 948 709 m 14 Y s 948 723 m 11 Y s 943 723 m 5 X
 s 948 723 m 4 X s black 948 723 m20 0 0 0.6 c 957 683 m 16 Y s 957 699 m 13 Y s 952 699 m 5 X s 957 699 m 5 X s black 957 699 m20 0 0 0.6 c 966 691 m 15 Y s 966 706 m 12 Y s 962 706 m 4 X s 966 706 m 5 X s black 966 706 m20 0 0 0.6 c 975 696 m 14 Y
 s 975 710 m 12 Y s 971 710 m 4 X s 975 710 m 5 X s black 975 710 m20 0 0 0.6 c 984 701 m 23 Y s 984 724 m 18 Y s 980 724 m 4 X s 984 724 m 5 X s black 984 724 m20 0 0 0.6 c 993 686 m 16 Y s 993 702 m 14 Y s 989 702 m 4 X s 993 702 m 5 X s black 993
 702 m20 0 0 0.6 c 1002 666 m 16 Y s 1002 682 m 13 Y s 998 682 m 4 X s 1002 682 m 5 X s black 1002 682 m20 0 0 0.6 c 1011 685 m 16 Y s 1011 701 m 14 Y s 1007 701 m 4 X s 1011 701 m 5 X s black 1011 701 m20 0 0 0.6 c 1020 674 m 15 Y s 1020 689 m 12 Y
 s 1016 689 m 4 X s 1020 689 m 5 X s black 1020 689 m20 0 0 0.6 c 1030 672 m 15 Y s 1030 687 m 13 Y s 1025 687 m 5 X s 1030 687 m 4 X s black 1030 687 m20 0 0 0.6 c 1039 706 m 14 Y s 1039 720 m 12 Y s 1034 720 m 5 X s 1039 720 m 4 X s black 1039 720
 m20 0 0 0.6 c 1048 708 m 13 Y s 1048 721 m 11 Y s 1043 721 m 5 X s 1048 721 m 4 X s black 1048 721 m20 0 0 0.6 c 1057 705 m 12 Y s 1057 717 m 11 Y s 1052 717 m 5 X s 1057 717 m 4 X s black 1057 717 m20 0 0 0.6 c 1066 643 m 16 Y s 1066 659 m 13 Y s
 1061 659 m 5 X s 1066 659 m 4 X s black 1066 659 m20 0 0 0.6 c 1075 684 m 16 Y s 1075 700 m 13 Y s 1070 700 m 5 X s 1075 700 m 4 X s black 1075 700 m20 0 0 0.6 c 1084 647 m 21 Y s 1084 668 m 16 Y s 1079 668 m 5 X s 1084 668 m 5 X s black 1084 668
 m20 0 0 0.6 c 1093 668 m 16 Y s 1093 684 m 13 Y s 1089 684 m 4 X s 1093 684 m 5 X s black 1093 684 m20 0 0 0.6 c 1102 705 m 18 Y s 1102 723 m 15 Y s 1098 723 m 4 X s 1102 723 m 5 X s black 1102 723 m20 0 0 0.6 c 1111 687 m 17 Y s 1111 704 m 15 Y s
 1107 704 m 4 X s 1111 704 m 5 X s black 1111 704 m20 0 0 0.6 c 1120 663 m 18 Y s 1120 681 m 15 Y s 1116 681 m 4 X s 1120 681 m 5 X s black 1120 681 m20 0 0 0.6 c 1129 660 m 16 Y s 1129 676 m 13 Y s 1125 676 m 4 X s 1129 676 m 5 X s black 1129 676
 m20 0 0 0.6 c 1138 661 m 18 Y s 1138 679 m 15 Y s 1134 679 m 4 X s 1138 679 m 5 X s black 1138 679 m20 0 0 0.6 c 1147 670 m 15 Y s 1147 685 m 13 Y s 1143 685 m 4 X s 1147 685 m 5 X s black 1147 685 m20 0 0 0.6 c 1157 654 m 18 Y s 1157 672 m 14 Y s
 1152 672 m 5 X s 1157 672 m 4 X s black 1157 672 m20 0 0 0.6 c 1166 674 m 16 Y s 1166 690 m 13 Y s 1161 690 m 5 X s 1166 690 m 4 X s black 1166 690 m20 0 0 0.6 c 1175 671 m 15 Y s 1175 686 m 12 Y s 1170 686 m 5 X s 1175 686 m 4 X s black 1175 686
 m20 0 0 0.6 c 1184 642 m 16 Y s 1184 658 m 13 Y s 1179 658 m 5 X s 1184 658 m 4 X s black 1184 658 m20 0 0 0.6 c 1193 687 m 14 Y s 1193 701 m 13 Y s 1188 701 m 5 X s 1193 701 m 4 X s black 1193 701 m20 0 0 0.6 c 1202 634 m 17 Y s 1202 651 m 14 Y s
 1197 651 m 5 X s 1202 651 m 4 X s black 1202 651 m20 0 0 0.6 c 1211 624 m 21 Y s 1211 645 m 16 Y s 1206 645 m 5 X s 1211 645 m 4 X s black 1211 645 m20 0 0 0.6 c 1220 685 m 12 Y s 1220 697 m 11 Y s 1215 697 m 5 X s 1220 697 m 5 X s black 1220 697
 m20 0 0 0.6 c 1229 662 m 17 Y s 1229 679 m 14 Y s 1225 679 m 4 X s 1229 679 m 5 X s black 1229 679 m20 0 0 0.6 c 1238 645 m 18 Y s 1238 663 m 15 Y s 1234 663 m 4 X s 1238 663 m 5 X s black 1238 663 m20 0 0 0.6 c 1247 643 m 19 Y s 1247 662 m 16 Y s
 1243 662 m 4 X s 1247 662 m 5 X s black 1247 662 m20 0 0 0.6 c 1256 632 m 19 Y s 1256 651 m 14 Y s 1252 651 m 4 X s 1256 651 m 5 X s black 1256 651 m20 0 0 0.6 c 1265 635 m 17 Y s 1265 652 m 14 Y s 1261 652 m 4 X s 1265 652 m 5 X s black 1265 652
 m20 0 0 0.6 c 1274 638 m 19 Y s 1274 657 m 16 Y s 1270 657 m 4 X s 1274 657 m 5 X s black 1274 657 m20 0 0 0.6 c 1284 632 m 18 Y s 1284 650 m 15 Y s 1279 650 m 5 X s 1284 650 m 4 X s black 1284 650 m20 0 0 0.6 c 1293 659 m 19 Y s 1293 678 m 15 Y s
 1288 678 m 5 X s 1293 678 m 4 X s black 1293 678 m20 0 0 0.6 c 1302 648 m 16 Y s 1302 664 m 14 Y s 1297 664 m 5 X s 1302 664 m 4 X s black 1302 664 m20 0 0 0.6 c 1311 665 m 15 Y s 1311 680 m 12 Y s 1306 680 m 5 X s 1311 680 m 4 X s black 1311 680
 m20 0 0 0.6 c 1320 639 m 26 Y s 1320 665 m 19 Y s 1315 665 m 5 X s 1320 665 m 4 X s black 1320 665 m20 0 0 0.6 c 1329 638 m 17 Y s 1329 655 m 14 Y s 1324 655 m 5 X s 1329 655 m 4 X s black 1329 655 m20 0 0 0.6 c 1338 621 m 19 Y s 1338 640 m 15 Y s
 1333 640 m 5 X s 1338 640 m 4 X s black 1338 640 m20 0 0 0.6 c 1347 651 m 18 Y s 1347 669 m 14 Y s 1342 669 m 5 X s 1347 669 m 5 X s black 1347 669 m20 0 0 0.6 c 1356 614 m 20 Y s 1356 634 m 16 Y s 1352 634 m 4 X s 1356 634 m 5 X s black 1356 634
 m20 0 0 0.6 c 1365 615 m 21 Y s 1365 636 m 16 Y s 1361 636 m 4 X s 1365 636 m 5 X s black 1365 636 m20 0 0 0.6 c 1374 666 m 18 Y s 1374 684 m 15 Y s 1370 684 m 4 X s 1374 684 m 5 X s black 1374 684 m20 0 0 0.6 c 1383 629 m 22 Y s 1383 651 m 16 Y s
 1379 651 m 4 X s 1383 651 m 5 X s black 1383 651 m20 0 0 0.6 c 1392 629 m 18 Y s 1392 647 m 14 Y s 1388 647 m 4 X s 1392 647 m 5 X s black 1392 647 m20 0 0 0.6 c 1401 617 m 20 Y s 1401 637 m 15 Y s 1397 637 m 4 X s 1401 637 m 5 X s black 1401 637
 m20 0 0 0.6 c 1411 637 m 20 Y s 1411 657 m 17 Y s 1406 657 m 5 X s 1411 657 m 4 X s black 1411 657 m20 0 0 0.6 c 1420 634 m 17 Y s 1420 651 m 14 Y s 1415 651 m 5 X s 1420 651 m 4 X s black 1420 651 m20 0 0 0.6 c 1429 601 m 20 Y s 1429 621 m 16 Y s
 1424 621 m 5 X s 1429 621 m 4 X s black 1429 621 m20 0 0 0.6 c 1438 618 m 20 Y s 1438 638 m 17 Y s 1433 638 m 5 X s 1438 638 m 4 X s black 1438 638 m20 0 0 0.6 c 1447 597 m 21 Y s 1447 618 m 16 Y s 1442 618 m 5 X s 1447 618 m 4 X s black 1447 618
 m20 0 0 0.6 c 1456 620 m 20 Y s 1456 640 m 16 Y s 1451 640 m 5 X s 1456 640 m 4 X s black 1456 640 m20 0 0 0.6 c 1465 606 m 22 Y s 1465 628 m 16 Y s 1460 628 m 5 X s 1465 628 m 4 X s black 1465 628 m20 0 0 0.6 c 1474 664 m 18 Y s 1474 682 m 14 Y s
 1469 682 m 5 X s 1474 682 m 5 X s black 1474 682 m20 0 0 0.6 c 1483 612 m 21 Y s 1483 633 m 17 Y s 1479 633 m 4 X s 1483 633 m 5 X s black 1483 633 m20 0 0 0.6 c 1492 624 m 20 Y s 1492 644 m 16 Y s 1488 644 m 4 X s 1492 644 m 5 X s black 1492 644
 m20 0 0 0.6 c 1501 610 m 19 Y s 1501 629 m 15 Y s 1497 629 m 4 X s 1501 629 m 5 X s black 1501 629 m20 0 0 0.6 c 1510 583 m 23 Y s 1510 606 m 18 Y s 1506 606 m 4 X s 1510 606 m 5 X s black 1510 606 m20 0 0 0.6 c 1519 616 m 18 Y s 1519 634 m 15 Y s
 1515 634 m 4 X s 1519 634 m 5 X s black 1519 634 m20 0 0 0.6 c 1528 607 m 22 Y s 1528 629 m 17 Y s 1524 629 m 4 X s 1528 629 m 5 X s black 1528 629 m20 0 0 0.6 c 1538 599 m 22 Y s 1538 621 m 17 Y s 1533 621 m 5 X s 1538 621 m 4 X s black 1538 621
 m20 0 0 0.6 c 1547 615 m 21 Y s 1547 636 m 17 Y s 1542 636 m 5 X s 1547 636 m 4 X s black 1547 636 m20 0 0 0.6 c 1556 633 m 19 Y s 1556 652 m 15 Y s 1551 652 m 5 X s 1556 652 m 4 X s black 1556 652 m20 0 0 0.6 c 1565 616 m 21 Y s 1565 637 m 16 Y s
 1560 637 m 5 X s 1565 637 m 4 X s black 1565 637 m20 0 0 0.6 c 1574 596 m 23 Y s 1574 619 m 18 Y s 1569 619 m 5 X s 1574 619 m 4 X s black 1574 619 m20 0 0 0.6 c 1583 603 m 22 Y s 1583 625 m 17 Y s 1578 625 m 5 X s 1583 625 m 4 X s black 1583 625
 m20 0 0 0.6 c 1592 592 m 22 Y s 1592 614 m 17 Y s 1587 614 m 5 X s 1592 614 m 4 X s black 1592 614 m20 0 0 0.6 c 1601 601 m 23 Y s 1601 624 m 17 Y s 1596 624 m 5 X s 1601 624 m 5 X s black 1601 624 m20 0 0 0.6 c 1610 617 m 25 Y s 1610 642 m 18 Y s
 1606 642 m 4 X s 1610 642 m 5 X s black 1610 642 m20 0 0 0.6 c 1619 611 m 22 Y s 1619 633 m 18 Y s 1615 633 m 4 X s 1619 633 m 5 X s black 1619 633 m20 0 0 0.6 c 1628 574 m 26 Y s 1628 600 m 20 Y s 1624 600 m 4 X s 1628 600 m 5 X s black 1628 600
 m20 0 0 0.6 c 1637 594 m 22 Y s 1637 616 m 16 Y s 1633 616 m 4 X s 1637 616 m 5 X s black 1637 616 m20 0 0 0.6 c 1646 599 m 24 Y s 1646 623 m 18 Y s 1642 623 m 4 X s 1646 623 m 5 X s black 1646 623 m20 0 0 0.6 c 1655 608 m 20 Y s 1655 628 m 15 Y s
 1651 628 m 4 X s 1655 628 m 5 X s black 1655 628 m20 0 0 0.6 c 1665 635 m 18 Y s 1665 653 m 14 Y s 1660 653 m 5 X s 1665 653 m 4 X s black 1665 653 m20 0 0 0.6 c 1674 618 m 17 Y s 1674 635 m 14 Y s 1669 635 m 5 X s 1674 635 m 4 X s black 1674 635
 m20 0 0 0.6 c 1683 603 m 20 Y s 1683 623 m 16 Y s 1678 623 m 5 X s 1683 623 m 4 X s black 1683 623 m20 0 0 0.6 c 1692 604 m 18 Y s 1692 622 m 16 Y s 1687 622 m 5 X s 1692 622 m 4 X s black 1692 622 m20 0 0 0.6 c 1701 569 m 27 Y s 1701 596 m 20 Y s
 1696 596 m 5 X s 1701 596 m 4 X s black 1701 596 m20 0 0 0.6 c 1710 600 m 20 Y s 1710 620 m 15 Y s 1705 620 m 5 X s 1710 620 m 4 X s black 1710 620 m20 0 0 0.6 c 1719 615 m 20 Y s 1719 635 m 15 Y s 1714 635 m 5 X s 1719 635 m 4 X s black 1719 635
 m20 0 0 0.6 c 1728 594 m 25 Y s 1728 619 m 19 Y s 1723 619 m 5 X s 1728 619 m 5 X s black 1728 619 m20 0 0 0.6 c 1737 564 m 24 Y s 1737 588 m 18 Y s 1733 588 m 4 X s 1737 588 m 5 X s black 1737 588 m20 0 0 0.6 c 1746 598 m 25 Y s 1746 623 m 18 Y s
 1742 623 m 4 X s 1746 623 m 5 X s black 1746 623 m20 0 0 0.6 c 1755 551 m 28 Y s 1755 579 m 20 Y s 1751 579 m 4 X s 1755 579 m 5 X s black 1755 579 m20 0 0 0.6 c 1764 604 m 19 Y s 1764 623 m 15 Y s 1760 623 m 4 X s 1764 623 m 5 X s black 1764 623
 m20 0 0 0.6 c 1773 574 m 26 Y s 1773 600 m 20 Y s 1769 600 m 4 X s 1773 600 m 5 X s black 1773 600 m20 0 0 0.6 c 1782 581 m 24 Y s 1782 605 m 18 Y s 1778 605 m 4 X s 1782 605 m 5 X s black 1782 605 m20 0 0 0.6 c 1791 565 m 26 Y s 1791 591 m 20 Y s
 1787 591 m 4 X s 1791 591 m 5 X s black 1791 591 m20 0 0 0.6 c 1801 574 m 28 Y s 1801 602 m 21 Y s 1796 602 m 5 X s 1801 602 m 4 X s black 1801 602 m20 0 0 0.6 c 1810 568 m 26 Y s 1810 594 m 19 Y s 1805 594 m 5 X s 1810 594 m 4 X s black 1810 594
 m20 0 0 0.6 c 1819 599 m 25 Y s 1819 624 m 19 Y s 1814 624 m 5 X s 1819 624 m 4 X s black 1819 624 m20 0 0 0.6 c 1828 548 m 31 Y s 1828 579 m 22 Y s 1823 579 m 5 X s 1828 579 m 4 X s black 1828 579 m20 0 0 0.6 c 1837 569 m 35 Y s 1837 604 m 23 Y s
 1832 604 m 5 X s 1837 604 m 4 X s black 1837 604 m20 0 0 0.6 c 1846 591 m 24 Y s 1846 615 m 18 Y s 1841 615 m 5 X s 1846 615 m 4 X s black 1846 615 m20 0 0 0.6 c 1855 544 m 29 Y s 1855 573 m 21 Y s 1850 573 m 5 X s 1855 573 m 5 X s black 1855 573
 m20 0 0 0.6 c 1864 590 m 23 Y s 1864 613 m 17 Y s 1860 613 m 4 X s 1864 613 m 5 X s black 1864 613 m20 0 0 0.6 c 1873 534 m 32 Y s 1873 566 m 23 Y s 1869 566 m 4 X s 1873 566 m 5 X s black 1873 566 m20 0 0 0.6 c 1882 597 m 21 Y s 1882 618 m 17 Y s
 1878 618 m 4 X s 1882 618 m 5 X s black 1882 618 m20 0 0 0.6 c 1891 511 m 31 Y s 1891 542 m 22 Y s 1887 542 m 4 X s 1891 542 m 5 X s black 1891 542 m20 0 0 0.6 c 1900 550 m 25 Y s 1900 575 m 19 Y s 1896 575 m 4 X s 1900 575 m 5 X s black 1900 575
 m20 0 0 0.6 c 1909 519 m 31 Y s 1909 550 m 21 Y s 1905 550 m 4 X s 1909 550 m 5 X s black 1909 550 m20 0 0 0.6 c 1918 529 m 33 Y s 1918 562 m 23 Y s 1914 562 m 4 X s 1918 562 m 5 X s black 1918 562 m20 0 0 0.6 c 1928 496 m 37 Y s 1928 533 m 25 Y s
 1923 533 m 5 X s 1928 533 m 4 X s black 1928 533 m20 0 0 0.6 c 1937 533 m 29 Y s 1937 562 m 20 Y s 1932 562 m 5 X s 1937 562 m 4 X s black 1937 562 m20 0 0 0.6 c 1946 562 m 23 Y s 1946 585 m 18 Y s 1941 585 m 5 X s 1946 585 m 4 X s black 1946 585
 m20 0 0 0.6 c 1955 557 m 25 Y s 1955 582 m 19 Y s 1950 582 m 5 X s 1955 582 m 4 X s black 1955 582 m20 0 0 0.6 c 1964 575 m 25 Y s 1964 600 m 18 Y s 1959 600 m 5 X s 1964 600 m 4 X s black 1964 600 m20 0 0 0.6 c 1973 568 m 25 Y s 1973 593 m 18 Y s
 1968 593 m 5 X s 1973 593 m 4 X s black 1973 593 m20 0 0 0.6 c 1982 506 m 33 Y s 1982 539 m 24 Y s 1977 539 m 5 X s 1982 539 m 5 X s black 1982 539 m20 0 0 0.6 c 1991 592 m 20 Y s 1991 612 m 16 Y s 1987 612 m 4 X s 1991 612 m 5 X s black 1991 612
 m20 0 0 0.6 c 2000 558 m 26 Y s 2000 584 m 19 Y s 1996 584 m 4 X s 2000 584 m 5 X s black 2000 584 m20 0 0 0.6 c 2009 509 m 32 Y s 2009 541 m 23 Y s 2005 541 m 4 X s 2009 541 m 5 X s black 2009 541 m20 0 0 0.6 c 2018 557 m 43 Y s 2018 600 m 28 Y s
 2014 600 m 4 X s 2018 600 m 5 X s black 2018 600 m20 0 0 0.6 c 2027 526 m 33 Y s 2027 559 m 23 Y s 2023 559 m 4 X s 2027 559 m 5 X s black 2027 559 m20 0 0 0.6 c 2036 567 m 25 Y s 2036 592 m 19 Y s 2032 592 m 4 X s 2036 592 m 5 X s black 2036 592
 m20 227 154 m 1814 X s 227 191 m -37 Y s 272 172 m -18 Y s 317 172 m -18 Y s 363 172 m -18 Y s 408 172 m -18 Y s 454 191 m -37 Y s 499 172 m -18 Y s 544 172 m -18 Y s 590 172 m -18 Y s 635 172 m -18 Y s 680 191 m -37 Y s 726 172 m -18 Y s 771 172 m
 -18 Y s 816 172 m -18 Y s 862 172 m -18 Y s 907 191 m -37 Y s 952 172 m -18 Y s 998 172 m -18 Y s 1043 172 m -18 Y s 1089 172 m -18 Y s 1134 191 m -37 Y s 1179 172 m -18 Y s 1225 172 m -18 Y s 1270 172 m -18 Y s 1315 172 m -18 Y s 1361 191 m -37 Y s
 1406 172 m -18 Y s 1451 172 m -18 Y s 1497 172 m -18 Y s 1542 172 m -18 Y s 1587 191 m -37 Y s 1633 172 m -18 Y s 1678 172 m -18 Y s 1723 172 m -18 Y s 1769 172 m -18 Y s 1814 191 m -37 Y s 1860 172 m -18 Y s 1905 172 m -18 Y s 1950 172 m -18 Y s
 1996 172 m -18 Y s 2041 191 m -37 Y s
 gsave  2268 1540 0 0 C 211.177 103.964 t 0 r /Helvetica findfont 48.7332 sf 0 0 m (0) show NC gr 
 gsave  2268 1540 0 0 C 422.354 103.964 t 0 r /Helvetica findfont 48.7332 sf 0 0 m (50) show NC gr 
 gsave  2268 1540 0 0 C 636.78 103.964 t 0 r /Helvetica findfont 48.7332 sf 0 0 m (100) show NC gr 
 gsave  2268 1540 0 0 C 864.201 103.964 t 0 r /Helvetica findfont 48.7332 sf 0 0 m (150) show NC gr 
 gsave  2268 1540 0 0 C 1091.62 103.964 t 0 r /Helvetica findfont 48.7332 sf 0 0 m (200) show NC gr 
 gsave  2268 1540 0 0 C 1315.8 103.964 t 0 r /Helvetica findfont 48.7332 sf 0 0 m (250) show NC gr 
 gsave  2268 1540 0 0 C 1543.22 103.964 t 0 r /Helvetica findfont 48.7332 sf 0 0 m (300) show NC gr 
 gsave  2268 1540 0 0 C 1770.64 103.964 t 0 r /Helvetica findfont 48.7332 sf 0 0 m (350) show NC gr 
 gsave  2268 1540 0 0 C 1998.06 103.964 t 0 r /Helvetica findfont 48.7332 sf 0 0 m (400) show NC gr 
 gsave  2268 1540 0 0 C 1059.13 25.991 t 0 r /Helvetica findfont 64.9775 sf 0 0 m (r\(cm\)) show NC gr  227 154 m 1232 Y s 281 154 m -54 X s
 gsave  2268 1540 0 0 C 188.435 155.946 t 0 r /Helvetica findfont 32.4888 sf 0 0 m (5) show NC gr 
 gsave  2268 1540 0 0 C 168.942 155.946 t 0 r /Symbol findfont 32.4888 sf 0 0 m (-) show NC gr 
 gsave  2268 1540 0 0 C 113.711 133.204 t 0 r /Helvetica findfont 48.7332 sf 0 0 m (10) show NC gr  254 207 m -27 X s 254 238 m -27 X s 254 260 m -27 X s 254 277 m -27 X s 254 291 m -27 X s 254 303 m -27 X s 254 313 m -27 X s 254 322 m -27 X s 281
 330 m -54 X s
 gsave  2268 1540 0 0 C 188.435 328.137 t 0 r /Helvetica findfont 32.4888 sf 0 0 m (4) show NC gr 
 gsave  2268 1540 0 0 C 168.942 328.137 t 0 r /Symbol findfont 32.4888 sf 0 0 m (-) show NC gr 
 gsave  2268 1540 0 0 C 113.711 308.643 t 0 r /Helvetica findfont 48.7332 sf 0 0 m (10) show NC gr  254 383 m -27 X s 254 414 m -27 X s 254 436 m -27 X s 254 453 m -27 X s 254 467 m -27 X s 254 479 m -27 X s 254 489 m -27 X s 254 498 m -27 X s 281
 506 m -54 X s
 gsave  2268 1540 0 0 C 188.435 506.825 t 0 r /Helvetica findfont 32.4888 sf 0 0 m (3) show NC gr 
 gsave  2268 1540 0 0 C 168.942 506.825 t 0 r /Symbol findfont 32.4888 sf 0 0 m (-) show NC gr 
 gsave  2268 1540 0 0 C 113.711 484.083 t 0 r /Helvetica findfont 48.7332 sf 0 0 m (10) show NC gr  254 559 m -27 X s 254 590 m -27 X s 254 612 m -27 X s 254 629 m -27 X s 254 643 m -27 X s 254 655 m -27 X s 254 665 m -27 X s 254 674 m -27 X s 281
 682 m -54 X s
 gsave  2268 1540 0 0 C 188.435 679.015 t 0 r /Helvetica findfont 32.4888 sf 0 0 m (2) show NC gr 
 gsave  2268 1540 0 0 C 168.942 679.015 t 0 r /Symbol findfont 32.4888 sf 0 0 m (-) show NC gr 
 gsave  2268 1540 0 0 C 113.711 659.522 t 0 r /Helvetica findfont 48.7332 sf 0 0 m (10) show NC gr  254 735 m -27 X s 254 766 m -27 X s 254 788 m -27 X s 254 805 m -27 X s 254 819 m -27 X s 254 831 m -27 X s 254 841 m -27 X s 254 850 m -27 X s 281
 858 m -54 X s
 gsave  2268 1540 0 0 C 194.933 857.704 t 0 r /Helvetica findfont 32.4888 sf 0 0 m (1) show NC gr 
 gsave  2268 1540 0 0 C 175.439 857.704 t 0 r /Symbol findfont 32.4888 sf 0 0 m (-) show NC gr 
 gsave  2268 1540 0 0 C 120.208 838.21 t 0 r /Helvetica findfont 48.7332 sf 0 0 m (10) show NC gr  254 911 m -27 X s 254 942 m -27 X s 254 964 m -27 X s 254 981 m -27 X s 254 995 m -27 X s 254 1007 m -27 X s 254 1017 m -27 X s 254 1026 m -27 X s 281
 1034 m -54 X s
 gsave  2268 1540 0 0 C 188.435 1016.9 t 0 r /Helvetica findfont 48.7332 sf 0 0 m (1) show NC gr  254 1087 m -27 X s 254 1118 m -27 X s 254 1140 m -27 X s 254 1157 m -27 X s 254 1171 m -27 X s 254 1183 m -27 X s 254 1193 m -27 X s 254 1202 m -27 X s
 281 1210 m -54 X s
 gsave  2268 1540 0 0 C 152.697 1192.34 t 0 r /Helvetica findfont 48.7332 sf 0 0 m (10) show NC gr  254 1263 m -27 X s 254 1294 m -27 X s 254 1316 m -27 X s 254 1333 m -27 X s 254 1347 m -27 X s 254 1359 m -27 X s 254 1369 m -27 X s 254 1378 m -27 X
 s 281 1386 m -54 X s
 gsave  2268 1540 0 0 C 188.435 1384.02 t 0 r /Helvetica findfont 32.4888 sf 0 0 m (2) show NC gr 
 gsave  2268 1540 0 0 C 133.204 1364.53 t 0 r /Helvetica findfont 48.7332 sf 0 0 m (10) show NC gr 
 gsave  2268 1540 0 0 C 103.964 932.428 t 90 r /Helvetica findfont 64.9775 sf 0 0 m (\)) show NC gr 
 gsave  2268 1540 0 0 C 74.7242 903.188 t 90 r /Helvetica findfont 42.2354 sf 0 0 m (\2551) show NC gr 
 gsave  2268 1540 0 0 C 100.715 591.296 t 90 r /Helvetica findfont 64.9775 sf 0 0 m (density\(cm) show NC gr  1 1 1 c black
 gsave  2268 1540 0 0 C 867.45 1465.24 t 0 r /Helvetica findfont 74.7242 sf 0 0 m (:et_deposition_density_vs_r) show NC gr 
 gsave  2268 1540 0 0 C 851.206 1500.98 t 0 r /Helvetica findfont 48.7332 sf 0 0 m (\255) show NC gr 
 gsave  2268 1540 0 0 C 812.219 1465.24 t 0 r /Helvetica findfont 74.7242 sf 0 0 m (e) show NC gr 
 gsave  2268 1540 0 0 C 782.979 1504.23 t 0 r /Helvetica findfont 48.7332 sf 0 0 m (+) show NC gr 
 gsave  2268 1540 0 0 C 471.087 1465.24 t 0 r /Helvetica findfont 74.7242 sf 0 0 m (nu11.4_e) show NC gr  1 1 1 c black
 gsave  2268 1540 0 0 C 867.45 1465.24 t 0 r /Helvetica findfont 74.7242 sf 0 0 m (:et_deposition_density_vs_r) show NC gr 
 gsave  2268 1540 0 0 C 851.206 1500.98 t 0 r /Helvetica findfont 48.7332 sf 0 0 m (\255) show NC gr 
 gsave  2268 1540 0 0 C 812.219 1465.24 t 0 r /Helvetica findfont 74.7242 sf 0 0 m (e) show NC gr 
 gsave  2268 1540 0 0 C 782.979 1504.23 t 0 r /Helvetica findfont 48.7332 sf 0 0 m (+) show NC gr 
 gsave  2268 1540 0 0 C 471.087 1465.24 t 0 r /Helvetica findfont 74.7242 sf 0 0 m (nu11.4_e) show NC gr 
 gr  gr showpage
end
%%EOF
