%!PS-Adobe-2.0 EPSF-2.0
%%BoundingBox:  0 0 567 385
%%Title: ../plot_nu7.6/etr/nu7.6_K^{+}K^{-}_xyr.eps: nu7.6_K^{+}K^{-}:et_deposition_density_vs_r
%%Creator: ROOT Version 6.14/02
%%CreationDate: Thu Aug  9 13:54:39 2018
%%DocumentNeededResources: ProcSet (FontSetInit)
%%EndComments
%%BeginProlog
80 dict begin
/s {stroke} def /l {lineto} def /m {moveto} def /t {translate} def
/r {rotate} def /rl {roll}  def /R {repeat} def
/d {rlineto} def /rm {rmoveto} def /gr {grestore} def /f {eofill} def
/c {setrgbcolor} def /black {0 setgray} def /sd {setdash} def
/cl {closepath} def /sf {scalefont setfont} def /lw {setlinewidth} def
/box {m dup 0 exch d exch 0 d 0 exch neg d cl} def
/NC{systemdict begin initclip end}def/C{NC box clip newpath}def
/bl {box s} def /bf {gsave box gsave f grestore 1 lw [] 0 sd s grestore} def /Y { 0 exch d} def /X { 0 d} def 
/K {{pop pop 0 moveto} exch kshow} bind def
/ita {/ang 15 def gsave [1 0 ang dup sin exch cos div 1 0 0] concat} def 
/mp {newpath /y exch def /x exch def} def
/side {[w .77 mul w .23 mul] .385 w mul sd w 0 l currentpoint t -144 r} def
/mr {mp x y w2 0 360 arc} def /m24 {mr s} def /m20 {mr f} def
/mb {mp x y w2 add m w2 neg 0 d 0 w neg d w 0 d 0 w d cl} def
/mt {mp x y w2 add m w2 neg w neg d w 0 d cl} def
/w4 {w 4 div} def
/w6 {w 6 div} def
/w8 {w 8 div} def
/m21 {mb f} def /m25 {mb s} def /m22 {mt f} def /m26{mt s} def
/m23 {mp x y w2 sub m w2 w d w neg 0 d cl f} def
/m27 {mp x y w2 add m w3 neg w2 neg d w3 w2 neg d w3 w2 d cl s} def
/m28 {mp x w2 sub y w2 sub w3 add m w3 0 d  0 w3 neg d w3 0 d 0 w3 d w3 0 d  0 w3 d w3 neg 0 d 0 w3 d w3 neg 0 d 0 w3 neg d w3 neg 0 d cl s } def
/m29 {mp gsave x w2 sub y w2 add w3 sub m currentpoint t 4 {side} repeat cl fill gr} def
/m30 {mp gsave x w2 sub y w2 add w3 sub m currentpoint t 4 {side} repeat cl s gr} def
/m31 {mp x y w2 sub m 0 w d x w2 sub y m w 0 d x w2 sub y w2 add m w w neg d x w2 sub y w2 sub m w w d s} def
/m32 {mp x y w2 sub m w2 w d w neg 0 d cl s} def
/m33 {mp x y w2 add m w3 neg w2 neg d w3 w2 neg d w3 w2 d cl f} def
/m34 {mp x w2 sub y w2 sub w3 add m w3 0 d  0 w3 neg d w3 0 d 0 w3 d w3 0 d  0 w3 d w3 neg 0 d 0 w3 d w3 neg 0 d 0 w3 neg d w3 neg 0 d cl f } def
/m35 {mp x y w2 add m w2 neg w2 neg d w2 w2 neg d w2 w2 d w2 neg w2 d x y w2 sub m 0 w d x w2 sub y m w 0 d s} def
/m36 {mb x w2 sub y w2 add m w w neg d x w2 sub y w2 sub m w w d s} def
/m37 {mp x y m w4 neg w2 d w4 neg w2 neg d w2 0 d  w4 neg w2 neg d w2 0 d w4 neg w2 d w2 0 d w4 neg w2 d w4 neg w2 neg d cl s} def
/m38 {mp x w4 sub y w2 add m w4 neg w4 neg d 0 w2 neg d w4 w4 neg d w2 0 d w4 w4 d 0 w2 d w4 neg w4 d w2 neg 0 d x y w2 sub m 0 w d x w2 sub y m w 0 d cl s} def
/m39 {mp x y m w4 neg w2 d w4 neg w2 neg d w2 0 d  w4 neg w2 neg d w2 0 d w4 neg w2 d w2 0 d w4 neg w2 d w4 neg w2 neg d cl f} def
/m40 {mp x y m w4 w2 d w4 w4 neg d w2 neg w4 neg d w2 w4 neg d w4 neg w4 neg d w4 neg w2 d w4 neg w2 neg d w4 neg w4 d w2 w4 d w2 neg w4 d w4 w4 d w4 w2 neg d cl s} def
/m41 {mp x y m w4 w2 d w4 w4 neg d w2 neg w4 neg d w2 w4 neg d w4 neg w4 neg d w4 neg w2 d w4 neg w2 neg d w4 neg w4 d w2 w4 d w2 neg w4 d w4 w4 d w4 w2 neg d cl f} def
/m42 {mp x y w2 add m w8 neg w2 -3 4 div mul d w2 -3 4 div mul w8 neg d w2 3 4 div mul w8 neg d w8 w2 -3 4 div mul d w8 w2 3 4 div mul d w2 3 4 div mul w8 d w2 -3 4 div mul w8 d w8 neg w2 3 4 div mul d cl s} def
/m43 {mp x y w2 add m w8 neg w2 -3 4 div mul d w2 -3 4 div mul w8 neg d w2 3 4 div mul w8 neg d w8 w2 -3 4 div mul d w8 w2 3 4 div mul d w2 3 4 div mul w8 d w2 -3 4 div mul w8 d w8 neg w2 3 4 div mul d cl f} def
/m44 {mp x y m w6 neg w2 d w2 2 3 div mul 0 d w6 neg w2 neg d w2 w6 d 0 w2 -2 3 div mul d w2 neg w6 d w6 w2 neg d w2 -2 3 div mul 0 d w6 w2 d w2 neg w6 neg d 0 w2 2 3 div mul d w2 w6 neg d cl s} def
/m45 {mp x y m w6 neg w2 d w2 2 3 div mul 0 d w6 neg w2 neg d w2 w6 d 0 w2 -2 3 div mul d w2 neg w6 d w6 w2 neg d w2 -2 3 div mul 0 d w6 w2 d w2 neg w6 neg d 0 w2 2 3 div mul d w2 w6 neg d cl f} def
/m46 {mp x y w4 add m w4 neg w4 d w4 neg w4 neg d  w4 w4 neg d w4 neg w4 neg d w4 w4 neg d w4 w4 d w4 w4 neg d w4 w4 d w4 neg w4 d w4 w4 d w4 neg w4 d w4 neg w4 neg d cl s} def
/m47 {mp x y w4 add m w4 neg w4 d w4 neg w4 neg d w4 w4 neg d w4 neg w4 neg d  w4 w4 neg d w4 w4 d w4 w4 neg d w4 w4 d w4 neg w4 d w4 w4 d w4 neg w4 d w4 neg w4 neg d cl f} def
/m48 {mp x y w4 add m w4 neg w4 d w4 neg w4 neg d w4 w4 neg d  w4 neg w4 neg d w4 w4 neg d w4 w4 d w4 w4 neg d w4 w4 d w4 neg w4 d w4 w4 d w4 neg w4 d w4 neg w4 neg d  w4 w4 neg d w4 neg w4 neg d w4 neg w4 d w4 w4 d cl f} def
/m49 {mp x w2 sub w3 add y w2 sub w3 add m  0 w3 neg d w3 0 d 0 w3 d w3 0 d 0 w3 d w3 neg 0 d 0 w3 d w3 neg 0 d 0 w3 neg d w3 neg 0 d 0 w3 neg d w3 0 d 0 w3 d w3 0 d 0 w3 neg d w3 neg 0 d cl f } def
/m2 {mp x y w2 sub m 0 w d x w2 sub y m w 0 d s} def
/m5 {mp x w2 sub y w2 sub m w w d x w2 sub y w2 add m w w neg d s} def
%%IncludeResource: ProcSet (FontSetInit)
%%IncludeResource: font Times-Roman
%%IncludeResource: font Times-Italic
%%IncludeResource: font Times-Bold
%%IncludeResource: font Times-BoldItalic
%%IncludeResource: font Helvetica
%%IncludeResource: font Helvetica-Oblique
%%IncludeResource: font Helvetica-Bold
%%IncludeResource: font Helvetica-BoldOblique
%%IncludeResource: font Courier
%%IncludeResource: font Courier-Oblique
%%IncludeResource: font Courier-Bold
%%IncludeResource: font Courier-BoldOblique
%%IncludeResource: font Symbol
%%IncludeResource: font ZapfDingbats
/reEncode {exch findfont dup length dict begin {1 index /FID eq  {pop pop} {def} ifelse } forall /Encoding exch def currentdict end dup /FontName get exch definefont pop } def [/Times-Bold /Times-Italic /Times-BoldItalic /Helvetica /Helvetica-Oblique
 /Helvetica-Bold /Helvetica-BoldOblique /Courier /Courier-Oblique /Courier-Bold /Courier-BoldOblique /Times-Roman /AvantGarde-Book /AvantGarde-BookOblique /AvantGarde-Demi /AvantGarde-DemiOblique /Bookman-Demi /Bookman-DemiItalic /Bookman-Light
 /Bookman-LightItalic /Helvetica-Narrow /Helvetica-Narrow-Bold /Helvetica-Narrow-BoldOblique /Helvetica-Narrow-Oblique /NewCenturySchlbk-Roman /NewCenturySchlbk-Bold /NewCenturySchlbk-BoldItalic /NewCenturySchlbk-Italic /Palatino-Bold
 /Palatino-BoldItalic /Palatino-Italic /Palatino-Roman ] {ISOLatin1Encoding reEncode } forall
%%EndProlog
%%BeginSetup
%%EndSetup
newpath  gsave  .25 .25 scale  gsave  0 0 t black[  ] 0 sd 3 lw 1 1 1 c 2268 1540 0 0 bf black 1 1 1 c 1814 1232 227 154 bf black 1814 1232 227 154 bl 0 0 0.6 c 1 1 1 c black 0 0 0.6 c 261 1029 m 11 Y s 261 1040 m 9 Y s 249 1040 m 12 X s 261 1040 m
 11 X s black /w 2 def /w2 {w 2 div} def /w3 {w 3 div} def 261 1040 m20 0 0 0.6 c 283 1013 m 10 Y s 283 1023 m 9 Y s 272 1023 m 11 X s 283 1023 m 12 X s black 283 1023 m20 0 0 0.6 c 306 971 m 12 Y s 306 983 m 10 Y s 295 983 m 11 X s 306 983 m 11 X s
 black 306 983 m20 0 0 0.6 c 329 934 m 12 Y s 329 946 m 11 Y s 317 946 m 12 X s 329 946 m 11 X s black 329 946 m20 0 0 0.6 c 351 912 m 13 Y s 351 925 m 11 Y s 340 925 m 11 X s 351 925 m 12 X s black 351 925 m20 0 0 0.6 c 374 888 m 16 Y s 374 904 m 13
 Y s 363 904 m 11 X s 374 904 m 12 X s black 374 904 m20 0 0 0.6 c 397 878 m 15 Y s 397 893 m 13 Y s 386 893 m 11 X s 397 893 m 11 X s black 397 893 m20 0 0 0.6 c 420 851 m 18 Y s 420 869 m 14 Y s 408 869 m 12 X s 420 869 m 11 X s black 420 869 m20 0
 0 0.6 c 442 835 m 17 Y s 442 852 m 13 Y s 431 852 m 11 X s 442 852 m 12 X s black 442 852 m20 0 0 0.6 c 465 826 m 17 Y s 465 843 m 14 Y s 454 843 m 11 X s 465 843 m 11 X s black 465 843 m20 0 0 0.6 c 488 803 m 20 Y s 488 823 m 16 Y s 476 823 m 12 X
 s 488 823 m 11 X s black 488 823 m20 0 0 0.6 c 510 790 m 21 Y s 510 811 m 16 Y s 499 811 m 11 X s 510 811 m 12 X s black 510 811 m20 0 0 0.6 c 533 804 m 18 Y s 533 822 m 14 Y s 522 822 m 11 X s 533 822 m 11 X s black 533 822 m20 0 0 0.6 c 556 804 m
 35 Y s 556 839 m 23 Y s 544 839 m 12 X s 556 839 m 11 X s black 556 839 m20 0 0 0.6 c 578 784 m 27 Y s 578 811 m 20 Y s 567 811 m 11 X s 578 811 m 12 X s black 578 811 m20 0 0 0.6 c 601 756 m 22 Y s 601 778 m 17 Y s 590 778 m 11 X s 601 778 m 11 X s
 black 601 778 m20 0 0 0.6 c 624 754 m 20 Y s 624 774 m 17 Y s 612 774 m 12 X s 624 774 m 11 X s black 624 774 m20 0 0 0.6 c 646 751 m 26 Y s 646 777 m 19 Y s 635 777 m 11 X s 646 777 m 12 X s black 646 777 m20 0 0 0.6 c 669 723 m 23 Y s 669 746 m 18
 Y s 658 746 m 11 X s 669 746 m 11 X s black 669 746 m20 0 0 0.6 c 692 716 m 28 Y s 692 744 m 21 Y s 680 744 m 12 X s 692 744 m 11 X s black 692 744 m20 0 0 0.6 c 714 695 m 31 Y s 714 726 m 22 Y s 703 726 m 11 X s 714 726 m 12 X s black 714 726 m20 0
 0 0.6 c 737 728 m 27 Y s 737 755 m 20 Y s 726 755 m 11 X s 737 755 m 11 X s black 737 755 m20 0 0 0.6 c 760 717 m 36 Y s 760 753 m 25 Y s 748 753 m 12 X s 760 753 m 11 X s black 760 753 m20 0 0 0.6 c 782 674 m 31 Y s 782 705 m 23 Y s 771 705 m 11 X
 s 782 705 m 12 X s black 782 705 m20 0 0 0.6 c 805 669 m 32 Y s 805 701 m 23 Y s 794 701 m 11 X s 805 701 m 11 X s black 805 701 m20 0 0 0.6 c 828 702 m 25 Y s 828 727 m 19 Y s 816 727 m 12 X s 828 727 m 11 X s black 828 727 m20 0 0 0.6 c 850 611 m
 45 Y s 850 656 m 28 Y s 839 656 m 11 X s 850 656 m 12 X s black 850 656 m20 0 0 0.6 c 873 624 m 40 Y s 873 664 m 27 Y s 862 664 m 11 X s 873 664 m 11 X s black 873 664 m20 0 0 0.6 c 896 634 m 42 Y s 896 676 m 27 Y s 884 676 m 12 X s 896 676 m 11 X s
 black 896 676 m20 0 0 0.6 c 918 620 m 40 Y s 918 660 m 26 Y s 907 660 m 11 X s 918 660 m 12 X s black 918 660 m20 0 0 0.6 c 941 526 m 85 Y s 941 611 m 40 Y s 930 611 m 11 X s 941 611 m 11 X s black 941 611 m20 0 0 0.6 c 964 549 m 78 Y s 964 627 m 38
 Y s 952 627 m 12 X s 964 627 m 11 X s black 964 627 m20 0 0 0.6 c 986 533 m 69 Y s 986 602 m 36 Y s 975 602 m 11 X s 986 602 m 12 X s black 986 602 m20 0 0 0.6 c 1009 593 m 41 Y s 1009 634 m 27 Y s 998 634 m 11 X s 1009 634 m 11 X s black 1009 634
 m20 0 0 0.6 c 1032 553 m 54 Y s 1032 607 m 32 Y s 1020 607 m 12 X s 1032 607 m 11 X s black 1032 607 m20 0 0 0.6 c 1054 533 m 67 Y s 1054 600 m 35 Y s 1043 600 m 11 X s 1054 600 m 12 X s black 1054 600 m20 0 0 0.6 c 1077 630 m 33 Y s 1077 663 m 23 Y
 s 1066 663 m 11 X s 1077 663 m 12 X s black 1077 663 m20 0 0 0.6 c 1100 571 m 83 Y s 1100 654 m 39 Y s 1089 654 m 11 X s 1100 654 m 11 X s black 1100 654 m20 0 0 0.6 c 1123 589 m 42 Y s 1123 631 m 27 Y s 1111 631 m 12 X s 1123 631 m 11 X s black
 1123 631 m20 0 0 0.6 c 1145 578 m 57 Y s 1145 635 m 33 Y s 1134 635 m 11 X s 1145 635 m 12 X s black 1145 635 m20 0 0 0.6 c 1168 423 m 95 Y s 1168 518 m 41 Y s 1157 518 m 11 X s 1168 518 m 11 X s black 1168 518 m20 0 0 0.6 c 1213 560 m 51 Y s 1213
 611 m 30 Y s 1202 611 m 11 X s 1213 611 m 12 X s black 1213 611 m20 0 0 0.6 c 1236 154 m 313 Y s 1236 467 m 53 Y s 1225 467 m 11 X s 1236 467 m 11 X s black 1236 467 m20 0 0 0.6 c 1259 493 m 79 Y s 1259 572 m 38 Y s 1247 572 m 12 X s 1259 572 m 11 X
 s black 1259 572 m20 0 0 0.6 c 1304 154 m 331 Y s 1304 485 m 53 Y s 1293 485 m 11 X s 1304 485 m 11 X s black 1304 485 m20 0 0 0.6 c 1327 412 m 98 Y s 1327 510 m 42 Y s 1315 510 m 12 X s 1327 510 m 11 X s black 1327 510 m20 0 0 0.6 c 1349 154 m 327
 Y s 1349 481 m 53 Y s 1338 481 m 11 X s 1349 481 m 12 X s black 1349 481 m20 0 0 0.6 c 1372 431 m 97 Y s 1372 528 m 42 Y s 1361 528 m 11 X s 1372 528 m 11 X s black 1372 528 m20 0 0 0.6 c 1395 438 m 96 Y s 1395 534 m 41 Y s 1383 534 m 12 X s 1395
 534 m 11 X s black 1395 534 m20 0 0 0.6 c 1417 154 m 300 Y s 1417 454 m 53 Y s 1406 454 m 11 X s 1417 454 m 12 X s black 1417 454 m20 0 0 0.6 c 1440 154 m 330 Y s 1440 484 m 53 Y s 1429 484 m 11 X s 1440 484 m 11 X s black 1440 484 m20 0 0 0.6 c
 1485 154 m 343 Y s 1485 497 m 53 Y s 1474 497 m 11 X s 1485 497 m 12 X s black 1485 497 m20 0 0 0.6 c 1508 154 m 340 Y s 1508 494 m 53 Y s 1497 494 m 11 X s 1508 494 m 11 X s black 1508 494 m20 0 0 0.6 c 1553 154 m 378 Y s 1553 532 m 53 Y s 1542 532
 m 11 X s 1553 532 m 12 X s black 1553 532 m20 0 0 0.6 c 1599 154 m 307 Y s 1599 461 m 53 Y s 1587 461 m 12 X s 1599 461 m 11 X s black 1599 461 m20 0 0 0.6 c 1644 154 m 338 Y s 1644 492 m 53 Y s 1633 492 m 11 X s 1644 492 m 11 X s black 1644 492 m20
 0 0 0.6 c 1667 154 m 348 Y s 1667 502 m 53 Y s 1655 502 m 12 X s 1667 502 m 11 X s black 1667 502 m20 227 154 m 1814 X s 227 191 m -37 Y s 272 172 m -18 Y s 317 172 m -18 Y s 363 172 m -18 Y s 408 172 m -18 Y s 454 191 m -37 Y s 499 172 m -18 Y s
 544 172 m -18 Y s 590 172 m -18 Y s 635 172 m -18 Y s 680 191 m -37 Y s 726 172 m -18 Y s 771 172 m -18 Y s 816 172 m -18 Y s 862 172 m -18 Y s 907 191 m -37 Y s 952 172 m -18 Y s 998 172 m -18 Y s 1043 172 m -18 Y s 1089 172 m -18 Y s 1134 191 m
 -37 Y s 1179 172 m -18 Y s 1225 172 m -18 Y s 1270 172 m -18 Y s 1315 172 m -18 Y s 1361 191 m -37 Y s 1406 172 m -18 Y s 1451 172 m -18 Y s 1497 172 m -18 Y s 1542 172 m -18 Y s 1587 191 m -37 Y s 1633 172 m -18 Y s 1678 172 m -18 Y s 1723 172 m
 -18 Y s 1769 172 m -18 Y s 1814 191 m -37 Y s 1860 172 m -18 Y s 1905 172 m -18 Y s 1950 172 m -18 Y s 1996 172 m -18 Y s 2041 191 m -37 Y s
 gsave  2268 1540 0 0 C 211.177 103.964 t 0 r /Helvetica findfont 48.7332 sf 0 0 m (0) show NC gr 
 gsave  2268 1540 0 0 C 409.359 103.964 t 0 r /Helvetica findfont 48.7332 sf 0 0 m (100) show NC gr 
 gsave  2268 1540 0 0 C 636.78 103.964 t 0 r /Helvetica findfont 48.7332 sf 0 0 m (200) show NC gr 
 gsave  2268 1540 0 0 C 864.201 103.964 t 0 r /Helvetica findfont 48.7332 sf 0 0 m (300) show NC gr 
 gsave  2268 1540 0 0 C 1091.62 103.964 t 0 r /Helvetica findfont 48.7332 sf 0 0 m (400) show NC gr 
 gsave  2268 1540 0 0 C 1315.8 103.964 t 0 r /Helvetica findfont 48.7332 sf 0 0 m (500) show NC gr 
 gsave  2268 1540 0 0 C 1543.22 103.964 t 0 r /Helvetica findfont 48.7332 sf 0 0 m (600) show NC gr 
 gsave  2268 1540 0 0 C 1770.64 103.964 t 0 r /Helvetica findfont 48.7332 sf 0 0 m (700) show NC gr 
 gsave  2268 1540 0 0 C 1998.06 103.964 t 0 r /Helvetica findfont 48.7332 sf 0 0 m (800) show NC gr 
 gsave  2268 1540 0 0 C 1059.13 25.991 t 0 r /Helvetica findfont 64.9775 sf 0 0 m (r\(cm\)) show NC gr  227 154 m 1232 Y s 281 154 m -54 X s
 gsave  2268 1540 0 0 C 188.435 155.946 t 0 r /Helvetica findfont 32.4888 sf 0 0 m (5) show NC gr 
 gsave  2268 1540 0 0 C 168.942 155.946 t 0 r /Symbol findfont 32.4888 sf 0 0 m (-) show NC gr 
 gsave  2268 1540 0 0 C 113.711 133.204 t 0 r /Helvetica findfont 48.7332 sf 0 0 m (10) show NC gr  254 207 m -27 X s 254 238 m -27 X s 254 260 m -27 X s 254 277 m -27 X s 254 291 m -27 X s 254 303 m -27 X s 254 313 m -27 X s 254 322 m -27 X s 281
 330 m -54 X s
 gsave  2268 1540 0 0 C 188.435 328.137 t 0 r /Helvetica findfont 32.4888 sf 0 0 m (4) show NC gr 
 gsave  2268 1540 0 0 C 168.942 328.137 t 0 r /Symbol findfont 32.4888 sf 0 0 m (-) show NC gr 
 gsave  2268 1540 0 0 C 113.711 308.643 t 0 r /Helvetica findfont 48.7332 sf 0 0 m (10) show NC gr  254 383 m -27 X s 254 414 m -27 X s 254 436 m -27 X s 254 453 m -27 X s 254 467 m -27 X s 254 479 m -27 X s 254 489 m -27 X s 254 498 m -27 X s 281
 506 m -54 X s
 gsave  2268 1540 0 0 C 188.435 506.825 t 0 r /Helvetica findfont 32.4888 sf 0 0 m (3) show NC gr 
 gsave  2268 1540 0 0 C 168.942 506.825 t 0 r /Symbol findfont 32.4888 sf 0 0 m (-) show NC gr 
 gsave  2268 1540 0 0 C 113.711 484.083 t 0 r /Helvetica findfont 48.7332 sf 0 0 m (10) show NC gr  254 559 m -27 X s 254 590 m -27 X s 254 612 m -27 X s 254 629 m -27 X s 254 643 m -27 X s 254 655 m -27 X s 254 665 m -27 X s 254 674 m -27 X s 281
 682 m -54 X s
 gsave  2268 1540 0 0 C 188.435 679.015 t 0 r /Helvetica findfont 32.4888 sf 0 0 m (2) show NC gr 
 gsave  2268 1540 0 0 C 168.942 679.015 t 0 r /Symbol findfont 32.4888 sf 0 0 m (-) show NC gr 
 gsave  2268 1540 0 0 C 113.711 659.522 t 0 r /Helvetica findfont 48.7332 sf 0 0 m (10) show NC gr  254 735 m -27 X s 254 766 m -27 X s 254 788 m -27 X s 254 805 m -27 X s 254 819 m -27 X s 254 831 m -27 X s 254 841 m -27 X s 254 850 m -27 X s 281
 858 m -54 X s
 gsave  2268 1540 0 0 C 194.933 857.704 t 0 r /Helvetica findfont 32.4888 sf 0 0 m (1) show NC gr 
 gsave  2268 1540 0 0 C 175.439 857.704 t 0 r /Symbol findfont 32.4888 sf 0 0 m (-) show NC gr 
 gsave  2268 1540 0 0 C 120.208 838.21 t 0 r /Helvetica findfont 48.7332 sf 0 0 m (10) show NC gr  254 911 m -27 X s 254 942 m -27 X s 254 964 m -27 X s 254 981 m -27 X s 254 995 m -27 X s 254 1007 m -27 X s 254 1017 m -27 X s 254 1026 m -27 X s 281
 1034 m -54 X s
 gsave  2268 1540 0 0 C 188.435 1016.9 t 0 r /Helvetica findfont 48.7332 sf 0 0 m (1) show NC gr  254 1087 m -27 X s 254 1118 m -27 X s 254 1140 m -27 X s 254 1157 m -27 X s 254 1171 m -27 X s 254 1183 m -27 X s 254 1193 m -27 X s 254 1202 m -27 X s
 281 1210 m -54 X s
 gsave  2268 1540 0 0 C 152.697 1192.34 t 0 r /Helvetica findfont 48.7332 sf 0 0 m (10) show NC gr  254 1263 m -27 X s 254 1294 m -27 X s 254 1316 m -27 X s 254 1333 m -27 X s 254 1347 m -27 X s 254 1359 m -27 X s 254 1369 m -27 X s 254 1378 m -27 X
 s 281 1386 m -54 X s
 gsave  2268 1540 0 0 C 188.435 1384.02 t 0 r /Helvetica findfont 32.4888 sf 0 0 m (2) show NC gr 
 gsave  2268 1540 0 0 C 133.204 1364.53 t 0 r /Helvetica findfont 48.7332 sf 0 0 m (10) show NC gr 
 gsave  2268 1540 0 0 C 103.964 1367.78 t 90 r /Helvetica findfont 64.9775 sf 0 0 m (\)) show NC gr 
 gsave  2268 1540 0 0 C 74.7242 1338.54 t 90 r /Helvetica findfont 42.2354 sf 0 0 m (\2551) show NC gr 
 gsave  2268 1540 0 0 C 100.715 1026.65 t 90 r /Helvetica findfont 64.9775 sf 0 0 m (density\(cm) show NC gr  1 1 1 c black
 gsave  2268 1540 0 0 C 857.704 1465.24 t 0 r /Helvetica findfont 74.7242 sf 0 0 m (:et_deposition_density_vs_r) show NC gr 
 gsave  2268 1540 0 0 C 841.459 1510.73 t 0 r /Helvetica findfont 48.7332 sf 0 0 m (\255) show NC gr 
 gsave  2268 1540 0 0 C 789.477 1465.24 t 0 r /Helvetica findfont 74.7242 sf 0 0 m (K) show NC gr 
 gsave  2268 1540 0 0 C 760.237 1504.23 t 0 r /Helvetica findfont 48.7332 sf 0 0 m (+) show NC gr 
 gsave  2268 1540 0 0 C 480.834 1465.24 t 0 r /Helvetica findfont 74.7242 sf 0 0 m (nu7.6_K) show NC gr  1 1 1 c black
 gsave  2268 1540 0 0 C 857.704 1465.24 t 0 r /Helvetica findfont 74.7242 sf 0 0 m (:et_deposition_density_vs_r) show NC gr 
 gsave  2268 1540 0 0 C 841.459 1510.73 t 0 r /Helvetica findfont 48.7332 sf 0 0 m (\255) show NC gr 
 gsave  2268 1540 0 0 C 789.477 1465.24 t 0 r /Helvetica findfont 74.7242 sf 0 0 m (K) show NC gr 
 gsave  2268 1540 0 0 C 760.237 1504.23 t 0 r /Helvetica findfont 48.7332 sf 0 0 m (+) show NC gr 
 gsave  2268 1540 0 0 C 480.834 1465.24 t 0 r /Helvetica findfont 74.7242 sf 0 0 m (nu7.6_K) show NC gr 
 gr  gr showpage
end
%%EOF
