%!PS-Adobe-2.0 EPSF-2.0
%%BoundingBox:  0 0 567 385
%%Title: ../plot_nu7.6/nr/nu7.6_e^{+}e^{-}_xyr.eps: nu7.6_e^{+}e^{-}:density_vs_r
%%Creator: ROOT Version 6.14/02
%%CreationDate: Thu Aug  9 13:53:49 2018
%%DocumentNeededResources: ProcSet (FontSetInit)
%%EndComments
%%BeginProlog
80 dict begin
/s {stroke} def /l {lineto} def /m {moveto} def /t {translate} def
/r {rotate} def /rl {roll}  def /R {repeat} def
/d {rlineto} def /rm {rmoveto} def /gr {grestore} def /f {eofill} def
/c {setrgbcolor} def /black {0 setgray} def /sd {setdash} def
/cl {closepath} def /sf {scalefont setfont} def /lw {setlinewidth} def
/box {m dup 0 exch d exch 0 d 0 exch neg d cl} def
/NC{systemdict begin initclip end}def/C{NC box clip newpath}def
/bl {box s} def /bf {gsave box gsave f grestore 1 lw [] 0 sd s grestore} def /Y { 0 exch d} def /X { 0 d} def 
/K {{pop pop 0 moveto} exch kshow} bind def
/ita {/ang 15 def gsave [1 0 ang dup sin exch cos div 1 0 0] concat} def 
/mp {newpath /y exch def /x exch def} def
/side {[w .77 mul w .23 mul] .385 w mul sd w 0 l currentpoint t -144 r} def
/mr {mp x y w2 0 360 arc} def /m24 {mr s} def /m20 {mr f} def
/mb {mp x y w2 add m w2 neg 0 d 0 w neg d w 0 d 0 w d cl} def
/mt {mp x y w2 add m w2 neg w neg d w 0 d cl} def
/w4 {w 4 div} def
/w6 {w 6 div} def
/w8 {w 8 div} def
/m21 {mb f} def /m25 {mb s} def /m22 {mt f} def /m26{mt s} def
/m23 {mp x y w2 sub m w2 w d w neg 0 d cl f} def
/m27 {mp x y w2 add m w3 neg w2 neg d w3 w2 neg d w3 w2 d cl s} def
/m28 {mp x w2 sub y w2 sub w3 add m w3 0 d  0 w3 neg d w3 0 d 0 w3 d w3 0 d  0 w3 d w3 neg 0 d 0 w3 d w3 neg 0 d 0 w3 neg d w3 neg 0 d cl s } def
/m29 {mp gsave x w2 sub y w2 add w3 sub m currentpoint t 4 {side} repeat cl fill gr} def
/m30 {mp gsave x w2 sub y w2 add w3 sub m currentpoint t 4 {side} repeat cl s gr} def
/m31 {mp x y w2 sub m 0 w d x w2 sub y m w 0 d x w2 sub y w2 add m w w neg d x w2 sub y w2 sub m w w d s} def
/m32 {mp x y w2 sub m w2 w d w neg 0 d cl s} def
/m33 {mp x y w2 add m w3 neg w2 neg d w3 w2 neg d w3 w2 d cl f} def
/m34 {mp x w2 sub y w2 sub w3 add m w3 0 d  0 w3 neg d w3 0 d 0 w3 d w3 0 d  0 w3 d w3 neg 0 d 0 w3 d w3 neg 0 d 0 w3 neg d w3 neg 0 d cl f } def
/m35 {mp x y w2 add m w2 neg w2 neg d w2 w2 neg d w2 w2 d w2 neg w2 d x y w2 sub m 0 w d x w2 sub y m w 0 d s} def
/m36 {mb x w2 sub y w2 add m w w neg d x w2 sub y w2 sub m w w d s} def
/m37 {mp x y m w4 neg w2 d w4 neg w2 neg d w2 0 d  w4 neg w2 neg d w2 0 d w4 neg w2 d w2 0 d w4 neg w2 d w4 neg w2 neg d cl s} def
/m38 {mp x w4 sub y w2 add m w4 neg w4 neg d 0 w2 neg d w4 w4 neg d w2 0 d w4 w4 d 0 w2 d w4 neg w4 d w2 neg 0 d x y w2 sub m 0 w d x w2 sub y m w 0 d cl s} def
/m39 {mp x y m w4 neg w2 d w4 neg w2 neg d w2 0 d  w4 neg w2 neg d w2 0 d w4 neg w2 d w2 0 d w4 neg w2 d w4 neg w2 neg d cl f} def
/m40 {mp x y m w4 w2 d w4 w4 neg d w2 neg w4 neg d w2 w4 neg d w4 neg w4 neg d w4 neg w2 d w4 neg w2 neg d w4 neg w4 d w2 w4 d w2 neg w4 d w4 w4 d w4 w2 neg d cl s} def
/m41 {mp x y m w4 w2 d w4 w4 neg d w2 neg w4 neg d w2 w4 neg d w4 neg w4 neg d w4 neg w2 d w4 neg w2 neg d w4 neg w4 d w2 w4 d w2 neg w4 d w4 w4 d w4 w2 neg d cl f} def
/m42 {mp x y w2 add m w8 neg w2 -3 4 div mul d w2 -3 4 div mul w8 neg d w2 3 4 div mul w8 neg d w8 w2 -3 4 div mul d w8 w2 3 4 div mul d w2 3 4 div mul w8 d w2 -3 4 div mul w8 d w8 neg w2 3 4 div mul d cl s} def
/m43 {mp x y w2 add m w8 neg w2 -3 4 div mul d w2 -3 4 div mul w8 neg d w2 3 4 div mul w8 neg d w8 w2 -3 4 div mul d w8 w2 3 4 div mul d w2 3 4 div mul w8 d w2 -3 4 div mul w8 d w8 neg w2 3 4 div mul d cl f} def
/m44 {mp x y m w6 neg w2 d w2 2 3 div mul 0 d w6 neg w2 neg d w2 w6 d 0 w2 -2 3 div mul d w2 neg w6 d w6 w2 neg d w2 -2 3 div mul 0 d w6 w2 d w2 neg w6 neg d 0 w2 2 3 div mul d w2 w6 neg d cl s} def
/m45 {mp x y m w6 neg w2 d w2 2 3 div mul 0 d w6 neg w2 neg d w2 w6 d 0 w2 -2 3 div mul d w2 neg w6 d w6 w2 neg d w2 -2 3 div mul 0 d w6 w2 d w2 neg w6 neg d 0 w2 2 3 div mul d w2 w6 neg d cl f} def
/m46 {mp x y w4 add m w4 neg w4 d w4 neg w4 neg d  w4 w4 neg d w4 neg w4 neg d w4 w4 neg d w4 w4 d w4 w4 neg d w4 w4 d w4 neg w4 d w4 w4 d w4 neg w4 d w4 neg w4 neg d cl s} def
/m47 {mp x y w4 add m w4 neg w4 d w4 neg w4 neg d w4 w4 neg d w4 neg w4 neg d  w4 w4 neg d w4 w4 d w4 w4 neg d w4 w4 d w4 neg w4 d w4 w4 d w4 neg w4 d w4 neg w4 neg d cl f} def
/m48 {mp x y w4 add m w4 neg w4 d w4 neg w4 neg d w4 w4 neg d  w4 neg w4 neg d w4 w4 neg d w4 w4 d w4 w4 neg d w4 w4 d w4 neg w4 d w4 w4 d w4 neg w4 d w4 neg w4 neg d  w4 w4 neg d w4 neg w4 neg d w4 neg w4 d w4 w4 d cl f} def
/m49 {mp x w2 sub w3 add y w2 sub w3 add m  0 w3 neg d w3 0 d 0 w3 d w3 0 d 0 w3 d w3 neg 0 d 0 w3 d w3 neg 0 d 0 w3 neg d w3 neg 0 d 0 w3 neg d w3 0 d 0 w3 d w3 0 d 0 w3 neg d w3 neg 0 d cl f } def
/m2 {mp x y w2 sub m 0 w d x w2 sub y m w 0 d s} def
/m5 {mp x w2 sub y w2 sub m w w d x w2 sub y w2 add m w w neg d s} def
%%IncludeResource: ProcSet (FontSetInit)
%%IncludeResource: font Times-Roman
%%IncludeResource: font Times-Italic
%%IncludeResource: font Times-Bold
%%IncludeResource: font Times-BoldItalic
%%IncludeResource: font Helvetica
%%IncludeResource: font Helvetica-Oblique
%%IncludeResource: font Helvetica-Bold
%%IncludeResource: font Helvetica-BoldOblique
%%IncludeResource: font Courier
%%IncludeResource: font Courier-Oblique
%%IncludeResource: font Courier-Bold
%%IncludeResource: font Courier-BoldOblique
%%IncludeResource: font Symbol
%%IncludeResource: font ZapfDingbats
/reEncode {exch findfont dup length dict begin {1 index /FID eq  {pop pop} {def} ifelse } forall /Encoding exch def currentdict end dup /FontName get exch definefont pop } def [/Times-Bold /Times-Italic /Times-BoldItalic /Helvetica /Helvetica-Oblique
 /Helvetica-Bold /Helvetica-BoldOblique /Courier /Courier-Oblique /Courier-Bold /Courier-BoldOblique /Times-Roman /AvantGarde-Book /AvantGarde-BookOblique /AvantGarde-Demi /AvantGarde-DemiOblique /Bookman-Demi /Bookman-DemiItalic /Bookman-Light
 /Bookman-LightItalic /Helvetica-Narrow /Helvetica-Narrow-Bold /Helvetica-Narrow-BoldOblique /Helvetica-Narrow-Oblique /NewCenturySchlbk-Roman /NewCenturySchlbk-Bold /NewCenturySchlbk-BoldItalic /NewCenturySchlbk-Italic /Palatino-Bold
 /Palatino-BoldItalic /Palatino-Italic /Palatino-Roman ] {ISOLatin1Encoding reEncode } forall
%%EndProlog
%%BeginSetup
%%EndSetup
newpath  gsave  .25 .25 scale  gsave  0 0 t black[  ] 0 sd 3 lw 1 1 1 c 2268 1540 0 0 bf black 1 1 1 c 1814 1232 227 154 bf black 1814 1232 227 154 bl 0 0 0.6 c 1 1 1 c black 0 0 0.6 c 261 1189 m 1 Y s 261 1190 m 2 Y s 249 1190 m 12 X s 261 1190 m 11
 X s black /w 2 def /w2 {w 2 div} def /w3 {w 3 div} def 261 1190 m20 0 0 0.6 c 283 1196 m 1 Y s 283 1197 m 1 Y s 272 1197 m 11 X s 283 1197 m 12 X s black 283 1197 m20 0 0 0.6 c 306 1135 m 1 Y s 306 1136 m 1 Y s 295 1136 m 11 X s 306 1136 m 11 X s
 black 306 1136 m20 0 0 0.6 c 329 1094 m 1 Y s 329 1095 m 2 Y s 317 1095 m 12 X s 329 1095 m 11 X s black 329 1095 m20 0 0 0.6 c 351 1064 m 1 Y s 351 1065 m 2 Y s 340 1065 m 11 X s 351 1065 m 12 X s black 351 1065 m20 0 0 0.6 c 374 1038 m 2 Y s 374
 1040 m 2 Y s 363 1040 m 11 X s 374 1040 m 12 X s black 374 1040 m20 0 0 0.6 c 397 1019 m 2 Y s 397 1021 m 1 Y s 386 1021 m 11 X s 397 1021 m 11 X s black 397 1021 m20 0 0 0.6 c 420 997 m 2 Y s 420 999 m 2 Y s 408 999 m 12 X s 420 999 m 11 X s black
 420 999 m20 0 0 0.6 c 442 978 m 2 Y s 442 980 m 3 Y s 431 980 m 11 X s 442 980 m 12 X s black 442 980 m20 0 0 0.6 c 465 960 m 3 Y s 465 963 m 2 Y s 454 963 m 11 X s 465 963 m 11 X s black 465 963 m20 0 0 0.6 c 488 930 m 3 Y s 488 933 m 2 Y s 476 933
 m 12 X s 488 933 m 11 X s black 488 933 m20 0 0 0.6 c 510 906 m 3 Y s 510 909 m 3 Y s 499 909 m 11 X s 510 909 m 12 X s black 510 909 m20 0 0 0.6 c 533 886 m 3 Y s 533 889 m 3 Y s 522 889 m 11 X s 533 889 m 11 X s black 533 889 m20 0 0 0.6 c 556 872
 m 4 Y s 556 876 m 3 Y s 544 876 m 12 X s 556 876 m 11 X s black 556 876 m20 0 0 0.6 c 578 857 m 4 Y s 578 861 m 3 Y s 567 861 m 11 X s 578 861 m 12 X s black 578 861 m20 0 0 0.6 c 601 852 m 3 Y s 601 855 m 4 Y s 590 855 m 11 X s 601 855 m 11 X s
 black 601 855 m20 0 0 0.6 c 624 842 m 4 Y s 624 846 m 4 Y s 612 846 m 12 X s 624 846 m 11 X s black 624 846 m20 0 0 0.6 c 646 836 m 4 Y s 646 840 m 4 Y s 635 840 m 11 X s 646 840 m 12 X s black 646 840 m20 0 0 0.6 c 669 819 m 4 Y s 669 823 m 4 Y s
 658 823 m 11 X s 669 823 m 11 X s black 669 823 m20 0 0 0.6 c 692 815 m 4 Y s 692 819 m 4 Y s 680 819 m 12 X s 692 819 m 11 X s black 692 819 m20 0 0 0.6 c 714 803 m 4 Y s 714 807 m 5 Y s 703 807 m 11 X s 714 807 m 12 X s black 714 807 m20 0 0 0.6 c
 737 802 m 4 Y s 737 806 m 5 Y s 726 806 m 11 X s 737 806 m 11 X s black 737 806 m20 0 0 0.6 c 760 783 m 5 Y s 760 788 m 4 Y s 748 788 m 12 X s 760 788 m 11 X s black 760 788 m20 0 0 0.6 c 782 792 m 5 Y s 782 797 m 4 Y s 771 797 m 11 X s 782 797 m 12
 X s black 782 797 m20 0 0 0.6 c 805 780 m 5 Y s 805 785 m 4 Y s 794 785 m 11 X s 805 785 m 11 X s black 805 785 m20 0 0 0.6 c 828 765 m 5 Y s 828 770 m 5 Y s 816 770 m 12 X s 828 770 m 11 X s black 828 770 m20 0 0 0.6 c 850 752 m 6 Y s 850 758 m 5 Y
 s 839 758 m 11 X s 850 758 m 12 X s black 850 758 m20 0 0 0.6 c 873 743 m 6 Y s 873 749 m 5 Y s 862 749 m 11 X s 873 749 m 11 X s black 873 749 m20 0 0 0.6 c 896 725 m 6 Y s 896 731 m 6 Y s 884 731 m 12 X s 896 731 m 11 X s black 896 731 m20 0 0 0.6
 c 918 734 m 6 Y s 918 740 m 6 Y s 907 740 m 11 X s 918 740 m 12 X s black 918 740 m20 0 0 0.6 c 941 741 m 5 Y s 941 746 m 6 Y s 930 746 m 11 X s 941 746 m 11 X s black 941 746 m20 0 0 0.6 c 964 727 m 6 Y s 964 733 m 5 Y s 952 733 m 12 X s 964 733 m
 11 X s black 964 733 m20 0 0 0.6 c 986 711 m 6 Y s 986 717 m 6 Y s 975 717 m 11 X s 986 717 m 12 X s black 986 717 m20 0 0 0.6 c 1009 707 m 6 Y s 1009 713 m 6 Y s 998 713 m 11 X s 1009 713 m 11 X s black 1009 713 m20 0 0 0.6 c 1032 691 m 7 Y s 1032
 698 m 7 Y s 1020 698 m 12 X s 1032 698 m 11 X s black 1032 698 m20 0 0 0.6 c 1054 684 m 7 Y s 1054 691 m 7 Y s 1043 691 m 11 X s 1054 691 m 12 X s black 1054 691 m20 0 0 0.6 c 1077 673 m 8 Y s 1077 681 m 7 Y s 1066 681 m 11 X s 1077 681 m 12 X s
 black 1077 681 m20 0 0 0.6 c 1100 658 m 9 Y s 1100 667 m 7 Y s 1089 667 m 11 X s 1100 667 m 11 X s black 1100 667 m20 0 0 0.6 c 1123 678 m 8 Y s 1123 686 m 6 Y s 1111 686 m 12 X s 1123 686 m 11 X s black 1123 686 m20 0 0 0.6 c 1145 656 m 8 Y s 1145
 664 m 8 Y s 1134 664 m 11 X s 1145 664 m 12 X s black 1145 664 m20 0 0 0.6 c 1168 684 m 7 Y s 1168 691 m 6 Y s 1157 691 m 11 X s 1168 691 m 11 X s black 1168 691 m20 0 0 0.6 c 1191 678 m 7 Y s 1191 685 m 7 Y s 1179 685 m 12 X s 1191 685 m 11 X s
 black 1191 685 m20 0 0 0.6 c 1213 688 m 7 Y s 1213 695 m 6 Y s 1202 695 m 11 X s 1213 695 m 12 X s black 1213 695 m20 0 0 0.6 c 1236 660 m 8 Y s 1236 668 m 7 Y s 1225 668 m 11 X s 1236 668 m 11 X s black 1236 668 m20 0 0 0.6 c 1259 636 m 9 Y s 1259
 645 m 8 Y s 1247 645 m 12 X s 1259 645 m 11 X s black 1259 645 m20 0 0 0.6 c 1281 610 m 11 Y s 1281 621 m 9 Y s 1270 621 m 11 X s 1281 621 m 12 X s black 1281 621 m20 0 0 0.6 c 1304 609 m 10 Y s 1304 619 m 10 Y s 1293 619 m 11 X s 1304 619 m 11 X s
 black 1304 619 m20 0 0 0.6 c 1327 618 m 10 Y s 1327 628 m 9 Y s 1315 628 m 12 X s 1327 628 m 11 X s black 1327 628 m20 0 0 0.6 c 1349 588 m 12 Y s 1349 600 m 10 Y s 1338 600 m 11 X s 1349 600 m 12 X s black 1349 600 m20 0 0 0.6 c 1372 583 m 12 Y s
 1372 595 m 11 Y s 1361 595 m 11 X s 1372 595 m 11 X s black 1372 595 m20 0 0 0.6 c 1395 572 m 13 Y s 1395 585 m 11 Y s 1383 585 m 12 X s 1395 585 m 11 X s black 1395 585 m20 0 0 0.6 c 1417 575 m 12 Y s 1417 587 m 11 Y s 1406 587 m 11 X s 1417 587 m
 12 X s black 1417 587 m20 0 0 0.6 c 1440 587 m 12 Y s 1440 599 m 10 Y s 1429 599 m 11 X s 1440 599 m 11 X s black 1440 599 m20 0 0 0.6 c 1463 562 m 13 Y s 1463 575 m 12 Y s 1451 575 m 12 X s 1463 575 m 11 X s black 1463 575 m20 0 0 0.6 c 1485 564 m
 13 Y s 1485 577 m 12 Y s 1474 577 m 11 X s 1485 577 m 12 X s black 1485 577 m20 0 0 0.6 c 1508 527 m 16 Y s 1508 543 m 14 Y s 1497 543 m 11 X s 1508 543 m 11 X s black 1508 543 m20 0 0 0.6 c 1531 525 m 17 Y s 1531 542 m 14 Y s 1519 542 m 12 X s 1531
 542 m 11 X s black 1531 542 m20 0 0 0.6 c 1553 455 m 26 Y s 1553 481 m 20 Y s 1542 481 m 11 X s 1553 481 m 12 X s black 1553 481 m20 0 0 0.6 c 1576 474 m 23 Y s 1576 497 m 18 Y s 1565 497 m 11 X s 1576 497 m 11 X s black 1576 497 m20 0 0 0.6 c 1599
 467 m 24 Y s 1599 491 m 18 Y s 1587 491 m 12 X s 1599 491 m 11 X s black 1599 491 m20 0 0 0.6 c 1621 459 m 25 Y s 1621 484 m 18 Y s 1610 484 m 11 X s 1621 484 m 12 X s black 1621 484 m20 0 0 0.6 c 1644 471 m 22 Y s 1644 493 m 18 Y s 1633 493 m 11 X
 s 1644 493 m 11 X s black 1644 493 m20 0 0 0.6 c 1667 432 m 29 Y s 1667 461 m 21 Y s 1655 461 m 12 X s 1667 461 m 11 X s black 1667 461 m20 0 0 0.6 c 1689 421 m 31 Y s 1689 452 m 22 Y s 1678 452 m 11 X s 1689 452 m 12 X s black 1689 452 m20 0 0 0.6
 c 1712 420 m 31 Y s 1712 451 m 22 Y s 1701 451 m 11 X s 1712 451 m 11 X s black 1712 451 m20 0 0 0.6 c 1735 360 m 45 Y s 1735 405 m 28 Y s 1723 405 m 12 X s 1735 405 m 11 X s black 1735 405 m20 0 0 0.6 c 1757 428 m 29 Y s 1757 457 m 21 Y s 1746 457
 m 11 X s 1757 457 m 12 X s black 1757 457 m20 0 0 0.6 c 1780 392 m 36 Y s 1780 428 m 25 Y s 1769 428 m 11 X s 1780 428 m 11 X s black 1780 428 m20 0 0 0.6 c 1803 356 m 45 Y s 1803 401 m 28 Y s 1791 401 m 12 X s 1803 401 m 11 X s black 1803 401 m20 0
 0 0.6 c 1826 330 m 53 Y s 1826 383 m 31 Y s 1814 383 m 12 X s 1826 383 m 11 X s black 1826 383 m20 0 0 0.6 c 1848 235 m 94 Y s 1848 329 m 41 Y s 1837 329 m 11 X s 1848 329 m 12 X s black 1848 329 m20 0 0 0.6 c 1871 154 m 121 Y s 1871 275 m 53 Y s
 1860 275 m 11 X s 1871 275 m 11 X s black 1871 275 m20 0 0 0.6 c 1916 291 m 66 Y s 1916 357 m 35 Y s 1905 357 m 11 X s 1916 357 m 12 X s black 1916 357 m20 227 154 m 1814 X s 227 191 m -37 Y s 272 172 m -18 Y s 317 172 m -18 Y s 363 172 m -18 Y s
 408 172 m -18 Y s 454 191 m -37 Y s 499 172 m -18 Y s 544 172 m -18 Y s 590 172 m -18 Y s 635 172 m -18 Y s 680 191 m -37 Y s 726 172 m -18 Y s 771 172 m -18 Y s 816 172 m -18 Y s 862 172 m -18 Y s 907 191 m -37 Y s 952 172 m -18 Y s 998 172 m -18 Y
 s 1043 172 m -18 Y s 1089 172 m -18 Y s 1134 191 m -37 Y s 1179 172 m -18 Y s 1225 172 m -18 Y s 1270 172 m -18 Y s 1315 172 m -18 Y s 1361 191 m -37 Y s 1406 172 m -18 Y s 1451 172 m -18 Y s 1497 172 m -18 Y s 1542 172 m -18 Y s 1587 191 m -37 Y s
 1633 172 m -18 Y s 1678 172 m -18 Y s 1723 172 m -18 Y s 1769 172 m -18 Y s 1814 191 m -37 Y s 1860 172 m -18 Y s 1905 172 m -18 Y s 1950 172 m -18 Y s 1996 172 m -18 Y s 2041 191 m -37 Y s
 gsave  2268 1540 0 0 C 211.177 103.964 t 0 r /Helvetica findfont 48.7332 sf 0 0 m (0) show NC gr 
 gsave  2268 1540 0 0 C 409.359 103.964 t 0 r /Helvetica findfont 48.7332 sf 0 0 m (100) show NC gr 
 gsave  2268 1540 0 0 C 636.78 103.964 t 0 r /Helvetica findfont 48.7332 sf 0 0 m (200) show NC gr 
 gsave  2268 1540 0 0 C 864.201 103.964 t 0 r /Helvetica findfont 48.7332 sf 0 0 m (300) show NC gr 
 gsave  2268 1540 0 0 C 1091.62 103.964 t 0 r /Helvetica findfont 48.7332 sf 0 0 m (400) show NC gr 
 gsave  2268 1540 0 0 C 1315.8 103.964 t 0 r /Helvetica findfont 48.7332 sf 0 0 m (500) show NC gr 
 gsave  2268 1540 0 0 C 1543.22 103.964 t 0 r /Helvetica findfont 48.7332 sf 0 0 m (600) show NC gr 
 gsave  2268 1540 0 0 C 1770.64 103.964 t 0 r /Helvetica findfont 48.7332 sf 0 0 m (700) show NC gr 
 gsave  2268 1540 0 0 C 1998.06 103.964 t 0 r /Helvetica findfont 48.7332 sf 0 0 m (800) show NC gr 
 gsave  2268 1540 0 0 C 1059.13 25.991 t 0 r /Helvetica findfont 64.9775 sf 0 0 m (r\(cm\)) show NC gr  227 154 m 1232 Y s 281 154 m -54 X s
 gsave  2268 1540 0 0 C 188.435 152.697 t 0 r /Helvetica findfont 32.4888 sf 0 0 m (7) show NC gr 
 gsave  2268 1540 0 0 C 168.942 152.697 t 0 r /Symbol findfont 32.4888 sf 0 0 m (-) show NC gr 
 gsave  2268 1540 0 0 C 113.711 133.204 t 0 r /Helvetica findfont 48.7332 sf 0 0 m (10) show NC gr  254 207 m -27 X s 254 238 m -27 X s 254 260 m -27 X s 254 277 m -27 X s 254 291 m -27 X s 254 303 m -27 X s 254 313 m -27 X s 254 322 m -27 X s 281
 330 m -54 X s
 gsave  2268 1540 0 0 C 188.435 331.386 t 0 r /Helvetica findfont 32.4888 sf 0 0 m (6) show NC gr 
 gsave  2268 1540 0 0 C 168.942 331.386 t 0 r /Symbol findfont 32.4888 sf 0 0 m (-) show NC gr 
 gsave  2268 1540 0 0 C 113.711 308.643 t 0 r /Helvetica findfont 48.7332 sf 0 0 m (10) show NC gr  254 383 m -27 X s 254 414 m -27 X s 254 436 m -27 X s 254 453 m -27 X s 254 467 m -27 X s 254 479 m -27 X s 254 489 m -27 X s 254 498 m -27 X s 281
 506 m -54 X s
 gsave  2268 1540 0 0 C 188.435 506.825 t 0 r /Helvetica findfont 32.4888 sf 0 0 m (5) show NC gr 
 gsave  2268 1540 0 0 C 168.942 506.825 t 0 r /Symbol findfont 32.4888 sf 0 0 m (-) show NC gr 
 gsave  2268 1540 0 0 C 113.711 484.083 t 0 r /Helvetica findfont 48.7332 sf 0 0 m (10) show NC gr  254 559 m -27 X s 254 590 m -27 X s 254 612 m -27 X s 254 629 m -27 X s 254 643 m -27 X s 254 655 m -27 X s 254 665 m -27 X s 254 674 m -27 X s 281
 682 m -54 X s
 gsave  2268 1540 0 0 C 188.435 679.015 t 0 r /Helvetica findfont 32.4888 sf 0 0 m (4) show NC gr 
 gsave  2268 1540 0 0 C 168.942 679.015 t 0 r /Symbol findfont 32.4888 sf 0 0 m (-) show NC gr 
 gsave  2268 1540 0 0 C 113.711 659.522 t 0 r /Helvetica findfont 48.7332 sf 0 0 m (10) show NC gr  254 735 m -27 X s 254 766 m -27 X s 254 788 m -27 X s 254 805 m -27 X s 254 819 m -27 X s 254 831 m -27 X s 254 841 m -27 X s 254 850 m -27 X s 281
 858 m -54 X s
 gsave  2268 1540 0 0 C 188.435 860.953 t 0 r /Helvetica findfont 32.4888 sf 0 0 m (3) show NC gr 
 gsave  2268 1540 0 0 C 168.942 860.953 t 0 r /Symbol findfont 32.4888 sf 0 0 m (-) show NC gr 
 gsave  2268 1540 0 0 C 113.711 838.21 t 0 r /Helvetica findfont 48.7332 sf 0 0 m (10) show NC gr  254 911 m -27 X s 254 942 m -27 X s 254 964 m -27 X s 254 981 m -27 X s 254 995 m -27 X s 254 1007 m -27 X s 254 1017 m -27 X s 254 1026 m -27 X s 281
 1034 m -54 X s
 gsave  2268 1540 0 0 C 188.435 1033.14 t 0 r /Helvetica findfont 32.4888 sf 0 0 m (2) show NC gr 
 gsave  2268 1540 0 0 C 168.942 1033.14 t 0 r /Symbol findfont 32.4888 sf 0 0 m (-) show NC gr 
 gsave  2268 1540 0 0 C 113.711 1013.65 t 0 r /Helvetica findfont 48.7332 sf 0 0 m (10) show NC gr  254 1087 m -27 X s 254 1118 m -27 X s 254 1140 m -27 X s 254 1157 m -27 X s 254 1171 m -27 X s 254 1183 m -27 X s 254 1193 m -27 X s 254 1202 m -27 X
 s 281 1210 m -54 X s
 gsave  2268 1540 0 0 C 194.933 1208.58 t 0 r /Helvetica findfont 32.4888 sf 0 0 m (1) show NC gr 
 gsave  2268 1540 0 0 C 175.439 1208.58 t 0 r /Symbol findfont 32.4888 sf 0 0 m (-) show NC gr 
 gsave  2268 1540 0 0 C 120.208 1189.09 t 0 r /Helvetica findfont 48.7332 sf 0 0 m (10) show NC gr  254 1263 m -27 X s 254 1294 m -27 X s 254 1316 m -27 X s 254 1333 m -27 X s 254 1347 m -27 X s 254 1359 m -27 X s 254 1369 m -27 X s 254 1378 m -27 X
 s 281 1386 m -54 X s
 gsave  2268 1540 0 0 C 188.435 1367.78 t 0 r /Helvetica findfont 48.7332 sf 0 0 m (1) show NC gr 
 gsave  2268 1540 0 0 C 103.964 932.428 t 90 r /Helvetica findfont 64.9775 sf 0 0 m (\)) show NC gr 
 gsave  2268 1540 0 0 C 74.7242 903.188 t 90 r /Helvetica findfont 42.2354 sf 0 0 m (\2551) show NC gr 
 gsave  2268 1540 0 0 C 100.715 591.296 t 90 r /Helvetica findfont 64.9775 sf 0 0 m (density\(cm) show NC gr  1 1 1 c black
 gsave  2268 1540 0 0 C 1088.37 1465.24 t 0 r /Helvetica findfont 74.7242 sf 0 0 m (:density_vs_r) show NC gr 
 gsave  2268 1540 0 0 C 1072.13 1500.98 t 0 r /Helvetica findfont 48.7332 sf 0 0 m (\255) show NC gr 
 gsave  2268 1540 0 0 C 1033.14 1465.24 t 0 r /Helvetica findfont 74.7242 sf 0 0 m (e) show NC gr 
 gsave  2268 1540 0 0 C 1003.9 1504.23 t 0 r /Helvetica findfont 48.7332 sf 0 0 m (+) show NC gr 
 gsave  2268 1540 0 0 C 734.246 1465.24 t 0 r /Helvetica findfont 74.7242 sf 0 0 m (nu7.6_e) show NC gr  1 1 1 c black
 gsave  2268 1540 0 0 C 1088.37 1465.24 t 0 r /Helvetica findfont 74.7242 sf 0 0 m (:density_vs_r) show NC gr 
 gsave  2268 1540 0 0 C 1072.13 1500.98 t 0 r /Helvetica findfont 48.7332 sf 0 0 m (\255) show NC gr 
 gsave  2268 1540 0 0 C 1033.14 1465.24 t 0 r /Helvetica findfont 74.7242 sf 0 0 m (e) show NC gr 
 gsave  2268 1540 0 0 C 1003.9 1504.23 t 0 r /Helvetica findfont 48.7332 sf 0 0 m (+) show NC gr 
 gsave  2268 1540 0 0 C 734.246 1465.24 t 0 r /Helvetica findfont 74.7242 sf 0 0 m (nu7.6_e) show NC gr 
 gr  gr showpage
end
%%EOF
