%!PS-Adobe-2.0 EPSF-2.0
%%BoundingBox:  0 0 567 385
%%Title: ../plot_nu7.6/nr/nu7.6_#gamma_xyr.eps: nu7.6_#gamma:density_vs_r
%%Creator: ROOT Version 6.14/02
%%CreationDate: Thu Aug  9 13:53:49 2018
%%DocumentNeededResources: ProcSet (FontSetInit)
%%EndComments
%%BeginProlog
80 dict begin
/s {stroke} def /l {lineto} def /m {moveto} def /t {translate} def
/r {rotate} def /rl {roll}  def /R {repeat} def
/d {rlineto} def /rm {rmoveto} def /gr {grestore} def /f {eofill} def
/c {setrgbcolor} def /black {0 setgray} def /sd {setdash} def
/cl {closepath} def /sf {scalefont setfont} def /lw {setlinewidth} def
/box {m dup 0 exch d exch 0 d 0 exch neg d cl} def
/NC{systemdict begin initclip end}def/C{NC box clip newpath}def
/bl {box s} def /bf {gsave box gsave f grestore 1 lw [] 0 sd s grestore} def /Y { 0 exch d} def /X { 0 d} def 
/K {{pop pop 0 moveto} exch kshow} bind def
/ita {/ang 15 def gsave [1 0 ang dup sin exch cos div 1 0 0] concat} def 
/mp {newpath /y exch def /x exch def} def
/side {[w .77 mul w .23 mul] .385 w mul sd w 0 l currentpoint t -144 r} def
/mr {mp x y w2 0 360 arc} def /m24 {mr s} def /m20 {mr f} def
/mb {mp x y w2 add m w2 neg 0 d 0 w neg d w 0 d 0 w d cl} def
/mt {mp x y w2 add m w2 neg w neg d w 0 d cl} def
/w4 {w 4 div} def
/w6 {w 6 div} def
/w8 {w 8 div} def
/m21 {mb f} def /m25 {mb s} def /m22 {mt f} def /m26{mt s} def
/m23 {mp x y w2 sub m w2 w d w neg 0 d cl f} def
/m27 {mp x y w2 add m w3 neg w2 neg d w3 w2 neg d w3 w2 d cl s} def
/m28 {mp x w2 sub y w2 sub w3 add m w3 0 d  0 w3 neg d w3 0 d 0 w3 d w3 0 d  0 w3 d w3 neg 0 d 0 w3 d w3 neg 0 d 0 w3 neg d w3 neg 0 d cl s } def
/m29 {mp gsave x w2 sub y w2 add w3 sub m currentpoint t 4 {side} repeat cl fill gr} def
/m30 {mp gsave x w2 sub y w2 add w3 sub m currentpoint t 4 {side} repeat cl s gr} def
/m31 {mp x y w2 sub m 0 w d x w2 sub y m w 0 d x w2 sub y w2 add m w w neg d x w2 sub y w2 sub m w w d s} def
/m32 {mp x y w2 sub m w2 w d w neg 0 d cl s} def
/m33 {mp x y w2 add m w3 neg w2 neg d w3 w2 neg d w3 w2 d cl f} def
/m34 {mp x w2 sub y w2 sub w3 add m w3 0 d  0 w3 neg d w3 0 d 0 w3 d w3 0 d  0 w3 d w3 neg 0 d 0 w3 d w3 neg 0 d 0 w3 neg d w3 neg 0 d cl f } def
/m35 {mp x y w2 add m w2 neg w2 neg d w2 w2 neg d w2 w2 d w2 neg w2 d x y w2 sub m 0 w d x w2 sub y m w 0 d s} def
/m36 {mb x w2 sub y w2 add m w w neg d x w2 sub y w2 sub m w w d s} def
/m37 {mp x y m w4 neg w2 d w4 neg w2 neg d w2 0 d  w4 neg w2 neg d w2 0 d w4 neg w2 d w2 0 d w4 neg w2 d w4 neg w2 neg d cl s} def
/m38 {mp x w4 sub y w2 add m w4 neg w4 neg d 0 w2 neg d w4 w4 neg d w2 0 d w4 w4 d 0 w2 d w4 neg w4 d w2 neg 0 d x y w2 sub m 0 w d x w2 sub y m w 0 d cl s} def
/m39 {mp x y m w4 neg w2 d w4 neg w2 neg d w2 0 d  w4 neg w2 neg d w2 0 d w4 neg w2 d w2 0 d w4 neg w2 d w4 neg w2 neg d cl f} def
/m40 {mp x y m w4 w2 d w4 w4 neg d w2 neg w4 neg d w2 w4 neg d w4 neg w4 neg d w4 neg w2 d w4 neg w2 neg d w4 neg w4 d w2 w4 d w2 neg w4 d w4 w4 d w4 w2 neg d cl s} def
/m41 {mp x y m w4 w2 d w4 w4 neg d w2 neg w4 neg d w2 w4 neg d w4 neg w4 neg d w4 neg w2 d w4 neg w2 neg d w4 neg w4 d w2 w4 d w2 neg w4 d w4 w4 d w4 w2 neg d cl f} def
/m42 {mp x y w2 add m w8 neg w2 -3 4 div mul d w2 -3 4 div mul w8 neg d w2 3 4 div mul w8 neg d w8 w2 -3 4 div mul d w8 w2 3 4 div mul d w2 3 4 div mul w8 d w2 -3 4 div mul w8 d w8 neg w2 3 4 div mul d cl s} def
/m43 {mp x y w2 add m w8 neg w2 -3 4 div mul d w2 -3 4 div mul w8 neg d w2 3 4 div mul w8 neg d w8 w2 -3 4 div mul d w8 w2 3 4 div mul d w2 3 4 div mul w8 d w2 -3 4 div mul w8 d w8 neg w2 3 4 div mul d cl f} def
/m44 {mp x y m w6 neg w2 d w2 2 3 div mul 0 d w6 neg w2 neg d w2 w6 d 0 w2 -2 3 div mul d w2 neg w6 d w6 w2 neg d w2 -2 3 div mul 0 d w6 w2 d w2 neg w6 neg d 0 w2 2 3 div mul d w2 w6 neg d cl s} def
/m45 {mp x y m w6 neg w2 d w2 2 3 div mul 0 d w6 neg w2 neg d w2 w6 d 0 w2 -2 3 div mul d w2 neg w6 d w6 w2 neg d w2 -2 3 div mul 0 d w6 w2 d w2 neg w6 neg d 0 w2 2 3 div mul d w2 w6 neg d cl f} def
/m46 {mp x y w4 add m w4 neg w4 d w4 neg w4 neg d  w4 w4 neg d w4 neg w4 neg d w4 w4 neg d w4 w4 d w4 w4 neg d w4 w4 d w4 neg w4 d w4 w4 d w4 neg w4 d w4 neg w4 neg d cl s} def
/m47 {mp x y w4 add m w4 neg w4 d w4 neg w4 neg d w4 w4 neg d w4 neg w4 neg d  w4 w4 neg d w4 w4 d w4 w4 neg d w4 w4 d w4 neg w4 d w4 w4 d w4 neg w4 d w4 neg w4 neg d cl f} def
/m48 {mp x y w4 add m w4 neg w4 d w4 neg w4 neg d w4 w4 neg d  w4 neg w4 neg d w4 w4 neg d w4 w4 d w4 w4 neg d w4 w4 d w4 neg w4 d w4 w4 d w4 neg w4 d w4 neg w4 neg d  w4 w4 neg d w4 neg w4 neg d w4 neg w4 d w4 w4 d cl f} def
/m49 {mp x w2 sub w3 add y w2 sub w3 add m  0 w3 neg d w3 0 d 0 w3 d w3 0 d 0 w3 d w3 neg 0 d 0 w3 d w3 neg 0 d 0 w3 neg d w3 neg 0 d 0 w3 neg d w3 0 d 0 w3 d w3 0 d 0 w3 neg d w3 neg 0 d cl f } def
/m2 {mp x y w2 sub m 0 w d x w2 sub y m w 0 d s} def
/m5 {mp x w2 sub y w2 sub m w w d x w2 sub y w2 add m w w neg d s} def
%%IncludeResource: ProcSet (FontSetInit)
%%IncludeResource: font Times-Roman
%%IncludeResource: font Times-Italic
%%IncludeResource: font Times-Bold
%%IncludeResource: font Times-BoldItalic
%%IncludeResource: font Helvetica
%%IncludeResource: font Helvetica-Oblique
%%IncludeResource: font Helvetica-Bold
%%IncludeResource: font Helvetica-BoldOblique
%%IncludeResource: font Courier
%%IncludeResource: font Courier-Oblique
%%IncludeResource: font Courier-Bold
%%IncludeResource: font Courier-BoldOblique
%%IncludeResource: font Symbol
%%IncludeResource: font ZapfDingbats
/reEncode {exch findfont dup length dict begin {1 index /FID eq  {pop pop} {def} ifelse } forall /Encoding exch def currentdict end dup /FontName get exch definefont pop } def [/Times-Bold /Times-Italic /Times-BoldItalic /Helvetica /Helvetica-Oblique
 /Helvetica-Bold /Helvetica-BoldOblique /Courier /Courier-Oblique /Courier-Bold /Courier-BoldOblique /Times-Roman /AvantGarde-Book /AvantGarde-BookOblique /AvantGarde-Demi /AvantGarde-DemiOblique /Bookman-Demi /Bookman-DemiItalic /Bookman-Light
 /Bookman-LightItalic /Helvetica-Narrow /Helvetica-Narrow-Bold /Helvetica-Narrow-BoldOblique /Helvetica-Narrow-Oblique /NewCenturySchlbk-Roman /NewCenturySchlbk-Bold /NewCenturySchlbk-BoldItalic /NewCenturySchlbk-Italic /Palatino-Bold
 /Palatino-BoldItalic /Palatino-Italic /Palatino-Roman ] {ISOLatin1Encoding reEncode } forall
%%EndProlog
%%BeginSetup
%%EndSetup
newpath  gsave  .25 .25 scale  gsave  0 0 t black[  ] 0 sd 3 lw 1 1 1 c 2268 1540 0 0 bf black 1 1 1 c 1814 1232 227 154 bf black 1814 1232 227 154 bl 0 0 0.6 c 0 0 1 c black 0 0 0.6 c 261 1303 m s 261 1303 m 1 Y s 249 1303 m 12 X s 261 1303 m 11 X s
 black /w 2 def /w2 {w 2 div} def /w3 {w 3 div} def 261 1303 m20 0 0 0.6 c 283 1334 m s 283 1334 m 1 Y s 272 1334 m 11 X s 283 1334 m 12 X s black 283 1334 m20 0 0 0.6 c 306 1277 m s 306 1277 m 1 Y s 295 1277 m 11 X s 306 1277 m 11 X s black 306 1277
 m20 0 0 0.6 c 329 1237 m s 329 1237 m 1 Y s 317 1237 m 12 X s 329 1237 m 11 X s black 329 1237 m20 0 0 0.6 c 351 1206 m 1 Y s 351 1207 m 1 Y s 340 1207 m 11 X s 351 1207 m 12 X s black 351 1207 m20 0 0 0.6 c 374 1180 m 1 Y s 374 1181 m s 363 1181 m
 11 X s 374 1181 m 12 X s black 374 1181 m20 0 0 0.6 c 397 1158 m 1 Y s 397 1159 m 1 Y s 386 1159 m 11 X s 397 1159 m 11 X s black 397 1159 m20 0 0 0.6 c 420 1138 m 1 Y s 420 1139 m s 408 1139 m 12 X s 420 1139 m 11 X s black 420 1139 m20 0 0 0.6 c
 442 1119 m 1 Y s 442 1120 m s 431 1120 m 11 X s 442 1120 m 12 X s black 442 1120 m20 0 0 0.6 c 465 1101 m 1 Y s 465 1102 m 1 Y s 454 1102 m 11 X s 465 1102 m 11 X s black 465 1102 m20 0 0 0.6 c 488 1076 m 1 Y s 488 1077 m 1 Y s 476 1077 m 12 X s 488
 1077 m 11 X s black 488 1077 m20 0 0 0.6 c 510 1056 m 1 Y s 510 1057 m 1 Y s 499 1057 m 11 X s 510 1057 m 12 X s black 510 1057 m20 0 0 0.6 c 533 1041 m 1 Y s 533 1042 m 1 Y s 522 1042 m 11 X s 533 1042 m 11 X s black 533 1042 m20 0 0 0.6 c 556 1026
 m 1 Y s 556 1027 m 1 Y s 544 1027 m 12 X s 556 1027 m 11 X s black 556 1027 m20 0 0 0.6 c 578 1015 m 1 Y s 578 1016 m 2 Y s 567 1016 m 11 X s 578 1016 m 12 X s black 578 1016 m20 0 0 0.6 c 601 1006 m 2 Y s 601 1008 m 1 Y s 590 1008 m 11 X s 601 1008
 m 11 X s black 601 1008 m20 0 0 0.6 c 624 994 m 1 Y s 624 995 m 2 Y s 612 995 m 12 X s 624 995 m 11 X s black 624 995 m20 0 0 0.6 c 646 981 m 2 Y s 646 983 m 1 Y s 635 983 m 11 X s 646 983 m 12 X s black 646 983 m20 0 0 0.6 c 669 975 m 1 Y s 669 976
 m 2 Y s 658 976 m 11 X s 669 976 m 11 X s black 669 976 m20 0 0 0.6 c 692 964 m 1 Y s 692 965 m 2 Y s 680 965 m 12 X s 692 965 m 11 X s black 692 965 m20 0 0 0.6 c 714 955 m 2 Y s 714 957 m 1 Y s 703 957 m 11 X s 714 957 m 12 X s black 714 957 m20 0
 0 0.6 c 737 951 m 2 Y s 737 953 m 2 Y s 726 953 m 11 X s 737 953 m 11 X s black 737 953 m20 0 0 0.6 c 760 945 m 2 Y s 760 947 m 1 Y s 748 947 m 12 X s 760 947 m 11 X s black 760 947 m20 0 0 0.6 c 782 936 m 2 Y s 782 938 m 2 Y s 771 938 m 11 X s 782
 938 m 12 X s black 782 938 m20 0 0 0.6 c 805 925 m 2 Y s 805 927 m 2 Y s 794 927 m 11 X s 805 927 m 11 X s black 805 927 m20 0 0 0.6 c 828 921 m 2 Y s 828 923 m 1 Y s 816 923 m 12 X s 828 923 m 11 X s black 828 923 m20 0 0 0.6 c 850 911 m 2 Y s 850
 913 m 2 Y s 839 913 m 11 X s 850 913 m 12 X s black 850 913 m20 0 0 0.6 c 873 893 m 2 Y s 873 895 m 2 Y s 862 895 m 11 X s 873 895 m 11 X s black 873 895 m20 0 0 0.6 c 896 893 m 2 Y s 896 895 m 2 Y s 884 895 m 12 X s 896 895 m 11 X s black 896 895
 m20 0 0 0.6 c 918 890 m 3 Y s 918 893 m 2 Y s 907 893 m 11 X s 918 893 m 12 X s black 918 893 m20 0 0 0.6 c 941 881 m 2 Y s 941 883 m 2 Y s 930 883 m 11 X s 941 883 m 11 X s black 941 883 m20 0 0 0.6 c 964 870 m 3 Y s 964 873 m 2 Y s 952 873 m 12 X
 s 964 873 m 11 X s black 964 873 m20 0 0 0.6 c 986 858 m 3 Y s 986 861 m 2 Y s 975 861 m 11 X s 986 861 m 12 X s black 986 861 m20 0 0 0.6 c 1009 855 m 2 Y s 1009 857 m 3 Y s 998 857 m 11 X s 1009 857 m 11 X s black 1009 857 m20 0 0 0.6 c 1032 847 m
 2 Y s 1032 849 m 3 Y s 1020 849 m 12 X s 1032 849 m 11 X s black 1032 849 m20 0 0 0.6 c 1054 833 m 3 Y s 1054 836 m 3 Y s 1043 836 m 11 X s 1054 836 m 12 X s black 1054 836 m20 0 0 0.6 c 1077 831 m 3 Y s 1077 834 m 3 Y s 1066 834 m 11 X s 1077 834 m
 12 X s black 1077 834 m20 0 0 0.6 c 1100 824 m 3 Y s 1100 827 m 3 Y s 1089 827 m 11 X s 1100 827 m 11 X s black 1100 827 m20 0 0 0.6 c 1123 810 m 3 Y s 1123 813 m 3 Y s 1111 813 m 12 X s 1123 813 m 11 X s black 1123 813 m20 0 0 0.6 c 1145 805 m 3 Y
 s 1145 808 m 3 Y s 1134 808 m 11 X s 1145 808 m 12 X s black 1145 808 m20 0 0 0.6 c 1168 821 m 3 Y s 1168 824 m 3 Y s 1157 824 m 11 X s 1168 824 m 11 X s black 1168 824 m20 0 0 0.6 c 1191 817 m 3 Y s 1191 820 m 2 Y s 1179 820 m 12 X s 1191 820 m 11
 X s black 1191 820 m20 0 0 0.6 c 1213 816 m 3 Y s 1213 819 m 3 Y s 1202 819 m 11 X s 1213 819 m 12 X s black 1213 819 m20 0 0 0.6 c 1236 788 m 3 Y s 1236 791 m 3 Y s 1225 791 m 11 X s 1236 791 m 11 X s black 1236 791 m20 0 0 0.6 c 1259 770 m 4 Y s
 1259 774 m 4 Y s 1247 774 m 12 X s 1259 774 m 11 X s black 1259 774 m20 0 0 0.6 c 1281 765 m 4 Y s 1281 769 m 4 Y s 1270 769 m 11 X s 1281 769 m 12 X s black 1281 769 m20 0 0 0.6 c 1304 750 m 4 Y s 1304 754 m 4 Y s 1293 754 m 11 X s 1304 754 m 11 X
 s black 1304 754 m20 0 0 0.6 c 1327 733 m 5 Y s 1327 738 m 5 Y s 1315 738 m 12 X s 1327 738 m 11 X s black 1327 738 m20 0 0 0.6 c 1349 727 m 5 Y s 1349 732 m 4 Y s 1338 732 m 11 X s 1349 732 m 12 X s black 1349 732 m20 0 0 0.6 c 1372 729 m 5 Y s
 1372 734 m 4 Y s 1361 734 m 11 X s 1372 734 m 11 X s black 1372 734 m20 0 0 0.6 c 1395 717 m 5 Y s 1395 722 m 5 Y s 1383 722 m 12 X s 1395 722 m 11 X s black 1395 722 m20 0 0 0.6 c 1417 739 m 4 Y s 1417 743 m 4 Y s 1406 743 m 11 X s 1417 743 m 12 X
 s black 1417 743 m20 0 0 0.6 c 1440 748 m 4 Y s 1440 752 m 4 Y s 1429 752 m 11 X s 1440 752 m 11 X s black 1440 752 m20 0 0 0.6 c 1463 715 m 5 Y s 1463 720 m 5 Y s 1451 720 m 12 X s 1463 720 m 11 X s black 1463 720 m20 0 0 0.6 c 1485 708 m 5 Y s
 1485 713 m 5 Y s 1474 713 m 11 X s 1485 713 m 12 X s black 1485 713 m20 0 0 0.6 c 1508 673 m 7 Y s 1508 680 m 6 Y s 1497 680 m 11 X s 1508 680 m 11 X s black 1508 680 m20 0 0 0.6 c 1531 655 m 7 Y s 1531 662 m 7 Y s 1519 662 m 12 X s 1531 662 m 11 X
 s black 1531 662 m20 0 0 0.6 c 1553 642 m 8 Y s 1553 650 m 7 Y s 1542 650 m 11 X s 1553 650 m 12 X s black 1553 650 m20 0 0 0.6 c 1576 650 m 7 Y s 1576 657 m 7 Y s 1565 657 m 11 X s 1576 657 m 11 X s black 1576 657 m20 0 0 0.6 c 1599 635 m 8 Y s
 1599 643 m 7 Y s 1587 643 m 12 X s 1599 643 m 11 X s black 1599 643 m20 0 0 0.6 c 1621 626 m 8 Y s 1621 634 m 8 Y s 1610 634 m 11 X s 1621 634 m 12 X s black 1621 634 m20 0 0 0.6 c 1644 630 m 8 Y s 1644 638 m 7 Y s 1633 638 m 11 X s 1644 638 m 11 X
 s black 1644 638 m20 0 0 0.6 c 1667 616 m 9 Y s 1667 625 m 8 Y s 1655 625 m 12 X s 1667 625 m 11 X s black 1667 625 m20 0 0 0.6 c 1689 609 m 9 Y s 1689 618 m 8 Y s 1678 618 m 11 X s 1689 618 m 12 X s black 1689 618 m20 0 0 0.6 c 1712 593 m 10 Y s
 1712 603 m 9 Y s 1701 603 m 11 X s 1712 603 m 11 X s black 1712 603 m20 0 0 0.6 c 1735 578 m 11 Y s 1735 589 m 10 Y s 1723 589 m 12 X s 1735 589 m 11 X s black 1735 589 m20 0 0 0.6 c 1757 570 m 11 Y s 1757 581 m 10 Y s 1746 581 m 11 X s 1757 581 m
 12 X s black 1757 581 m20 0 0 0.6 c 1780 591 m 10 Y s 1780 601 m 9 Y s 1769 601 m 11 X s 1780 601 m 11 X s black 1780 601 m20 0 0 0.6 c 1803 586 m 10 Y s 1803 596 m 9 Y s 1791 596 m 12 X s 1803 596 m 11 X s black 1803 596 m20 0 0 0.6 c 1826 535 m 14
 Y s 1826 549 m 12 Y s 1814 549 m 12 X s 1826 549 m 11 X s black 1826 549 m20 0 0 0.6 c 1848 515 m 16 Y s 1848 531 m 13 Y s 1837 531 m 11 X s 1848 531 m 12 X s black 1848 531 m20 0 0 0.6 c 1871 465 m 22 Y s 1871 487 m 17 Y s 1860 487 m 11 X s 1871
 487 m 11 X s black 1871 487 m20 0 0 0.6 c 1894 445 m 25 Y s 1894 470 m 19 Y s 1882 470 m 12 X s 1894 470 m 11 X s black 1894 470 m20 0 0 0.6 c 1916 291 m 66 Y s 1916 357 m 35 Y s 1905 357 m 11 X s 1916 357 m 12 X s black 1916 357 m20 0 0 0.6 c 1939
 325 m 53 Y s 1939 378 m 31 Y s 1928 378 m 11 X s 1939 378 m 11 X s black 1939 378 m20 0 0 0.6 c 1984 323 m 53 Y s 1984 376 m 31 Y s 1973 376 m 11 X s 1984 376 m 12 X s black 1984 376 m20 0 0 0.6 c 2007 154 m 116 Y s 2007 270 m 52 Y s 1996 270 m 11 X
 s 2007 270 m 11 X s black 2007 270 m20 227 154 m 1814 X s 227 191 m -37 Y s 272 172 m -18 Y s 317 172 m -18 Y s 363 172 m -18 Y s 408 172 m -18 Y s 454 191 m -37 Y s 499 172 m -18 Y s 544 172 m -18 Y s 590 172 m -18 Y s 635 172 m -18 Y s 680 191 m
 -37 Y s 726 172 m -18 Y s 771 172 m -18 Y s 816 172 m -18 Y s 862 172 m -18 Y s 907 191 m -37 Y s 952 172 m -18 Y s 998 172 m -18 Y s 1043 172 m -18 Y s 1089 172 m -18 Y s 1134 191 m -37 Y s 1179 172 m -18 Y s 1225 172 m -18 Y s 1270 172 m -18 Y s
 1315 172 m -18 Y s 1361 191 m -37 Y s 1406 172 m -18 Y s 1451 172 m -18 Y s 1497 172 m -18 Y s 1542 172 m -18 Y s 1587 191 m -37 Y s 1633 172 m -18 Y s 1678 172 m -18 Y s 1723 172 m -18 Y s 1769 172 m -18 Y s 1814 191 m -37 Y s 1860 172 m -18 Y s
 1905 172 m -18 Y s 1950 172 m -18 Y s 1996 172 m -18 Y s 2041 191 m -37 Y s
 gsave  2268 1540 0 0 C 211.177 103.964 t 0 r /Helvetica findfont 48.7332 sf 0 0 m (0) show NC gr 
 gsave  2268 1540 0 0 C 409.359 103.964 t 0 r /Helvetica findfont 48.7332 sf 0 0 m (100) show NC gr 
 gsave  2268 1540 0 0 C 636.78 103.964 t 0 r /Helvetica findfont 48.7332 sf 0 0 m (200) show NC gr 
 gsave  2268 1540 0 0 C 864.201 103.964 t 0 r /Helvetica findfont 48.7332 sf 0 0 m (300) show NC gr 
 gsave  2268 1540 0 0 C 1091.62 103.964 t 0 r /Helvetica findfont 48.7332 sf 0 0 m (400) show NC gr 
 gsave  2268 1540 0 0 C 1315.8 103.964 t 0 r /Helvetica findfont 48.7332 sf 0 0 m (500) show NC gr 
 gsave  2268 1540 0 0 C 1543.22 103.964 t 0 r /Helvetica findfont 48.7332 sf 0 0 m (600) show NC gr 
 gsave  2268 1540 0 0 C 1770.64 103.964 t 0 r /Helvetica findfont 48.7332 sf 0 0 m (700) show NC gr 
 gsave  2268 1540 0 0 C 1998.06 103.964 t 0 r /Helvetica findfont 48.7332 sf 0 0 m (800) show NC gr 
 gsave  2268 1540 0 0 C 1059.13 25.991 t 0 r /Helvetica findfont 64.9775 sf 0 0 m (r\(cm\)) show NC gr  227 154 m 1232 Y s 281 154 m -54 X s
 gsave  2268 1540 0 0 C 188.435 152.697 t 0 r /Helvetica findfont 32.4888 sf 0 0 m (7) show NC gr 
 gsave  2268 1540 0 0 C 168.942 152.697 t 0 r /Symbol findfont 32.4888 sf 0 0 m (-) show NC gr 
 gsave  2268 1540 0 0 C 113.711 133.204 t 0 r /Helvetica findfont 48.7332 sf 0 0 m (10) show NC gr  254 207 m -27 X s 254 238 m -27 X s 254 260 m -27 X s 254 277 m -27 X s 254 291 m -27 X s 254 303 m -27 X s 254 313 m -27 X s 254 322 m -27 X s 281
 330 m -54 X s
 gsave  2268 1540 0 0 C 188.435 331.386 t 0 r /Helvetica findfont 32.4888 sf 0 0 m (6) show NC gr 
 gsave  2268 1540 0 0 C 168.942 331.386 t 0 r /Symbol findfont 32.4888 sf 0 0 m (-) show NC gr 
 gsave  2268 1540 0 0 C 113.711 308.643 t 0 r /Helvetica findfont 48.7332 sf 0 0 m (10) show NC gr  254 383 m -27 X s 254 414 m -27 X s 254 436 m -27 X s 254 453 m -27 X s 254 467 m -27 X s 254 479 m -27 X s 254 489 m -27 X s 254 498 m -27 X s 281
 506 m -54 X s
 gsave  2268 1540 0 0 C 188.435 506.825 t 0 r /Helvetica findfont 32.4888 sf 0 0 m (5) show NC gr 
 gsave  2268 1540 0 0 C 168.942 506.825 t 0 r /Symbol findfont 32.4888 sf 0 0 m (-) show NC gr 
 gsave  2268 1540 0 0 C 113.711 484.083 t 0 r /Helvetica findfont 48.7332 sf 0 0 m (10) show NC gr  254 559 m -27 X s 254 590 m -27 X s 254 612 m -27 X s 254 629 m -27 X s 254 643 m -27 X s 254 655 m -27 X s 254 665 m -27 X s 254 674 m -27 X s 281
 682 m -54 X s
 gsave  2268 1540 0 0 C 188.435 679.015 t 0 r /Helvetica findfont 32.4888 sf 0 0 m (4) show NC gr 
 gsave  2268 1540 0 0 C 168.942 679.015 t 0 r /Symbol findfont 32.4888 sf 0 0 m (-) show NC gr 
 gsave  2268 1540 0 0 C 113.711 659.522 t 0 r /Helvetica findfont 48.7332 sf 0 0 m (10) show NC gr  254 735 m -27 X s 254 766 m -27 X s 254 788 m -27 X s 254 805 m -27 X s 254 819 m -27 X s 254 831 m -27 X s 254 841 m -27 X s 254 850 m -27 X s 281
 858 m -54 X s
 gsave  2268 1540 0 0 C 188.435 860.953 t 0 r /Helvetica findfont 32.4888 sf 0 0 m (3) show NC gr 
 gsave  2268 1540 0 0 C 168.942 860.953 t 0 r /Symbol findfont 32.4888 sf 0 0 m (-) show NC gr 
 gsave  2268 1540 0 0 C 113.711 838.21 t 0 r /Helvetica findfont 48.7332 sf 0 0 m (10) show NC gr  254 911 m -27 X s 254 942 m -27 X s 254 964 m -27 X s 254 981 m -27 X s 254 995 m -27 X s 254 1007 m -27 X s 254 1017 m -27 X s 254 1026 m -27 X s 281
 1034 m -54 X s
 gsave  2268 1540 0 0 C 188.435 1033.14 t 0 r /Helvetica findfont 32.4888 sf 0 0 m (2) show NC gr 
 gsave  2268 1540 0 0 C 168.942 1033.14 t 0 r /Symbol findfont 32.4888 sf 0 0 m (-) show NC gr 
 gsave  2268 1540 0 0 C 113.711 1013.65 t 0 r /Helvetica findfont 48.7332 sf 0 0 m (10) show NC gr  254 1087 m -27 X s 254 1118 m -27 X s 254 1140 m -27 X s 254 1157 m -27 X s 254 1171 m -27 X s 254 1183 m -27 X s 254 1193 m -27 X s 254 1202 m -27 X
 s 281 1210 m -54 X s
 gsave  2268 1540 0 0 C 194.933 1208.58 t 0 r /Helvetica findfont 32.4888 sf 0 0 m (1) show NC gr 
 gsave  2268 1540 0 0 C 175.439 1208.58 t 0 r /Symbol findfont 32.4888 sf 0 0 m (-) show NC gr 
 gsave  2268 1540 0 0 C 120.208 1189.09 t 0 r /Helvetica findfont 48.7332 sf 0 0 m (10) show NC gr  254 1263 m -27 X s 254 1294 m -27 X s 254 1316 m -27 X s 254 1333 m -27 X s 254 1347 m -27 X s 254 1359 m -27 X s 254 1369 m -27 X s 254 1378 m -27 X
 s 281 1386 m -54 X s
 gsave  2268 1540 0 0 C 188.435 1367.78 t 0 r /Helvetica findfont 48.7332 sf 0 0 m (1) show NC gr 
 gsave  2268 1540 0 0 C 103.964 1367.78 t 90 r /Helvetica findfont 64.9775 sf 0 0 m (\)) show NC gr 
 gsave  2268 1540 0 0 C 74.7242 1338.54 t 90 r /Helvetica findfont 42.2354 sf 0 0 m (\2551) show NC gr 
 gsave  2268 1540 0 0 C 100.715 1026.65 t 90 r /Helvetica findfont 64.9775 sf 0 0 m (density\(cm) show NC gr  1 1 1 c black
 gsave  2268 1540 0 0 C 1046.14 1468.49 t 0 r /Helvetica findfont 74.7242 sf 0 0 m (:density_vs_r) show NC gr 
 gsave  2268 1540 0 0 C 1007.15 1468.49 t 0 r /Symbol findfont 74.7242 sf 0 0 m (g) show NC gr 
 gsave  2268 1540 0 0 C 776.482 1468.49 t 0 r /Helvetica findfont 74.7242 sf 0 0 m (nu7.6_) show NC gr  1 1 1 c black
 gsave  2268 1540 0 0 C 1046.14 1468.49 t 0 r /Helvetica findfont 74.7242 sf 0 0 m (:density_vs_r) show NC gr 
 gsave  2268 1540 0 0 C 1007.15 1468.49 t 0 r /Symbol findfont 74.7242 sf 0 0 m (g) show NC gr 
 gsave  2268 1540 0 0 C 776.482 1468.49 t 0 r /Helvetica findfont 74.7242 sf 0 0 m (nu7.6_) show NC gr 
 gr  gr showpage
end
%%EOF
