[
{
  "directory": "/afs/cern.ch/work/z/zhshen/GaussDev_v51r2/build.x86_64-slc6-gcc49-opt",
  "command": "/cvmfs/lhcb.cern.ch/lib/lhcb/LBSCRIPTS/LBSCRIPTS_v9r2p4/InstallArea/scripts/lcg-g++-4.9.3   -DBOOST_FILESYSTEM_VERSION=3 -DBOOST_SPIRIT_USE_PHOENIX_V3 -DGAUDI_V20_COMPAT -DGaussCalo_EXPORTS -DPACKAGE_NAME=\\\"GaussCalo\\\" -DPACKAGE_VERSION=\\\"v10r1\\\" -D_GNU_SOURCE -Df2cFortran -Dlinux -Dunix  -fmessage-length=0 -pipe -Wall -Wextra -Werror=return-type -pthread -pedantic -Wwrite-strings -Wpointer-arith -Woverloaded-virtual -Wno-long-long -std=c++14 -Wno-deprecated -Wno-empty-body -Wno-unused-local-typedefs -O3 -DNDEBUG -fPIC -ISim/GaussCalo -I../Sim/GaussCalo -I/cvmfs/lhcb.cern.ch/lib/lhcb/GEANT4/GEANT4_v96r4p7/InstallArea/x86_64-slc6-gcc49-opt/include -I/cvmfs/lhcb.cern.ch/lib/lcg/releases/LCG_88/HepMC/2.06.09/x86_64-slc6-gcc49-opt/include -I/cvmfs/lhcb.cern.ch/lib/lcg/releases/LCG_88/clhep/2.3.1.1/x86_64-slc6-gcc49-opt/include -I/cvmfs/lhcb.cern.ch/lib/lcg/releases/LCG_88/GSL/2.1/x86_64-slc6-gcc49-opt/include -I/cvmfs/lhcb.cern.ch/lib/lcg/releases/LCG_88/rangev3/7c2b10f0/x86_64-slc6-gcc49-opt/include -I/cvmfs/lhcb.cern.ch/lib/lcg/releases/LCG_88/AIDA/3.2.1/x86_64-slc6-gcc49-opt/src/cpp -I/cvmfs/lhcb.cern.ch/lib/lcg/releases/LCG_88/tbb/44_20160413/x86_64-slc6-gcc49-opt/include -I/cvmfs/lhcb.cern.ch/lib/lcg/releases/LCG_88/ROOT/6.08.06/x86_64-slc6-gcc49-opt/include -I/cvmfs/lhcb.cern.ch/lib/lcg/releases/LCG_88/Boost/1.62.0/x86_64-slc6-gcc49-opt/include/boost-1_62 -Iinclude -I/cvmfs/lhcb.cern.ch/lib/lhcb/GAUSS/GAUSS_v51r2/InstallArea/x86_64-slc6-gcc49-opt/include -I/cvmfs/lhcb.cern.ch/lib/lhcb/LHCB/LHCB_v42r8/InstallArea/x86_64-slc6-gcc49-opt/include -I/cvmfs/lhcb.cern.ch/lib/lhcb/GAUDI/GAUDI_v28r2/InstallArea/x86_64-slc6-gcc49-opt/include    -o Sim/GaussCalo/CMakeFiles/GaussCalo.dir/src/CaloHit.cpp.o -c /afs/cern.ch/work/z/zhshen/GaussDev_v51r2/Sim/GaussCalo/src/CaloHit.cpp",
  "file": "/afs/cern.ch/work/z/zhshen/GaussDev_v51r2/Sim/GaussCalo/src/CaloHit.cpp"
},

{
  "directory": "/afs/cern.ch/work/z/zhshen/GaussDev_v51r2/build.x86_64-slc6-gcc49-opt",
  "command": "/cvmfs/lhcb.cern.ch/lib/lhcb/LBSCRIPTS/LBSCRIPTS_v9r2p4/InstallArea/scripts/lcg-g++-4.9.3   -DBOOST_FILESYSTEM_VERSION=3 -DBOOST_SPIRIT_USE_PHOENIX_V3 -DGAUDI_V20_COMPAT -DGaussCalo_EXPORTS -DPACKAGE_NAME=\\\"GaussCalo\\\" -DPACKAGE_VERSION=\\\"v10r1\\\" -D_GNU_SOURCE -Df2cFortran -Dlinux -Dunix  -fmessage-length=0 -pipe -Wall -Wextra -Werror=return-type -pthread -pedantic -Wwrite-strings -Wpointer-arith -Woverloaded-virtual -Wno-long-long -std=c++14 -Wno-deprecated -Wno-empty-body -Wno-unused-local-typedefs -O3 -DNDEBUG -fPIC -ISim/GaussCalo -I../Sim/GaussCalo -I/cvmfs/lhcb.cern.ch/lib/lhcb/GEANT4/GEANT4_v96r4p7/InstallArea/x86_64-slc6-gcc49-opt/include -I/cvmfs/lhcb.cern.ch/lib/lcg/releases/LCG_88/HepMC/2.06.09/x86_64-slc6-gcc49-opt/include -I/cvmfs/lhcb.cern.ch/lib/lcg/releases/LCG_88/clhep/2.3.1.1/x86_64-slc6-gcc49-opt/include -I/cvmfs/lhcb.cern.ch/lib/lcg/releases/LCG_88/GSL/2.1/x86_64-slc6-gcc49-opt/include -I/cvmfs/lhcb.cern.ch/lib/lcg/releases/LCG_88/rangev3/7c2b10f0/x86_64-slc6-gcc49-opt/include -I/cvmfs/lhcb.cern.ch/lib/lcg/releases/LCG_88/AIDA/3.2.1/x86_64-slc6-gcc49-opt/src/cpp -I/cvmfs/lhcb.cern.ch/lib/lcg/releases/LCG_88/tbb/44_20160413/x86_64-slc6-gcc49-opt/include -I/cvmfs/lhcb.cern.ch/lib/lcg/releases/LCG_88/ROOT/6.08.06/x86_64-slc6-gcc49-opt/include -I/cvmfs/lhcb.cern.ch/lib/lcg/releases/LCG_88/Boost/1.62.0/x86_64-slc6-gcc49-opt/include/boost-1_62 -Iinclude -I/cvmfs/lhcb.cern.ch/lib/lhcb/GAUSS/GAUSS_v51r2/InstallArea/x86_64-slc6-gcc49-opt/include -I/cvmfs/lhcb.cern.ch/lib/lhcb/LHCB/LHCB_v42r8/InstallArea/x86_64-slc6-gcc49-opt/include -I/cvmfs/lhcb.cern.ch/lib/lhcb/GAUDI/GAUDI_v28r2/InstallArea/x86_64-slc6-gcc49-opt/include    -o Sim/GaussCalo/CMakeFiles/GaussCalo.dir/src/CaloSensDet.cpp.o -c /afs/cern.ch/work/z/zhshen/GaussDev_v51r2/Sim/GaussCalo/src/CaloSensDet.cpp",
  "file": "/afs/cern.ch/work/z/zhshen/GaussDev_v51r2/Sim/GaussCalo/src/CaloSensDet.cpp"
},

{
  "directory": "/afs/cern.ch/work/z/zhshen/GaussDev_v51r2/build.x86_64-slc6-gcc49-opt",
  "command": "/cvmfs/lhcb.cern.ch/lib/lhcb/LBSCRIPTS/LBSCRIPTS_v9r2p4/InstallArea/scripts/lcg-g++-4.9.3   -DBOOST_FILESYSTEM_VERSION=3 -DBOOST_SPIRIT_USE_PHOENIX_V3 -DGAUDI_V20_COMPAT -DGaussCalo_EXPORTS -DPACKAGE_NAME=\\\"GaussCalo\\\" -DPACKAGE_VERSION=\\\"v10r1\\\" -D_GNU_SOURCE -Df2cFortran -Dlinux -Dunix  -fmessage-length=0 -pipe -Wall -Wextra -Werror=return-type -pthread -pedantic -Wwrite-strings -Wpointer-arith -Woverloaded-virtual -Wno-long-long -std=c++14 -Wno-deprecated -Wno-empty-body -Wno-unused-local-typedefs -O3 -DNDEBUG -fPIC -ISim/GaussCalo -I../Sim/GaussCalo -I/cvmfs/lhcb.cern.ch/lib/lhcb/GEANT4/GEANT4_v96r4p7/InstallArea/x86_64-slc6-gcc49-opt/include -I/cvmfs/lhcb.cern.ch/lib/lcg/releases/LCG_88/HepMC/2.06.09/x86_64-slc6-gcc49-opt/include -I/cvmfs/lhcb.cern.ch/lib/lcg/releases/LCG_88/clhep/2.3.1.1/x86_64-slc6-gcc49-opt/include -I/cvmfs/lhcb.cern.ch/lib/lcg/releases/LCG_88/GSL/2.1/x86_64-slc6-gcc49-opt/include -I/cvmfs/lhcb.cern.ch/lib/lcg/releases/LCG_88/rangev3/7c2b10f0/x86_64-slc6-gcc49-opt/include -I/cvmfs/lhcb.cern.ch/lib/lcg/releases/LCG_88/AIDA/3.2.1/x86_64-slc6-gcc49-opt/src/cpp -I/cvmfs/lhcb.cern.ch/lib/lcg/releases/LCG_88/tbb/44_20160413/x86_64-slc6-gcc49-opt/include -I/cvmfs/lhcb.cern.ch/lib/lcg/releases/LCG_88/ROOT/6.08.06/x86_64-slc6-gcc49-opt/include -I/cvmfs/lhcb.cern.ch/lib/lcg/releases/LCG_88/Boost/1.62.0/x86_64-slc6-gcc49-opt/include/boost-1_62 -Iinclude -I/cvmfs/lhcb.cern.ch/lib/lhcb/GAUSS/GAUSS_v51r2/InstallArea/x86_64-slc6-gcc49-opt/include -I/cvmfs/lhcb.cern.ch/lib/lhcb/LHCB/LHCB_v42r8/InstallArea/x86_64-slc6-gcc49-opt/include -I/cvmfs/lhcb.cern.ch/lib/lhcb/GAUDI/GAUDI_v28r2/InstallArea/x86_64-slc6-gcc49-opt/include    -o Sim/GaussCalo/CMakeFiles/GaussCalo.dir/src/CaloSubHit.cpp.o -c /afs/cern.ch/work/z/zhshen/GaussDev_v51r2/Sim/GaussCalo/src/CaloSubHit.cpp",
  "file": "/afs/cern.ch/work/z/zhshen/GaussDev_v51r2/Sim/GaussCalo/src/CaloSubHit.cpp"
},

{
  "directory": "/afs/cern.ch/work/z/zhshen/GaussDev_v51r2/build.x86_64-slc6-gcc49-opt",
  "command": "/cvmfs/lhcb.cern.ch/lib/lhcb/LBSCRIPTS/LBSCRIPTS_v9r2p4/InstallArea/scripts/lcg-g++-4.9.3   -DBOOST_FILESYSTEM_VERSION=3 -DBOOST_SPIRIT_USE_PHOENIX_V3 -DGAUDI_V20_COMPAT -DGaussCalo_EXPORTS -DPACKAGE_NAME=\\\"GaussCalo\\\" -DPACKAGE_VERSION=\\\"v10r1\\\" -D_GNU_SOURCE -Df2cFortran -Dlinux -Dunix  -fmessage-length=0 -pipe -Wall -Wextra -Werror=return-type -pthread -pedantic -Wwrite-strings -Wpointer-arith -Woverloaded-virtual -Wno-long-long -std=c++14 -Wno-deprecated -Wno-empty-body -Wno-unused-local-typedefs -O3 -DNDEBUG -fPIC -ISim/GaussCalo -I../Sim/GaussCalo -I/cvmfs/lhcb.cern.ch/lib/lhcb/GEANT4/GEANT4_v96r4p7/InstallArea/x86_64-slc6-gcc49-opt/include -I/cvmfs/lhcb.cern.ch/lib/lcg/releases/LCG_88/HepMC/2.06.09/x86_64-slc6-gcc49-opt/include -I/cvmfs/lhcb.cern.ch/lib/lcg/releases/LCG_88/clhep/2.3.1.1/x86_64-slc6-gcc49-opt/include -I/cvmfs/lhcb.cern.ch/lib/lcg/releases/LCG_88/GSL/2.1/x86_64-slc6-gcc49-opt/include -I/cvmfs/lhcb.cern.ch/lib/lcg/releases/LCG_88/rangev3/7c2b10f0/x86_64-slc6-gcc49-opt/include -I/cvmfs/lhcb.cern.ch/lib/lcg/releases/LCG_88/AIDA/3.2.1/x86_64-slc6-gcc49-opt/src/cpp -I/cvmfs/lhcb.cern.ch/lib/lcg/releases/LCG_88/tbb/44_20160413/x86_64-slc6-gcc49-opt/include -I/cvmfs/lhcb.cern.ch/lib/lcg/releases/LCG_88/ROOT/6.08.06/x86_64-slc6-gcc49-opt/include -I/cvmfs/lhcb.cern.ch/lib/lcg/releases/LCG_88/Boost/1.62.0/x86_64-slc6-gcc49-opt/include/boost-1_62 -Iinclude -I/cvmfs/lhcb.cern.ch/lib/lhcb/GAUSS/GAUSS_v51r2/InstallArea/x86_64-slc6-gcc49-opt/include -I/cvmfs/lhcb.cern.ch/lib/lhcb/LHCB/LHCB_v42r8/InstallArea/x86_64-slc6-gcc49-opt/include -I/cvmfs/lhcb.cern.ch/lib/lhcb/GAUDI/GAUDI_v28r2/InstallArea/x86_64-slc6-gcc49-opt/include    -o Sim/GaussCalo/CMakeFiles/GaussCalo.dir/src/EHCalSensDet.cpp.o -c /afs/cern.ch/work/z/zhshen/GaussDev_v51r2/Sim/GaussCalo/src/EHCalSensDet.cpp",
  "file": "/afs/cern.ch/work/z/zhshen/GaussDev_v51r2/Sim/GaussCalo/src/EHCalSensDet.cpp"
},

{
  "directory": "/afs/cern.ch/work/z/zhshen/GaussDev_v51r2/build.x86_64-slc6-gcc49-opt",
  "command": "/cvmfs/lhcb.cern.ch/lib/lhcb/LBSCRIPTS/LBSCRIPTS_v9r2p4/InstallArea/scripts/lcg-g++-4.9.3   -DBOOST_FILESYSTEM_VERSION=3 -DBOOST_SPIRIT_USE_PHOENIX_V3 -DGAUDI_V20_COMPAT -DGaussCalo_EXPORTS -DPACKAGE_NAME=\\\"GaussCalo\\\" -DPACKAGE_VERSION=\\\"v10r1\\\" -D_GNU_SOURCE -Df2cFortran -Dlinux -Dunix  -fmessage-length=0 -pipe -Wall -Wextra -Werror=return-type -pthread -pedantic -Wwrite-strings -Wpointer-arith -Woverloaded-virtual -Wno-long-long -std=c++14 -Wno-deprecated -Wno-empty-body -Wno-unused-local-typedefs -O3 -DNDEBUG -fPIC -ISim/GaussCalo -I../Sim/GaussCalo -I/cvmfs/lhcb.cern.ch/lib/lhcb/GEANT4/GEANT4_v96r4p7/InstallArea/x86_64-slc6-gcc49-opt/include -I/cvmfs/lhcb.cern.ch/lib/lcg/releases/LCG_88/HepMC/2.06.09/x86_64-slc6-gcc49-opt/include -I/cvmfs/lhcb.cern.ch/lib/lcg/releases/LCG_88/clhep/2.3.1.1/x86_64-slc6-gcc49-opt/include -I/cvmfs/lhcb.cern.ch/lib/lcg/releases/LCG_88/GSL/2.1/x86_64-slc6-gcc49-opt/include -I/cvmfs/lhcb.cern.ch/lib/lcg/releases/LCG_88/rangev3/7c2b10f0/x86_64-slc6-gcc49-opt/include -I/cvmfs/lhcb.cern.ch/lib/lcg/releases/LCG_88/AIDA/3.2.1/x86_64-slc6-gcc49-opt/src/cpp -I/cvmfs/lhcb.cern.ch/lib/lcg/releases/LCG_88/tbb/44_20160413/x86_64-slc6-gcc49-opt/include -I/cvmfs/lhcb.cern.ch/lib/lcg/releases/LCG_88/ROOT/6.08.06/x86_64-slc6-gcc49-opt/include -I/cvmfs/lhcb.cern.ch/lib/lcg/releases/LCG_88/Boost/1.62.0/x86_64-slc6-gcc49-opt/include/boost-1_62 -Iinclude -I/cvmfs/lhcb.cern.ch/lib/lhcb/GAUSS/GAUSS_v51r2/InstallArea/x86_64-slc6-gcc49-opt/include -I/cvmfs/lhcb.cern.ch/lib/lhcb/LHCB/LHCB_v42r8/InstallArea/x86_64-slc6-gcc49-opt/include -I/cvmfs/lhcb.cern.ch/lib/lhcb/GAUDI/GAUDI_v28r2/InstallArea/x86_64-slc6-gcc49-opt/include    -o Sim/GaussCalo/CMakeFiles/GaussCalo.dir/src/EcalSensDet.cpp.o -c /afs/cern.ch/work/z/zhshen/GaussDev_v51r2/Sim/GaussCalo/src/EcalSensDet.cpp",
  "file": "/afs/cern.ch/work/z/zhshen/GaussDev_v51r2/Sim/GaussCalo/src/EcalSensDet.cpp"
},

{
  "directory": "/afs/cern.ch/work/z/zhshen/GaussDev_v51r2/build.x86_64-slc6-gcc49-opt",
  "command": "/cvmfs/lhcb.cern.ch/lib/lhcb/LBSCRIPTS/LBSCRIPTS_v9r2p4/InstallArea/scripts/lcg-g++-4.9.3   -DBOOST_FILESYSTEM_VERSION=3 -DBOOST_SPIRIT_USE_PHOENIX_V3 -DGAUDI_V20_COMPAT -DGaussCalo_EXPORTS -DPACKAGE_NAME=\\\"GaussCalo\\\" -DPACKAGE_VERSION=\\\"v10r1\\\" -D_GNU_SOURCE -Df2cFortran -Dlinux -Dunix  -fmessage-length=0 -pipe -Wall -Wextra -Werror=return-type -pthread -pedantic -Wwrite-strings -Wpointer-arith -Woverloaded-virtual -Wno-long-long -std=c++14 -Wno-deprecated -Wno-empty-body -Wno-unused-local-typedefs -O3 -DNDEBUG -fPIC -ISim/GaussCalo -I../Sim/GaussCalo -I/cvmfs/lhcb.cern.ch/lib/lhcb/GEANT4/GEANT4_v96r4p7/InstallArea/x86_64-slc6-gcc49-opt/include -I/cvmfs/lhcb.cern.ch/lib/lcg/releases/LCG_88/HepMC/2.06.09/x86_64-slc6-gcc49-opt/include -I/cvmfs/lhcb.cern.ch/lib/lcg/releases/LCG_88/clhep/2.3.1.1/x86_64-slc6-gcc49-opt/include -I/cvmfs/lhcb.cern.ch/lib/lcg/releases/LCG_88/GSL/2.1/x86_64-slc6-gcc49-opt/include -I/cvmfs/lhcb.cern.ch/lib/lcg/releases/LCG_88/rangev3/7c2b10f0/x86_64-slc6-gcc49-opt/include -I/cvmfs/lhcb.cern.ch/lib/lcg/releases/LCG_88/AIDA/3.2.1/x86_64-slc6-gcc49-opt/src/cpp -I/cvmfs/lhcb.cern.ch/lib/lcg/releases/LCG_88/tbb/44_20160413/x86_64-slc6-gcc49-opt/include -I/cvmfs/lhcb.cern.ch/lib/lcg/releases/LCG_88/ROOT/6.08.06/x86_64-slc6-gcc49-opt/include -I/cvmfs/lhcb.cern.ch/lib/lcg/releases/LCG_88/Boost/1.62.0/x86_64-slc6-gcc49-opt/include/boost-1_62 -Iinclude -I/cvmfs/lhcb.cern.ch/lib/lhcb/GAUSS/GAUSS_v51r2/InstallArea/x86_64-slc6-gcc49-opt/include -I/cvmfs/lhcb.cern.ch/lib/lhcb/LHCB/LHCB_v42r8/InstallArea/x86_64-slc6-gcc49-opt/include -I/cvmfs/lhcb.cern.ch/lib/lhcb/GAUDI/GAUDI_v28r2/InstallArea/x86_64-slc6-gcc49-opt/include    -o Sim/GaussCalo/CMakeFiles/GaussCalo.dir/src/GaussSensPlaneDet.cpp.o -c /afs/cern.ch/work/z/zhshen/GaussDev_v51r2/Sim/GaussCalo/src/GaussSensPlaneDet.cpp",
  "file": "/afs/cern.ch/work/z/zhshen/GaussDev_v51r2/Sim/GaussCalo/src/GaussSensPlaneDet.cpp"
},

{
  "directory": "/afs/cern.ch/work/z/zhshen/GaussDev_v51r2/build.x86_64-slc6-gcc49-opt",
  "command": "/cvmfs/lhcb.cern.ch/lib/lhcb/LBSCRIPTS/LBSCRIPTS_v9r2p4/InstallArea/scripts/lcg-g++-4.9.3   -DBOOST_FILESYSTEM_VERSION=3 -DBOOST_SPIRIT_USE_PHOENIX_V3 -DGAUDI_V20_COMPAT -DGaussCalo_EXPORTS -DPACKAGE_NAME=\\\"GaussCalo\\\" -DPACKAGE_VERSION=\\\"v10r1\\\" -D_GNU_SOURCE -Df2cFortran -Dlinux -Dunix  -fmessage-length=0 -pipe -Wall -Wextra -Werror=return-type -pthread -pedantic -Wwrite-strings -Wpointer-arith -Woverloaded-virtual -Wno-long-long -std=c++14 -Wno-deprecated -Wno-empty-body -Wno-unused-local-typedefs -O3 -DNDEBUG -fPIC -ISim/GaussCalo -I../Sim/GaussCalo -I/cvmfs/lhcb.cern.ch/lib/lhcb/GEANT4/GEANT4_v96r4p7/InstallArea/x86_64-slc6-gcc49-opt/include -I/cvmfs/lhcb.cern.ch/lib/lcg/releases/LCG_88/HepMC/2.06.09/x86_64-slc6-gcc49-opt/include -I/cvmfs/lhcb.cern.ch/lib/lcg/releases/LCG_88/clhep/2.3.1.1/x86_64-slc6-gcc49-opt/include -I/cvmfs/lhcb.cern.ch/lib/lcg/releases/LCG_88/GSL/2.1/x86_64-slc6-gcc49-opt/include -I/cvmfs/lhcb.cern.ch/lib/lcg/releases/LCG_88/rangev3/7c2b10f0/x86_64-slc6-gcc49-opt/include -I/cvmfs/lhcb.cern.ch/lib/lcg/releases/LCG_88/AIDA/3.2.1/x86_64-slc6-gcc49-opt/src/cpp -I/cvmfs/lhcb.cern.ch/lib/lcg/releases/LCG_88/tbb/44_20160413/x86_64-slc6-gcc49-opt/include -I/cvmfs/lhcb.cern.ch/lib/lcg/releases/LCG_88/ROOT/6.08.06/x86_64-slc6-gcc49-opt/include -I/cvmfs/lhcb.cern.ch/lib/lcg/releases/LCG_88/Boost/1.62.0/x86_64-slc6-gcc49-opt/include/boost-1_62 -Iinclude -I/cvmfs/lhcb.cern.ch/lib/lhcb/GAUSS/GAUSS_v51r2/InstallArea/x86_64-slc6-gcc49-opt/include -I/cvmfs/lhcb.cern.ch/lib/lhcb/LHCB/LHCB_v42r8/InstallArea/x86_64-slc6-gcc49-opt/include -I/cvmfs/lhcb.cern.ch/lib/lhcb/GAUDI/GAUDI_v28r2/InstallArea/x86_64-slc6-gcc49-opt/include    -o Sim/GaussCalo/CMakeFiles/GaussCalo.dir/src/GaussSensPlaneHit.cpp.o -c /afs/cern.ch/work/z/zhshen/GaussDev_v51r2/Sim/GaussCalo/src/GaussSensPlaneHit.cpp",
  "file": "/afs/cern.ch/work/z/zhshen/GaussDev_v51r2/Sim/GaussCalo/src/GaussSensPlaneHit.cpp"
},

{
  "directory": "/afs/cern.ch/work/z/zhshen/GaussDev_v51r2/build.x86_64-slc6-gcc49-opt",
  "command": "/cvmfs/lhcb.cern.ch/lib/lhcb/LBSCRIPTS/LBSCRIPTS_v9r2p4/InstallArea/scripts/lcg-g++-4.9.3   -DBOOST_FILESYSTEM_VERSION=3 -DBOOST_SPIRIT_USE_PHOENIX_V3 -DGAUDI_V20_COMPAT -DGaussCalo_EXPORTS -DPACKAGE_NAME=\\\"GaussCalo\\\" -DPACKAGE_VERSION=\\\"v10r1\\\" -D_GNU_SOURCE -Df2cFortran -Dlinux -Dunix  -fmessage-length=0 -pipe -Wall -Wextra -Werror=return-type -pthread -pedantic -Wwrite-strings -Wpointer-arith -Woverloaded-virtual -Wno-long-long -std=c++14 -Wno-deprecated -Wno-empty-body -Wno-unused-local-typedefs -O3 -DNDEBUG -fPIC -ISim/GaussCalo -I../Sim/GaussCalo -I/cvmfs/lhcb.cern.ch/lib/lhcb/GEANT4/GEANT4_v96r4p7/InstallArea/x86_64-slc6-gcc49-opt/include -I/cvmfs/lhcb.cern.ch/lib/lcg/releases/LCG_88/HepMC/2.06.09/x86_64-slc6-gcc49-opt/include -I/cvmfs/lhcb.cern.ch/lib/lcg/releases/LCG_88/clhep/2.3.1.1/x86_64-slc6-gcc49-opt/include -I/cvmfs/lhcb.cern.ch/lib/lcg/releases/LCG_88/GSL/2.1/x86_64-slc6-gcc49-opt/include -I/cvmfs/lhcb.cern.ch/lib/lcg/releases/LCG_88/rangev3/7c2b10f0/x86_64-slc6-gcc49-opt/include -I/cvmfs/lhcb.cern.ch/lib/lcg/releases/LCG_88/AIDA/3.2.1/x86_64-slc6-gcc49-opt/src/cpp -I/cvmfs/lhcb.cern.ch/lib/lcg/releases/LCG_88/tbb/44_20160413/x86_64-slc6-gcc49-opt/include -I/cvmfs/lhcb.cern.ch/lib/lcg/releases/LCG_88/ROOT/6.08.06/x86_64-slc6-gcc49-opt/include -I/cvmfs/lhcb.cern.ch/lib/lcg/releases/LCG_88/Boost/1.62.0/x86_64-slc6-gcc49-opt/include/boost-1_62 -Iinclude -I/cvmfs/lhcb.cern.ch/lib/lhcb/GAUSS/GAUSS_v51r2/InstallArea/x86_64-slc6-gcc49-opt/include -I/cvmfs/lhcb.cern.ch/lib/lhcb/LHCB/LHCB_v42r8/InstallArea/x86_64-slc6-gcc49-opt/include -I/cvmfs/lhcb.cern.ch/lib/lhcb/GAUDI/GAUDI_v28r2/InstallArea/x86_64-slc6-gcc49-opt/include    -o Sim/GaussCalo/CMakeFiles/GaussCalo.dir/src/GetCaloHitsAlg.cpp.o -c /afs/cern.ch/work/z/zhshen/GaussDev_v51r2/Sim/GaussCalo/src/GetCaloHitsAlg.cpp",
  "file": "/afs/cern.ch/work/z/zhshen/GaussDev_v51r2/Sim/GaussCalo/src/GetCaloHitsAlg.cpp"
},

{
  "directory": "/afs/cern.ch/work/z/zhshen/GaussDev_v51r2/build.x86_64-slc6-gcc49-opt",
  "command": "/cvmfs/lhcb.cern.ch/lib/lhcb/LBSCRIPTS/LBSCRIPTS_v9r2p4/InstallArea/scripts/lcg-g++-4.9.3   -DBOOST_FILESYSTEM_VERSION=3 -DBOOST_SPIRIT_USE_PHOENIX_V3 -DGAUDI_V20_COMPAT -DGaussCalo_EXPORTS -DPACKAGE_NAME=\\\"GaussCalo\\\" -DPACKAGE_VERSION=\\\"v10r1\\\" -D_GNU_SOURCE -Df2cFortran -Dlinux -Dunix  -fmessage-length=0 -pipe -Wall -Wextra -Werror=return-type -pthread -pedantic -Wwrite-strings -Wpointer-arith -Woverloaded-virtual -Wno-long-long -std=c++14 -Wno-deprecated -Wno-empty-body -Wno-unused-local-typedefs -O3 -DNDEBUG -fPIC -ISim/GaussCalo -I../Sim/GaussCalo -I/cvmfs/lhcb.cern.ch/lib/lhcb/GEANT4/GEANT4_v96r4p7/InstallArea/x86_64-slc6-gcc49-opt/include -I/cvmfs/lhcb.cern.ch/lib/lcg/releases/LCG_88/HepMC/2.06.09/x86_64-slc6-gcc49-opt/include -I/cvmfs/lhcb.cern.ch/lib/lcg/releases/LCG_88/clhep/2.3.1.1/x86_64-slc6-gcc49-opt/include -I/cvmfs/lhcb.cern.ch/lib/lcg/releases/LCG_88/GSL/2.1/x86_64-slc6-gcc49-opt/include -I/cvmfs/lhcb.cern.ch/lib/lcg/releases/LCG_88/rangev3/7c2b10f0/x86_64-slc6-gcc49-opt/include -I/cvmfs/lhcb.cern.ch/lib/lcg/releases/LCG_88/AIDA/3.2.1/x86_64-slc6-gcc49-opt/src/cpp -I/cvmfs/lhcb.cern.ch/lib/lcg/releases/LCG_88/tbb/44_20160413/x86_64-slc6-gcc49-opt/include -I/cvmfs/lhcb.cern.ch/lib/lcg/releases/LCG_88/ROOT/6.08.06/x86_64-slc6-gcc49-opt/include -I/cvmfs/lhcb.cern.ch/lib/lcg/releases/LCG_88/Boost/1.62.0/x86_64-slc6-gcc49-opt/include/boost-1_62 -Iinclude -I/cvmfs/lhcb.cern.ch/lib/lhcb/GAUSS/GAUSS_v51r2/InstallArea/x86_64-slc6-gcc49-opt/include -I/cvmfs/lhcb.cern.ch/lib/lhcb/LHCB/LHCB_v42r8/InstallArea/x86_64-slc6-gcc49-opt/include -I/cvmfs/lhcb.cern.ch/lib/lhcb/GAUDI/GAUDI_v28r2/InstallArea/x86_64-slc6-gcc49-opt/include    -o Sim/GaussCalo/CMakeFiles/GaussCalo.dir/src/HcalSensDet.cpp.o -c /afs/cern.ch/work/z/zhshen/GaussDev_v51r2/Sim/GaussCalo/src/HcalSensDet.cpp",
  "file": "/afs/cern.ch/work/z/zhshen/GaussDev_v51r2/Sim/GaussCalo/src/HcalSensDet.cpp"
},

{
  "directory": "/afs/cern.ch/work/z/zhshen/GaussDev_v51r2/build.x86_64-slc6-gcc49-opt",
  "command": "/cvmfs/lhcb.cern.ch/lib/lhcb/LBSCRIPTS/LBSCRIPTS_v9r2p4/InstallArea/scripts/lcg-g++-4.9.3   -DBOOST_FILESYSTEM_VERSION=3 -DBOOST_SPIRIT_USE_PHOENIX_V3 -DGAUDI_V20_COMPAT -DGaussCalo_EXPORTS -DPACKAGE_NAME=\\\"GaussCalo\\\" -DPACKAGE_VERSION=\\\"v10r1\\\" -D_GNU_SOURCE -Df2cFortran -Dlinux -Dunix  -fmessage-length=0 -pipe -Wall -Wextra -Werror=return-type -pthread -pedantic -Wwrite-strings -Wpointer-arith -Woverloaded-virtual -Wno-long-long -std=c++14 -Wno-deprecated -Wno-empty-body -Wno-unused-local-typedefs -O3 -DNDEBUG -fPIC -ISim/GaussCalo -I../Sim/GaussCalo -I/cvmfs/lhcb.cern.ch/lib/lhcb/GEANT4/GEANT4_v96r4p7/InstallArea/x86_64-slc6-gcc49-opt/include -I/cvmfs/lhcb.cern.ch/lib/lcg/releases/LCG_88/HepMC/2.06.09/x86_64-slc6-gcc49-opt/include -I/cvmfs/lhcb.cern.ch/lib/lcg/releases/LCG_88/clhep/2.3.1.1/x86_64-slc6-gcc49-opt/include -I/cvmfs/lhcb.cern.ch/lib/lcg/releases/LCG_88/GSL/2.1/x86_64-slc6-gcc49-opt/include -I/cvmfs/lhcb.cern.ch/lib/lcg/releases/LCG_88/rangev3/7c2b10f0/x86_64-slc6-gcc49-opt/include -I/cvmfs/lhcb.cern.ch/lib/lcg/releases/LCG_88/AIDA/3.2.1/x86_64-slc6-gcc49-opt/src/cpp -I/cvmfs/lhcb.cern.ch/lib/lcg/releases/LCG_88/tbb/44_20160413/x86_64-slc6-gcc49-opt/include -I/cvmfs/lhcb.cern.ch/lib/lcg/releases/LCG_88/ROOT/6.08.06/x86_64-slc6-gcc49-opt/include -I/cvmfs/lhcb.cern.ch/lib/lcg/releases/LCG_88/Boost/1.62.0/x86_64-slc6-gcc49-opt/include/boost-1_62 -Iinclude -I/cvmfs/lhcb.cern.ch/lib/lhcb/GAUSS/GAUSS_v51r2/InstallArea/x86_64-slc6-gcc49-opt/include -I/cvmfs/lhcb.cern.ch/lib/lhcb/LHCB/LHCB_v42r8/InstallArea/x86_64-slc6-gcc49-opt/include -I/cvmfs/lhcb.cern.ch/lib/lhcb/GAUDI/GAUDI_v28r2/InstallArea/x86_64-slc6-gcc49-opt/include    -o Sim/GaussCalo/CMakeFiles/GaussCalo.dir/src/SpdPrsSensDet.cpp.o -c /afs/cern.ch/work/z/zhshen/GaussDev_v51r2/Sim/GaussCalo/src/SpdPrsSensDet.cpp",
  "file": "/afs/cern.ch/work/z/zhshen/GaussDev_v51r2/Sim/GaussCalo/src/SpdPrsSensDet.cpp"
}
]