%!PS-Adobe-2.0 EPSF-2.0
%%BoundingBox:  0 0 567 385
%%Title: #gamma_xyrEt.eps: #gamma:et_deposition_density_vs_r
%%Creator: ROOT Version 6.12/06
%%CreationDate: Thu Aug  2 11:56:57 2018
%%DocumentNeededResources: ProcSet (FontSetInit)
%%EndComments
%%BeginProlog
80 dict begin
/s {stroke} def /l {lineto} def /m {moveto} def /t {translate} def
/r {rotate} def /rl {roll}  def /R {repeat} def
/d {rlineto} def /rm {rmoveto} def /gr {grestore} def /f {eofill} def
/c {setrgbcolor} def /black {0 setgray} def /sd {setdash} def
/cl {closepath} def /sf {scalefont setfont} def /lw {setlinewidth} def
/box {m dup 0 exch d exch 0 d 0 exch neg d cl} def
/NC{systemdict begin initclip end}def/C{NC box clip newpath}def
/bl {box s} def /bf {gsave box gsave f grestore 1 lw [] 0 sd s grestore} def /Y { 0 exch d} def /X { 0 d} def 
/K {{pop pop 0 moveto} exch kshow} bind def
/ita {/ang 15 def gsave [1 0 ang dup sin exch cos div 1 0 0] concat} def 
/mp {newpath /y exch def /x exch def} def
/side {[w .77 mul w .23 mul] .385 w mul sd w 0 l currentpoint t -144 r} def
/mr {mp x y w2 0 360 arc} def /m24 {mr s} def /m20 {mr f} def
/mb {mp x y w2 add m w2 neg 0 d 0 w neg d w 0 d 0 w d cl} def
/mt {mp x y w2 add m w2 neg w neg d w 0 d cl} def
/w4 {w 4 div} def
/w6 {w 6 div} def
/w8 {w 8 div} def
/m21 {mb f} def /m25 {mb s} def /m22 {mt f} def /m26{mt s} def
/m23 {mp x y w2 sub m w2 w d w neg 0 d cl f} def
/m27 {mp x y w2 add m w3 neg w2 neg d w3 w2 neg d w3 w2 d cl s} def
/m28 {mp x w2 sub y w2 sub w3 add m w3 0 d  0 w3 neg d w3 0 d 0 w3 d w3 0 d  0 w3 d w3 neg 0 d 0 w3 d w3 neg 0 d 0 w3 neg d w3 neg 0 d cl s } def
/m29 {mp gsave x w2 sub y w2 add w3 sub m currentpoint t 4 {side} repeat cl fill gr} def
/m30 {mp gsave x w2 sub y w2 add w3 sub m currentpoint t 4 {side} repeat cl s gr} def
/m31 {mp x y w2 sub m 0 w d x w2 sub y m w 0 d x w2 sub y w2 add m w w neg d x w2 sub y w2 sub m w w d s} def
/m32 {mp x y w2 sub m w2 w d w neg 0 d cl s} def
/m33 {mp x y w2 add m w3 neg w2 neg d w3 w2 neg d w3 w2 d cl f} def
/m34 {mp x w2 sub y w2 sub w3 add m w3 0 d  0 w3 neg d w3 0 d 0 w3 d w3 0 d  0 w3 d w3 neg 0 d 0 w3 d w3 neg 0 d 0 w3 neg d w3 neg 0 d cl f } def
/m35 {mp x y w2 add m w2 neg w2 neg d w2 w2 neg d w2 w2 d w2 neg w2 d x y w2 sub m 0 w d x w2 sub y m w 0 d s} def
/m36 {mb x w2 sub y w2 add m w w neg d x w2 sub y w2 sub m w w d s} def
/m37 {mp x y m w4 neg w2 d w4 neg w2 neg d w2 0 d  w4 neg w2 neg d w2 0 d w4 neg w2 d w2 0 d w4 neg w2 d w4 neg w2 neg d cl s} def
/m38 {mp x w4 sub y w2 add m w4 neg w4 neg d 0 w2 neg d w4 w4 neg d w2 0 d w4 w4 d 0 w2 d w4 neg w4 d w2 neg 0 d x y w2 sub m 0 w d x w2 sub y m w 0 d cl s} def
/m39 {mp x y m w4 neg w2 d w4 neg w2 neg d w2 0 d  w4 neg w2 neg d w2 0 d w4 neg w2 d w2 0 d w4 neg w2 d w4 neg w2 neg d cl f} def
/m40 {mp x y m w4 w2 d w4 w4 neg d w2 neg w4 neg d w2 w4 neg d w4 neg w4 neg d w4 neg w2 d w4 neg w2 neg d w4 neg w4 d w2 w4 d w2 neg w4 d w4 w4 d w4 w2 neg d cl s} def
/m41 {mp x y m w4 w2 d w4 w4 neg d w2 neg w4 neg d w2 w4 neg d w4 neg w4 neg d w4 neg w2 d w4 neg w2 neg d w4 neg w4 d w2 w4 d w2 neg w4 d w4 w4 d w4 w2 neg d cl f} def
/m42 {mp x y w2 add m w8 neg w2 -3 4 div mul d w2 -3 4 div mul w8 neg d w2 3 4 div mul w8 neg d w8 w2 -3 4 div mul d w8 w2 3 4 div mul d w2 3 4 div mul w8 d w2 -3 4 div mul w8 d w8 neg w2 3 4 div mul d cl s} def
/m43 {mp x y w2 add m w8 neg w2 -3 4 div mul d w2 -3 4 div mul w8 neg d w2 3 4 div mul w8 neg d w8 w2 -3 4 div mul d w8 w2 3 4 div mul d w2 3 4 div mul w8 d w2 -3 4 div mul w8 d w8 neg w2 3 4 div mul d cl f} def
/m44 {mp x y m w6 neg w2 d w2 2 3 div mul 0 d w6 neg w2 neg d w2 w6 d 0 w2 -2 3 div mul d w2 neg w6 d w6 w2 neg d w2 -2 3 div mul 0 d w6 w2 d w2 neg w6 neg d 0 w2 2 3 div mul d w2 w6 neg d cl s} def
/m45 {mp x y m w6 neg w2 d w2 2 3 div mul 0 d w6 neg w2 neg d w2 w6 d 0 w2 -2 3 div mul d w2 neg w6 d w6 w2 neg d w2 -2 3 div mul 0 d w6 w2 d w2 neg w6 neg d 0 w2 2 3 div mul d w2 w6 neg d cl f} def
/m46 {mp x y w4 add m w4 neg w4 d w4 neg w4 neg d  w4 w4 neg d w4 neg w4 neg d w4 w4 neg d w4 w4 d w4 w4 neg d w4 w4 d w4 neg w4 d w4 w4 d w4 neg w4 d w4 neg w4 neg d cl s} def
/m47 {mp x y w4 add m w4 neg w4 d w4 neg w4 neg d w4 w4 neg d w4 neg w4 neg d  w4 w4 neg d w4 w4 d w4 w4 neg d w4 w4 d w4 neg w4 d w4 w4 d w4 neg w4 d w4 neg w4 neg d cl f} def
/m48 {mp x y w4 add m w4 neg w4 d w4 neg w4 neg d w4 w4 neg d  w4 neg w4 neg d w4 w4 neg d w4 w4 d w4 w4 neg d w4 w4 d w4 neg w4 d w4 w4 d w4 neg w4 d w4 neg w4 neg d  w4 w4 neg d w4 neg w4 neg d w4 neg w4 d w4 w4 d cl f} def
/m49 {mp x w2 sub w3 add y w2 sub w3 add m  0 w3 neg d w3 0 d 0 w3 d w3 0 d 0 w3 d w3 neg 0 d 0 w3 d w3 neg 0 d 0 w3 neg d w3 neg 0 d 0 w3 neg d w3 0 d 0 w3 d w3 0 d 0 w3 neg d w3 neg 0 d cl f } def
/m2 {mp x y w2 sub m 0 w d x w2 sub y m w 0 d s} def
/m5 {mp x w2 sub y w2 sub m w w d x w2 sub y w2 add m w w neg d s} def
%%IncludeResource: ProcSet (FontSetInit)
%%IncludeResource: font Times-Roman
%%IncludeResource: font Times-Italic
%%IncludeResource: font Times-Bold
%%IncludeResource: font Times-BoldItalic
%%IncludeResource: font Helvetica
%%IncludeResource: font Helvetica-Oblique
%%IncludeResource: font Helvetica-Bold
%%IncludeResource: font Helvetica-BoldOblique
%%IncludeResource: font Courier
%%IncludeResource: font Courier-Oblique
%%IncludeResource: font Courier-Bold
%%IncludeResource: font Courier-BoldOblique
%%IncludeResource: font Symbol
%%IncludeResource: font ZapfDingbats
/reEncode {exch findfont dup length dict begin {1 index /FID eq  {pop pop} {def} ifelse } forall /Encoding exch def currentdict end dup /FontName get exch definefont pop } def [/Times-Bold /Times-Italic /Times-BoldItalic /Helvetica /Helvetica-Oblique
 /Helvetica-Bold /Helvetica-BoldOblique /Courier /Courier-Oblique /Courier-Bold /Courier-BoldOblique /Times-Roman /AvantGarde-Book /AvantGarde-BookOblique /AvantGarde-Demi /AvantGarde-DemiOblique /Bookman-Demi /Bookman-DemiItalic /Bookman-Light
 /Bookman-LightItalic /Helvetica-Narrow /Helvetica-Narrow-Bold /Helvetica-Narrow-BoldOblique /Helvetica-Narrow-Oblique /NewCenturySchlbk-Roman /NewCenturySchlbk-Bold /NewCenturySchlbk-BoldItalic /NewCenturySchlbk-Italic /Palatino-Bold
 /Palatino-BoldItalic /Palatino-Italic /Palatino-Roman ] {ISOLatin1Encoding reEncode } forall
%%EndProlog
%%BeginSetup
%%EndSetup
newpath  gsave  .25 .25 scale  gsave  0 0 t black[  ] 0 sd 3 lw 1 1 1 c 2268 1540 0 0 bf black 1 1 1 c 1814 1232 227 154 bf black 1814 1232 227 154 bl 1 1 1 c 1814 1232 227 154 bf black 1814 1232 227 154 bl 0 0 0.6 c 1 1 1 c black 0 0 0.6 c 261 1201
 m 2 Y s 261 1203 m 2 Y s 249 1203 m 12 X s 261 1203 m 11 X s black /w 2 def /w2 {w 2 div} def /w3 {w 3 div} def 261 1203 m20 0 0 0.6 c 283 1243 m 1 Y s 283 1244 m 2 Y s 272 1244 m 11 X s 283 1244 m 12 X s black 283 1244 m20 0 0 0.6 c 306 1200 m 2 Y
 s 306 1202 m 1 Y s 295 1202 m 11 X s 306 1202 m 11 X s black 306 1202 m20 0 0 0.6 c 329 1179 m 2 Y s 329 1181 m 1 Y s 317 1181 m 12 X s 329 1181 m 11 X s black 329 1181 m20 0 0 0.6 c 351 1149 m 2 Y s 351 1151 m 2 Y s 340 1151 m 11 X s 351 1151 m 12
 X s black 351 1151 m20 0 0 0.6 c 374 1134 m 2 Y s 374 1136 m 1 Y s 363 1136 m 11 X s 374 1136 m 12 X s black 374 1136 m20 0 0 0.6 c 397 1112 m 2 Y s 397 1114 m 2 Y s 386 1114 m 11 X s 397 1114 m 11 X s black 397 1114 m20 0 0 0.6 c 420 1099 m 2 Y s
 420 1101 m 2 Y s 408 1101 m 12 X s 420 1101 m 11 X s black 420 1101 m20 0 0 0.6 c 442 1086 m 2 Y s 442 1088 m 2 Y s 431 1088 m 11 X s 442 1088 m 12 X s black 442 1088 m20 0 0 0.6 c 465 1075 m 3 Y s 465 1078 m 2 Y s 454 1078 m 11 X s 465 1078 m 11 X
 s black 465 1078 m20 0 0 0.6 c 488 1064 m 2 Y s 488 1066 m 3 Y s 476 1066 m 12 X s 488 1066 m 11 X s black 488 1066 m20 0 0 0.6 c 510 1045 m 3 Y s 510 1048 m 2 Y s 499 1048 m 11 X s 510 1048 m 12 X s black 510 1048 m20 0 0 0.6 c 533 1038 m 3 Y s 533
 1041 m 3 Y s 522 1041 m 11 X s 533 1041 m 11 X s black 533 1041 m20 0 0 0.6 c 556 1032 m 3 Y s 556 1035 m 2 Y s 544 1035 m 12 X s 556 1035 m 11 X s black 556 1035 m20 0 0 0.6 c 578 1019 m 3 Y s 578 1022 m 2 Y s 567 1022 m 11 X s 578 1022 m 12 X s
 black 578 1022 m20 0 0 0.6 c 601 1010 m 3 Y s 601 1013 m 3 Y s 590 1013 m 11 X s 601 1013 m 11 X s black 601 1013 m20 0 0 0.6 c 624 1002 m 3 Y s 624 1005 m 3 Y s 612 1005 m 12 X s 624 1005 m 11 X s black 624 1005 m20 0 0 0.6 c 646 998 m 4 Y s 646
 1002 m 3 Y s 635 1002 m 11 X s 646 1002 m 12 X s black 646 1002 m20 0 0 0.6 c 669 987 m 3 Y s 669 990 m 3 Y s 658 990 m 11 X s 669 990 m 11 X s black 669 990 m20 0 0 0.6 c 692 987 m 3 Y s 692 990 m 3 Y s 680 990 m 12 X s 692 990 m 11 X s black 692
 990 m20 0 0 0.6 c 714 975 m 3 Y s 714 978 m 3 Y s 703 978 m 11 X s 714 978 m 12 X s black 714 978 m20 0 0 0.6 c 737 967 m 4 Y s 737 971 m 3 Y s 726 971 m 11 X s 737 971 m 11 X s black 737 971 m20 0 0 0.6 c 760 962 m 3 Y s 760 965 m 3 Y s 748 965 m
 12 X s 760 965 m 11 X s black 760 965 m20 0 0 0.6 c 782 959 m 3 Y s 782 962 m 3 Y s 771 962 m 11 X s 782 962 m 12 X s black 782 962 m20 0 0 0.6 c 805 949 m 3 Y s 805 952 m 3 Y s 794 952 m 11 X s 805 952 m 11 X s black 805 952 m20 0 0 0.6 c 828 941 m
 3 Y s 828 944 m 3 Y s 816 944 m 12 X s 828 944 m 11 X s black 828 944 m20 0 0 0.6 c 850 935 m 3 Y s 850 938 m 4 Y s 839 938 m 11 X s 850 938 m 12 X s black 850 938 m20 0 0 0.6 c 873 925 m 4 Y s 873 929 m 3 Y s 862 929 m 11 X s 873 929 m 11 X s black
 873 929 m20 0 0 0.6 c 896 922 m 3 Y s 896 925 m 4 Y s 884 925 m 12 X s 896 925 m 11 X s black 896 925 m20 0 0 0.6 c 918 924 m 4 Y s 918 928 m 4 Y s 907 928 m 11 X s 918 928 m 12 X s black 918 928 m20 0 0 0.6 c 941 916 m 3 Y s 941 919 m 4 Y s 930 919
 m 11 X s 941 919 m 11 X s black 941 919 m20 0 0 0.6 c 964 898 m 4 Y s 964 902 m 4 Y s 952 902 m 12 X s 964 902 m 11 X s black 964 902 m20 0 0 0.6 c 986 894 m 4 Y s 986 898 m 4 Y s 975 898 m 11 X s 986 898 m 12 X s black 986 898 m20 0 0 0.6 c 1009
 889 m 5 Y s 1009 894 m 5 Y s 998 894 m 11 X s 1009 894 m 11 X s black 1009 894 m20 0 0 0.6 c 1032 877 m 4 Y s 1032 881 m 5 Y s 1020 881 m 12 X s 1032 881 m 11 X s black 1032 881 m20 0 0 0.6 c 1054 868 m 5 Y s 1054 873 m 4 Y s 1043 873 m 11 X s 1054
 873 m 12 X s black 1054 873 m20 0 0 0.6 c 1077 859 m 4 Y s 1077 863 m 5 Y s 1066 863 m 11 X s 1077 863 m 12 X s black 1077 863 m20 0 0 0.6 c 1100 859 m 5 Y s 1100 864 m 5 Y s 1089 864 m 11 X s 1100 864 m 11 X s black 1100 864 m20 0 0 0.6 c 1123 852
 m 5 Y s 1123 857 m 5 Y s 1111 857 m 12 X s 1123 857 m 11 X s black 1123 857 m20 0 0 0.6 c 1145 839 m 5 Y s 1145 844 m 4 Y s 1134 844 m 11 X s 1145 844 m 12 X s black 1145 844 m20 0 0 0.6 c 1168 832 m 5 Y s 1168 837 m 4 Y s 1157 837 m 11 X s 1168 837
 m 11 X s black 1168 837 m20 0 0 0.6 c 1191 837 m 5 Y s 1191 842 m 5 Y s 1179 842 m 12 X s 1191 842 m 11 X s black 1191 842 m20 0 0 0.6 c 1213 818 m 6 Y s 1213 824 m 5 Y s 1202 824 m 11 X s 1213 824 m 12 X s black 1213 824 m20 0 0 0.6 c 1236 795 m 6
 Y s 1236 801 m 5 Y s 1225 801 m 11 X s 1236 801 m 11 X s black 1236 801 m20 0 0 0.6 c 1259 768 m 7 Y s 1259 775 m 6 Y s 1247 775 m 12 X s 1259 775 m 11 X s black 1259 775 m20 0 0 0.6 c 1281 740 m 8 Y s 1281 748 m 6 Y s 1270 748 m 11 X s 1281 748 m
 12 X s black 1281 748 m20 0 0 0.6 c 1304 732 m 8 Y s 1304 740 m 6 Y s 1293 740 m 11 X s 1304 740 m 11 X s black 1304 740 m20 0 0 0.6 c 1327 740 m 8 Y s 1327 748 m 8 Y s 1315 748 m 12 X s 1327 748 m 11 X s black 1327 748 m20 0 0 0.6 c 1349 708 m 8 Y
 s 1349 716 m 7 Y s 1338 716 m 11 X s 1349 716 m 12 X s black 1349 716 m20 0 0 0.6 c 1372 725 m 10 Y s 1372 735 m 9 Y s 1361 735 m 11 X s 1372 735 m 11 X s black 1372 735 m20 0 0 0.6 c 1395 694 m 8 Y s 1395 702 m 7 Y s 1383 702 m 12 X s 1395 702 m 11
 X s black 1395 702 m20 0 0 0.6 c 1417 730 m 8 Y s 1417 738 m 7 Y s 1406 738 m 11 X s 1417 738 m 12 X s black 1417 738 m20 0 0 0.6 c 1440 747 m 7 Y s 1440 754 m 7 Y s 1429 754 m 11 X s 1440 754 m 11 X s black 1440 754 m20 0 0 0.6 c 1463 723 m 7 Y s
 1463 730 m 6 Y s 1451 730 m 12 X s 1463 730 m 11 X s black 1463 730 m20 0 0 0.6 c 1485 700 m 9 Y s 1485 709 m 7 Y s 1474 709 m 11 X s 1485 709 m 12 X s black 1485 709 m20 0 0 0.6 c 1508 674 m 9 Y s 1508 683 m 7 Y s 1497 683 m 11 X s 1508 683 m 11 X
 s black 1508 683 m20 0 0 0.6 c 1531 635 m 10 Y s 1531 645 m 9 Y s 1519 645 m 12 X s 1531 645 m 11 X s black 1531 645 m20 0 0 0.6 c 1553 658 m 12 Y s 1553 670 m 10 Y s 1542 670 m 11 X s 1553 670 m 12 X s black 1553 670 m20 0 0 0.6 c 1576 646 m 11 Y s
 1576 657 m 9 Y s 1565 657 m 11 X s 1576 657 m 11 X s black 1576 657 m20 0 0 0.6 c 1599 632 m 10 Y s 1599 642 m 9 Y s 1587 642 m 12 X s 1599 642 m 11 X s black 1599 642 m20 0 0 0.6 c 1621 641 m 11 Y s 1621 652 m 10 Y s 1610 652 m 11 X s 1621 652 m 12
 X s black 1621 652 m20 0 0 0.6 c 1644 658 m 15 Y s 1644 673 m 12 Y s 1633 673 m 11 X s 1644 673 m 11 X s black 1644 673 m20 0 0 0.6 c 1667 629 m 11 Y s 1667 640 m 10 Y s 1655 640 m 12 X s 1667 640 m 11 X s black 1667 640 m20 0 0 0.6 c 1689 628 m 14
 Y s 1689 642 m 11 Y s 1678 642 m 11 X s 1689 642 m 12 X s black 1689 642 m20 0 0 0.6 c 1712 605 m 12 Y s 1712 617 m 10 Y s 1701 617 m 11 X s 1712 617 m 11 X s black 1712 617 m20 0 0 0.6 c 1735 629 m 13 Y s 1735 642 m 11 Y s 1723 642 m 12 X s 1735
 642 m 11 X s black 1735 642 m20 0 0 0.6 c 1757 593 m 14 Y s 1757 607 m 11 Y s 1746 607 m 11 X s 1757 607 m 12 X s black 1757 607 m20 0 0 0.6 c 1780 632 m 15 Y s 1780 647 m 12 Y s 1769 647 m 11 X s 1780 647 m 11 X s black 1780 647 m20 0 0 0.6 c 1803
 585 m 21 Y s 1803 606 m 16 Y s 1791 606 m 12 X s 1803 606 m 11 X s black 1803 606 m20 0 0 0.6 c 1826 569 m 23 Y s 1826 592 m 17 Y s 1814 592 m 12 X s 1826 592 m 11 X s black 1826 592 m20 0 0 0.6 c 1848 568 m 31 Y s 1848 599 m 22 Y s 1837 599 m 11 X
 s 1848 599 m 12 X s black 1848 599 m20 0 0 0.6 c 1871 518 m 25 Y s 1871 543 m 18 Y s 1860 543 m 11 X s 1871 543 m 11 X s black 1871 543 m20 0 0 0.6 c 1894 522 m 39 Y s 1894 561 m 26 Y s 1882 561 m 12 X s 1894 561 m 11 X s black 1894 561 m20 0 0 0.6
 c 1916 437 m 32 Y s 1916 469 m 22 Y s 1905 469 m 11 X s 1916 469 m 12 X s black 1916 469 m20 0 0 0.6 c 1939 342 m 63 Y s 1939 405 m 34 Y s 1928 405 m 11 X s 1939 405 m 11 X s black 1939 405 m20 0 0 0.6 c 1962 296 m 49 Y s 1962 345 m 30 Y s 1950 345
 m 12 X s 1962 345 m 11 X s black 1962 345 m20 0 0 0.6 c 1984 346 m 49 Y s 1984 395 m 29 Y s 1973 395 m 11 X s 1984 395 m 12 X s black 1984 395 m20 0 0 0.6 c 2007 417 m 49 Y s 2007 466 m 29 Y s 1996 466 m 11 X s 2007 466 m 11 X s black 2007 466 m20
 227 154 m 1814 X s 227 191 m -37 Y s 272 172 m -18 Y s 317 172 m -18 Y s 363 172 m -18 Y s 408 172 m -18 Y s 454 191 m -37 Y s 499 172 m -18 Y s 544 172 m -18 Y s 590 172 m -18 Y s 635 172 m -18 Y s 680 191 m -37 Y s 726 172 m -18 Y s 771 172 m -18
 Y s 816 172 m -18 Y s 862 172 m -18 Y s 907 191 m -37 Y s 952 172 m -18 Y s 998 172 m -18 Y s 1043 172 m -18 Y s 1089 172 m -18 Y s 1134 191 m -37 Y s 1179 172 m -18 Y s 1225 172 m -18 Y s 1270 172 m -18 Y s 1315 172 m -18 Y s 1361 191 m -37 Y s
 1406 172 m -18 Y s 1451 172 m -18 Y s 1497 172 m -18 Y s 1542 172 m -18 Y s 1587 191 m -37 Y s 1633 172 m -18 Y s 1678 172 m -18 Y s 1723 172 m -18 Y s 1769 172 m -18 Y s 1814 191 m -37 Y s 1860 172 m -18 Y s 1905 172 m -18 Y s 1950 172 m -18 Y s
 1996 172 m -18 Y s 2041 191 m -37 Y s
 gsave  2268 1540 0 0 C 211.177 103.964 t 0 r /Helvetica findfont 48.7332 sf 0 0 m (0) show NC gr 
 gsave  2268 1540 0 0 C 409.359 103.964 t 0 r /Helvetica findfont 48.7332 sf 0 0 m (100) show NC gr 
 gsave  2268 1540 0 0 C 636.78 103.964 t 0 r /Helvetica findfont 48.7332 sf 0 0 m (200) show NC gr 
 gsave  2268 1540 0 0 C 864.201 103.964 t 0 r /Helvetica findfont 48.7332 sf 0 0 m (300) show NC gr 
 gsave  2268 1540 0 0 C 1091.62 103.964 t 0 r /Helvetica findfont 48.7332 sf 0 0 m (400) show NC gr 
 gsave  2268 1540 0 0 C 1315.8 103.964 t 0 r /Helvetica findfont 48.7332 sf 0 0 m (500) show NC gr 
 gsave  2268 1540 0 0 C 1543.22 103.964 t 0 r /Helvetica findfont 48.7332 sf 0 0 m (600) show NC gr 
 gsave  2268 1540 0 0 C 1770.64 103.964 t 0 r /Helvetica findfont 48.7332 sf 0 0 m (700) show NC gr 
 gsave  2268 1540 0 0 C 1998.06 103.964 t 0 r /Helvetica findfont 48.7332 sf 0 0 m (800) show NC gr 
 gsave  2268 1540 0 0 C 1059.13 25.991 t 0 r /Helvetica findfont 64.9775 sf 0 0 m (r\(cm\)) show NC gr  227 154 m 1232 Y s 281 154 m -54 X s
 gsave  2268 1540 0 0 C 188.435 155.946 t 0 r /Helvetica findfont 32.4888 sf 0 0 m (5) show NC gr 
 gsave  2268 1540 0 0 C 168.942 155.946 t 0 r /Symbol findfont 32.4888 sf 0 0 m (-) show NC gr 
 gsave  2268 1540 0 0 C 113.711 133.204 t 0 r /Helvetica findfont 48.7332 sf 0 0 m (10) show NC gr  254 207 m -27 X s 254 238 m -27 X s 254 260 m -27 X s 254 277 m -27 X s 254 291 m -27 X s 254 303 m -27 X s 254 313 m -27 X s 254 322 m -27 X s 281
 330 m -54 X s
 gsave  2268 1540 0 0 C 188.435 328.137 t 0 r /Helvetica findfont 32.4888 sf 0 0 m (4) show NC gr 
 gsave  2268 1540 0 0 C 168.942 328.137 t 0 r /Symbol findfont 32.4888 sf 0 0 m (-) show NC gr 
 gsave  2268 1540 0 0 C 113.711 308.643 t 0 r /Helvetica findfont 48.7332 sf 0 0 m (10) show NC gr  254 383 m -27 X s 254 414 m -27 X s 254 436 m -27 X s 254 453 m -27 X s 254 467 m -27 X s 254 479 m -27 X s 254 489 m -27 X s 254 498 m -27 X s 281
 506 m -54 X s
 gsave  2268 1540 0 0 C 188.435 506.825 t 0 r /Helvetica findfont 32.4888 sf 0 0 m (3) show NC gr 
 gsave  2268 1540 0 0 C 168.942 506.825 t 0 r /Symbol findfont 32.4888 sf 0 0 m (-) show NC gr 
 gsave  2268 1540 0 0 C 113.711 484.083 t 0 r /Helvetica findfont 48.7332 sf 0 0 m (10) show NC gr  254 559 m -27 X s 254 590 m -27 X s 254 612 m -27 X s 254 629 m -27 X s 254 643 m -27 X s 254 655 m -27 X s 254 665 m -27 X s 254 674 m -27 X s 281
 682 m -54 X s
 gsave  2268 1540 0 0 C 188.435 679.015 t 0 r /Helvetica findfont 32.4888 sf 0 0 m (2) show NC gr 
 gsave  2268 1540 0 0 C 168.942 679.015 t 0 r /Symbol findfont 32.4888 sf 0 0 m (-) show NC gr 
 gsave  2268 1540 0 0 C 113.711 659.522 t 0 r /Helvetica findfont 48.7332 sf 0 0 m (10) show NC gr  254 735 m -27 X s 254 766 m -27 X s 254 788 m -27 X s 254 805 m -27 X s 254 819 m -27 X s 254 831 m -27 X s 254 841 m -27 X s 254 850 m -27 X s 281
 858 m -54 X s
 gsave  2268 1540 0 0 C 194.933 857.704 t 0 r /Helvetica findfont 32.4888 sf 0 0 m (1) show NC gr 
 gsave  2268 1540 0 0 C 175.439 857.704 t 0 r /Symbol findfont 32.4888 sf 0 0 m (-) show NC gr 
 gsave  2268 1540 0 0 C 120.208 838.21 t 0 r /Helvetica findfont 48.7332 sf 0 0 m (10) show NC gr  254 911 m -27 X s 254 942 m -27 X s 254 964 m -27 X s 254 981 m -27 X s 254 995 m -27 X s 254 1007 m -27 X s 254 1017 m -27 X s 254 1026 m -27 X s 281
 1034 m -54 X s
 gsave  2268 1540 0 0 C 188.435 1016.9 t 0 r /Helvetica findfont 48.7332 sf 0 0 m (1) show NC gr  254 1087 m -27 X s 254 1118 m -27 X s 254 1140 m -27 X s 254 1157 m -27 X s 254 1171 m -27 X s 254 1183 m -27 X s 254 1193 m -27 X s 254 1202 m -27 X s
 281 1210 m -54 X s
 gsave  2268 1540 0 0 C 152.697 1192.34 t 0 r /Helvetica findfont 48.7332 sf 0 0 m (10) show NC gr  254 1263 m -27 X s 254 1294 m -27 X s 254 1316 m -27 X s 254 1333 m -27 X s 254 1347 m -27 X s 254 1359 m -27 X s 254 1369 m -27 X s 254 1378 m -27 X
 s 281 1386 m -54 X s
 gsave  2268 1540 0 0 C 188.435 1384.02 t 0 r /Helvetica findfont 32.4888 sf 0 0 m (2) show NC gr 
 gsave  2268 1540 0 0 C 133.204 1364.53 t 0 r /Helvetica findfont 48.7332 sf 0 0 m (10) show NC gr 
 gsave  2268 1540 0 0 C 94.2174 347.63 t 90 r /Helvetica findfont 64.9775 sf 0 0 m (energy_deposition_density\(Mev/cm\)) show NC gr  1 1 1 c black
 gsave  2268 1540 0 0 C 688.762 1468.49 t 0 r /Helvetica findfont 74.7242 sf 0 0 m (:et_deposition_density_vs_r) show NC gr 
 gsave  2268 1540 0 0 C 649.776 1468.49 t 0 r /Symbol findfont 74.7242 sf 0 0 m (g) show NC gr 
 gr  gr showpage
end
%%EOF
