%!PS-Adobe-2.0 EPSF-2.0
%%BoundingBox:  0 0 567 385
%%Title: #gamma_xyrE.eps: #gamma:energy_deposition_density_vs_r
%%Creator: ROOT Version 6.12/06
%%CreationDate: Wed Aug  1 19:35:07 2018
%%DocumentNeededResources: ProcSet (FontSetInit)
%%EndComments
%%BeginProlog
80 dict begin
/s {stroke} def /l {lineto} def /m {moveto} def /t {translate} def
/r {rotate} def /rl {roll}  def /R {repeat} def
/d {rlineto} def /rm {rmoveto} def /gr {grestore} def /f {eofill} def
/c {setrgbcolor} def /black {0 setgray} def /sd {setdash} def
/cl {closepath} def /sf {scalefont setfont} def /lw {setlinewidth} def
/box {m dup 0 exch d exch 0 d 0 exch neg d cl} def
/NC{systemdict begin initclip end}def/C{NC box clip newpath}def
/bl {box s} def /bf {gsave box gsave f grestore 1 lw [] 0 sd s grestore} def /Y { 0 exch d} def /X { 0 d} def 
/K {{pop pop 0 moveto} exch kshow} bind def
/ita {/ang 15 def gsave [1 0 ang dup sin exch cos div 1 0 0] concat} def 
/mp {newpath /y exch def /x exch def} def
/side {[w .77 mul w .23 mul] .385 w mul sd w 0 l currentpoint t -144 r} def
/mr {mp x y w2 0 360 arc} def /m24 {mr s} def /m20 {mr f} def
/mb {mp x y w2 add m w2 neg 0 d 0 w neg d w 0 d 0 w d cl} def
/mt {mp x y w2 add m w2 neg w neg d w 0 d cl} def
/w4 {w 4 div} def
/w6 {w 6 div} def
/w8 {w 8 div} def
/m21 {mb f} def /m25 {mb s} def /m22 {mt f} def /m26{mt s} def
/m23 {mp x y w2 sub m w2 w d w neg 0 d cl f} def
/m27 {mp x y w2 add m w3 neg w2 neg d w3 w2 neg d w3 w2 d cl s} def
/m28 {mp x w2 sub y w2 sub w3 add m w3 0 d  0 w3 neg d w3 0 d 0 w3 d w3 0 d  0 w3 d w3 neg 0 d 0 w3 d w3 neg 0 d 0 w3 neg d w3 neg 0 d cl s } def
/m29 {mp gsave x w2 sub y w2 add w3 sub m currentpoint t 4 {side} repeat cl fill gr} def
/m30 {mp gsave x w2 sub y w2 add w3 sub m currentpoint t 4 {side} repeat cl s gr} def
/m31 {mp x y w2 sub m 0 w d x w2 sub y m w 0 d x w2 sub y w2 add m w w neg d x w2 sub y w2 sub m w w d s} def
/m32 {mp x y w2 sub m w2 w d w neg 0 d cl s} def
/m33 {mp x y w2 add m w3 neg w2 neg d w3 w2 neg d w3 w2 d cl f} def
/m34 {mp x w2 sub y w2 sub w3 add m w3 0 d  0 w3 neg d w3 0 d 0 w3 d w3 0 d  0 w3 d w3 neg 0 d 0 w3 d w3 neg 0 d 0 w3 neg d w3 neg 0 d cl f } def
/m35 {mp x y w2 add m w2 neg w2 neg d w2 w2 neg d w2 w2 d w2 neg w2 d x y w2 sub m 0 w d x w2 sub y m w 0 d s} def
/m36 {mb x w2 sub y w2 add m w w neg d x w2 sub y w2 sub m w w d s} def
/m37 {mp x y m w4 neg w2 d w4 neg w2 neg d w2 0 d  w4 neg w2 neg d w2 0 d w4 neg w2 d w2 0 d w4 neg w2 d w4 neg w2 neg d cl s} def
/m38 {mp x w4 sub y w2 add m w4 neg w4 neg d 0 w2 neg d w4 w4 neg d w2 0 d w4 w4 d 0 w2 d w4 neg w4 d w2 neg 0 d x y w2 sub m 0 w d x w2 sub y m w 0 d cl s} def
/m39 {mp x y m w4 neg w2 d w4 neg w2 neg d w2 0 d  w4 neg w2 neg d w2 0 d w4 neg w2 d w2 0 d w4 neg w2 d w4 neg w2 neg d cl f} def
/m40 {mp x y m w4 w2 d w4 w4 neg d w2 neg w4 neg d w2 w4 neg d w4 neg w4 neg d w4 neg w2 d w4 neg w2 neg d w4 neg w4 d w2 w4 d w2 neg w4 d w4 w4 d w4 w2 neg d cl s} def
/m41 {mp x y m w4 w2 d w4 w4 neg d w2 neg w4 neg d w2 w4 neg d w4 neg w4 neg d w4 neg w2 d w4 neg w2 neg d w4 neg w4 d w2 w4 d w2 neg w4 d w4 w4 d w4 w2 neg d cl f} def
/m42 {mp x y w2 add m w8 neg w2 -3 4 div mul d w2 -3 4 div mul w8 neg d w2 3 4 div mul w8 neg d w8 w2 -3 4 div mul d w8 w2 3 4 div mul d w2 3 4 div mul w8 d w2 -3 4 div mul w8 d w8 neg w2 3 4 div mul d cl s} def
/m43 {mp x y w2 add m w8 neg w2 -3 4 div mul d w2 -3 4 div mul w8 neg d w2 3 4 div mul w8 neg d w8 w2 -3 4 div mul d w8 w2 3 4 div mul d w2 3 4 div mul w8 d w2 -3 4 div mul w8 d w8 neg w2 3 4 div mul d cl f} def
/m44 {mp x y m w6 neg w2 d w2 2 3 div mul 0 d w6 neg w2 neg d w2 w6 d 0 w2 -2 3 div mul d w2 neg w6 d w6 w2 neg d w2 -2 3 div mul 0 d w6 w2 d w2 neg w6 neg d 0 w2 2 3 div mul d w2 w6 neg d cl s} def
/m45 {mp x y m w6 neg w2 d w2 2 3 div mul 0 d w6 neg w2 neg d w2 w6 d 0 w2 -2 3 div mul d w2 neg w6 d w6 w2 neg d w2 -2 3 div mul 0 d w6 w2 d w2 neg w6 neg d 0 w2 2 3 div mul d w2 w6 neg d cl f} def
/m46 {mp x y w4 add m w4 neg w4 d w4 neg w4 neg d  w4 w4 neg d w4 neg w4 neg d w4 w4 neg d w4 w4 d w4 w4 neg d w4 w4 d w4 neg w4 d w4 w4 d w4 neg w4 d w4 neg w4 neg d cl s} def
/m47 {mp x y w4 add m w4 neg w4 d w4 neg w4 neg d w4 w4 neg d w4 neg w4 neg d  w4 w4 neg d w4 w4 d w4 w4 neg d w4 w4 d w4 neg w4 d w4 w4 d w4 neg w4 d w4 neg w4 neg d cl f} def
/m48 {mp x y w4 add m w4 neg w4 d w4 neg w4 neg d w4 w4 neg d  w4 neg w4 neg d w4 w4 neg d w4 w4 d w4 w4 neg d w4 w4 d w4 neg w4 d w4 w4 d w4 neg w4 d w4 neg w4 neg d  w4 w4 neg d w4 neg w4 neg d w4 neg w4 d w4 w4 d cl f} def
/m49 {mp x w2 sub w3 add y w2 sub w3 add m  0 w3 neg d w3 0 d 0 w3 d w3 0 d 0 w3 d w3 neg 0 d 0 w3 d w3 neg 0 d 0 w3 neg d w3 neg 0 d 0 w3 neg d w3 0 d 0 w3 d w3 0 d 0 w3 neg d w3 neg 0 d cl f } def
/m2 {mp x y w2 sub m 0 w d x w2 sub y m w 0 d s} def
/m5 {mp x w2 sub y w2 sub m w w d x w2 sub y w2 add m w w neg d s} def
%%IncludeResource: ProcSet (FontSetInit)
%%IncludeResource: font Times-Roman
%%IncludeResource: font Times-Italic
%%IncludeResource: font Times-Bold
%%IncludeResource: font Times-BoldItalic
%%IncludeResource: font Helvetica
%%IncludeResource: font Helvetica-Oblique
%%IncludeResource: font Helvetica-Bold
%%IncludeResource: font Helvetica-BoldOblique
%%IncludeResource: font Courier
%%IncludeResource: font Courier-Oblique
%%IncludeResource: font Courier-Bold
%%IncludeResource: font Courier-BoldOblique
%%IncludeResource: font Symbol
%%IncludeResource: font ZapfDingbats
/reEncode {exch findfont dup length dict begin {1 index /FID eq  {pop pop} {def} ifelse } forall /Encoding exch def currentdict end dup /FontName get exch definefont pop } def [/Times-Bold /Times-Italic /Times-BoldItalic /Helvetica /Helvetica-Oblique
 /Helvetica-Bold /Helvetica-BoldOblique /Courier /Courier-Oblique /Courier-Bold /Courier-BoldOblique /Times-Roman /AvantGarde-Book /AvantGarde-BookOblique /AvantGarde-Demi /AvantGarde-DemiOblique /Bookman-Demi /Bookman-DemiItalic /Bookman-Light
 /Bookman-LightItalic /Helvetica-Narrow /Helvetica-Narrow-Bold /Helvetica-Narrow-BoldOblique /Helvetica-Narrow-Oblique /NewCenturySchlbk-Roman /NewCenturySchlbk-Bold /NewCenturySchlbk-BoldItalic /NewCenturySchlbk-Italic /Palatino-Bold
 /Palatino-BoldItalic /Palatino-Italic /Palatino-Roman ] {ISOLatin1Encoding reEncode } forall
%%EndProlog
%%BeginSetup
%%EndSetup
newpath  gsave  .25 .25 scale  gsave  0 0 t black[  ] 0 sd 3 lw 1 1 1 c 2268 1540 0 0 bf black 1 1 1 c 1814 1232 227 154 bf black 1814 1232 227 154 bl 1 1 1 c 1814 1232 227 154 bf black 1814 1232 227 154 bl 0 0 0.6 c 1 1 1 c black 0 0 0.6 c 261 1201
 m 2 Y s 261 1203 m 2 Y s 249 1203 m 12 X s 261 1203 m 11 X s black /w 2 def /w2 {w 2 div} def /w3 {w 3 div} def 261 1203 m20 0 0 0.6 c 283 1217 m 1 Y s 283 1218 m 1 Y s 272 1218 m 11 X s 283 1218 m 12 X s black 283 1218 m20 0 0 0.6 c 306 1155 m 2 Y
 s 306 1157 m 1 Y s 295 1157 m 11 X s 306 1157 m 11 X s black 306 1157 m20 0 0 0.6 c 329 1120 m 1 Y s 329 1121 m 2 Y s 317 1121 m 12 X s 329 1121 m 11 X s black 329 1121 m20 0 0 0.6 c 351 1080 m 2 Y s 351 1082 m 1 Y s 340 1082 m 11 X s 351 1082 m 12
 X s black 351 1082 m20 0 0 0.6 c 374 1056 m 1 Y s 374 1057 m 2 Y s 363 1057 m 11 X s 374 1057 m 12 X s black 374 1057 m20 0 0 0.6 c 397 1027 m 2 Y s 397 1029 m 1 Y s 386 1029 m 11 X s 397 1029 m 11 X s black 397 1029 m20 0 0 0.6 c 420 1007 m 2 Y s
 420 1009 m 2 Y s 408 1009 m 12 X s 420 1009 m 11 X s black 420 1009 m20 0 0 0.6 c 442 988 m 2 Y s 442 990 m 2 Y s 431 990 m 11 X s 442 990 m 12 X s black 442 990 m20 0 0 0.6 c 465 972 m 2 Y s 465 974 m 2 Y s 454 974 m 11 X s 465 974 m 11 X s black
 465 974 m20 0 0 0.6 c 488 956 m 2 Y s 488 958 m 2 Y s 476 958 m 12 X s 488 958 m 11 X s black 488 958 m20 0 0 0.6 c 510 934 m 3 Y s 510 937 m 2 Y s 499 937 m 11 X s 510 937 m 12 X s black 510 937 m20 0 0 0.6 c 533 923 m 2 Y s 533 925 m 3 Y s 522 925
 m 11 X s 533 925 m 11 X s black 533 925 m20 0 0 0.6 c 556 913 m 2 Y s 556 915 m 3 Y s 544 915 m 12 X s 556 915 m 11 X s black 556 915 m20 0 0 0.6 c 578 897 m 2 Y s 578 899 m 3 Y s 567 899 m 11 X s 578 899 m 12 X s black 578 899 m20 0 0 0.6 c 601 885
 m 3 Y s 601 888 m 2 Y s 590 888 m 11 X s 601 888 m 11 X s black 601 888 m20 0 0 0.6 c 624 874 m 3 Y s 624 877 m 2 Y s 612 877 m 12 X s 624 877 m 11 X s black 624 877 m20 0 0 0.6 c 646 867 m 3 Y s 646 870 m 3 Y s 635 870 m 11 X s 646 870 m 12 X s
 black 646 870 m20 0 0 0.6 c 669 854 m 3 Y s 669 857 m 2 Y s 658 857 m 11 X s 669 857 m 11 X s black 669 857 m20 0 0 0.6 c 692 851 m 2 Y s 692 853 m 3 Y s 680 853 m 12 X s 692 853 m 11 X s black 692 853 m20 0 0 0.6 c 714 837 m 3 Y s 714 840 m 3 Y s
 703 840 m 11 X s 714 840 m 12 X s black 714 840 m20 0 0 0.6 c 737 828 m 2 Y s 737 830 m 3 Y s 726 830 m 11 X s 737 830 m 11 X s black 737 830 m20 0 0 0.6 c 760 820 m 3 Y s 760 823 m 3 Y s 748 823 m 12 X s 760 823 m 11 X s black 760 823 m20 0 0 0.6 c
 782 814 m 3 Y s 782 817 m 3 Y s 771 817 m 11 X s 782 817 m 12 X s black 782 817 m20 0 0 0.6 c 805 803 m 3 Y s 805 806 m 3 Y s 794 806 m 11 X s 805 806 m 11 X s black 805 806 m20 0 0 0.6 c 828 794 m 3 Y s 828 797 m 2 Y s 816 797 m 12 X s 828 797 m 11
 X s black 828 797 m20 0 0 0.6 c 850 786 m 3 Y s 850 789 m 3 Y s 839 789 m 11 X s 850 789 m 12 X s black 850 789 m20 0 0 0.6 c 873 775 m 4 Y s 873 779 m 3 Y s 862 779 m 11 X s 873 779 m 11 X s black 873 779 m20 0 0 0.6 c 896 770 m 3 Y s 896 773 m 3 Y
 s 884 773 m 12 X s 896 773 m 11 X s black 896 773 m20 0 0 0.6 c 918 770 m 3 Y s 918 773 m 4 Y s 907 773 m 11 X s 918 773 m 12 X s black 918 773 m20 0 0 0.6 c 941 761 m 3 Y s 941 764 m 3 Y s 930 764 m 11 X s 941 764 m 11 X s black 941 764 m20 0 0 0.6
 c 964 743 m 4 Y s 964 747 m 3 Y s 952 747 m 12 X s 964 747 m 11 X s black 964 747 m20 0 0 0.6 c 986 738 m 4 Y s 986 742 m 3 Y s 975 742 m 11 X s 986 742 m 12 X s black 986 742 m20 0 0 0.6 c 1009 732 m 4 Y s 1009 736 m 5 Y s 998 736 m 11 X s 1009 736
 m 11 X s black 1009 736 m20 0 0 0.6 c 1032 719 m 4 Y s 1032 723 m 4 Y s 1020 723 m 12 X s 1032 723 m 11 X s black 1032 723 m20 0 0 0.6 c 1054 710 m 4 Y s 1054 714 m 4 Y s 1043 714 m 11 X s 1054 714 m 12 X s black 1054 714 m20 0 0 0.6 c 1077 700 m 4
 Y s 1077 704 m 4 Y s 1066 704 m 11 X s 1077 704 m 12 X s black 1077 704 m20 0 0 0.6 c 1100 699 m 4 Y s 1100 703 m 4 Y s 1089 703 m 11 X s 1100 703 m 11 X s black 1100 703 m20 0 0 0.6 c 1123 691 m 4 Y s 1123 695 m 4 Y s 1111 695 m 12 X s 1123 695 m
 11 X s black 1123 695 m20 0 0 0.6 c 1145 678 m 4 Y s 1145 682 m 4 Y s 1134 682 m 11 X s 1145 682 m 12 X s black 1145 682 m20 0 0 0.6 c 1168 671 m 4 Y s 1168 675 m 4 Y s 1157 675 m 11 X s 1168 675 m 11 X s black 1168 675 m20 0 0 0.6 c 1191 674 m 4 Y
 s 1191 678 m 4 Y s 1179 678 m 12 X s 1191 678 m 11 X s black 1191 678 m20 0 0 0.6 c 1213 655 m 6 Y s 1213 661 m 5 Y s 1202 661 m 11 X s 1213 661 m 12 X s black 1213 661 m20 0 0 0.6 c 1236 634 m 5 Y s 1236 639 m 5 Y s 1225 639 m 11 X s 1236 639 m 11
 X s black 1236 639 m20 0 0 0.6 c 1259 609 m 6 Y s 1259 615 m 6 Y s 1247 615 m 12 X s 1259 615 m 11 X s black 1259 615 m20 0 0 0.6 c 1281 584 m 6 Y s 1281 590 m 6 Y s 1270 590 m 11 X s 1281 590 m 12 X s black 1281 590 m20 0 0 0.6 c 1304 576 m 6 Y s
 1304 582 m 6 Y s 1293 582 m 11 X s 1304 582 m 11 X s black 1304 582 m20 0 0 0.6 c 1327 581 m 7 Y s 1327 588 m 7 Y s 1315 588 m 12 X s 1327 588 m 11 X s black 1327 588 m20 0 0 0.6 c 1349 552 m 7 Y s 1349 559 m 6 Y s 1338 559 m 11 X s 1349 559 m 12 X
 s black 1349 559 m20 0 0 0.6 c 1372 566 m 9 Y s 1372 575 m 7 Y s 1361 575 m 11 X s 1372 575 m 11 X s black 1372 575 m20 0 0 0.6 c 1395 537 m 7 Y s 1395 544 m 6 Y s 1383 544 m 12 X s 1395 544 m 11 X s black 1395 544 m20 0 0 0.6 c 1417 567 m 7 Y s
 1417 574 m 6 Y s 1406 574 m 11 X s 1417 574 m 12 X s black 1417 574 m20 0 0 0.6 c 1440 581 m 7 Y s 1440 588 m 6 Y s 1429 588 m 11 X s 1440 588 m 11 X s black 1440 588 m20 0 0 0.6 c 1463 559 m 6 Y s 1463 565 m 5 Y s 1451 565 m 12 X s 1463 565 m 11 X
 s black 1463 565 m20 0 0 0.6 c 1485 539 m 7 Y s 1485 546 m 6 Y s 1474 546 m 11 X s 1485 546 m 12 X s black 1485 546 m20 0 0 0.6 c 1508 515 m 7 Y s 1508 522 m 6 Y s 1497 522 m 11 X s 1508 522 m 11 X s black 1508 522 m20 0 0 0.6 c 1531 479 m 9 Y s
 1531 488 m 8 Y s 1519 488 m 12 X s 1531 488 m 11 X s black 1531 488 m20 0 0 0.6 c 1553 498 m 11 Y s 1553 509 m 9 Y s 1542 509 m 11 X s 1553 509 m 12 X s black 1553 509 m20 0 0 0.6 c 1576 487 m 9 Y s 1576 496 m 8 Y s 1565 496 m 11 X s 1576 496 m 11 X
 s black 1576 496 m20 0 0 0.6 c 1599 474 m 9 Y s 1599 483 m 7 Y s 1587 483 m 12 X s 1599 483 m 11 X s black 1599 483 m20 0 0 0.6 c 1621 481 m 10 Y s 1621 491 m 8 Y s 1610 491 m 11 X s 1621 491 m 12 X s black 1621 491 m20 0 0 0.6 c 1644 495 m 13 Y s
 1644 508 m 11 Y s 1633 508 m 11 X s 1644 508 m 11 X s black 1644 508 m20 0 0 0.6 c 1667 468 m 10 Y s 1667 478 m 9 Y s 1655 478 m 12 X s 1667 478 m 11 X s black 1667 478 m20 0 0 0.6 c 1689 467 m 12 Y s 1689 479 m 10 Y s 1678 479 m 11 X s 1689 479 m
 12 X s black 1689 479 m20 0 0 0.6 c 1712 446 m 10 Y s 1712 456 m 9 Y s 1701 456 m 11 X s 1712 456 m 11 X s black 1712 456 m20 0 0 0.6 c 1735 466 m 11 Y s 1735 477 m 10 Y s 1723 477 m 12 X s 1735 477 m 11 X s black 1735 477 m20 0 0 0.6 c 1757 434 m
 12 Y s 1757 446 m 10 Y s 1746 446 m 11 X s 1757 446 m 12 X s black 1757 446 m20 0 0 0.6 c 1780 468 m 12 Y s 1780 480 m 11 Y s 1769 480 m 11 X s 1780 480 m 11 X s black 1780 480 m20 0 0 0.6 c 1803 425 m 18 Y s 1803 443 m 15 Y s 1791 443 m 12 X s 1803
 443 m 11 X s black 1803 443 m20 0 0 0.6 c 1826 411 m 19 Y s 1826 430 m 15 Y s 1814 430 m 12 X s 1826 430 m 11 X s black 1826 430 m20 0 0 0.6 c 1848 409 m 27 Y s 1848 436 m 19 Y s 1837 436 m 11 X s 1848 436 m 12 X s black 1848 436 m20 0 0 0.6 c 1871
 365 m 21 Y s 1871 386 m 16 Y s 1860 386 m 11 X s 1871 386 m 11 X s black 1871 386 m20 0 0 0.6 c 1894 368 m 34 Y s 1894 402 m 23 Y s 1882 402 m 12 X s 1894 402 m 11 X s black 1894 402 m20 0 0 0.6 c 1916 293 m 27 Y s 1916 320 m 20 Y s 1905 320 m 11 X
 s 1916 320 m 12 X s black 1916 320 m20 0 0 0.6 c 1939 209 m 55 Y s 1939 264 m 30 Y s 1928 264 m 11 X s 1939 264 m 11 X s black 1939 264 m20 0 0 0.6 c 1962 168 m 43 Y s 1962 211 m 26 Y s 1950 211 m 12 X s 1962 211 m 11 X s black 1962 211 m20 0 0 0.6
 c 1984 211 m 42 Y s 1984 253 m 26 Y s 1973 253 m 11 X s 1984 253 m 12 X s black 1984 253 m20 0 0 0.6 c 2007 273 m 42 Y s 2007 315 m 26 Y s 1996 315 m 11 X s 2007 315 m 11 X s black 2007 315 m20 227 154 m 1814 X s 227 191 m -37 Y s 272 172 m -18 Y s
 317 172 m -18 Y s 363 172 m -18 Y s 408 172 m -18 Y s 454 191 m -37 Y s 499 172 m -18 Y s 544 172 m -18 Y s 590 172 m -18 Y s 635 172 m -18 Y s 680 191 m -37 Y s 726 172 m -18 Y s 771 172 m -18 Y s 816 172 m -18 Y s 862 172 m -18 Y s 907 191 m -37 Y
 s 952 172 m -18 Y s 998 172 m -18 Y s 1043 172 m -18 Y s 1089 172 m -18 Y s 1134 191 m -37 Y s 1179 172 m -18 Y s 1225 172 m -18 Y s 1270 172 m -18 Y s 1315 172 m -18 Y s 1361 191 m -37 Y s 1406 172 m -18 Y s 1451 172 m -18 Y s 1497 172 m -18 Y s
 1542 172 m -18 Y s 1587 191 m -37 Y s 1633 172 m -18 Y s 1678 172 m -18 Y s 1723 172 m -18 Y s 1769 172 m -18 Y s 1814 191 m -37 Y s 1860 172 m -18 Y s 1905 172 m -18 Y s 1950 172 m -18 Y s 1996 172 m -18 Y s 2041 191 m -37 Y s
 gsave  2268 1540 0 0 C 211.177 103.964 t 0 r /Helvetica findfont 48.7332 sf 0 0 m (0) show NC gr 
 gsave  2268 1540 0 0 C 409.359 103.964 t 0 r /Helvetica findfont 48.7332 sf 0 0 m (100) show NC gr 
 gsave  2268 1540 0 0 C 636.78 103.964 t 0 r /Helvetica findfont 48.7332 sf 0 0 m (200) show NC gr 
 gsave  2268 1540 0 0 C 864.201 103.964 t 0 r /Helvetica findfont 48.7332 sf 0 0 m (300) show NC gr 
 gsave  2268 1540 0 0 C 1091.62 103.964 t 0 r /Helvetica findfont 48.7332 sf 0 0 m (400) show NC gr 
 gsave  2268 1540 0 0 C 1315.8 103.964 t 0 r /Helvetica findfont 48.7332 sf 0 0 m (500) show NC gr 
 gsave  2268 1540 0 0 C 1543.22 103.964 t 0 r /Helvetica findfont 48.7332 sf 0 0 m (600) show NC gr 
 gsave  2268 1540 0 0 C 1770.64 103.964 t 0 r /Helvetica findfont 48.7332 sf 0 0 m (700) show NC gr 
 gsave  2268 1540 0 0 C 1998.06 103.964 t 0 r /Helvetica findfont 48.7332 sf 0 0 m (800) show NC gr 
 gsave  2268 1540 0 0 C 1059.13 25.991 t 0 r /Helvetica findfont 64.9775 sf 0 0 m (r\(cm\)) show NC gr  227 154 m 1232 Y s 281 154 m -54 X s
 gsave  2268 1540 0 0 C 188.435 152.697 t 0 r /Helvetica findfont 32.4888 sf 0 0 m (4) show NC gr 
 gsave  2268 1540 0 0 C 168.942 152.697 t 0 r /Symbol findfont 32.4888 sf 0 0 m (-) show NC gr 
 gsave  2268 1540 0 0 C 113.711 133.204 t 0 r /Helvetica findfont 48.7332 sf 0 0 m (10) show NC gr  254 200 m -27 X s 254 227 m -27 X s 254 247 m -27 X s 254 262 m -27 X s 254 274 m -27 X s 254 284 m -27 X s 254 293 m -27 X s 254 301 m -27 X s 281
 308 m -54 X s
 gsave  2268 1540 0 0 C 188.435 308.643 t 0 r /Helvetica findfont 32.4888 sf 0 0 m (3) show NC gr 
 gsave  2268 1540 0 0 C 168.942 308.643 t 0 r /Symbol findfont 32.4888 sf 0 0 m (-) show NC gr 
 gsave  2268 1540 0 0 C 113.711 285.901 t 0 r /Helvetica findfont 48.7332 sf 0 0 m (10) show NC gr  254 354 m -27 X s 254 381 m -27 X s 254 401 m -27 X s 254 416 m -27 X s 254 428 m -27 X s 254 438 m -27 X s 254 447 m -27 X s 254 455 m -27 X s 281
 462 m -54 X s
 gsave  2268 1540 0 0 C 188.435 461.341 t 0 r /Helvetica findfont 32.4888 sf 0 0 m (2) show NC gr 
 gsave  2268 1540 0 0 C 168.942 461.341 t 0 r /Symbol findfont 32.4888 sf 0 0 m (-) show NC gr 
 gsave  2268 1540 0 0 C 113.711 441.847 t 0 r /Helvetica findfont 48.7332 sf 0 0 m (10) show NC gr  254 508 m -27 X s 254 535 m -27 X s 254 555 m -27 X s 254 570 m -27 X s 254 582 m -27 X s 254 592 m -27 X s 254 601 m -27 X s 254 609 m -27 X s 281
 616 m -54 X s
 gsave  2268 1540 0 0 C 194.933 614.038 t 0 r /Helvetica findfont 32.4888 sf 0 0 m (1) show NC gr 
 gsave  2268 1540 0 0 C 175.439 614.038 t 0 r /Symbol findfont 32.4888 sf 0 0 m (-) show NC gr 
 gsave  2268 1540 0 0 C 120.208 594.545 t 0 r /Helvetica findfont 48.7332 sf 0 0 m (10) show NC gr  254 662 m -27 X s 254 689 m -27 X s 254 709 m -27 X s 254 724 m -27 X s 254 736 m -27 X s 254 746 m -27 X s 254 755 m -27 X s 254 763 m -27 X s 281
 770 m -54 X s
 gsave  2268 1540 0 0 C 188.435 750.491 t 0 r /Helvetica findfont 48.7332 sf 0 0 m (1) show NC gr  254 816 m -27 X s 254 843 m -27 X s 254 863 m -27 X s 254 878 m -27 X s 254 890 m -27 X s 254 900 m -27 X s 254 909 m -27 X s 254 917 m -27 X s 281 924
 m -54 X s
 gsave  2268 1540 0 0 C 152.697 906.437 t 0 r /Helvetica findfont 48.7332 sf 0 0 m (10) show NC gr  254 970 m -27 X s 254 997 m -27 X s 254 1017 m -27 X s 254 1032 m -27 X s 254 1044 m -27 X s 254 1054 m -27 X s 254 1063 m -27 X s 254 1071 m -27 X s
 281 1078 m -54 X s
 gsave  2268 1540 0 0 C 188.435 1075.38 t 0 r /Helvetica findfont 32.4888 sf 0 0 m (2) show NC gr 
 gsave  2268 1540 0 0 C 133.204 1055.89 t 0 r /Helvetica findfont 48.7332 sf 0 0 m (10) show NC gr  254 1124 m -27 X s 254 1151 m -27 X s 254 1171 m -27 X s 254 1186 m -27 X s 254 1198 m -27 X s 254 1208 m -27 X s 254 1217 m -27 X s 254 1225 m -27 X
 s 281 1232 m -54 X s
 gsave  2268 1540 0 0 C 188.435 1234.57 t 0 r /Helvetica findfont 32.4888 sf 0 0 m (3) show NC gr 
 gsave  2268 1540 0 0 C 133.204 1211.83 t 0 r /Helvetica findfont 48.7332 sf 0 0 m (10) show NC gr  254 1278 m -27 X s 254 1305 m -27 X s 254 1325 m -27 X s 254 1340 m -27 X s 254 1352 m -27 X s 254 1362 m -27 X s 254 1371 m -27 X s 254 1379 m -27 X
 s 281 1386 m -54 X s
 gsave  2268 1540 0 0 C 188.435 1384.02 t 0 r /Helvetica findfont 32.4888 sf 0 0 m (4) show NC gr 
 gsave  2268 1540 0 0 C 133.204 1364.53 t 0 r /Helvetica findfont 48.7332 sf 0 0 m (10) show NC gr 
 gsave  2268 1540 0 0 C 94.2174 347.63 t 90 r /Helvetica findfont 64.9775 sf 0 0 m (energy_deposition_density\(Mev/cm\)) show NC gr  1 1 1 c black
 gsave  2268 1540 0 0 C 607.54 1468.49 t 0 r /Helvetica findfont 74.7242 sf 0 0 m (:energy_deposition_density_vs_r) show NC gr 
 gsave  2268 1540 0 0 C 568.554 1468.49 t 0 r /Symbol findfont 74.7242 sf 0 0 m (g) show NC gr 
 gr  gr showpage
end
%%EOF
