%!PS-Adobe-2.0 EPSF-2.0
%%BoundingBox:  0 0 567 385
%%Title: e^{+}e^{-}_xyrEt.eps: e^{+}e^{-}:et_deposition_density_vs_r
%%Creator: ROOT Version 6.12/06
%%CreationDate: Thu Aug  2 11:56:57 2018
%%DocumentNeededResources: ProcSet (FontSetInit)
%%EndComments
%%BeginProlog
80 dict begin
/s {stroke} def /l {lineto} def /m {moveto} def /t {translate} def
/r {rotate} def /rl {roll}  def /R {repeat} def
/d {rlineto} def /rm {rmoveto} def /gr {grestore} def /f {eofill} def
/c {setrgbcolor} def /black {0 setgray} def /sd {setdash} def
/cl {closepath} def /sf {scalefont setfont} def /lw {setlinewidth} def
/box {m dup 0 exch d exch 0 d 0 exch neg d cl} def
/NC{systemdict begin initclip end}def/C{NC box clip newpath}def
/bl {box s} def /bf {gsave box gsave f grestore 1 lw [] 0 sd s grestore} def /Y { 0 exch d} def /X { 0 d} def 
/K {{pop pop 0 moveto} exch kshow} bind def
/ita {/ang 15 def gsave [1 0 ang dup sin exch cos div 1 0 0] concat} def 
/mp {newpath /y exch def /x exch def} def
/side {[w .77 mul w .23 mul] .385 w mul sd w 0 l currentpoint t -144 r} def
/mr {mp x y w2 0 360 arc} def /m24 {mr s} def /m20 {mr f} def
/mb {mp x y w2 add m w2 neg 0 d 0 w neg d w 0 d 0 w d cl} def
/mt {mp x y w2 add m w2 neg w neg d w 0 d cl} def
/w4 {w 4 div} def
/w6 {w 6 div} def
/w8 {w 8 div} def
/m21 {mb f} def /m25 {mb s} def /m22 {mt f} def /m26{mt s} def
/m23 {mp x y w2 sub m w2 w d w neg 0 d cl f} def
/m27 {mp x y w2 add m w3 neg w2 neg d w3 w2 neg d w3 w2 d cl s} def
/m28 {mp x w2 sub y w2 sub w3 add m w3 0 d  0 w3 neg d w3 0 d 0 w3 d w3 0 d  0 w3 d w3 neg 0 d 0 w3 d w3 neg 0 d 0 w3 neg d w3 neg 0 d cl s } def
/m29 {mp gsave x w2 sub y w2 add w3 sub m currentpoint t 4 {side} repeat cl fill gr} def
/m30 {mp gsave x w2 sub y w2 add w3 sub m currentpoint t 4 {side} repeat cl s gr} def
/m31 {mp x y w2 sub m 0 w d x w2 sub y m w 0 d x w2 sub y w2 add m w w neg d x w2 sub y w2 sub m w w d s} def
/m32 {mp x y w2 sub m w2 w d w neg 0 d cl s} def
/m33 {mp x y w2 add m w3 neg w2 neg d w3 w2 neg d w3 w2 d cl f} def
/m34 {mp x w2 sub y w2 sub w3 add m w3 0 d  0 w3 neg d w3 0 d 0 w3 d w3 0 d  0 w3 d w3 neg 0 d 0 w3 d w3 neg 0 d 0 w3 neg d w3 neg 0 d cl f } def
/m35 {mp x y w2 add m w2 neg w2 neg d w2 w2 neg d w2 w2 d w2 neg w2 d x y w2 sub m 0 w d x w2 sub y m w 0 d s} def
/m36 {mb x w2 sub y w2 add m w w neg d x w2 sub y w2 sub m w w d s} def
/m37 {mp x y m w4 neg w2 d w4 neg w2 neg d w2 0 d  w4 neg w2 neg d w2 0 d w4 neg w2 d w2 0 d w4 neg w2 d w4 neg w2 neg d cl s} def
/m38 {mp x w4 sub y w2 add m w4 neg w4 neg d 0 w2 neg d w4 w4 neg d w2 0 d w4 w4 d 0 w2 d w4 neg w4 d w2 neg 0 d x y w2 sub m 0 w d x w2 sub y m w 0 d cl s} def
/m39 {mp x y m w4 neg w2 d w4 neg w2 neg d w2 0 d  w4 neg w2 neg d w2 0 d w4 neg w2 d w2 0 d w4 neg w2 d w4 neg w2 neg d cl f} def
/m40 {mp x y m w4 w2 d w4 w4 neg d w2 neg w4 neg d w2 w4 neg d w4 neg w4 neg d w4 neg w2 d w4 neg w2 neg d w4 neg w4 d w2 w4 d w2 neg w4 d w4 w4 d w4 w2 neg d cl s} def
/m41 {mp x y m w4 w2 d w4 w4 neg d w2 neg w4 neg d w2 w4 neg d w4 neg w4 neg d w4 neg w2 d w4 neg w2 neg d w4 neg w4 d w2 w4 d w2 neg w4 d w4 w4 d w4 w2 neg d cl f} def
/m42 {mp x y w2 add m w8 neg w2 -3 4 div mul d w2 -3 4 div mul w8 neg d w2 3 4 div mul w8 neg d w8 w2 -3 4 div mul d w8 w2 3 4 div mul d w2 3 4 div mul w8 d w2 -3 4 div mul w8 d w8 neg w2 3 4 div mul d cl s} def
/m43 {mp x y w2 add m w8 neg w2 -3 4 div mul d w2 -3 4 div mul w8 neg d w2 3 4 div mul w8 neg d w8 w2 -3 4 div mul d w8 w2 3 4 div mul d w2 3 4 div mul w8 d w2 -3 4 div mul w8 d w8 neg w2 3 4 div mul d cl f} def
/m44 {mp x y m w6 neg w2 d w2 2 3 div mul 0 d w6 neg w2 neg d w2 w6 d 0 w2 -2 3 div mul d w2 neg w6 d w6 w2 neg d w2 -2 3 div mul 0 d w6 w2 d w2 neg w6 neg d 0 w2 2 3 div mul d w2 w6 neg d cl s} def
/m45 {mp x y m w6 neg w2 d w2 2 3 div mul 0 d w6 neg w2 neg d w2 w6 d 0 w2 -2 3 div mul d w2 neg w6 d w6 w2 neg d w2 -2 3 div mul 0 d w6 w2 d w2 neg w6 neg d 0 w2 2 3 div mul d w2 w6 neg d cl f} def
/m46 {mp x y w4 add m w4 neg w4 d w4 neg w4 neg d  w4 w4 neg d w4 neg w4 neg d w4 w4 neg d w4 w4 d w4 w4 neg d w4 w4 d w4 neg w4 d w4 w4 d w4 neg w4 d w4 neg w4 neg d cl s} def
/m47 {mp x y w4 add m w4 neg w4 d w4 neg w4 neg d w4 w4 neg d w4 neg w4 neg d  w4 w4 neg d w4 w4 d w4 w4 neg d w4 w4 d w4 neg w4 d w4 w4 d w4 neg w4 d w4 neg w4 neg d cl f} def
/m48 {mp x y w4 add m w4 neg w4 d w4 neg w4 neg d w4 w4 neg d  w4 neg w4 neg d w4 w4 neg d w4 w4 d w4 w4 neg d w4 w4 d w4 neg w4 d w4 w4 d w4 neg w4 d w4 neg w4 neg d  w4 w4 neg d w4 neg w4 neg d w4 neg w4 d w4 w4 d cl f} def
/m49 {mp x w2 sub w3 add y w2 sub w3 add m  0 w3 neg d w3 0 d 0 w3 d w3 0 d 0 w3 d w3 neg 0 d 0 w3 d w3 neg 0 d 0 w3 neg d w3 neg 0 d 0 w3 neg d w3 0 d 0 w3 d w3 0 d 0 w3 neg d w3 neg 0 d cl f } def
/m2 {mp x y w2 sub m 0 w d x w2 sub y m w 0 d s} def
/m5 {mp x w2 sub y w2 sub m w w d x w2 sub y w2 add m w w neg d s} def
%%IncludeResource: ProcSet (FontSetInit)
%%IncludeResource: font Times-Roman
%%IncludeResource: font Times-Italic
%%IncludeResource: font Times-Bold
%%IncludeResource: font Times-BoldItalic
%%IncludeResource: font Helvetica
%%IncludeResource: font Helvetica-Oblique
%%IncludeResource: font Helvetica-Bold
%%IncludeResource: font Helvetica-BoldOblique
%%IncludeResource: font Courier
%%IncludeResource: font Courier-Oblique
%%IncludeResource: font Courier-Bold
%%IncludeResource: font Courier-BoldOblique
%%IncludeResource: font Symbol
%%IncludeResource: font ZapfDingbats
/reEncode {exch findfont dup length dict begin {1 index /FID eq  {pop pop} {def} ifelse } forall /Encoding exch def currentdict end dup /FontName get exch definefont pop } def [/Times-Bold /Times-Italic /Times-BoldItalic /Helvetica /Helvetica-Oblique
 /Helvetica-Bold /Helvetica-BoldOblique /Courier /Courier-Oblique /Courier-Bold /Courier-BoldOblique /Times-Roman /AvantGarde-Book /AvantGarde-BookOblique /AvantGarde-Demi /AvantGarde-DemiOblique /Bookman-Demi /Bookman-DemiItalic /Bookman-Light
 /Bookman-LightItalic /Helvetica-Narrow /Helvetica-Narrow-Bold /Helvetica-Narrow-BoldOblique /Helvetica-Narrow-Oblique /NewCenturySchlbk-Roman /NewCenturySchlbk-Bold /NewCenturySchlbk-BoldItalic /NewCenturySchlbk-Italic /Palatino-Bold
 /Palatino-BoldItalic /Palatino-Italic /Palatino-Roman ] {ISOLatin1Encoding reEncode } forall
%%EndProlog
%%BeginSetup
%%EndSetup
newpath  gsave  .25 .25 scale  gsave  0 0 t black[  ] 0 sd 3 lw 1 1 1 c 2268 1540 0 0 bf black 1 1 1 c 1814 1232 227 154 bf black 1814 1232 227 154 bl 1 1 1 c 1814 1232 227 154 bf black 1814 1232 227 154 bl 0 0 0.6 c 1 1 1 c black 0 0 0.6 c 261 1050
 m 4 Y s 261 1054 m 4 Y s 249 1054 m 12 X s 261 1054 m 11 X s black /w 2 def /w2 {w 2 div} def /w3 {w 3 div} def 261 1054 m20 0 0 0.6 c 283 1078 m 3 Y s 283 1081 m 4 Y s 272 1081 m 11 X s 283 1081 m 12 X s black 283 1081 m20 0 0 0.6 c 306 1039 m 4 Y
 s 306 1043 m 5 Y s 295 1043 m 11 X s 306 1043 m 11 X s black 306 1043 m20 0 0 0.6 c 329 1009 m 4 Y s 329 1013 m 4 Y s 317 1013 m 12 X s 329 1013 m 11 X s black 329 1013 m20 0 0 0.6 c 351 986 m 5 Y s 351 991 m 4 Y s 340 991 m 11 X s 351 991 m 12 X s
 black 351 991 m20 0 0 0.6 c 374 968 m 5 Y s 374 973 m 4 Y s 363 973 m 11 X s 374 973 m 12 X s black 374 973 m20 0 0 0.6 c 397 952 m 4 Y s 397 956 m 4 Y s 386 956 m 11 X s 397 956 m 11 X s black 397 956 m20 0 0 0.6 c 420 936 m 5 Y s 420 941 m 5 Y s
 408 941 m 12 X s 420 941 m 11 X s black 420 941 m20 0 0 0.6 c 442 924 m 5 Y s 442 929 m 5 Y s 431 929 m 11 X s 442 929 m 12 X s black 442 929 m20 0 0 0.6 c 465 907 m 6 Y s 465 913 m 6 Y s 454 913 m 11 X s 465 913 m 11 X s black 465 913 m20 0 0 0.6 c
 488 896 m 6 Y s 488 902 m 6 Y s 476 902 m 12 X s 488 902 m 11 X s black 488 902 m20 0 0 0.6 c 510 886 m 6 Y s 510 892 m 6 Y s 499 892 m 11 X s 510 892 m 12 X s black 510 892 m20 0 0 0.6 c 533 880 m 7 Y s 533 887 m 5 Y s 522 887 m 11 X s 533 887 m 11
 X s black 533 887 m20 0 0 0.6 c 556 859 m 7 Y s 556 866 m 6 Y s 544 866 m 12 X s 556 866 m 11 X s black 556 866 m20 0 0 0.6 c 578 860 m 8 Y s 578 868 m 6 Y s 567 868 m 11 X s 578 868 m 12 X s black 578 868 m20 0 0 0.6 c 601 846 m 8 Y s 601 854 m 7 Y
 s 590 854 m 11 X s 601 854 m 11 X s black 601 854 m20 0 0 0.6 c 624 845 m 8 Y s 624 853 m 6 Y s 612 853 m 12 X s 624 853 m 11 X s black 624 853 m20 0 0 0.6 c 646 838 m 7 Y s 646 845 m 7 Y s 635 845 m 11 X s 646 845 m 12 X s black 646 845 m20 0 0 0.6
 c 669 836 m 8 Y s 669 844 m 7 Y s 658 844 m 11 X s 669 844 m 11 X s black 669 844 m20 0 0 0.6 c 692 821 m 9 Y s 692 830 m 7 Y s 680 830 m 12 X s 692 830 m 11 X s black 692 830 m20 0 0 0.6 c 714 825 m 8 Y s 714 833 m 7 Y s 703 833 m 11 X s 714 833 m
 12 X s black 714 833 m20 0 0 0.6 c 737 810 m 8 Y s 737 818 m 7 Y s 726 818 m 11 X s 737 818 m 11 X s black 737 818 m20 0 0 0.6 c 760 802 m 8 Y s 760 810 m 8 Y s 748 810 m 12 X s 760 810 m 11 X s black 760 810 m20 0 0 0.6 c 782 791 m 8 Y s 782 799 m
 8 Y s 771 799 m 11 X s 782 799 m 12 X s black 782 799 m20 0 0 0.6 c 805 789 m 9 Y s 805 798 m 8 Y s 794 798 m 11 X s 805 798 m 11 X s black 805 798 m20 0 0 0.6 c 828 779 m 9 Y s 828 788 m 8 Y s 816 788 m 12 X s 828 788 m 11 X s black 828 788 m20 0 0
 0.6 c 850 792 m 10 Y s 850 802 m 9 Y s 839 802 m 11 X s 850 802 m 12 X s black 850 802 m20 0 0 0.6 c 873 781 m 9 Y s 873 790 m 8 Y s 862 790 m 11 X s 873 790 m 11 X s black 873 790 m20 0 0 0.6 c 896 755 m 10 Y s 896 765 m 9 Y s 884 765 m 12 X s 896
 765 m 11 X s black 896 765 m20 0 0 0.6 c 918 774 m 9 Y s 918 783 m 9 Y s 907 783 m 11 X s 918 783 m 12 X s black 918 783 m20 0 0 0.6 c 941 756 m 9 Y s 941 765 m 9 Y s 930 765 m 11 X s 941 765 m 11 X s black 941 765 m20 0 0 0.6 c 964 745 m 11 Y s 964
 756 m 9 Y s 952 756 m 12 X s 964 756 m 11 X s black 964 756 m20 0 0 0.6 c 986 759 m 11 Y s 986 770 m 9 Y s 975 770 m 11 X s 986 770 m 12 X s black 986 770 m20 0 0 0.6 c 1009 739 m 11 Y s 1009 750 m 10 Y s 998 750 m 11 X s 1009 750 m 11 X s black
 1009 750 m20 0 0 0.6 c 1032 721 m 13 Y s 1032 734 m 12 Y s 1020 734 m 12 X s 1032 734 m 11 X s black 1032 734 m20 0 0 0.6 c 1054 724 m 12 Y s 1054 736 m 10 Y s 1043 736 m 11 X s 1054 736 m 12 X s black 1054 736 m20 0 0 0.6 c 1077 724 m 12 Y s 1077
 736 m 10 Y s 1066 736 m 11 X s 1077 736 m 12 X s black 1077 736 m20 0 0 0.6 c 1100 717 m 13 Y s 1100 730 m 11 Y s 1089 730 m 11 X s 1100 730 m 11 X s black 1100 730 m20 0 0 0.6 c 1123 726 m 12 Y s 1123 738 m 10 Y s 1111 738 m 12 X s 1123 738 m 11 X
 s black 1123 738 m20 0 0 0.6 c 1145 710 m 14 Y s 1145 724 m 12 Y s 1134 724 m 11 X s 1145 724 m 12 X s black 1145 724 m20 0 0 0.6 c 1168 701 m 12 Y s 1168 713 m 10 Y s 1157 713 m 11 X s 1168 713 m 11 X s black 1168 713 m20 0 0 0.6 c 1191 651 m 13 Y
 s 1191 664 m 11 Y s 1179 664 m 12 X s 1191 664 m 11 X s black 1191 664 m20 0 0 0.6 c 1213 658 m 15 Y s 1213 673 m 13 Y s 1202 673 m 11 X s 1213 673 m 12 X s black 1213 673 m20 0 0 0.6 c 1236 579 m 26 Y s 1236 605 m 20 Y s 1225 605 m 11 X s 1236 605
 m 11 X s black 1236 605 m20 0 0 0.6 c 1259 612 m 18 Y s 1259 630 m 15 Y s 1247 630 m 12 X s 1259 630 m 11 X s black 1259 630 m20 0 0 0.6 c 1281 566 m 15 Y s 1281 581 m 12 Y s 1270 581 m 11 X s 1281 581 m 12 X s black 1281 581 m20 0 0 0.6 c 1304 583
 m 37 Y s 1304 620 m 25 Y s 1293 620 m 11 X s 1304 620 m 11 X s black 1304 620 m20 0 0 0.6 c 1327 531 m 20 Y s 1327 551 m 16 Y s 1315 551 m 12 X s 1327 551 m 11 X s black 1327 551 m20 0 0 0.6 c 1349 511 m 31 Y s 1349 542 m 22 Y s 1338 542 m 11 X s
 1349 542 m 12 X s black 1349 542 m20 0 0 0.6 c 1372 557 m 32 Y s 1372 589 m 22 Y s 1361 589 m 11 X s 1372 589 m 11 X s black 1372 589 m20 0 0 0.6 c 1395 563 m 73 Y s 1395 636 m 36 Y s 1383 636 m 12 X s 1395 636 m 11 X s black 1395 636 m20 0 0 0.6 c
 1417 565 m 36 Y s 1417 601 m 24 Y s 1406 601 m 11 X s 1417 601 m 12 X s black 1417 601 m20 0 0 0.6 c 1440 586 m 20 Y s 1440 606 m 15 Y s 1429 606 m 11 X s 1440 606 m 11 X s black 1440 606 m20 0 0 0.6 c 1463 550 m 24 Y s 1463 574 m 18 Y s 1451 574 m
 12 X s 1463 574 m 11 X s black 1463 574 m20 0 0 0.6 c 1485 511 m 27 Y s 1485 538 m 20 Y s 1474 538 m 11 X s 1485 538 m 12 X s black 1485 538 m20 0 0 0.6 c 1508 537 m 33 Y s 1508 570 m 24 Y s 1497 570 m 11 X s 1508 570 m 11 X s black 1508 570 m20 0 0
 0.6 c 1531 477 m 36 Y s 1531 513 m 24 Y s 1519 513 m 12 X s 1531 513 m 11 X s black 1531 513 m20 0 0 0.6 c 1553 467 m 46 Y s 1553 513 m 29 Y s 1542 513 m 11 X s 1553 513 m 12 X s black 1553 513 m20 0 0 0.6 c 1576 434 m 69 Y s 1576 503 m 36 Y s 1565
 503 m 11 X s 1576 503 m 11 X s black 1576 503 m20 0 0 0.6 c 1599 385 m 62 Y s 1599 447 m 34 Y s 1587 447 m 12 X s 1599 447 m 11 X s black 1599 447 m20 0 0 0.6 c 1621 404 m 34 Y s 1621 438 m 23 Y s 1610 438 m 11 X s 1621 438 m 12 X s black 1621 438
 m20 0 0 0.6 c 1644 387 m 77 Y s 1644 464 m 37 Y s 1633 464 m 11 X s 1644 464 m 11 X s black 1644 464 m20 0 0 0.6 c 1667 372 m 91 Y s 1667 463 m 40 Y s 1655 463 m 12 X s 1667 463 m 11 X s black 1667 463 m20 0 0 0.6 c 1689 388 m 89 Y s 1689 477 m 40 Y
 s 1678 477 m 11 X s 1689 477 m 12 X s black 1689 477 m20 0 0 0.6 c 1712 404 m 78 Y s 1712 482 m 38 Y s 1701 482 m 11 X s 1712 482 m 11 X s black 1712 482 m20 0 0 0.6 c 1735 283 m 155 Y s 1735 438 m 47 Y s 1723 438 m 12 X s 1735 438 m 11 X s black
 1735 438 m20 0 0 0.6 c 1757 476 m 53 Y s 1757 529 m 31 Y s 1746 529 m 11 X s 1757 529 m 12 X s black 1757 529 m20 0 0 0.6 c 1780 387 m 73 Y s 1780 460 m 37 Y s 1769 460 m 11 X s 1780 460 m 11 X s black 1780 460 m20 0 0 0.6 c 1803 431 m 76 Y s 1803
 507 m 37 Y s 1791 507 m 12 X s 1803 507 m 11 X s black 1803 507 m20 0 0 0.6 c 1826 181 m 115 Y s 1826 296 m 45 Y s 1814 296 m 12 X s 1826 296 m 11 X s black 1826 296 m20 0 0 0.6 c 1848 154 m 85 Y s 1848 239 m 45 Y s 1837 239 m 11 X s 1848 239 m 12 X
 s black 1848 239 m20 0 0 0.6 c 1871 154 m 8 Y s 1871 162 m 42 Y s 1860 162 m 11 X s 1871 162 m 11 X s black 1871 162 m20 0 0 0.6 c 1916 154 m 282 Y s 1916 436 m 53 Y s 1905 436 m 11 X s 1916 436 m 12 X s black 1916 436 m20 227 154 m 1814 X s 227 191
 m -37 Y s 272 172 m -18 Y s 317 172 m -18 Y s 363 172 m -18 Y s 408 172 m -18 Y s 454 191 m -37 Y s 499 172 m -18 Y s 544 172 m -18 Y s 590 172 m -18 Y s 635 172 m -18 Y s 680 191 m -37 Y s 726 172 m -18 Y s 771 172 m -18 Y s 816 172 m -18 Y s 862
 172 m -18 Y s 907 191 m -37 Y s 952 172 m -18 Y s 998 172 m -18 Y s 1043 172 m -18 Y s 1089 172 m -18 Y s 1134 191 m -37 Y s 1179 172 m -18 Y s 1225 172 m -18 Y s 1270 172 m -18 Y s 1315 172 m -18 Y s 1361 191 m -37 Y s 1406 172 m -18 Y s 1451 172 m
 -18 Y s 1497 172 m -18 Y s 1542 172 m -18 Y s 1587 191 m -37 Y s 1633 172 m -18 Y s 1678 172 m -18 Y s 1723 172 m -18 Y s 1769 172 m -18 Y s 1814 191 m -37 Y s 1860 172 m -18 Y s 1905 172 m -18 Y s 1950 172 m -18 Y s 1996 172 m -18 Y s 2041 191 m
 -37 Y s
 gsave  2268 1540 0 0 C 211.177 103.964 t 0 r /Helvetica findfont 48.7332 sf 0 0 m (0) show NC gr 
 gsave  2268 1540 0 0 C 409.359 103.964 t 0 r /Helvetica findfont 48.7332 sf 0 0 m (100) show NC gr 
 gsave  2268 1540 0 0 C 636.78 103.964 t 0 r /Helvetica findfont 48.7332 sf 0 0 m (200) show NC gr 
 gsave  2268 1540 0 0 C 864.201 103.964 t 0 r /Helvetica findfont 48.7332 sf 0 0 m (300) show NC gr 
 gsave  2268 1540 0 0 C 1091.62 103.964 t 0 r /Helvetica findfont 48.7332 sf 0 0 m (400) show NC gr 
 gsave  2268 1540 0 0 C 1315.8 103.964 t 0 r /Helvetica findfont 48.7332 sf 0 0 m (500) show NC gr 
 gsave  2268 1540 0 0 C 1543.22 103.964 t 0 r /Helvetica findfont 48.7332 sf 0 0 m (600) show NC gr 
 gsave  2268 1540 0 0 C 1770.64 103.964 t 0 r /Helvetica findfont 48.7332 sf 0 0 m (700) show NC gr 
 gsave  2268 1540 0 0 C 1998.06 103.964 t 0 r /Helvetica findfont 48.7332 sf 0 0 m (800) show NC gr 
 gsave  2268 1540 0 0 C 1059.13 25.991 t 0 r /Helvetica findfont 64.9775 sf 0 0 m (r\(cm\)) show NC gr  227 154 m 1232 Y s 281 154 m -54 X s
 gsave  2268 1540 0 0 C 188.435 155.946 t 0 r /Helvetica findfont 32.4888 sf 0 0 m (5) show NC gr 
 gsave  2268 1540 0 0 C 168.942 155.946 t 0 r /Symbol findfont 32.4888 sf 0 0 m (-) show NC gr 
 gsave  2268 1540 0 0 C 113.711 133.204 t 0 r /Helvetica findfont 48.7332 sf 0 0 m (10) show NC gr  254 207 m -27 X s 254 238 m -27 X s 254 260 m -27 X s 254 277 m -27 X s 254 291 m -27 X s 254 303 m -27 X s 254 313 m -27 X s 254 322 m -27 X s 281
 330 m -54 X s
 gsave  2268 1540 0 0 C 188.435 328.137 t 0 r /Helvetica findfont 32.4888 sf 0 0 m (4) show NC gr 
 gsave  2268 1540 0 0 C 168.942 328.137 t 0 r /Symbol findfont 32.4888 sf 0 0 m (-) show NC gr 
 gsave  2268 1540 0 0 C 113.711 308.643 t 0 r /Helvetica findfont 48.7332 sf 0 0 m (10) show NC gr  254 383 m -27 X s 254 414 m -27 X s 254 436 m -27 X s 254 453 m -27 X s 254 467 m -27 X s 254 479 m -27 X s 254 489 m -27 X s 254 498 m -27 X s 281
 506 m -54 X s
 gsave  2268 1540 0 0 C 188.435 506.825 t 0 r /Helvetica findfont 32.4888 sf 0 0 m (3) show NC gr 
 gsave  2268 1540 0 0 C 168.942 506.825 t 0 r /Symbol findfont 32.4888 sf 0 0 m (-) show NC gr 
 gsave  2268 1540 0 0 C 113.711 484.083 t 0 r /Helvetica findfont 48.7332 sf 0 0 m (10) show NC gr  254 559 m -27 X s 254 590 m -27 X s 254 612 m -27 X s 254 629 m -27 X s 254 643 m -27 X s 254 655 m -27 X s 254 665 m -27 X s 254 674 m -27 X s 281
 682 m -54 X s
 gsave  2268 1540 0 0 C 188.435 679.015 t 0 r /Helvetica findfont 32.4888 sf 0 0 m (2) show NC gr 
 gsave  2268 1540 0 0 C 168.942 679.015 t 0 r /Symbol findfont 32.4888 sf 0 0 m (-) show NC gr 
 gsave  2268 1540 0 0 C 113.711 659.522 t 0 r /Helvetica findfont 48.7332 sf 0 0 m (10) show NC gr  254 735 m -27 X s 254 766 m -27 X s 254 788 m -27 X s 254 805 m -27 X s 254 819 m -27 X s 254 831 m -27 X s 254 841 m -27 X s 254 850 m -27 X s 281
 858 m -54 X s
 gsave  2268 1540 0 0 C 194.933 857.704 t 0 r /Helvetica findfont 32.4888 sf 0 0 m (1) show NC gr 
 gsave  2268 1540 0 0 C 175.439 857.704 t 0 r /Symbol findfont 32.4888 sf 0 0 m (-) show NC gr 
 gsave  2268 1540 0 0 C 120.208 838.21 t 0 r /Helvetica findfont 48.7332 sf 0 0 m (10) show NC gr  254 911 m -27 X s 254 942 m -27 X s 254 964 m -27 X s 254 981 m -27 X s 254 995 m -27 X s 254 1007 m -27 X s 254 1017 m -27 X s 254 1026 m -27 X s 281
 1034 m -54 X s
 gsave  2268 1540 0 0 C 188.435 1016.9 t 0 r /Helvetica findfont 48.7332 sf 0 0 m (1) show NC gr  254 1087 m -27 X s 254 1118 m -27 X s 254 1140 m -27 X s 254 1157 m -27 X s 254 1171 m -27 X s 254 1183 m -27 X s 254 1193 m -27 X s 254 1202 m -27 X s
 281 1210 m -54 X s
 gsave  2268 1540 0 0 C 152.697 1192.34 t 0 r /Helvetica findfont 48.7332 sf 0 0 m (10) show NC gr  254 1263 m -27 X s 254 1294 m -27 X s 254 1316 m -27 X s 254 1333 m -27 X s 254 1347 m -27 X s 254 1359 m -27 X s 254 1369 m -27 X s 254 1378 m -27 X
 s 281 1386 m -54 X s
 gsave  2268 1540 0 0 C 188.435 1384.02 t 0 r /Helvetica findfont 32.4888 sf 0 0 m (2) show NC gr 
 gsave  2268 1540 0 0 C 133.204 1364.53 t 0 r /Helvetica findfont 48.7332 sf 0 0 m (10) show NC gr 
 gsave  2268 1540 0 0 C 94.2174 292.399 t 90 r /Helvetica findfont 64.9775 sf 0 0 m (energy_t_deposition_density\(Mev/cm\)) show NC gr  1 1 1 c black
 gsave  2268 1540 0 0 C 730.997 1468.49 t 0 r /Helvetica findfont 74.7242 sf 0 0 m (:et_deposition_density_vs_r) show NC gr 
 gsave  2268 1540 0 0 C 714.753 1504.23 t 0 r /Helvetica findfont 48.7332 sf 0 0 m (\255) show NC gr 
 gsave  2268 1540 0 0 C 675.767 1468.49 t 0 r /Helvetica findfont 74.7242 sf 0 0 m (e) show NC gr 
 gsave  2268 1540 0 0 C 646.527 1497.73 t 0 r /Helvetica findfont 48.7332 sf 0 0 m (+) show NC gr 
 gsave  2268 1540 0 0 C 607.54 1468.49 t 0 r /Helvetica findfont 74.7242 sf 0 0 m (e) show NC gr 
 gr  gr showpage
end
%%EOF
