%!PS-Adobe-2.0 EPSF-2.0
%%BoundingBox:  0 0 567 385
%%Title: K^{+}K^{-}_xyE.eps: K^{+}K^{-}E:y_vs_x
%%Creator: ROOT Version 6.12/06
%%CreationDate: Wed Aug  1 19:29:52 2018
%%DocumentNeededResources: ProcSet (FontSetInit)
%%EndComments
%%BeginProlog
80 dict begin
/s {stroke} def /l {lineto} def /m {moveto} def /t {translate} def
/r {rotate} def /rl {roll}  def /R {repeat} def
/d {rlineto} def /rm {rmoveto} def /gr {grestore} def /f {eofill} def
/c {setrgbcolor} def /black {0 setgray} def /sd {setdash} def
/cl {closepath} def /sf {scalefont setfont} def /lw {setlinewidth} def
/box {m dup 0 exch d exch 0 d 0 exch neg d cl} def
/NC{systemdict begin initclip end}def/C{NC box clip newpath}def
/bl {box s} def /bf {gsave box gsave f grestore 1 lw [] 0 sd s grestore} def /Y { 0 exch d} def /X { 0 d} def 
/K {{pop pop 0 moveto} exch kshow} bind def
/ita {/ang 15 def gsave [1 0 ang dup sin exch cos div 1 0 0] concat} def 
/mp {newpath /y exch def /x exch def} def
/side {[w .77 mul w .23 mul] .385 w mul sd w 0 l currentpoint t -144 r} def
/mr {mp x y w2 0 360 arc} def /m24 {mr s} def /m20 {mr f} def
/mb {mp x y w2 add m w2 neg 0 d 0 w neg d w 0 d 0 w d cl} def
/mt {mp x y w2 add m w2 neg w neg d w 0 d cl} def
/w4 {w 4 div} def
/w6 {w 6 div} def
/w8 {w 8 div} def
/m21 {mb f} def /m25 {mb s} def /m22 {mt f} def /m26{mt s} def
/m23 {mp x y w2 sub m w2 w d w neg 0 d cl f} def
/m27 {mp x y w2 add m w3 neg w2 neg d w3 w2 neg d w3 w2 d cl s} def
/m28 {mp x w2 sub y w2 sub w3 add m w3 0 d  0 w3 neg d w3 0 d 0 w3 d w3 0 d  0 w3 d w3 neg 0 d 0 w3 d w3 neg 0 d 0 w3 neg d w3 neg 0 d cl s } def
/m29 {mp gsave x w2 sub y w2 add w3 sub m currentpoint t 4 {side} repeat cl fill gr} def
/m30 {mp gsave x w2 sub y w2 add w3 sub m currentpoint t 4 {side} repeat cl s gr} def
/m31 {mp x y w2 sub m 0 w d x w2 sub y m w 0 d x w2 sub y w2 add m w w neg d x w2 sub y w2 sub m w w d s} def
/m32 {mp x y w2 sub m w2 w d w neg 0 d cl s} def
/m33 {mp x y w2 add m w3 neg w2 neg d w3 w2 neg d w3 w2 d cl f} def
/m34 {mp x w2 sub y w2 sub w3 add m w3 0 d  0 w3 neg d w3 0 d 0 w3 d w3 0 d  0 w3 d w3 neg 0 d 0 w3 d w3 neg 0 d 0 w3 neg d w3 neg 0 d cl f } def
/m35 {mp x y w2 add m w2 neg w2 neg d w2 w2 neg d w2 w2 d w2 neg w2 d x y w2 sub m 0 w d x w2 sub y m w 0 d s} def
/m36 {mb x w2 sub y w2 add m w w neg d x w2 sub y w2 sub m w w d s} def
/m37 {mp x y m w4 neg w2 d w4 neg w2 neg d w2 0 d  w4 neg w2 neg d w2 0 d w4 neg w2 d w2 0 d w4 neg w2 d w4 neg w2 neg d cl s} def
/m38 {mp x w4 sub y w2 add m w4 neg w4 neg d 0 w2 neg d w4 w4 neg d w2 0 d w4 w4 d 0 w2 d w4 neg w4 d w2 neg 0 d x y w2 sub m 0 w d x w2 sub y m w 0 d cl s} def
/m39 {mp x y m w4 neg w2 d w4 neg w2 neg d w2 0 d  w4 neg w2 neg d w2 0 d w4 neg w2 d w2 0 d w4 neg w2 d w4 neg w2 neg d cl f} def
/m40 {mp x y m w4 w2 d w4 w4 neg d w2 neg w4 neg d w2 w4 neg d w4 neg w4 neg d w4 neg w2 d w4 neg w2 neg d w4 neg w4 d w2 w4 d w2 neg w4 d w4 w4 d w4 w2 neg d cl s} def
/m41 {mp x y m w4 w2 d w4 w4 neg d w2 neg w4 neg d w2 w4 neg d w4 neg w4 neg d w4 neg w2 d w4 neg w2 neg d w4 neg w4 d w2 w4 d w2 neg w4 d w4 w4 d w4 w2 neg d cl f} def
/m42 {mp x y w2 add m w8 neg w2 -3 4 div mul d w2 -3 4 div mul w8 neg d w2 3 4 div mul w8 neg d w8 w2 -3 4 div mul d w8 w2 3 4 div mul d w2 3 4 div mul w8 d w2 -3 4 div mul w8 d w8 neg w2 3 4 div mul d cl s} def
/m43 {mp x y w2 add m w8 neg w2 -3 4 div mul d w2 -3 4 div mul w8 neg d w2 3 4 div mul w8 neg d w8 w2 -3 4 div mul d w8 w2 3 4 div mul d w2 3 4 div mul w8 d w2 -3 4 div mul w8 d w8 neg w2 3 4 div mul d cl f} def
/m44 {mp x y m w6 neg w2 d w2 2 3 div mul 0 d w6 neg w2 neg d w2 w6 d 0 w2 -2 3 div mul d w2 neg w6 d w6 w2 neg d w2 -2 3 div mul 0 d w6 w2 d w2 neg w6 neg d 0 w2 2 3 div mul d w2 w6 neg d cl s} def
/m45 {mp x y m w6 neg w2 d w2 2 3 div mul 0 d w6 neg w2 neg d w2 w6 d 0 w2 -2 3 div mul d w2 neg w6 d w6 w2 neg d w2 -2 3 div mul 0 d w6 w2 d w2 neg w6 neg d 0 w2 2 3 div mul d w2 w6 neg d cl f} def
/m46 {mp x y w4 add m w4 neg w4 d w4 neg w4 neg d  w4 w4 neg d w4 neg w4 neg d w4 w4 neg d w4 w4 d w4 w4 neg d w4 w4 d w4 neg w4 d w4 w4 d w4 neg w4 d w4 neg w4 neg d cl s} def
/m47 {mp x y w4 add m w4 neg w4 d w4 neg w4 neg d w4 w4 neg d w4 neg w4 neg d  w4 w4 neg d w4 w4 d w4 w4 neg d w4 w4 d w4 neg w4 d w4 w4 d w4 neg w4 d w4 neg w4 neg d cl f} def
/m48 {mp x y w4 add m w4 neg w4 d w4 neg w4 neg d w4 w4 neg d  w4 neg w4 neg d w4 w4 neg d w4 w4 d w4 w4 neg d w4 w4 d w4 neg w4 d w4 w4 d w4 neg w4 d w4 neg w4 neg d  w4 w4 neg d w4 neg w4 neg d w4 neg w4 d w4 w4 d cl f} def
/m49 {mp x w2 sub w3 add y w2 sub w3 add m  0 w3 neg d w3 0 d 0 w3 d w3 0 d 0 w3 d w3 neg 0 d 0 w3 d w3 neg 0 d 0 w3 neg d w3 neg 0 d 0 w3 neg d w3 0 d 0 w3 d w3 0 d 0 w3 neg d w3 neg 0 d cl f } def
/m2 {mp x y w2 sub m 0 w d x w2 sub y m w 0 d s} def
/m5 {mp x w2 sub y w2 sub m w w d x w2 sub y w2 add m w w neg d s} def
%%IncludeResource: ProcSet (FontSetInit)
%%IncludeResource: font Times-Roman
%%IncludeResource: font Times-Italic
%%IncludeResource: font Times-Bold
%%IncludeResource: font Times-BoldItalic
%%IncludeResource: font Helvetica
%%IncludeResource: font Helvetica-Oblique
%%IncludeResource: font Helvetica-Bold
%%IncludeResource: font Helvetica-BoldOblique
%%IncludeResource: font Courier
%%IncludeResource: font Courier-Oblique
%%IncludeResource: font Courier-Bold
%%IncludeResource: font Courier-BoldOblique
%%IncludeResource: font Symbol
%%IncludeResource: font ZapfDingbats
/reEncode {exch findfont dup length dict begin {1 index /FID eq  {pop pop} {def} ifelse } forall /Encoding exch def currentdict end dup /FontName get exch definefont pop } def [/Times-Bold /Times-Italic /Times-BoldItalic /Helvetica /Helvetica-Oblique
 /Helvetica-Bold /Helvetica-BoldOblique /Courier /Courier-Oblique /Courier-Bold /Courier-BoldOblique /Times-Roman /AvantGarde-Book /AvantGarde-BookOblique /AvantGarde-Demi /AvantGarde-DemiOblique /Bookman-Demi /Bookman-DemiItalic /Bookman-Light
 /Bookman-LightItalic /Helvetica-Narrow /Helvetica-Narrow-Bold /Helvetica-Narrow-BoldOblique /Helvetica-Narrow-Oblique /NewCenturySchlbk-Roman /NewCenturySchlbk-Bold /NewCenturySchlbk-BoldItalic /NewCenturySchlbk-Italic /Palatino-Bold
 /Palatino-BoldItalic /Palatino-Italic /Palatino-Roman ] {ISOLatin1Encoding reEncode } forall
%%EndProlog
%%BeginSetup
%%EndSetup
newpath  gsave  .25 .25 scale  gsave  0 0 t black[  ] 0 sd 3 lw 1 1 1 c 2268 1540 0 0 bf black 1 1 1 c 1814 1232 227 154 bf black 1814 1232 227 154 bl 1 1 1 c 1814 1232 227 154 bf black 1814 1232 227 154 bl 1 1 1 c 0.033475 0.616063 0.800231 c 45 41
 1134 195 bf 45 41 1406 195 bf 0.0557375 0.560081 0.819366 c 45 41 1497 195 bf 0.033475 0.616063 0.800231 c 45 41 862 236 bf 0.0557375 0.560081 0.819366 c 45 41 907 236 bf 0.116419 0.686966 0.702991 c 45 41 1134 236 bf 0.0526375 0.656131 0.763481 c
 46 41 1315 236 bf 0.033475 0.616063 0.800231 c 46 41 1451 277 bf 45 41 1633 277 bf 0.116419 0.686966 0.702991 c 46 41 1043 318 bf 0.0526375 0.656131 0.763481 c 46 41 1315 318 bf 45 41 862 359 bf 0.033475 0.616063 0.800231 c 46 41 952 359 bf 45 41
 1134 359 bf 0.078 0.5041 0.8385 c 46 41 1179 359 bf 0.116419 0.686966 0.702991 c 46 41 1315 359 bf 0.033475 0.616063 0.800231 c 45 41 1361 359 bf 0.0557375 0.560081 0.819366 c 46 41 544 400 bf 0.033475 0.616063 0.800231 c 45 41 771 400 bf 46 41 816
 400 bf 45 41 862 400 bf 0.116419 0.686966 0.702991 c 45 41 907 400 bf 0.0526375 0.656131 0.763481 c 46 41 1179 400 bf 0.0557375 0.560081 0.819366 c 45 41 1361 400 bf 0.033475 0.616063 0.800231 c 46 41 1451 400 bf 0.0526375 0.656131 0.763481 c 45 41
 1542 400 bf 0.033475 0.616063 0.800231 c 45 42 590 441 bf 0.0557375 0.560081 0.819366 c 46 42 680 441 bf 45 42 771 441 bf 0.033475 0.616063 0.800231 c 46 42 816 441 bf 0.116419 0.686966 0.702991 c 45 42 1089 441 bf 0.033475 0.616063 0.800231 c 46 42
 1315 441 bf 45 42 1361 441 bf 46 42 1587 441 bf 0.0557375 0.560081 0.819366 c 46 41 408 483 bf 0.033475 0.616063 0.800231 c 45 41 771 483 bf 0.0557375 0.560081 0.819366 c 45 41 998 483 bf 0.116419 0.686966 0.702991 c 46 41 1043 483 bf 0.078 0.5041
 0.8385 c 45 41 1089 483 bf 0.1802 0.7178 0.6425 c 45 41 1134 483 bf 0.0526375 0.656131 0.763481 c 46 41 1179 483 bf 0.116419 0.686966 0.702991 c 46 41 1315 483 bf 0.0526375 0.656131 0.763481 c 45 41 1497 483 bf 0.033475 0.616063 0.800231 c 45 41 635
 524 bf 46 41 816 524 bf 45 41 862 524 bf 0.1802 0.7178 0.6425 c 45 41 998 524 bf 0.116419 0.686966 0.702991 c 46 41 1043 524 bf 0.1802 0.7178 0.6425 c 45 41 1134 524 bf 0.322347 0.730556 0.570878 c 46 41 1179 524 bf 0.1802 0.7178 0.6425 c 45 41 1225
 524 bf 0.0526375 0.656131 0.763481 c 45 41 1270 524 bf 0.033475 0.616063 0.800231 c 45 41 1361 524 bf 45 41 1406 524 bf 0.0526375 0.656131 0.763481 c 46 41 1451 524 bf 0.033475 0.616063 0.800231 c 45 41 1860 524 bf 45 41 771 565 bf 0.078 0.5041
 0.8385 c 45 41 862 565 bf 0.033475 0.616063 0.800231 c 45 41 907 565 bf 0.116419 0.686966 0.702991 c 45 41 998 565 bf 0.322347 0.730556 0.570878 c 46 41 1043 565 bf 45 41 1134 565 bf 0.1802 0.7178 0.6425 c 46 41 1179 565 bf 0.0526375 0.656131
 0.763481 c 45 41 1225 565 bf 0.1802 0.7178 0.6425 c 45 41 1270 565 bf 0.116419 0.686966 0.702991 c 46 41 1315 565 bf 0.033475 0.616063 0.800231 c 45 41 1361 565 bf 0.0557375 0.560081 0.819366 c 46 41 544 606 bf 0.033475 0.616063 0.800231 c 45 41 590
 606 bf 45 41 771 606 bf 0.0526375 0.656131 0.763481 c 45 41 862 606 bf 45 41 907 606 bf 0.1802 0.7178 0.6425 c 46 41 952 606 bf 0.0526375 0.656131 0.763481 c 45 41 998 606 bf 0.322347 0.730556 0.570878 c 46 41 1043 606 bf 0.1802 0.7178 0.6425 c 45
 41 1089 606 bf 0.322347 0.730556 0.570878 c 45 41 1134 606 bf 0.453559 0.742331 0.504766 c 46 41 1179 606 bf 0.1802 0.7178 0.6425 c 45 41 1225 606 bf 0.0557375 0.560081 0.819366 c 45 41 1270 606 bf 0.116419 0.686966 0.702991 c 45 41 1361 606 bf
 0.033475 0.616063 0.800231 c 45 41 1406 606 bf 46 41 1451 606 bf 0.0557375 0.560081 0.819366 c 46 41 1587 606 bf 0.033475 0.616063 0.800231 c 45 41 1633 606 bf 0.0557375 0.560081 0.819366 c 46 41 1723 606 bf 0.033475 0.616063 0.800231 c 45 41 771
 647 bf 0.116419 0.686966 0.702991 c 45 41 862 647 bf 0.322347 0.730556 0.570878 c 45 41 907 647 bf 0.1802 0.7178 0.6425 c 46 41 952 647 bf 0.322347 0.730556 0.570878 c 45 41 998 647 bf 46 41 1043 647 bf 45 41 1089 647 bf 0.453559 0.742331 0.504766 c
 45 41 1134 647 bf 46 41 1179 647 bf 0.322347 0.730556 0.570878 c 45 41 1225 647 bf 0.1802 0.7178 0.6425 c 45 41 1270 647 bf 46 41 1315 647 bf 0.0526375 0.656131 0.763481 c 45 41 1497 647 bf 0.0557375 0.560081 0.819366 c 45 41 1542 647 bf 45 41 726
 688 bf 0.116419 0.686966 0.702991 c 46 41 816 688 bf 0.0557375 0.560081 0.819366 c 45 41 862 688 bf 0.116419 0.686966 0.702991 c 45 41 907 688 bf 46 41 952 688 bf 0.322347 0.730556 0.570878 c 45 41 998 688 bf 0.584194 0.746125 0.444394 c 46 41 1043
 688 bf 0.701397 0.739462 0.397147 c 45 41 1089 688 bf 45 41 1134 688 bf 0.453559 0.742331 0.504766 c 46 41 1179 688 bf 0.322347 0.730556 0.570878 c 45 41 1225 688 bf 0.1802 0.7178 0.6425 c 45 41 1270 688 bf 0.116419 0.686966 0.702991 c 46 41 1315
 688 bf 0.0526375 0.656131 0.763481 c 45 41 1361 688 bf 0.078 0.5041 0.8385 c 45 41 1406 688 bf 0.033475 0.616063 0.800231 c 46 41 1451 688 bf 0.0557375 0.560081 0.819366 c 45 41 1497 688 bf 0.033475 0.616063 0.800231 c 46 41 1587 688 bf 46 41 1723
 688 bf 0.0557375 0.560081 0.819366 c 45 41 1860 688 bf 0.0526375 0.656131 0.763481 c 45 41 635 729 bf 45 41 726 729 bf 45 41 771 729 bf 46 41 816 729 bf 0.1802 0.7178 0.6425 c 45 41 907 729 bf 0.116419 0.686966 0.702991 c 46 41 952 729 bf 0.453559
 0.742331 0.504766 c 45 41 998 729 bf 0.701397 0.739462 0.397147 c 46 41 1043 729 bf 0.884975 0.752825 0.292488 c 45 41 1089 729 bf 45 41 1134 729 bf 0.701397 0.739462 0.397147 c 46 41 1179 729 bf 0.322347 0.730556 0.570878 c 45 41 1225 729 bf
 0.116419 0.686966 0.702991 c 45 41 1270 729 bf 0.033475 0.616063 0.800231 c 46 41 1315 729 bf 0.0526375 0.656131 0.763481 c 45 41 1361 729 bf 0.033475 0.616063 0.800231 c 45 41 1406 729 bf 0.0557375 0.560081 0.819366 c 45 41 1497 729 bf 0.033475
 0.616063 0.800231 c 46 41 680 770 bf 45 41 771 770 bf 0.0557375 0.560081 0.819366 c 45 41 862 770 bf 0.116419 0.686966 0.702991 c 45 41 907 770 bf 0.322347 0.730556 0.570878 c 46 41 952 770 bf 0.1802 0.7178 0.6425 c 45 41 998 770 bf 0.584194
 0.746125 0.444394 c 46 41 1043 770 bf 0.884975 0.752825 0.292488 c 45 41 1089 770 bf 45 41 1134 770 bf 0.701397 0.739462 0.397147 c 46 41 1179 770 bf 0.453559 0.742331 0.504766 c 45 41 1225 770 bf 0.322347 0.730556 0.570878 c 45 41 1270 770 bf
 0.116419 0.686966 0.702991 c 46 41 1315 770 bf 45 41 1361 770 bf 0.0526375 0.656131 0.763481 c 45 41 1406 770 bf 0.0557375 0.560081 0.819366 c 45 41 499 811 bf 0.0526375 0.656131 0.763481 c 45 41 771 811 bf 46 41 816 811 bf 0.116419 0.686966
 0.702991 c 45 41 862 811 bf 0.1802 0.7178 0.6425 c 45 41 907 811 bf 0.322347 0.730556 0.570878 c 46 41 952 811 bf 0.1802 0.7178 0.6425 c 45 41 998 811 bf 0.584194 0.746125 0.444394 c 46 41 1043 811 bf 0.701397 0.739462 0.397147 c 45 41 1089 811 bf
 0.8186 0.7328 0.3499 c 45 41 1134 811 bf 0.584194 0.746125 0.444394 c 46 41 1179 811 bf 0.322347 0.730556 0.570878 c 45 41 1225 811 bf 45 41 1270 811 bf 0.116419 0.686966 0.702991 c 46 41 1315 811 bf 0.033475 0.616063 0.800231 c 45 41 1361 811 bf
 0.116419 0.686966 0.702991 c 45 41 1406 811 bf 0.0526375 0.656131 0.763481 c 46 41 1451 811 bf 45 41 1542 811 bf 0.033475 0.616063 0.800231 c 45 41 726 852 bf 46 41 816 852 bf 0.116419 0.686966 0.702991 c 45 41 862 852 bf 0.0526375 0.656131 0.763481
 c 45 41 907 852 bf 0.1802 0.7178 0.6425 c 46 41 952 852 bf 0.322347 0.730556 0.570878 c 45 41 998 852 bf 46 41 1043 852 bf 0.584194 0.746125 0.444394 c 45 41 1089 852 bf 0.453559 0.742331 0.504766 c 45 41 1134 852 bf 0.322347 0.730556 0.570878 c 46
 41 1179 852 bf 45 41 1225 852 bf 0.0526375 0.656131 0.763481 c 45 41 1270 852 bf 46 41 1315 852 bf 0.116419 0.686966 0.702991 c 45 41 1361 852 bf 45 41 1406 852 bf 0.0557375 0.560081 0.819366 c 46 41 1587 852 bf 45 41 363 893 bf 0.033475 0.616063
 0.800231 c 46 41 680 893 bf 0.0526375 0.656131 0.763481 c 45 41 907 893 bf 0.1802 0.7178 0.6425 c 46 41 952 893 bf 0.116419 0.686966 0.702991 c 45 41 998 893 bf 0.322347 0.730556 0.570878 c 46 41 1043 893 bf 45 41 1089 893 bf 0.1802 0.7178 0.6425 c
 45 41 1134 893 bf 46 41 1179 893 bf 0.116419 0.686966 0.702991 c 45 41 1225 893 bf 0.0526375 0.656131 0.763481 c 45 41 1270 893 bf 0.116419 0.686966 0.702991 c 46 41 1315 893 bf 0.033475 0.616063 0.800231 c 46 41 1451 893 bf 0.0557375 0.560081
 0.819366 c 45 41 1497 893 bf 45 41 1542 893 bf 0.033475 0.616063 0.800231 c 46 41 680 934 bf 45 41 726 934 bf 0.0557375 0.560081 0.819366 c 45 41 771 934 bf 0.0526375 0.656131 0.763481 c 46 41 816 934 bf 45 41 862 934 bf 45 41 907 934 bf 0.1802
 0.7178 0.6425 c 46 41 952 934 bf 45 41 998 934 bf 45 41 1089 934 bf 0.116419 0.686966 0.702991 c 45 41 1134 934 bf 0.0557375 0.560081 0.819366 c 46 41 1179 934 bf 0.1802 0.7178 0.6425 c 45 41 1225 934 bf 0.116419 0.686966 0.702991 c 45 41 1270 934
 bf 0.033475 0.616063 0.800231 c 46 41 1315 934 bf 45 41 1361 934 bf 0.0526375 0.656131 0.763481 c 45 41 1406 934 bf 0.0557375 0.560081 0.819366 c 45 41 1497 934 bf 45 41 1542 934 bf 0.116419 0.686966 0.702991 c 45 41 862 975 bf 45 41 998 975 bf
 0.0526375 0.656131 0.763481 c 46 41 1043 975 bf 0.033475 0.616063 0.800231 c 45 41 1089 975 bf 0.116419 0.686966 0.702991 c 45 41 1134 975 bf 0.0526375 0.656131 0.763481 c 46 41 1179 975 bf 45 41 1225 975 bf 46 41 1315 975 bf 45 41 1361 975 bf
 0.033475 0.616063 0.800231 c 46 41 1451 975 bf 0.0557375 0.560081 0.819366 c 46 41 1723 975 bf 0.033475 0.616063 0.800231 c 46 41 816 1016 bf 0.116419 0.686966 0.702991 c 45 41 907 1016 bf 0.1802 0.7178 0.6425 c 46 41 952 1016 bf 0.116419 0.686966
 0.702991 c 45 41 998 1016 bf 0.0526375 0.656131 0.763481 c 46 41 1043 1016 bf 45 41 1089 1016 bf 0.116419 0.686966 0.702991 c 45 41 1134 1016 bf 46 41 1179 1016 bf 0.033475 0.616063 0.800231 c 45 41 1225 1016 bf 45 41 1270 1016 bf 0.0557375 0.560081
 0.819366 c 45 41 1361 1016 bf 0.033475 0.616063 0.800231 c 46 41 1451 1016 bf 0.0557375 0.560081 0.819366 c 45 41 1497 1016 bf 0.116419 0.686966 0.702991 c 46 41 1587 1016 bf 0.078 0.5041 0.8385 c 45 42 862 1057 bf 0.116419 0.686966 0.702991 c 46 42
 952 1057 bf 45 42 1089 1057 bf 46 42 1179 1057 bf 0.033475 0.616063 0.800231 c 45 41 590 1099 bf 0.0557375 0.560081 0.819366 c 45 41 1134 1099 bf 0.0526375 0.656131 0.763481 c 45 41 1361 1099 bf 0.116419 0.686966 0.702991 c 45 41 771 1140 bf 46 41
 952 1140 bf 0.0526375 0.656131 0.763481 c 45 41 1089 1140 bf 45 41 1406 1140 bf 45 41 998 1181 bf 0.033475 0.616063 0.800231 c 45 41 1361 1181 bf 0.0526375 0.656131 0.763481 c 45 41 907 1222 bf 0.033475 0.616063 0.800231 c 46 41 1043 1222 bf
 0.0526375 0.656131 0.763481 c 45 41 1270 1222 bf 46 41 680 1304 bf 0.0557375 0.560081 0.819366 c 45 41 1089 1304 bf 0.0526375 0.656131 0.763481 c 46 41 1315 1304 bf 0.033475 0.616063 0.800231 c 45 41 1497 1304 bf 0.078 0.5041 0.8385 c 45 41 1089
 1345 bf 0.033475 0.616063 0.800231 c 45 41 1769 1345 bf 1 1 1 c black 227 154 m 1814 X s 227 191 m -37 Y s 283 172 m -18 Y s 340 172 m -18 Y s 397 172 m -18 Y s 454 191 m -37 Y s 510 172 m -18 Y s 567 172 m -18 Y s 624 172 m -18 Y s 680 191 m -37 Y
 s 737 172 m -18 Y s 794 172 m -18 Y s 850 172 m -18 Y s 907 191 m -37 Y s 964 172 m -18 Y s 1020 172 m -18 Y s 1077 172 m -18 Y s 1134 191 m -37 Y s 1191 172 m -18 Y s 1247 172 m -18 Y s 1304 172 m -18 Y s 1361 191 m -37 Y s 1417 172 m -18 Y s 1474
 172 m -18 Y s 1531 172 m -18 Y s 1587 191 m -37 Y s 1644 172 m -18 Y s 1701 172 m -18 Y s 1757 172 m -18 Y s 1814 191 m -37 Y s 1871 172 m -18 Y s 1928 172 m -18 Y s 1984 172 m -18 Y s 2041 191 m -37 Y s
 gsave  2268 1540 0 0 C 194.933 103.964 t 0 r /Helvetica findfont 48.7332 sf 0 0 m (800) show NC gr 
 gsave  2268 1540 0 0 C 168.942 103.964 t 0 r /Symbol findfont 48.7332 sf 0 0 m (-) show NC gr 
 gsave  2268 1540 0 0 C 422.354 103.964 t 0 r /Helvetica findfont 48.7332 sf 0 0 m (600) show NC gr 
 gsave  2268 1540 0 0 C 396.363 103.964 t 0 r /Symbol findfont 48.7332 sf 0 0 m (-) show NC gr 
 gsave  2268 1540 0 0 C 649.776 103.964 t 0 r /Helvetica findfont 48.7332 sf 0 0 m (400) show NC gr 
 gsave  2268 1540 0 0 C 623.784 103.964 t 0 r /Symbol findfont 48.7332 sf 0 0 m (-) show NC gr 
 gsave  2268 1540 0 0 C 877.197 103.964 t 0 r /Helvetica findfont 48.7332 sf 0 0 m (200) show NC gr 
 gsave  2268 1540 0 0 C 851.206 103.964 t 0 r /Symbol findfont 48.7332 sf 0 0 m (-) show NC gr 
 gsave  2268 1540 0 0 C 1120.86 103.964 t 0 r /Helvetica findfont 48.7332 sf 0 0 m (0) show NC gr 
 gsave  2268 1540 0 0 C 1315.8 103.964 t 0 r /Helvetica findfont 48.7332 sf 0 0 m (200) show NC gr 
 gsave  2268 1540 0 0 C 1543.22 103.964 t 0 r /Helvetica findfont 48.7332 sf 0 0 m (400) show NC gr 
 gsave  2268 1540 0 0 C 1770.64 103.964 t 0 r /Helvetica findfont 48.7332 sf 0 0 m (600) show NC gr 
 gsave  2268 1540 0 0 C 1998.06 103.964 t 0 r /Helvetica findfont 48.7332 sf 0 0 m (800) show NC gr 
 gsave  2268 1540 0 0 C 1049.39 25.991 t 0 r /Helvetica findfont 64.9775 sf 0 0 m (X\(cm\)) show NC gr  227 154 m 1232 Y s 281 154 m -54 X s 254 195 m -27 X s 254 236 m -27 X s 254 277 m -27 X s 254 318 m -27 X s 281 359 m -54 X s 254 400 m -27 X s
 254 441 m -27 X s 254 483 m -27 X s 254 524 m -27 X s 281 565 m -54 X s 254 606 m -27 X s 254 647 m -27 X s 254 688 m -27 X s 254 729 m -27 X s 281 770 m -54 X s 254 811 m -27 X s 254 852 m -27 X s 254 893 m -27 X s 254 934 m -27 X s 281 975 m -54 X
 s 254 1016 m -27 X s 254 1057 m -27 X s 254 1099 m -27 X s 254 1140 m -27 X s 281 1181 m -54 X s 254 1222 m -27 X s 254 1263 m -27 X s 254 1304 m -27 X s 254 1345 m -27 X s 281 1386 m -54 X s
 gsave  2268 1540 0 0 C 133.204 136.453 t 0 r /Helvetica findfont 48.7332 sf 0 0 m (300) show NC gr 
 gsave  2268 1540 0 0 C 103.964 136.453 t 0 r /Symbol findfont 48.7332 sf 0 0 m (-) show NC gr 
 gsave  2268 1540 0 0 C 133.204 341.132 t 0 r /Helvetica findfont 48.7332 sf 0 0 m (200) show NC gr 
 gsave  2268 1540 0 0 C 103.964 341.132 t 0 r /Symbol findfont 48.7332 sf 0 0 m (-) show NC gr 
 gsave  2268 1540 0 0 C 133.204 545.811 t 0 r /Helvetica findfont 48.7332 sf 0 0 m (100) show NC gr 
 gsave  2268 1540 0 0 C 103.964 545.811 t 0 r /Symbol findfont 48.7332 sf 0 0 m (-) show NC gr 
 gsave  2268 1540 0 0 C 188.435 750.491 t 0 r /Helvetica findfont 48.7332 sf 0 0 m (0) show NC gr 
 gsave  2268 1540 0 0 C 133.204 958.419 t 0 r /Helvetica findfont 48.7332 sf 0 0 m (100) show NC gr 
 gsave  2268 1540 0 0 C 133.204 1163.1 t 0 r /Helvetica findfont 48.7332 sf 0 0 m (200) show NC gr 
 gsave  2268 1540 0 0 C 133.204 1367.78 t 0 r /Helvetica findfont 48.7332 sf 0 0 m (300) show NC gr 
 gsave  2268 1540 0 0 C 94.2174 1218.33 t 90 r /Helvetica findfont 64.9775 sf 0 0 m (Y\(cm\)) show NC gr  0.150523 0.241303 0.660565 c 102 62 2052 154 bf 0.0880387 0.322448 0.802768 c 102 61 2052 216 bf 0.0633125 0.391444 0.861859 c 102 62 2052 277
 bf 0.0703625 0.445519 0.850647 c 102 61 2052 339 bf 0.078 0.5041 0.8385 c 102 62 2052 400 bf 0.0557375 0.560081 0.819366 c 102 62 2052 462 bf 0.033475 0.616063 0.800231 c 102 61 2052 524 bf 0.0526375 0.656131 0.763481 c 102 62 2052 585 bf 0.116419
 0.686966 0.702991 c 102 61 2052 647 bf 0.1802 0.7178 0.6425 c 102 62 2052 708 bf 0.322347 0.730556 0.570878 c 102 62 2052 770 bf 0.453559 0.742331 0.504766 c 102 61 2052 832 bf 0.584194 0.746125 0.444394 c 102 62 2052 893 bf 0.701397 0.739462
 0.397147 c 102 61 2052 955 bf 0.8186 0.7328 0.3499 c 102 62 2052 1016 bf 0.884975 0.752825 0.292488 c 102 62 2052 1078 bf 0.956881 0.774519 0.230291 c 102 61 2052 1140 bf 0.992 0.823138 0.170006 c 102 62 2052 1201 bf 0.9842 0.903169 0.111953 c 102
 61 2052 1263 bf 0.977 0.977044 0.0583656 c 102 62 2052 1324 bf black 2154 154 m 1232 Y s 2100 154 m 54 X s
 gsave  2268 1540 0 0 C 2248.22 152.697 t 0 r /Helvetica findfont 32.4888 sf 0 0 m (1) show NC gr 
 gsave  2268 1540 0 0 C 2231.98 152.697 t 0 r /Symbol findfont 32.4888 sf 0 0 m (-) show NC gr 
 gsave  2268 1540 0 0 C 2176.75 133.204 t 0 r /Helvetica findfont 48.7332 sf 0 0 m (10) show NC gr  2127 216 m 27 X s 2127 252 m 27 X s 2127 278 m 27 X s 2127 298 m 27 X s 2127 314 m 27 X s 2127 328 m 27 X s 2127 339 m 27 X s 2127 350 m 27 X s 2100
 359 m 54 X s
 gsave  2268 1540 0 0 C 2176.75 341.132 t 0 r /Helvetica findfont 48.7332 sf 0 0 m (1) show NC gr  2127 421 m 27 X s 2127 457 m 27 X s 2127 483 m 27 X s 2127 503 m 27 X s 2127 519 m 27 X s 2127 533 m 27 X s 2127 545 m 27 X s 2127 555 m 27 X s 2100
 565 m 54 X s
 gsave  2268 1540 0 0 C 2176.75 545.811 t 0 r /Helvetica findfont 48.7332 sf 0 0 m (10) show NC gr  2127 626 m 27 X s 2127 663 m 27 X s 2127 688 m 27 X s 2127 708 m 27 X s 2127 724 m 27 X s 2127 738 m 27 X s 2127 750 m 27 X s 2127 761 m 27 X s 2100
 770 m 54 X s
 gsave  2268 1540 0 0 C 2231.98 766.735 t 0 r /Helvetica findfont 32.4888 sf 0 0 m (2) show NC gr 
 gsave  2268 1540 0 0 C 2176.75 747.242 t 0 r /Helvetica findfont 48.7332 sf 0 0 m (10) show NC gr  2127 832 m 27 X s 2127 868 m 27 X s 2127 894 m 27 X s 2127 914 m 27 X s 2127 930 m 27 X s 2127 944 m 27 X s 2127 955 m 27 X s 2127 966 m 27 X s 2100
 975 m 54 X s
 gsave  2268 1540 0 0 C 2231.98 977.912 t 0 r /Helvetica findfont 32.4888 sf 0 0 m (3) show NC gr 
 gsave  2268 1540 0 0 C 2176.75 955.17 t 0 r /Helvetica findfont 48.7332 sf 0 0 m (10) show NC gr  2127 1037 m 27 X s 2127 1073 m 27 X s 2127 1099 m 27 X s 2127 1119 m 27 X s 2127 1135 m 27 X s 2127 1149 m 27 X s 2127 1161 m 27 X s 2127 1171 m 27 X s
 2100 1181 m 54 X s
 gsave  2268 1540 0 0 C 2231.98 1179.34 t 0 r /Helvetica findfont 32.4888 sf 0 0 m (4) show NC gr 
 gsave  2268 1540 0 0 C 2176.75 1159.85 t 0 r /Helvetica findfont 48.7332 sf 0 0 m (10) show NC gr  2127 1242 m 27 X s 2127 1279 m 27 X s 2127 1304 m 27 X s 2127 1324 m 27 X s 2127 1340 m 27 X s 2127 1354 m 27 X s 2127 1366 m 27 X s 2127 1377 m 27 X
 s 2100 1386 m 54 X s
 gsave  2268 1540 0 0 C 2231.98 1387.27 t 0 r /Helvetica findfont 32.4888 sf 0 0 m (5) show NC gr 
 gsave  2268 1540 0 0 C 2176.75 1364.53 t 0 r /Helvetica findfont 48.7332 sf 0 0 m (10) show NC gr  1 1 1 c black
 gsave  2268 1540 0 0 C 1055.89 1465.24 t 0 r /Helvetica findfont 74.7242 sf 0 0 m (E:y_vs_x) show NC gr 
 gsave  2268 1540 0 0 C 1039.64 1510.73 t 0 r /Helvetica findfont 48.7332 sf 0 0 m (\255) show NC gr 
 gsave  2268 1540 0 0 C 987.659 1465.24 t 0 r /Helvetica findfont 74.7242 sf 0 0 m (K) show NC gr 
 gsave  2268 1540 0 0 C 958.419 1504.23 t 0 r /Helvetica findfont 48.7332 sf 0 0 m (+) show NC gr 
 gsave  2268 1540 0 0 C 906.437 1465.24 t 0 r /Helvetica findfont 74.7242 sf 0 0 m (K) show NC gr 
 gr  gr showpage
end
%%EOF
