%!PS-Adobe-2.0 EPSF-2.0
%%BoundingBox:  0 0 567 385
%%Title: nn~_xyr.eps: nn~:density_vs_r
%%Creator: ROOT Version 6.12/06
%%CreationDate: Wed Aug  1 19:30:38 2018
%%DocumentNeededResources: ProcSet (FontSetInit)
%%EndComments
%%BeginProlog
80 dict begin
/s {stroke} def /l {lineto} def /m {moveto} def /t {translate} def
/r {rotate} def /rl {roll}  def /R {repeat} def
/d {rlineto} def /rm {rmoveto} def /gr {grestore} def /f {eofill} def
/c {setrgbcolor} def /black {0 setgray} def /sd {setdash} def
/cl {closepath} def /sf {scalefont setfont} def /lw {setlinewidth} def
/box {m dup 0 exch d exch 0 d 0 exch neg d cl} def
/NC{systemdict begin initclip end}def/C{NC box clip newpath}def
/bl {box s} def /bf {gsave box gsave f grestore 1 lw [] 0 sd s grestore} def /Y { 0 exch d} def /X { 0 d} def 
/K {{pop pop 0 moveto} exch kshow} bind def
/ita {/ang 15 def gsave [1 0 ang dup sin exch cos div 1 0 0] concat} def 
/mp {newpath /y exch def /x exch def} def
/side {[w .77 mul w .23 mul] .385 w mul sd w 0 l currentpoint t -144 r} def
/mr {mp x y w2 0 360 arc} def /m24 {mr s} def /m20 {mr f} def
/mb {mp x y w2 add m w2 neg 0 d 0 w neg d w 0 d 0 w d cl} def
/mt {mp x y w2 add m w2 neg w neg d w 0 d cl} def
/w4 {w 4 div} def
/w6 {w 6 div} def
/w8 {w 8 div} def
/m21 {mb f} def /m25 {mb s} def /m22 {mt f} def /m26{mt s} def
/m23 {mp x y w2 sub m w2 w d w neg 0 d cl f} def
/m27 {mp x y w2 add m w3 neg w2 neg d w3 w2 neg d w3 w2 d cl s} def
/m28 {mp x w2 sub y w2 sub w3 add m w3 0 d  0 w3 neg d w3 0 d 0 w3 d w3 0 d  0 w3 d w3 neg 0 d 0 w3 d w3 neg 0 d 0 w3 neg d w3 neg 0 d cl s } def
/m29 {mp gsave x w2 sub y w2 add w3 sub m currentpoint t 4 {side} repeat cl fill gr} def
/m30 {mp gsave x w2 sub y w2 add w3 sub m currentpoint t 4 {side} repeat cl s gr} def
/m31 {mp x y w2 sub m 0 w d x w2 sub y m w 0 d x w2 sub y w2 add m w w neg d x w2 sub y w2 sub m w w d s} def
/m32 {mp x y w2 sub m w2 w d w neg 0 d cl s} def
/m33 {mp x y w2 add m w3 neg w2 neg d w3 w2 neg d w3 w2 d cl f} def
/m34 {mp x w2 sub y w2 sub w3 add m w3 0 d  0 w3 neg d w3 0 d 0 w3 d w3 0 d  0 w3 d w3 neg 0 d 0 w3 d w3 neg 0 d 0 w3 neg d w3 neg 0 d cl f } def
/m35 {mp x y w2 add m w2 neg w2 neg d w2 w2 neg d w2 w2 d w2 neg w2 d x y w2 sub m 0 w d x w2 sub y m w 0 d s} def
/m36 {mb x w2 sub y w2 add m w w neg d x w2 sub y w2 sub m w w d s} def
/m37 {mp x y m w4 neg w2 d w4 neg w2 neg d w2 0 d  w4 neg w2 neg d w2 0 d w4 neg w2 d w2 0 d w4 neg w2 d w4 neg w2 neg d cl s} def
/m38 {mp x w4 sub y w2 add m w4 neg w4 neg d 0 w2 neg d w4 w4 neg d w2 0 d w4 w4 d 0 w2 d w4 neg w4 d w2 neg 0 d x y w2 sub m 0 w d x w2 sub y m w 0 d cl s} def
/m39 {mp x y m w4 neg w2 d w4 neg w2 neg d w2 0 d  w4 neg w2 neg d w2 0 d w4 neg w2 d w2 0 d w4 neg w2 d w4 neg w2 neg d cl f} def
/m40 {mp x y m w4 w2 d w4 w4 neg d w2 neg w4 neg d w2 w4 neg d w4 neg w4 neg d w4 neg w2 d w4 neg w2 neg d w4 neg w4 d w2 w4 d w2 neg w4 d w4 w4 d w4 w2 neg d cl s} def
/m41 {mp x y m w4 w2 d w4 w4 neg d w2 neg w4 neg d w2 w4 neg d w4 neg w4 neg d w4 neg w2 d w4 neg w2 neg d w4 neg w4 d w2 w4 d w2 neg w4 d w4 w4 d w4 w2 neg d cl f} def
/m42 {mp x y w2 add m w8 neg w2 -3 4 div mul d w2 -3 4 div mul w8 neg d w2 3 4 div mul w8 neg d w8 w2 -3 4 div mul d w8 w2 3 4 div mul d w2 3 4 div mul w8 d w2 -3 4 div mul w8 d w8 neg w2 3 4 div mul d cl s} def
/m43 {mp x y w2 add m w8 neg w2 -3 4 div mul d w2 -3 4 div mul w8 neg d w2 3 4 div mul w8 neg d w8 w2 -3 4 div mul d w8 w2 3 4 div mul d w2 3 4 div mul w8 d w2 -3 4 div mul w8 d w8 neg w2 3 4 div mul d cl f} def
/m44 {mp x y m w6 neg w2 d w2 2 3 div mul 0 d w6 neg w2 neg d w2 w6 d 0 w2 -2 3 div mul d w2 neg w6 d w6 w2 neg d w2 -2 3 div mul 0 d w6 w2 d w2 neg w6 neg d 0 w2 2 3 div mul d w2 w6 neg d cl s} def
/m45 {mp x y m w6 neg w2 d w2 2 3 div mul 0 d w6 neg w2 neg d w2 w6 d 0 w2 -2 3 div mul d w2 neg w6 d w6 w2 neg d w2 -2 3 div mul 0 d w6 w2 d w2 neg w6 neg d 0 w2 2 3 div mul d w2 w6 neg d cl f} def
/m46 {mp x y w4 add m w4 neg w4 d w4 neg w4 neg d  w4 w4 neg d w4 neg w4 neg d w4 w4 neg d w4 w4 d w4 w4 neg d w4 w4 d w4 neg w4 d w4 w4 d w4 neg w4 d w4 neg w4 neg d cl s} def
/m47 {mp x y w4 add m w4 neg w4 d w4 neg w4 neg d w4 w4 neg d w4 neg w4 neg d  w4 w4 neg d w4 w4 d w4 w4 neg d w4 w4 d w4 neg w4 d w4 w4 d w4 neg w4 d w4 neg w4 neg d cl f} def
/m48 {mp x y w4 add m w4 neg w4 d w4 neg w4 neg d w4 w4 neg d  w4 neg w4 neg d w4 w4 neg d w4 w4 d w4 w4 neg d w4 w4 d w4 neg w4 d w4 w4 d w4 neg w4 d w4 neg w4 neg d  w4 w4 neg d w4 neg w4 neg d w4 neg w4 d w4 w4 d cl f} def
/m49 {mp x w2 sub w3 add y w2 sub w3 add m  0 w3 neg d w3 0 d 0 w3 d w3 0 d 0 w3 d w3 neg 0 d 0 w3 d w3 neg 0 d 0 w3 neg d w3 neg 0 d 0 w3 neg d w3 0 d 0 w3 d w3 0 d 0 w3 neg d w3 neg 0 d cl f } def
/m2 {mp x y w2 sub m 0 w d x w2 sub y m w 0 d s} def
/m5 {mp x w2 sub y w2 sub m w w d x w2 sub y w2 add m w w neg d s} def
%%IncludeResource: ProcSet (FontSetInit)
%%IncludeResource: font Times-Roman
%%IncludeResource: font Times-Italic
%%IncludeResource: font Times-Bold
%%IncludeResource: font Times-BoldItalic
%%IncludeResource: font Helvetica
%%IncludeResource: font Helvetica-Oblique
%%IncludeResource: font Helvetica-Bold
%%IncludeResource: font Helvetica-BoldOblique
%%IncludeResource: font Courier
%%IncludeResource: font Courier-Oblique
%%IncludeResource: font Courier-Bold
%%IncludeResource: font Courier-BoldOblique
%%IncludeResource: font Symbol
%%IncludeResource: font ZapfDingbats
/reEncode {exch findfont dup length dict begin {1 index /FID eq  {pop pop} {def} ifelse } forall /Encoding exch def currentdict end dup /FontName get exch definefont pop } def [/Times-Bold /Times-Italic /Times-BoldItalic /Helvetica /Helvetica-Oblique
 /Helvetica-Bold /Helvetica-BoldOblique /Courier /Courier-Oblique /Courier-Bold /Courier-BoldOblique /Times-Roman /AvantGarde-Book /AvantGarde-BookOblique /AvantGarde-Demi /AvantGarde-DemiOblique /Bookman-Demi /Bookman-DemiItalic /Bookman-Light
 /Bookman-LightItalic /Helvetica-Narrow /Helvetica-Narrow-Bold /Helvetica-Narrow-BoldOblique /Helvetica-Narrow-Oblique /NewCenturySchlbk-Roman /NewCenturySchlbk-Bold /NewCenturySchlbk-BoldItalic /NewCenturySchlbk-Italic /Palatino-Bold
 /Palatino-BoldItalic /Palatino-Italic /Palatino-Roman ] {ISOLatin1Encoding reEncode } forall
%%EndProlog
%%BeginSetup
%%EndSetup
newpath  gsave  .25 .25 scale  gsave  0 0 t black[  ] 0 sd 3 lw 1 1 1 c 2268 1540 0 0 bf black 1 1 1 c 1814 1232 227 154 bf black 1814 1232 227 154 bl 1 1 1 c 1814 1232 227 154 bf black 1814 1232 227 154 bl 0 0 0.6 c 1 1 1 c black 0 0 0.6 c 261 1074
 m 2 Y s 261 1076 m 3 Y s 249 1076 m 12 X s 261 1076 m 11 X s black /w 2 def /w2 {w 2 div} def /w3 {w 3 div} def 261 1076 m20 0 0 0.6 c 283 1120 m 1 Y s 283 1121 m 2 Y s 272 1121 m 11 X s 283 1121 m 12 X s black 283 1121 m20 0 0 0.6 c 306 1101 m 1 Y
 s 306 1102 m 2 Y s 295 1102 m 11 X s 306 1102 m 11 X s black 306 1102 m20 0 0 0.6 c 329 1080 m 1 Y s 329 1081 m 2 Y s 317 1081 m 12 X s 329 1081 m 11 X s black 329 1081 m20 0 0 0.6 c 351 1055 m 2 Y s 351 1057 m 1 Y s 340 1057 m 11 X s 351 1057 m 12
 X s black 351 1057 m20 0 0 0.6 c 374 1037 m 2 Y s 374 1039 m 1 Y s 363 1039 m 11 X s 374 1039 m 12 X s black 374 1039 m20 0 0 0.6 c 397 1022 m 2 Y s 397 1024 m 2 Y s 386 1024 m 11 X s 397 1024 m 11 X s black 397 1024 m20 0 0 0.6 c 420 1000 m 2 Y s
 420 1002 m 2 Y s 408 1002 m 12 X s 420 1002 m 11 X s black 420 1002 m20 0 0 0.6 c 442 983 m 2 Y s 442 985 m 2 Y s 431 985 m 11 X s 442 985 m 12 X s black 442 985 m20 0 0 0.6 c 465 960 m 2 Y s 465 962 m 2 Y s 454 962 m 11 X s 465 962 m 11 X s black
 465 962 m20 0 0 0.6 c 488 946 m 2 Y s 488 948 m 2 Y s 476 948 m 12 X s 488 948 m 11 X s black 488 948 m20 0 0 0.6 c 510 920 m 3 Y s 510 923 m 2 Y s 499 923 m 11 X s 510 923 m 12 X s black 510 923 m20 0 0 0.6 c 533 907 m 2 Y s 533 909 m 3 Y s 522 909
 m 11 X s 533 909 m 11 X s black 533 909 m20 0 0 0.6 c 556 883 m 4 Y s 556 887 m 2 Y s 544 887 m 12 X s 556 887 m 11 X s black 556 887 m20 0 0 0.6 c 578 871 m 3 Y s 578 874 m 3 Y s 567 874 m 11 X s 578 874 m 12 X s black 578 874 m20 0 0 0.6 c 601 855
 m 4 Y s 601 859 m 3 Y s 590 859 m 11 X s 601 859 m 11 X s black 601 859 m20 0 0 0.6 c 624 844 m 4 Y s 624 848 m 3 Y s 612 848 m 12 X s 624 848 m 11 X s black 624 848 m20 0 0 0.6 c 646 825 m 4 Y s 646 829 m 4 Y s 635 829 m 11 X s 646 829 m 12 X s
 black 646 829 m20 0 0 0.6 c 669 816 m 4 Y s 669 820 m 4 Y s 658 820 m 11 X s 669 820 m 11 X s black 669 820 m20 0 0 0.6 c 692 813 m 4 Y s 692 817 m 3 Y s 680 817 m 12 X s 692 817 m 11 X s black 692 817 m20 0 0 0.6 c 714 802 m 4 Y s 714 806 m 4 Y s
 703 806 m 11 X s 714 806 m 12 X s black 714 806 m20 0 0 0.6 c 737 788 m 4 Y s 737 792 m 5 Y s 726 792 m 11 X s 737 792 m 11 X s black 737 792 m20 0 0 0.6 c 760 775 m 5 Y s 760 780 m 5 Y s 748 780 m 12 X s 760 780 m 11 X s black 760 780 m20 0 0 0.6 c
 782 769 m 5 Y s 782 774 m 4 Y s 771 774 m 11 X s 782 774 m 12 X s black 782 774 m20 0 0 0.6 c 805 758 m 5 Y s 805 763 m 5 Y s 794 763 m 11 X s 805 763 m 11 X s black 805 763 m20 0 0 0.6 c 828 747 m 5 Y s 828 752 m 5 Y s 816 752 m 12 X s 828 752 m 11
 X s black 828 752 m20 0 0 0.6 c 850 729 m 6 Y s 850 735 m 6 Y s 839 735 m 11 X s 850 735 m 12 X s black 850 735 m20 0 0 0.6 c 873 728 m 6 Y s 873 734 m 5 Y s 862 734 m 11 X s 873 734 m 11 X s black 873 734 m20 0 0 0.6 c 896 705 m 7 Y s 896 712 m 6 Y
 s 884 712 m 12 X s 896 712 m 11 X s black 896 712 m20 0 0 0.6 c 918 701 m 7 Y s 918 708 m 7 Y s 907 708 m 11 X s 918 708 m 12 X s black 918 708 m20 0 0 0.6 c 941 698 m 7 Y s 941 705 m 6 Y s 930 705 m 11 X s 941 705 m 11 X s black 941 705 m20 0 0 0.6
 c 964 671 m 8 Y s 964 679 m 7 Y s 952 679 m 12 X s 964 679 m 11 X s black 964 679 m20 0 0 0.6 c 986 668 m 8 Y s 986 676 m 8 Y s 975 676 m 11 X s 986 676 m 12 X s black 986 676 m20 0 0 0.6 c 1009 662 m 8 Y s 1009 670 m 8 Y s 998 670 m 11 X s 1009 670
 m 11 X s black 1009 670 m20 0 0 0.6 c 1032 646 m 10 Y s 1032 656 m 8 Y s 1020 656 m 12 X s 1032 656 m 11 X s black 1032 656 m20 0 0 0.6 c 1054 639 m 10 Y s 1054 649 m 8 Y s 1043 649 m 11 X s 1054 649 m 12 X s black 1054 649 m20 0 0 0.6 c 1077 631 m
 10 Y s 1077 641 m 9 Y s 1066 641 m 11 X s 1077 641 m 12 X s black 1077 641 m20 0 0 0.6 c 1100 622 m 10 Y s 1100 632 m 9 Y s 1089 632 m 11 X s 1100 632 m 11 X s black 1100 632 m20 0 0 0.6 c 1123 639 m 9 Y s 1123 648 m 9 Y s 1111 648 m 12 X s 1123 648
 m 11 X s black 1123 648 m20 0 0 0.6 c 1145 602 m 12 Y s 1145 614 m 9 Y s 1134 614 m 11 X s 1145 614 m 12 X s black 1145 614 m20 0 0 0.6 c 1168 602 m 11 Y s 1168 613 m 10 Y s 1157 613 m 11 X s 1168 613 m 11 X s black 1168 613 m20 0 0 0.6 c 1191 583 m
 12 Y s 1191 595 m 11 Y s 1179 595 m 12 X s 1191 595 m 11 X s black 1191 595 m20 0 0 0.6 c 1213 603 m 11 Y s 1213 614 m 9 Y s 1202 614 m 11 X s 1213 614 m 12 X s black 1213 614 m20 0 0 0.6 c 1236 597 m 11 Y s 1236 608 m 10 Y s 1225 608 m 11 X s 1236
 608 m 11 X s black 1236 608 m20 0 0 0.6 c 1259 578 m 12 Y s 1259 590 m 11 Y s 1247 590 m 12 X s 1259 590 m 11 X s black 1259 590 m20 0 0 0.6 c 1281 580 m 12 Y s 1281 592 m 11 Y s 1270 592 m 11 X s 1281 592 m 12 X s black 1281 592 m20 0 0 0.6 c 1304
 555 m 14 Y s 1304 569 m 12 Y s 1293 569 m 11 X s 1304 569 m 11 X s black 1304 569 m20 0 0 0.6 c 1327 503 m 20 Y s 1327 523 m 16 Y s 1315 523 m 12 X s 1327 523 m 11 X s black 1327 523 m20 0 0 0.6 c 1349 518 m 18 Y s 1349 536 m 14 Y s 1338 536 m 11 X
 s 1349 536 m 12 X s black 1349 536 m20 0 0 0.6 c 1372 495 m 21 Y s 1372 516 m 16 Y s 1361 516 m 11 X s 1372 516 m 11 X s black 1372 516 m20 0 0 0.6 c 1395 511 m 19 Y s 1395 530 m 14 Y s 1383 530 m 12 X s 1395 530 m 11 X s black 1395 530 m20 0 0 0.6
 c 1417 492 m 21 Y s 1417 513 m 16 Y s 1406 513 m 11 X s 1417 513 m 12 X s black 1417 513 m20 0 0 0.6 c 1440 446 m 28 Y s 1440 474 m 20 Y s 1429 474 m 11 X s 1440 474 m 11 X s black 1440 474 m20 0 0 0.6 c 1463 426 m 31 Y s 1463 457 m 22 Y s 1451 457
 m 12 X s 1463 457 m 11 X s black 1463 457 m20 0 0 0.6 c 1485 341 m 53 Y s 1485 394 m 31 Y s 1474 394 m 11 X s 1485 394 m 12 X s black 1485 394 m20 0 0 0.6 c 1508 442 m 28 Y s 1508 470 m 20 Y s 1497 470 m 11 X s 1508 470 m 11 X s black 1508 470 m20 0
 0 0.6 c 1531 381 m 40 Y s 1531 421 m 27 Y s 1519 421 m 12 X s 1531 421 m 11 X s black 1531 421 m20 0 0 0.6 c 1553 380 m 40 Y s 1553 420 m 27 Y s 1542 420 m 11 X s 1553 420 m 12 X s black 1553 420 m20 0 0 0.6 c 1576 336 m 53 Y s 1576 389 m 31 Y s
 1565 389 m 11 X s 1576 389 m 11 X s black 1576 389 m20 0 0 0.6 c 1599 240 m 94 Y s 1599 334 m 41 Y s 1587 334 m 12 X s 1599 334 m 11 X s black 1599 334 m20 0 0 0.6 c 1621 357 m 46 Y s 1621 403 m 28 Y s 1610 403 m 11 X s 1621 403 m 12 X s black 1621
 403 m20 0 0 0.6 c 1667 237 m 93 Y s 1667 330 m 41 Y s 1655 330 m 12 X s 1667 330 m 11 X s black 1667 330 m20 0 0 0.6 c 1689 235 m 94 Y s 1689 329 m 41 Y s 1678 329 m 11 X s 1689 329 m 12 X s black 1689 329 m20 0 0 0.6 c 1735 154 m 119 Y s 1735 273 m
 53 Y s 1723 273 m 12 X s 1735 273 m 11 X s black 1735 273 m20 0 0 0.6 c 1757 154 m 118 Y s 1757 272 m 53 Y s 1746 272 m 11 X s 1757 272 m 12 X s black 1757 272 m20 227 154 m 1814 X s 227 191 m -37 Y s 272 172 m -18 Y s 317 172 m -18 Y s 363 172 m
 -18 Y s 408 172 m -18 Y s 454 191 m -37 Y s 499 172 m -18 Y s 544 172 m -18 Y s 590 172 m -18 Y s 635 172 m -18 Y s 680 191 m -37 Y s 726 172 m -18 Y s 771 172 m -18 Y s 816 172 m -18 Y s 862 172 m -18 Y s 907 191 m -37 Y s 952 172 m -18 Y s 998 172
 m -18 Y s 1043 172 m -18 Y s 1089 172 m -18 Y s 1134 191 m -37 Y s 1179 172 m -18 Y s 1225 172 m -18 Y s 1270 172 m -18 Y s 1315 172 m -18 Y s 1361 191 m -37 Y s 1406 172 m -18 Y s 1451 172 m -18 Y s 1497 172 m -18 Y s 1542 172 m -18 Y s 1587 191 m
 -37 Y s 1633 172 m -18 Y s 1678 172 m -18 Y s 1723 172 m -18 Y s 1769 172 m -18 Y s 1814 191 m -37 Y s 1860 172 m -18 Y s 1905 172 m -18 Y s 1950 172 m -18 Y s 1996 172 m -18 Y s 2041 191 m -37 Y s
 gsave  2268 1540 0 0 C 211.177 103.964 t 0 r /Helvetica findfont 48.7332 sf 0 0 m (0) show NC gr 
 gsave  2268 1540 0 0 C 409.359 103.964 t 0 r /Helvetica findfont 48.7332 sf 0 0 m (100) show NC gr 
 gsave  2268 1540 0 0 C 636.78 103.964 t 0 r /Helvetica findfont 48.7332 sf 0 0 m (200) show NC gr 
 gsave  2268 1540 0 0 C 864.201 103.964 t 0 r /Helvetica findfont 48.7332 sf 0 0 m (300) show NC gr 
 gsave  2268 1540 0 0 C 1091.62 103.964 t 0 r /Helvetica findfont 48.7332 sf 0 0 m (400) show NC gr 
 gsave  2268 1540 0 0 C 1315.8 103.964 t 0 r /Helvetica findfont 48.7332 sf 0 0 m (500) show NC gr 
 gsave  2268 1540 0 0 C 1543.22 103.964 t 0 r /Helvetica findfont 48.7332 sf 0 0 m (600) show NC gr 
 gsave  2268 1540 0 0 C 1770.64 103.964 t 0 r /Helvetica findfont 48.7332 sf 0 0 m (700) show NC gr 
 gsave  2268 1540 0 0 C 1998.06 103.964 t 0 r /Helvetica findfont 48.7332 sf 0 0 m (800) show NC gr 
 gsave  2268 1540 0 0 C 1059.13 25.991 t 0 r /Helvetica findfont 64.9775 sf 0 0 m (r\(cm\)) show NC gr  227 154 m 1232 Y s 281 154 m -54 X s
 gsave  2268 1540 0 0 C 188.435 152.697 t 0 r /Helvetica findfont 32.4888 sf 0 0 m (7) show NC gr 
 gsave  2268 1540 0 0 C 168.942 152.697 t 0 r /Symbol findfont 32.4888 sf 0 0 m (-) show NC gr 
 gsave  2268 1540 0 0 C 113.711 133.204 t 0 r /Helvetica findfont 48.7332 sf 0 0 m (10) show NC gr  254 207 m -27 X s 254 238 m -27 X s 254 260 m -27 X s 254 277 m -27 X s 254 291 m -27 X s 254 303 m -27 X s 254 313 m -27 X s 254 322 m -27 X s 281
 330 m -54 X s
 gsave  2268 1540 0 0 C 188.435 331.386 t 0 r /Helvetica findfont 32.4888 sf 0 0 m (6) show NC gr 
 gsave  2268 1540 0 0 C 168.942 331.386 t 0 r /Symbol findfont 32.4888 sf 0 0 m (-) show NC gr 
 gsave  2268 1540 0 0 C 113.711 308.643 t 0 r /Helvetica findfont 48.7332 sf 0 0 m (10) show NC gr  254 383 m -27 X s 254 414 m -27 X s 254 436 m -27 X s 254 453 m -27 X s 254 467 m -27 X s 254 479 m -27 X s 254 489 m -27 X s 254 498 m -27 X s 281
 506 m -54 X s
 gsave  2268 1540 0 0 C 188.435 506.825 t 0 r /Helvetica findfont 32.4888 sf 0 0 m (5) show NC gr 
 gsave  2268 1540 0 0 C 168.942 506.825 t 0 r /Symbol findfont 32.4888 sf 0 0 m (-) show NC gr 
 gsave  2268 1540 0 0 C 113.711 484.083 t 0 r /Helvetica findfont 48.7332 sf 0 0 m (10) show NC gr  254 559 m -27 X s 254 590 m -27 X s 254 612 m -27 X s 254 629 m -27 X s 254 643 m -27 X s 254 655 m -27 X s 254 665 m -27 X s 254 674 m -27 X s 281
 682 m -54 X s
 gsave  2268 1540 0 0 C 188.435 679.015 t 0 r /Helvetica findfont 32.4888 sf 0 0 m (4) show NC gr 
 gsave  2268 1540 0 0 C 168.942 679.015 t 0 r /Symbol findfont 32.4888 sf 0 0 m (-) show NC gr 
 gsave  2268 1540 0 0 C 113.711 659.522 t 0 r /Helvetica findfont 48.7332 sf 0 0 m (10) show NC gr  254 735 m -27 X s 254 766 m -27 X s 254 788 m -27 X s 254 805 m -27 X s 254 819 m -27 X s 254 831 m -27 X s 254 841 m -27 X s 254 850 m -27 X s 281
 858 m -54 X s
 gsave  2268 1540 0 0 C 188.435 860.953 t 0 r /Helvetica findfont 32.4888 sf 0 0 m (3) show NC gr 
 gsave  2268 1540 0 0 C 168.942 860.953 t 0 r /Symbol findfont 32.4888 sf 0 0 m (-) show NC gr 
 gsave  2268 1540 0 0 C 113.711 838.21 t 0 r /Helvetica findfont 48.7332 sf 0 0 m (10) show NC gr  254 911 m -27 X s 254 942 m -27 X s 254 964 m -27 X s 254 981 m -27 X s 254 995 m -27 X s 254 1007 m -27 X s 254 1017 m -27 X s 254 1026 m -27 X s 281
 1034 m -54 X s
 gsave  2268 1540 0 0 C 188.435 1033.14 t 0 r /Helvetica findfont 32.4888 sf 0 0 m (2) show NC gr 
 gsave  2268 1540 0 0 C 168.942 1033.14 t 0 r /Symbol findfont 32.4888 sf 0 0 m (-) show NC gr 
 gsave  2268 1540 0 0 C 113.711 1013.65 t 0 r /Helvetica findfont 48.7332 sf 0 0 m (10) show NC gr  254 1087 m -27 X s 254 1118 m -27 X s 254 1140 m -27 X s 254 1157 m -27 X s 254 1171 m -27 X s 254 1183 m -27 X s 254 1193 m -27 X s 254 1202 m -27 X
 s 281 1210 m -54 X s
 gsave  2268 1540 0 0 C 194.933 1208.58 t 0 r /Helvetica findfont 32.4888 sf 0 0 m (1) show NC gr 
 gsave  2268 1540 0 0 C 175.439 1208.58 t 0 r /Symbol findfont 32.4888 sf 0 0 m (-) show NC gr 
 gsave  2268 1540 0 0 C 120.208 1189.09 t 0 r /Helvetica findfont 48.7332 sf 0 0 m (10) show NC gr  254 1263 m -27 X s 254 1294 m -27 X s 254 1316 m -27 X s 254 1333 m -27 X s 254 1347 m -27 X s 254 1359 m -27 X s 254 1369 m -27 X s 254 1378 m -27 X
 s 281 1386 m -54 X s
 gsave  2268 1540 0 0 C 188.435 1367.78 t 0 r /Helvetica findfont 48.7332 sf 0 0 m (1) show NC gr 
 gsave  2268 1540 0 0 C 103.964 1367.78 t 90 r /Helvetica findfont 64.9775 sf 0 0 m (\)) show NC gr 
 gsave  2268 1540 0 0 C 74.7242 1338.54 t 90 r /Helvetica findfont 42.2354 sf 0 0 m (\2551) show NC gr 
 gsave  2268 1540 0 0 C 100.715 1026.65 t 90 r /Helvetica findfont 64.9775 sf 0 0 m (density\(cm) show NC gr  1 1 1 c black
 gsave  2268 1540 0 0 C 847.957 1468.49 t 0 r /Helvetica findfont 74.7242 sf 0 0 m (nn~:density_vs_r) show NC gr 
 gr  gr showpage
end
%%EOF
