%!PS-Adobe-2.0 EPSF-2.0
%%BoundingBox:  0 0 567 385
%%Title: nn~_xyrEt.eps: nn~:et_deposition_density_vs_r
%%Creator: ROOT Version 6.12/06
%%CreationDate: Thu Aug  2 11:56:57 2018
%%DocumentNeededResources: ProcSet (FontSetInit)
%%EndComments
%%BeginProlog
80 dict begin
/s {stroke} def /l {lineto} def /m {moveto} def /t {translate} def
/r {rotate} def /rl {roll}  def /R {repeat} def
/d {rlineto} def /rm {rmoveto} def /gr {grestore} def /f {eofill} def
/c {setrgbcolor} def /black {0 setgray} def /sd {setdash} def
/cl {closepath} def /sf {scalefont setfont} def /lw {setlinewidth} def
/box {m dup 0 exch d exch 0 d 0 exch neg d cl} def
/NC{systemdict begin initclip end}def/C{NC box clip newpath}def
/bl {box s} def /bf {gsave box gsave f grestore 1 lw [] 0 sd s grestore} def /Y { 0 exch d} def /X { 0 d} def 
/K {{pop pop 0 moveto} exch kshow} bind def
/ita {/ang 15 def gsave [1 0 ang dup sin exch cos div 1 0 0] concat} def 
/mp {newpath /y exch def /x exch def} def
/side {[w .77 mul w .23 mul] .385 w mul sd w 0 l currentpoint t -144 r} def
/mr {mp x y w2 0 360 arc} def /m24 {mr s} def /m20 {mr f} def
/mb {mp x y w2 add m w2 neg 0 d 0 w neg d w 0 d 0 w d cl} def
/mt {mp x y w2 add m w2 neg w neg d w 0 d cl} def
/w4 {w 4 div} def
/w6 {w 6 div} def
/w8 {w 8 div} def
/m21 {mb f} def /m25 {mb s} def /m22 {mt f} def /m26{mt s} def
/m23 {mp x y w2 sub m w2 w d w neg 0 d cl f} def
/m27 {mp x y w2 add m w3 neg w2 neg d w3 w2 neg d w3 w2 d cl s} def
/m28 {mp x w2 sub y w2 sub w3 add m w3 0 d  0 w3 neg d w3 0 d 0 w3 d w3 0 d  0 w3 d w3 neg 0 d 0 w3 d w3 neg 0 d 0 w3 neg d w3 neg 0 d cl s } def
/m29 {mp gsave x w2 sub y w2 add w3 sub m currentpoint t 4 {side} repeat cl fill gr} def
/m30 {mp gsave x w2 sub y w2 add w3 sub m currentpoint t 4 {side} repeat cl s gr} def
/m31 {mp x y w2 sub m 0 w d x w2 sub y m w 0 d x w2 sub y w2 add m w w neg d x w2 sub y w2 sub m w w d s} def
/m32 {mp x y w2 sub m w2 w d w neg 0 d cl s} def
/m33 {mp x y w2 add m w3 neg w2 neg d w3 w2 neg d w3 w2 d cl f} def
/m34 {mp x w2 sub y w2 sub w3 add m w3 0 d  0 w3 neg d w3 0 d 0 w3 d w3 0 d  0 w3 d w3 neg 0 d 0 w3 d w3 neg 0 d 0 w3 neg d w3 neg 0 d cl f } def
/m35 {mp x y w2 add m w2 neg w2 neg d w2 w2 neg d w2 w2 d w2 neg w2 d x y w2 sub m 0 w d x w2 sub y m w 0 d s} def
/m36 {mb x w2 sub y w2 add m w w neg d x w2 sub y w2 sub m w w d s} def
/m37 {mp x y m w4 neg w2 d w4 neg w2 neg d w2 0 d  w4 neg w2 neg d w2 0 d w4 neg w2 d w2 0 d w4 neg w2 d w4 neg w2 neg d cl s} def
/m38 {mp x w4 sub y w2 add m w4 neg w4 neg d 0 w2 neg d w4 w4 neg d w2 0 d w4 w4 d 0 w2 d w4 neg w4 d w2 neg 0 d x y w2 sub m 0 w d x w2 sub y m w 0 d cl s} def
/m39 {mp x y m w4 neg w2 d w4 neg w2 neg d w2 0 d  w4 neg w2 neg d w2 0 d w4 neg w2 d w2 0 d w4 neg w2 d w4 neg w2 neg d cl f} def
/m40 {mp x y m w4 w2 d w4 w4 neg d w2 neg w4 neg d w2 w4 neg d w4 neg w4 neg d w4 neg w2 d w4 neg w2 neg d w4 neg w4 d w2 w4 d w2 neg w4 d w4 w4 d w4 w2 neg d cl s} def
/m41 {mp x y m w4 w2 d w4 w4 neg d w2 neg w4 neg d w2 w4 neg d w4 neg w4 neg d w4 neg w2 d w4 neg w2 neg d w4 neg w4 d w2 w4 d w2 neg w4 d w4 w4 d w4 w2 neg d cl f} def
/m42 {mp x y w2 add m w8 neg w2 -3 4 div mul d w2 -3 4 div mul w8 neg d w2 3 4 div mul w8 neg d w8 w2 -3 4 div mul d w8 w2 3 4 div mul d w2 3 4 div mul w8 d w2 -3 4 div mul w8 d w8 neg w2 3 4 div mul d cl s} def
/m43 {mp x y w2 add m w8 neg w2 -3 4 div mul d w2 -3 4 div mul w8 neg d w2 3 4 div mul w8 neg d w8 w2 -3 4 div mul d w8 w2 3 4 div mul d w2 3 4 div mul w8 d w2 -3 4 div mul w8 d w8 neg w2 3 4 div mul d cl f} def
/m44 {mp x y m w6 neg w2 d w2 2 3 div mul 0 d w6 neg w2 neg d w2 w6 d 0 w2 -2 3 div mul d w2 neg w6 d w6 w2 neg d w2 -2 3 div mul 0 d w6 w2 d w2 neg w6 neg d 0 w2 2 3 div mul d w2 w6 neg d cl s} def
/m45 {mp x y m w6 neg w2 d w2 2 3 div mul 0 d w6 neg w2 neg d w2 w6 d 0 w2 -2 3 div mul d w2 neg w6 d w6 w2 neg d w2 -2 3 div mul 0 d w6 w2 d w2 neg w6 neg d 0 w2 2 3 div mul d w2 w6 neg d cl f} def
/m46 {mp x y w4 add m w4 neg w4 d w4 neg w4 neg d  w4 w4 neg d w4 neg w4 neg d w4 w4 neg d w4 w4 d w4 w4 neg d w4 w4 d w4 neg w4 d w4 w4 d w4 neg w4 d w4 neg w4 neg d cl s} def
/m47 {mp x y w4 add m w4 neg w4 d w4 neg w4 neg d w4 w4 neg d w4 neg w4 neg d  w4 w4 neg d w4 w4 d w4 w4 neg d w4 w4 d w4 neg w4 d w4 w4 d w4 neg w4 d w4 neg w4 neg d cl f} def
/m48 {mp x y w4 add m w4 neg w4 d w4 neg w4 neg d w4 w4 neg d  w4 neg w4 neg d w4 w4 neg d w4 w4 d w4 w4 neg d w4 w4 d w4 neg w4 d w4 w4 d w4 neg w4 d w4 neg w4 neg d  w4 w4 neg d w4 neg w4 neg d w4 neg w4 d w4 w4 d cl f} def
/m49 {mp x w2 sub w3 add y w2 sub w3 add m  0 w3 neg d w3 0 d 0 w3 d w3 0 d 0 w3 d w3 neg 0 d 0 w3 d w3 neg 0 d 0 w3 neg d w3 neg 0 d 0 w3 neg d w3 0 d 0 w3 d w3 0 d 0 w3 neg d w3 neg 0 d cl f } def
/m2 {mp x y w2 sub m 0 w d x w2 sub y m w 0 d s} def
/m5 {mp x w2 sub y w2 sub m w w d x w2 sub y w2 add m w w neg d s} def
%%IncludeResource: ProcSet (FontSetInit)
%%IncludeResource: font Times-Roman
%%IncludeResource: font Times-Italic
%%IncludeResource: font Times-Bold
%%IncludeResource: font Times-BoldItalic
%%IncludeResource: font Helvetica
%%IncludeResource: font Helvetica-Oblique
%%IncludeResource: font Helvetica-Bold
%%IncludeResource: font Helvetica-BoldOblique
%%IncludeResource: font Courier
%%IncludeResource: font Courier-Oblique
%%IncludeResource: font Courier-Bold
%%IncludeResource: font Courier-BoldOblique
%%IncludeResource: font Symbol
%%IncludeResource: font ZapfDingbats
/reEncode {exch findfont dup length dict begin {1 index /FID eq  {pop pop} {def} ifelse } forall /Encoding exch def currentdict end dup /FontName get exch definefont pop } def [/Times-Bold /Times-Italic /Times-BoldItalic /Helvetica /Helvetica-Oblique
 /Helvetica-Bold /Helvetica-BoldOblique /Courier /Courier-Oblique /Courier-Bold /Courier-BoldOblique /Times-Roman /AvantGarde-Book /AvantGarde-BookOblique /AvantGarde-Demi /AvantGarde-DemiOblique /Bookman-Demi /Bookman-DemiItalic /Bookman-Light
 /Bookman-LightItalic /Helvetica-Narrow /Helvetica-Narrow-Bold /Helvetica-Narrow-BoldOblique /Helvetica-Narrow-Oblique /NewCenturySchlbk-Roman /NewCenturySchlbk-Bold /NewCenturySchlbk-BoldItalic /NewCenturySchlbk-Italic /Palatino-Bold
 /Palatino-BoldItalic /Palatino-Italic /Palatino-Roman ] {ISOLatin1Encoding reEncode } forall
%%EndProlog
%%BeginSetup
%%EndSetup
newpath  gsave  .25 .25 scale  gsave  0 0 t black[  ] 0 sd 3 lw 1 1 1 c 2268 1540 0 0 bf black 1 1 1 c 1814 1232 227 154 bf black 1814 1232 227 154 bl 1 1 1 c 1814 1232 227 154 bf black 1814 1232 227 154 bl 0 0 0.6 c 1 1 1 c black 0 0 0.6 c 261 1099
 m 7 Y s 261 1106 m 5 Y s 249 1106 m 12 X s 261 1106 m 11 X s black /w 2 def /w2 {w 2 div} def /w3 {w 3 div} def 261 1106 m20 0 0 0.6 c 283 1133 m 4 Y s 283 1137 m 4 Y s 272 1137 m 11 X s 283 1137 m 12 X s black 283 1137 m20 0 0 0.6 c 306 1110 m 4 Y
 s 306 1114 m 4 Y s 295 1114 m 11 X s 306 1114 m 11 X s black 306 1114 m20 0 0 0.6 c 329 1087 m 3 Y s 329 1090 m 4 Y s 317 1090 m 12 X s 329 1090 m 11 X s black 329 1090 m20 0 0 0.6 c 351 1060 m 3 Y s 351 1063 m 4 Y s 340 1063 m 11 X s 351 1063 m 12
 X s black 351 1063 m20 0 0 0.6 c 374 1052 m 3 Y s 374 1055 m 4 Y s 363 1055 m 11 X s 374 1055 m 12 X s black 374 1055 m20 0 0 0.6 c 397 1048 m 4 Y s 397 1052 m 3 Y s 386 1052 m 11 X s 397 1052 m 11 X s black 397 1052 m20 0 0 0.6 c 420 1028 m 5 Y s
 420 1033 m 3 Y s 408 1033 m 12 X s 420 1033 m 11 X s black 420 1033 m20 0 0 0.6 c 442 1014 m 4 Y s 442 1018 m 3 Y s 431 1018 m 11 X s 442 1018 m 12 X s black 442 1018 m20 0 0 0.6 c 465 1000 m 5 Y s 465 1005 m 4 Y s 454 1005 m 11 X s 465 1005 m 11 X
 s black 465 1005 m20 0 0 0.6 c 488 997 m 4 Y s 488 1001 m 5 Y s 476 1001 m 12 X s 488 1001 m 11 X s black 488 1001 m20 0 0 0.6 c 510 977 m 4 Y s 510 981 m 4 Y s 499 981 m 11 X s 510 981 m 12 X s black 510 981 m20 0 0 0.6 c 533 974 m 6 Y s 533 980 m
 5 Y s 522 980 m 11 X s 533 980 m 11 X s black 533 980 m20 0 0 0.6 c 556 958 m 5 Y s 556 963 m 6 Y s 544 963 m 12 X s 556 963 m 11 X s black 556 963 m20 0 0 0.6 c 578 946 m 6 Y s 578 952 m 5 Y s 567 952 m 11 X s 578 952 m 12 X s black 578 952 m20 0 0
 0.6 c 601 940 m 6 Y s 601 946 m 5 Y s 590 946 m 11 X s 601 946 m 11 X s black 601 946 m20 0 0 0.6 c 624 928 m 5 Y s 624 933 m 5 Y s 612 933 m 12 X s 624 933 m 11 X s black 624 933 m20 0 0 0.6 c 646 921 m 7 Y s 646 928 m 5 Y s 635 928 m 11 X s 646
 928 m 12 X s black 646 928 m20 0 0 0.6 c 669 906 m 6 Y s 669 912 m 6 Y s 658 912 m 11 X s 669 912 m 11 X s black 669 912 m20 0 0 0.6 c 692 908 m 8 Y s 692 916 m 6 Y s 680 916 m 12 X s 692 916 m 11 X s black 692 916 m20 0 0 0.6 c 714 900 m 6 Y s 714
 906 m 5 Y s 703 906 m 11 X s 714 906 m 12 X s black 714 906 m20 0 0 0.6 c 737 893 m 6 Y s 737 899 m 6 Y s 726 899 m 11 X s 737 899 m 11 X s black 737 899 m20 0 0 0.6 c 760 886 m 7 Y s 760 893 m 7 Y s 748 893 m 12 X s 760 893 m 11 X s black 760 893
 m20 0 0 0.6 c 782 884 m 6 Y s 782 890 m 6 Y s 771 890 m 11 X s 782 890 m 12 X s black 782 890 m20 0 0 0.6 c 805 873 m 7 Y s 805 880 m 7 Y s 794 880 m 11 X s 805 880 m 11 X s black 805 880 m20 0 0 0.6 c 828 857 m 8 Y s 828 865 m 6 Y s 816 865 m 12 X
 s 828 865 m 11 X s black 828 865 m20 0 0 0.6 c 850 856 m 9 Y s 850 865 m 7 Y s 839 865 m 11 X s 850 865 m 12 X s black 850 865 m20 0 0 0.6 c 873 851 m 7 Y s 873 858 m 8 Y s 862 858 m 11 X s 873 858 m 11 X s black 873 858 m20 0 0 0.6 c 896 835 m 8 Y
 s 896 843 m 8 Y s 884 843 m 12 X s 896 843 m 11 X s black 896 843 m20 0 0 0.6 c 918 830 m 9 Y s 918 839 m 8 Y s 907 839 m 11 X s 918 839 m 12 X s black 918 839 m20 0 0 0.6 c 941 841 m 9 Y s 941 850 m 8 Y s 930 850 m 11 X s 941 850 m 11 X s black 941
 850 m20 0 0 0.6 c 964 805 m 11 Y s 964 816 m 10 Y s 952 816 m 12 X s 964 816 m 11 X s black 964 816 m20 0 0 0.6 c 986 817 m 12 Y s 986 829 m 10 Y s 975 829 m 11 X s 986 829 m 12 X s black 986 829 m20 0 0 0.6 c 1009 799 m 11 Y s 1009 810 m 9 Y s 998
 810 m 11 X s 1009 810 m 11 X s black 1009 810 m20 0 0 0.6 c 1032 783 m 11 Y s 1032 794 m 9 Y s 1020 794 m 12 X s 1032 794 m 11 X s black 1032 794 m20 0 0 0.6 c 1054 782 m 12 Y s 1054 794 m 11 Y s 1043 794 m 11 X s 1054 794 m 12 X s black 1054 794
 m20 0 0 0.6 c 1077 767 m 12 Y s 1077 779 m 10 Y s 1066 779 m 11 X s 1077 779 m 12 X s black 1077 779 m20 0 0 0.6 c 1100 762 m 12 Y s 1100 774 m 10 Y s 1089 774 m 11 X s 1100 774 m 11 X s black 1100 774 m20 0 0 0.6 c 1123 782 m 13 Y s 1123 795 m 11 Y
 s 1111 795 m 12 X s 1123 795 m 11 X s black 1123 795 m20 0 0 0.6 c 1145 741 m 14 Y s 1145 755 m 12 Y s 1134 755 m 11 X s 1145 755 m 12 X s black 1145 755 m20 0 0 0.6 c 1168 739 m 13 Y s 1168 752 m 12 Y s 1157 752 m 11 X s 1168 752 m 11 X s black
 1168 752 m20 0 0 0.6 c 1191 730 m 19 Y s 1191 749 m 16 Y s 1179 749 m 12 X s 1191 749 m 11 X s black 1191 749 m20 0 0 0.6 c 1213 735 m 13 Y s 1213 748 m 10 Y s 1202 748 m 11 X s 1213 748 m 12 X s black 1213 748 m20 0 0 0.6 c 1236 734 m 14 Y s 1236
 748 m 12 Y s 1225 748 m 11 X s 1236 748 m 11 X s black 1236 748 m20 0 0 0.6 c 1259 723 m 16 Y s 1259 739 m 13 Y s 1247 739 m 12 X s 1259 739 m 11 X s black 1259 739 m20 0 0 0.6 c 1281 713 m 14 Y s 1281 727 m 11 Y s 1270 727 m 11 X s 1281 727 m 12 X
 s black 1281 727 m20 0 0 0.6 c 1304 692 m 16 Y s 1304 708 m 13 Y s 1293 708 m 11 X s 1304 708 m 11 X s black 1304 708 m20 0 0 0.6 c 1327 654 m 21 Y s 1327 675 m 17 Y s 1315 675 m 12 X s 1327 675 m 11 X s black 1327 675 m20 0 0 0.6 c 1349 677 m 23 Y
 s 1349 700 m 17 Y s 1338 700 m 11 X s 1349 700 m 12 X s black 1349 700 m20 0 0 0.6 c 1372 656 m 22 Y s 1372 678 m 18 Y s 1361 678 m 11 X s 1372 678 m 11 X s black 1372 678 m20 0 0 0.6 c 1395 694 m 24 Y s 1395 718 m 18 Y s 1383 718 m 12 X s 1395 718
 m 11 X s black 1395 718 m20 0 0 0.6 c 1417 648 m 23 Y s 1417 671 m 18 Y s 1406 671 m 11 X s 1417 671 m 12 X s black 1417 671 m20 0 0 0.6 c 1440 609 m 29 Y s 1440 638 m 21 Y s 1429 638 m 11 X s 1440 638 m 11 X s black 1440 638 m20 0 0 0.6 c 1463 595
 m 34 Y s 1463 629 m 23 Y s 1451 629 m 12 X s 1463 629 m 11 X s black 1463 629 m20 0 0 0.6 c 1485 506 m 68 Y s 1485 574 m 35 Y s 1474 574 m 11 X s 1485 574 m 12 X s black 1485 574 m20 0 0 0.6 c 1508 596 m 28 Y s 1508 624 m 21 Y s 1497 624 m 11 X s
 1508 624 m 11 X s black 1508 624 m20 0 0 0.6 c 1531 566 m 43 Y s 1531 609 m 27 Y s 1519 609 m 12 X s 1531 609 m 11 X s black 1531 609 m20 0 0 0.6 c 1553 558 m 42 Y s 1553 600 m 26 Y s 1542 600 m 11 X s 1553 600 m 12 X s black 1553 600 m20 0 0 0.6 c
 1576 501 m 55 Y s 1576 556 m 32 Y s 1565 556 m 11 X s 1576 556 m 11 X s black 1576 556 m20 0 0 0.6 c 1599 385 m 94 Y s 1599 479 m 41 Y s 1587 479 m 12 X s 1599 479 m 11 X s black 1599 479 m20 0 0 0.6 c 1621 545 m 46 Y s 1621 591 m 28 Y s 1610 591 m
 11 X s 1621 591 m 12 X s black 1621 591 m20 0 0 0.6 c 1667 418 m 99 Y s 1667 517 m 42 Y s 1655 517 m 12 X s 1667 517 m 11 X s black 1667 517 m20 0 0 0.6 c 1689 423 m 95 Y s 1689 518 m 41 Y s 1678 518 m 11 X s 1689 518 m 12 X s black 1689 518 m20 0 0
 0.6 c 1735 154 m 351 Y s 1735 505 m 53 Y s 1723 505 m 12 X s 1735 505 m 11 X s black 1735 505 m20 0 0 0.6 c 1757 154 m 332 Y s 1757 486 m 53 Y s 1746 486 m 11 X s 1757 486 m 12 X s black 1757 486 m20 227 154 m 1814 X s 227 191 m -37 Y s 272 172 m
 -18 Y s 317 172 m -18 Y s 363 172 m -18 Y s 408 172 m -18 Y s 454 191 m -37 Y s 499 172 m -18 Y s 544 172 m -18 Y s 590 172 m -18 Y s 635 172 m -18 Y s 680 191 m -37 Y s 726 172 m -18 Y s 771 172 m -18 Y s 816 172 m -18 Y s 862 172 m -18 Y s 907 191
 m -37 Y s 952 172 m -18 Y s 998 172 m -18 Y s 1043 172 m -18 Y s 1089 172 m -18 Y s 1134 191 m -37 Y s 1179 172 m -18 Y s 1225 172 m -18 Y s 1270 172 m -18 Y s 1315 172 m -18 Y s 1361 191 m -37 Y s 1406 172 m -18 Y s 1451 172 m -18 Y s 1497 172 m
 -18 Y s 1542 172 m -18 Y s 1587 191 m -37 Y s 1633 172 m -18 Y s 1678 172 m -18 Y s 1723 172 m -18 Y s 1769 172 m -18 Y s 1814 191 m -37 Y s 1860 172 m -18 Y s 1905 172 m -18 Y s 1950 172 m -18 Y s 1996 172 m -18 Y s 2041 191 m -37 Y s
 gsave  2268 1540 0 0 C 211.177 103.964 t 0 r /Helvetica findfont 48.7332 sf 0 0 m (0) show NC gr 
 gsave  2268 1540 0 0 C 409.359 103.964 t 0 r /Helvetica findfont 48.7332 sf 0 0 m (100) show NC gr 
 gsave  2268 1540 0 0 C 636.78 103.964 t 0 r /Helvetica findfont 48.7332 sf 0 0 m (200) show NC gr 
 gsave  2268 1540 0 0 C 864.201 103.964 t 0 r /Helvetica findfont 48.7332 sf 0 0 m (300) show NC gr 
 gsave  2268 1540 0 0 C 1091.62 103.964 t 0 r /Helvetica findfont 48.7332 sf 0 0 m (400) show NC gr 
 gsave  2268 1540 0 0 C 1315.8 103.964 t 0 r /Helvetica findfont 48.7332 sf 0 0 m (500) show NC gr 
 gsave  2268 1540 0 0 C 1543.22 103.964 t 0 r /Helvetica findfont 48.7332 sf 0 0 m (600) show NC gr 
 gsave  2268 1540 0 0 C 1770.64 103.964 t 0 r /Helvetica findfont 48.7332 sf 0 0 m (700) show NC gr 
 gsave  2268 1540 0 0 C 1998.06 103.964 t 0 r /Helvetica findfont 48.7332 sf 0 0 m (800) show NC gr 
 gsave  2268 1540 0 0 C 1059.13 25.991 t 0 r /Helvetica findfont 64.9775 sf 0 0 m (r\(cm\)) show NC gr  227 154 m 1232 Y s 281 154 m -54 X s
 gsave  2268 1540 0 0 C 188.435 155.946 t 0 r /Helvetica findfont 32.4888 sf 0 0 m (5) show NC gr 
 gsave  2268 1540 0 0 C 168.942 155.946 t 0 r /Symbol findfont 32.4888 sf 0 0 m (-) show NC gr 
 gsave  2268 1540 0 0 C 113.711 133.204 t 0 r /Helvetica findfont 48.7332 sf 0 0 m (10) show NC gr  254 207 m -27 X s 254 238 m -27 X s 254 260 m -27 X s 254 277 m -27 X s 254 291 m -27 X s 254 303 m -27 X s 254 313 m -27 X s 254 322 m -27 X s 281
 330 m -54 X s
 gsave  2268 1540 0 0 C 188.435 328.137 t 0 r /Helvetica findfont 32.4888 sf 0 0 m (4) show NC gr 
 gsave  2268 1540 0 0 C 168.942 328.137 t 0 r /Symbol findfont 32.4888 sf 0 0 m (-) show NC gr 
 gsave  2268 1540 0 0 C 113.711 308.643 t 0 r /Helvetica findfont 48.7332 sf 0 0 m (10) show NC gr  254 383 m -27 X s 254 414 m -27 X s 254 436 m -27 X s 254 453 m -27 X s 254 467 m -27 X s 254 479 m -27 X s 254 489 m -27 X s 254 498 m -27 X s 281
 506 m -54 X s
 gsave  2268 1540 0 0 C 188.435 506.825 t 0 r /Helvetica findfont 32.4888 sf 0 0 m (3) show NC gr 
 gsave  2268 1540 0 0 C 168.942 506.825 t 0 r /Symbol findfont 32.4888 sf 0 0 m (-) show NC gr 
 gsave  2268 1540 0 0 C 113.711 484.083 t 0 r /Helvetica findfont 48.7332 sf 0 0 m (10) show NC gr  254 559 m -27 X s 254 590 m -27 X s 254 612 m -27 X s 254 629 m -27 X s 254 643 m -27 X s 254 655 m -27 X s 254 665 m -27 X s 254 674 m -27 X s 281
 682 m -54 X s
 gsave  2268 1540 0 0 C 188.435 679.015 t 0 r /Helvetica findfont 32.4888 sf 0 0 m (2) show NC gr 
 gsave  2268 1540 0 0 C 168.942 679.015 t 0 r /Symbol findfont 32.4888 sf 0 0 m (-) show NC gr 
 gsave  2268 1540 0 0 C 113.711 659.522 t 0 r /Helvetica findfont 48.7332 sf 0 0 m (10) show NC gr  254 735 m -27 X s 254 766 m -27 X s 254 788 m -27 X s 254 805 m -27 X s 254 819 m -27 X s 254 831 m -27 X s 254 841 m -27 X s 254 850 m -27 X s 281
 858 m -54 X s
 gsave  2268 1540 0 0 C 194.933 857.704 t 0 r /Helvetica findfont 32.4888 sf 0 0 m (1) show NC gr 
 gsave  2268 1540 0 0 C 175.439 857.704 t 0 r /Symbol findfont 32.4888 sf 0 0 m (-) show NC gr 
 gsave  2268 1540 0 0 C 120.208 838.21 t 0 r /Helvetica findfont 48.7332 sf 0 0 m (10) show NC gr  254 911 m -27 X s 254 942 m -27 X s 254 964 m -27 X s 254 981 m -27 X s 254 995 m -27 X s 254 1007 m -27 X s 254 1017 m -27 X s 254 1026 m -27 X s 281
 1034 m -54 X s
 gsave  2268 1540 0 0 C 188.435 1016.9 t 0 r /Helvetica findfont 48.7332 sf 0 0 m (1) show NC gr  254 1087 m -27 X s 254 1118 m -27 X s 254 1140 m -27 X s 254 1157 m -27 X s 254 1171 m -27 X s 254 1183 m -27 X s 254 1193 m -27 X s 254 1202 m -27 X s
 281 1210 m -54 X s
 gsave  2268 1540 0 0 C 152.697 1192.34 t 0 r /Helvetica findfont 48.7332 sf 0 0 m (10) show NC gr  254 1263 m -27 X s 254 1294 m -27 X s 254 1316 m -27 X s 254 1333 m -27 X s 254 1347 m -27 X s 254 1359 m -27 X s 254 1369 m -27 X s 254 1378 m -27 X
 s 281 1386 m -54 X s
 gsave  2268 1540 0 0 C 188.435 1384.02 t 0 r /Helvetica findfont 32.4888 sf 0 0 m (2) show NC gr 
 gsave  2268 1540 0 0 C 133.204 1364.53 t 0 r /Helvetica findfont 48.7332 sf 0 0 m (10) show NC gr 
 gsave  2268 1540 0 0 C 94.2174 292.399 t 90 r /Helvetica findfont 64.9775 sf 0 0 m (energy_t_deposition_density\(Mev/cm\)) show NC gr  1 1 1 c black
 gsave  2268 1540 0 0 C 607.54 1468.49 t 0 r /Helvetica findfont 74.7242 sf 0 0 m (nn~:et_deposition_density_vs_r) show NC gr 
 gr  gr showpage
end
%%EOF
