%!PS-Adobe-2.0 EPSF-2.0
%%BoundingBox:  0 0 567 385
%%Title: others_xyrEt.eps: others:et_deposition_density_vs_r
%%Creator: ROOT Version 6.12/06
%%CreationDate: Thu Aug  2 11:56:57 2018
%%DocumentNeededResources: ProcSet (FontSetInit)
%%EndComments
%%BeginProlog
80 dict begin
/s {stroke} def /l {lineto} def /m {moveto} def /t {translate} def
/r {rotate} def /rl {roll}  def /R {repeat} def
/d {rlineto} def /rm {rmoveto} def /gr {grestore} def /f {eofill} def
/c {setrgbcolor} def /black {0 setgray} def /sd {setdash} def
/cl {closepath} def /sf {scalefont setfont} def /lw {setlinewidth} def
/box {m dup 0 exch d exch 0 d 0 exch neg d cl} def
/NC{systemdict begin initclip end}def/C{NC box clip newpath}def
/bl {box s} def /bf {gsave box gsave f grestore 1 lw [] 0 sd s grestore} def /Y { 0 exch d} def /X { 0 d} def 
/K {{pop pop 0 moveto} exch kshow} bind def
/ita {/ang 15 def gsave [1 0 ang dup sin exch cos div 1 0 0] concat} def 
/mp {newpath /y exch def /x exch def} def
/side {[w .77 mul w .23 mul] .385 w mul sd w 0 l currentpoint t -144 r} def
/mr {mp x y w2 0 360 arc} def /m24 {mr s} def /m20 {mr f} def
/mb {mp x y w2 add m w2 neg 0 d 0 w neg d w 0 d 0 w d cl} def
/mt {mp x y w2 add m w2 neg w neg d w 0 d cl} def
/w4 {w 4 div} def
/w6 {w 6 div} def
/w8 {w 8 div} def
/m21 {mb f} def /m25 {mb s} def /m22 {mt f} def /m26{mt s} def
/m23 {mp x y w2 sub m w2 w d w neg 0 d cl f} def
/m27 {mp x y w2 add m w3 neg w2 neg d w3 w2 neg d w3 w2 d cl s} def
/m28 {mp x w2 sub y w2 sub w3 add m w3 0 d  0 w3 neg d w3 0 d 0 w3 d w3 0 d  0 w3 d w3 neg 0 d 0 w3 d w3 neg 0 d 0 w3 neg d w3 neg 0 d cl s } def
/m29 {mp gsave x w2 sub y w2 add w3 sub m currentpoint t 4 {side} repeat cl fill gr} def
/m30 {mp gsave x w2 sub y w2 add w3 sub m currentpoint t 4 {side} repeat cl s gr} def
/m31 {mp x y w2 sub m 0 w d x w2 sub y m w 0 d x w2 sub y w2 add m w w neg d x w2 sub y w2 sub m w w d s} def
/m32 {mp x y w2 sub m w2 w d w neg 0 d cl s} def
/m33 {mp x y w2 add m w3 neg w2 neg d w3 w2 neg d w3 w2 d cl f} def
/m34 {mp x w2 sub y w2 sub w3 add m w3 0 d  0 w3 neg d w3 0 d 0 w3 d w3 0 d  0 w3 d w3 neg 0 d 0 w3 d w3 neg 0 d 0 w3 neg d w3 neg 0 d cl f } def
/m35 {mp x y w2 add m w2 neg w2 neg d w2 w2 neg d w2 w2 d w2 neg w2 d x y w2 sub m 0 w d x w2 sub y m w 0 d s} def
/m36 {mb x w2 sub y w2 add m w w neg d x w2 sub y w2 sub m w w d s} def
/m37 {mp x y m w4 neg w2 d w4 neg w2 neg d w2 0 d  w4 neg w2 neg d w2 0 d w4 neg w2 d w2 0 d w4 neg w2 d w4 neg w2 neg d cl s} def
/m38 {mp x w4 sub y w2 add m w4 neg w4 neg d 0 w2 neg d w4 w4 neg d w2 0 d w4 w4 d 0 w2 d w4 neg w4 d w2 neg 0 d x y w2 sub m 0 w d x w2 sub y m w 0 d cl s} def
/m39 {mp x y m w4 neg w2 d w4 neg w2 neg d w2 0 d  w4 neg w2 neg d w2 0 d w4 neg w2 d w2 0 d w4 neg w2 d w4 neg w2 neg d cl f} def
/m40 {mp x y m w4 w2 d w4 w4 neg d w2 neg w4 neg d w2 w4 neg d w4 neg w4 neg d w4 neg w2 d w4 neg w2 neg d w4 neg w4 d w2 w4 d w2 neg w4 d w4 w4 d w4 w2 neg d cl s} def
/m41 {mp x y m w4 w2 d w4 w4 neg d w2 neg w4 neg d w2 w4 neg d w4 neg w4 neg d w4 neg w2 d w4 neg w2 neg d w4 neg w4 d w2 w4 d w2 neg w4 d w4 w4 d w4 w2 neg d cl f} def
/m42 {mp x y w2 add m w8 neg w2 -3 4 div mul d w2 -3 4 div mul w8 neg d w2 3 4 div mul w8 neg d w8 w2 -3 4 div mul d w8 w2 3 4 div mul d w2 3 4 div mul w8 d w2 -3 4 div mul w8 d w8 neg w2 3 4 div mul d cl s} def
/m43 {mp x y w2 add m w8 neg w2 -3 4 div mul d w2 -3 4 div mul w8 neg d w2 3 4 div mul w8 neg d w8 w2 -3 4 div mul d w8 w2 3 4 div mul d w2 3 4 div mul w8 d w2 -3 4 div mul w8 d w8 neg w2 3 4 div mul d cl f} def
/m44 {mp x y m w6 neg w2 d w2 2 3 div mul 0 d w6 neg w2 neg d w2 w6 d 0 w2 -2 3 div mul d w2 neg w6 d w6 w2 neg d w2 -2 3 div mul 0 d w6 w2 d w2 neg w6 neg d 0 w2 2 3 div mul d w2 w6 neg d cl s} def
/m45 {mp x y m w6 neg w2 d w2 2 3 div mul 0 d w6 neg w2 neg d w2 w6 d 0 w2 -2 3 div mul d w2 neg w6 d w6 w2 neg d w2 -2 3 div mul 0 d w6 w2 d w2 neg w6 neg d 0 w2 2 3 div mul d w2 w6 neg d cl f} def
/m46 {mp x y w4 add m w4 neg w4 d w4 neg w4 neg d  w4 w4 neg d w4 neg w4 neg d w4 w4 neg d w4 w4 d w4 w4 neg d w4 w4 d w4 neg w4 d w4 w4 d w4 neg w4 d w4 neg w4 neg d cl s} def
/m47 {mp x y w4 add m w4 neg w4 d w4 neg w4 neg d w4 w4 neg d w4 neg w4 neg d  w4 w4 neg d w4 w4 d w4 w4 neg d w4 w4 d w4 neg w4 d w4 w4 d w4 neg w4 d w4 neg w4 neg d cl f} def
/m48 {mp x y w4 add m w4 neg w4 d w4 neg w4 neg d w4 w4 neg d  w4 neg w4 neg d w4 w4 neg d w4 w4 d w4 w4 neg d w4 w4 d w4 neg w4 d w4 w4 d w4 neg w4 d w4 neg w4 neg d  w4 w4 neg d w4 neg w4 neg d w4 neg w4 d w4 w4 d cl f} def
/m49 {mp x w2 sub w3 add y w2 sub w3 add m  0 w3 neg d w3 0 d 0 w3 d w3 0 d 0 w3 d w3 neg 0 d 0 w3 d w3 neg 0 d 0 w3 neg d w3 neg 0 d 0 w3 neg d w3 0 d 0 w3 d w3 0 d 0 w3 neg d w3 neg 0 d cl f } def
/m2 {mp x y w2 sub m 0 w d x w2 sub y m w 0 d s} def
/m5 {mp x w2 sub y w2 sub m w w d x w2 sub y w2 add m w w neg d s} def
%%IncludeResource: ProcSet (FontSetInit)
%%IncludeResource: font Times-Roman
%%IncludeResource: font Times-Italic
%%IncludeResource: font Times-Bold
%%IncludeResource: font Times-BoldItalic
%%IncludeResource: font Helvetica
%%IncludeResource: font Helvetica-Oblique
%%IncludeResource: font Helvetica-Bold
%%IncludeResource: font Helvetica-BoldOblique
%%IncludeResource: font Courier
%%IncludeResource: font Courier-Oblique
%%IncludeResource: font Courier-Bold
%%IncludeResource: font Courier-BoldOblique
%%IncludeResource: font Symbol
%%IncludeResource: font ZapfDingbats
/reEncode {exch findfont dup length dict begin {1 index /FID eq  {pop pop} {def} ifelse } forall /Encoding exch def currentdict end dup /FontName get exch definefont pop } def [/Times-Bold /Times-Italic /Times-BoldItalic /Helvetica /Helvetica-Oblique
 /Helvetica-Bold /Helvetica-BoldOblique /Courier /Courier-Oblique /Courier-Bold /Courier-BoldOblique /Times-Roman /AvantGarde-Book /AvantGarde-BookOblique /AvantGarde-Demi /AvantGarde-DemiOblique /Bookman-Demi /Bookman-DemiItalic /Bookman-Light
 /Bookman-LightItalic /Helvetica-Narrow /Helvetica-Narrow-Bold /Helvetica-Narrow-BoldOblique /Helvetica-Narrow-Oblique /NewCenturySchlbk-Roman /NewCenturySchlbk-Bold /NewCenturySchlbk-BoldItalic /NewCenturySchlbk-Italic /Palatino-Bold
 /Palatino-BoldItalic /Palatino-Italic /Palatino-Roman ] {ISOLatin1Encoding reEncode } forall
%%EndProlog
%%BeginSetup
%%EndSetup
newpath  gsave  .25 .25 scale  gsave  0 0 t black[  ] 0 sd 3 lw 1 1 1 c 2268 1540 0 0 bf black 1 1 1 c 1814 1232 227 154 bf black 1814 1232 227 154 bl 1 1 1 c 1814 1232 227 154 bf black 1814 1232 227 154 bl 0 0 0.6 c 1 1 1 c black 0 0 0.6 c 261 1068
 m 8 Y s 261 1076 m 7 Y s 249 1076 m 12 X s 261 1076 m 11 X s black /w 2 def /w2 {w 2 div} def /w3 {w 3 div} def 261 1076 m20 0 0 0.6 c 283 1113 m 5 Y s 283 1118 m 5 Y s 272 1118 m 11 X s 283 1118 m 12 X s black 283 1118 m20 0 0 0.6 c 306 1043 m 8 Y
 s 306 1051 m 7 Y s 295 1051 m 11 X s 306 1051 m 11 X s black 306 1051 m20 0 0 0.6 c 329 1024 m 6 Y s 329 1030 m 6 Y s 317 1030 m 12 X s 329 1030 m 11 X s black 329 1030 m20 0 0 0.6 c 351 991 m 9 Y s 351 1000 m 8 Y s 340 1000 m 11 X s 351 1000 m 12 X
 s black 351 1000 m20 0 0 0.6 c 374 964 m 7 Y s 374 971 m 7 Y s 363 971 m 11 X s 374 971 m 12 X s black 374 971 m20 0 0 0.6 c 397 957 m 8 Y s 397 965 m 8 Y s 386 965 m 11 X s 397 965 m 11 X s black 397 965 m20 0 0 0.6 c 420 934 m 10 Y s 420 944 m 8 Y
 s 408 944 m 12 X s 420 944 m 11 X s black 420 944 m20 0 0 0.6 c 442 919 m 10 Y s 442 929 m 8 Y s 431 929 m 11 X s 442 929 m 12 X s black 442 929 m20 0 0 0.6 c 465 912 m 11 Y s 465 923 m 9 Y s 454 923 m 11 X s 465 923 m 11 X s black 465 923 m20 0 0
 0.6 c 488 897 m 11 Y s 488 908 m 10 Y s 476 908 m 12 X s 488 908 m 11 X s black 488 908 m20 0 0 0.6 c 510 886 m 11 Y s 510 897 m 10 Y s 499 897 m 11 X s 510 897 m 12 X s black 510 897 m20 0 0 0.6 c 533 858 m 12 Y s 533 870 m 11 Y s 522 870 m 11 X s
 533 870 m 11 X s black 533 870 m20 0 0 0.6 c 556 867 m 10 Y s 556 877 m 8 Y s 544 877 m 12 X s 556 877 m 11 X s black 556 877 m20 0 0 0.6 c 578 847 m 12 Y s 578 859 m 10 Y s 567 859 m 11 X s 578 859 m 12 X s black 578 859 m20 0 0 0.6 c 601 843 m 13
 Y s 601 856 m 11 Y s 590 856 m 11 X s 601 856 m 11 X s black 601 856 m20 0 0 0.6 c 624 830 m 12 Y s 624 842 m 9 Y s 612 842 m 12 X s 624 842 m 11 X s black 624 842 m20 0 0 0.6 c 646 829 m 11 Y s 646 840 m 10 Y s 635 840 m 11 X s 646 840 m 12 X s
 black 646 840 m20 0 0 0.6 c 669 815 m 13 Y s 669 828 m 11 Y s 658 828 m 11 X s 669 828 m 11 X s black 669 828 m20 0 0 0.6 c 692 813 m 15 Y s 692 828 m 13 Y s 680 828 m 12 X s 692 828 m 11 X s black 692 828 m20 0 0 0.6 c 714 819 m 14 Y s 714 833 m 12
 Y s 703 833 m 11 X s 714 833 m 12 X s black 714 833 m20 0 0 0.6 c 737 796 m 18 Y s 737 814 m 14 Y s 726 814 m 11 X s 737 814 m 11 X s black 737 814 m20 0 0 0.6 c 760 806 m 15 Y s 760 821 m 13 Y s 748 821 m 12 X s 760 821 m 11 X s black 760 821 m20 0
 0 0.6 c 782 795 m 13 Y s 782 808 m 11 Y s 771 808 m 11 X s 782 808 m 12 X s black 782 808 m20 0 0 0.6 c 805 763 m 15 Y s 805 778 m 12 Y s 794 778 m 11 X s 805 778 m 11 X s black 805 778 m20 0 0 0.6 c 828 772 m 14 Y s 828 786 m 11 Y s 816 786 m 12 X
 s 828 786 m 11 X s black 828 786 m20 0 0 0.6 c 850 759 m 16 Y s 850 775 m 14 Y s 839 775 m 11 X s 850 775 m 12 X s black 850 775 m20 0 0 0.6 c 873 773 m 15 Y s 873 788 m 13 Y s 862 788 m 11 X s 873 788 m 11 X s black 873 788 m20 0 0 0.6 c 896 740 m
 17 Y s 896 757 m 13 Y s 884 757 m 12 X s 896 757 m 11 X s black 896 757 m20 0 0 0.6 c 918 745 m 23 Y s 918 768 m 18 Y s 907 768 m 11 X s 918 768 m 12 X s black 918 768 m20 0 0 0.6 c 941 721 m 22 Y s 941 743 m 16 Y s 930 743 m 11 X s 941 743 m 11 X s
 black 941 743 m20 0 0 0.6 c 964 723 m 22 Y s 964 745 m 16 Y s 952 745 m 12 X s 964 745 m 11 X s black 964 745 m20 0 0 0.6 c 986 751 m 16 Y s 986 767 m 13 Y s 975 767 m 11 X s 986 767 m 12 X s black 986 767 m20 0 0 0.6 c 1009 712 m 21 Y s 1009 733 m
 16 Y s 998 733 m 11 X s 1009 733 m 11 X s black 1009 733 m20 0 0 0.6 c 1032 672 m 24 Y s 1032 696 m 18 Y s 1020 696 m 12 X s 1032 696 m 11 X s black 1032 696 m20 0 0 0.6 c 1054 723 m 18 Y s 1054 741 m 14 Y s 1043 741 m 11 X s 1054 741 m 12 X s black
 1054 741 m20 0 0 0.6 c 1077 686 m 19 Y s 1077 705 m 16 Y s 1066 705 m 11 X s 1077 705 m 12 X s black 1077 705 m20 0 0 0.6 c 1100 654 m 21 Y s 1100 675 m 17 Y s 1089 675 m 11 X s 1100 675 m 11 X s black 1100 675 m20 0 0 0.6 c 1123 672 m 20 Y s 1123
 692 m 15 Y s 1111 692 m 12 X s 1123 692 m 11 X s black 1123 692 m20 0 0 0.6 c 1145 649 m 28 Y s 1145 677 m 20 Y s 1134 677 m 11 X s 1145 677 m 12 X s black 1145 677 m20 0 0 0.6 c 1168 639 m 32 Y s 1168 671 m 22 Y s 1157 671 m 11 X s 1168 671 m 11 X
 s black 1168 671 m20 0 0 0.6 c 1191 667 m 31 Y s 1191 698 m 21 Y s 1179 698 m 12 X s 1191 698 m 11 X s black 1191 698 m20 0 0 0.6 c 1213 577 m 34 Y s 1213 611 m 24 Y s 1202 611 m 11 X s 1213 611 m 12 X s black 1213 611 m20 0 0 0.6 c 1236 614 m 28 Y
 s 1236 642 m 20 Y s 1225 642 m 11 X s 1236 642 m 11 X s black 1236 642 m20 0 0 0.6 c 1259 641 m 69 Y s 1259 710 m 35 Y s 1247 710 m 12 X s 1259 710 m 11 X s black 1259 710 m20 0 0 0.6 c 1281 580 m 35 Y s 1281 615 m 24 Y s 1270 615 m 11 X s 1281 615
 m 12 X s black 1281 615 m20 0 0 0.6 c 1304 585 m 32 Y s 1304 617 m 23 Y s 1293 617 m 11 X s 1304 617 m 11 X s black 1304 617 m20 0 0 0.6 c 1327 600 m 31 Y s 1327 631 m 22 Y s 1315 631 m 12 X s 1327 631 m 11 X s black 1327 631 m20 0 0 0.6 c 1349 580
 m 37 Y s 1349 617 m 25 Y s 1338 617 m 11 X s 1349 617 m 12 X s black 1349 617 m20 0 0 0.6 c 1372 569 m 33 Y s 1372 602 m 22 Y s 1361 602 m 11 X s 1372 602 m 11 X s black 1372 602 m20 0 0 0.6 c 1395 577 m 32 Y s 1395 609 m 22 Y s 1383 609 m 12 X s
 1395 609 m 11 X s black 1395 609 m20 0 0 0.6 c 1417 534 m 38 Y s 1417 572 m 26 Y s 1406 572 m 11 X s 1417 572 m 12 X s black 1417 572 m20 0 0 0.6 c 1440 559 m 33 Y s 1440 592 m 23 Y s 1429 592 m 11 X s 1440 592 m 11 X s black 1440 592 m20 0 0 0.6 c
 1463 501 m 50 Y s 1463 551 m 30 Y s 1451 551 m 12 X s 1463 551 m 11 X s black 1463 551 m20 0 0 0.6 c 1485 358 m 142 Y s 1485 500 m 47 Y s 1474 500 m 11 X s 1485 500 m 12 X s black 1485 500 m20 0 0 0.6 c 1508 550 m 41 Y s 1508 591 m 26 Y s 1497 591 m
 11 X s 1508 591 m 11 X s black 1508 591 m20 0 0 0.6 c 1531 540 m 39 Y s 1531 579 m 25 Y s 1519 579 m 12 X s 1531 579 m 11 X s black 1531 579 m20 0 0 0.6 c 1553 490 m 57 Y s 1553 547 m 32 Y s 1542 547 m 11 X s 1553 547 m 12 X s black 1553 547 m20 0 0
 0.6 c 1576 543 m 42 Y s 1576 585 m 26 Y s 1565 585 m 11 X s 1576 585 m 11 X s black 1576 585 m20 0 0 0.6 c 1599 491 m 48 Y s 1599 539 m 29 Y s 1587 539 m 12 X s 1599 539 m 11 X s black 1599 539 m20 0 0 0.6 c 1621 503 m 48 Y s 1621 551 m 29 Y s 1610
 551 m 11 X s 1621 551 m 12 X s black 1621 551 m20 0 0 0.6 c 1644 414 m 96 Y s 1644 510 m 41 Y s 1633 510 m 11 X s 1644 510 m 11 X s black 1644 510 m20 0 0 0.6 c 1667 512 m 45 Y s 1667 557 m 29 Y s 1655 557 m 12 X s 1667 557 m 11 X s black 1667 557
 m20 0 0 0.6 c 1689 363 m 96 Y s 1689 459 m 41 Y s 1678 459 m 11 X s 1689 459 m 12 X s black 1689 459 m20 0 0 0.6 c 1712 314 m 129 Y s 1712 443 m 46 Y s 1701 443 m 11 X s 1712 443 m 11 X s black 1712 443 m20 0 0 0.6 c 1735 489 m 58 Y s 1735 547 m 33
 Y s 1723 547 m 12 X s 1735 547 m 11 X s black 1735 547 m20 0 0 0.6 c 1757 154 m 270 Y s 1757 424 m 53 Y s 1746 424 m 11 X s 1757 424 m 12 X s black 1757 424 m20 0 0 0.6 c 1803 376 m 124 Y s 1803 500 m 45 Y s 1791 500 m 12 X s 1803 500 m 11 X s black
 1803 500 m20 0 0 0.6 c 1826 154 m 288 Y s 1826 442 m 53 Y s 1814 442 m 12 X s 1826 442 m 11 X s black 1826 442 m20 0 0 0.6 c 1962 342 m 144 Y s 1962 486 m 46 Y s 1950 486 m 12 X s 1962 486 m 11 X s black 1962 486 m20 227 154 m 1814 X s 227 191 m -37
 Y s 272 172 m -18 Y s 317 172 m -18 Y s 363 172 m -18 Y s 408 172 m -18 Y s 454 191 m -37 Y s 499 172 m -18 Y s 544 172 m -18 Y s 590 172 m -18 Y s 635 172 m -18 Y s 680 191 m -37 Y s 726 172 m -18 Y s 771 172 m -18 Y s 816 172 m -18 Y s 862 172 m
 -18 Y s 907 191 m -37 Y s 952 172 m -18 Y s 998 172 m -18 Y s 1043 172 m -18 Y s 1089 172 m -18 Y s 1134 191 m -37 Y s 1179 172 m -18 Y s 1225 172 m -18 Y s 1270 172 m -18 Y s 1315 172 m -18 Y s 1361 191 m -37 Y s 1406 172 m -18 Y s 1451 172 m -18 Y
 s 1497 172 m -18 Y s 1542 172 m -18 Y s 1587 191 m -37 Y s 1633 172 m -18 Y s 1678 172 m -18 Y s 1723 172 m -18 Y s 1769 172 m -18 Y s 1814 191 m -37 Y s 1860 172 m -18 Y s 1905 172 m -18 Y s 1950 172 m -18 Y s 1996 172 m -18 Y s 2041 191 m -37 Y s
 gsave  2268 1540 0 0 C 211.177 103.964 t 0 r /Helvetica findfont 48.7332 sf 0 0 m (0) show NC gr 
 gsave  2268 1540 0 0 C 409.359 103.964 t 0 r /Helvetica findfont 48.7332 sf 0 0 m (100) show NC gr 
 gsave  2268 1540 0 0 C 636.78 103.964 t 0 r /Helvetica findfont 48.7332 sf 0 0 m (200) show NC gr 
 gsave  2268 1540 0 0 C 864.201 103.964 t 0 r /Helvetica findfont 48.7332 sf 0 0 m (300) show NC gr 
 gsave  2268 1540 0 0 C 1091.62 103.964 t 0 r /Helvetica findfont 48.7332 sf 0 0 m (400) show NC gr 
 gsave  2268 1540 0 0 C 1315.8 103.964 t 0 r /Helvetica findfont 48.7332 sf 0 0 m (500) show NC gr 
 gsave  2268 1540 0 0 C 1543.22 103.964 t 0 r /Helvetica findfont 48.7332 sf 0 0 m (600) show NC gr 
 gsave  2268 1540 0 0 C 1770.64 103.964 t 0 r /Helvetica findfont 48.7332 sf 0 0 m (700) show NC gr 
 gsave  2268 1540 0 0 C 1998.06 103.964 t 0 r /Helvetica findfont 48.7332 sf 0 0 m (800) show NC gr 
 gsave  2268 1540 0 0 C 1059.13 25.991 t 0 r /Helvetica findfont 64.9775 sf 0 0 m (r\(cm\)) show NC gr  227 154 m 1232 Y s 281 154 m -54 X s
 gsave  2268 1540 0 0 C 188.435 155.946 t 0 r /Helvetica findfont 32.4888 sf 0 0 m (5) show NC gr 
 gsave  2268 1540 0 0 C 168.942 155.946 t 0 r /Symbol findfont 32.4888 sf 0 0 m (-) show NC gr 
 gsave  2268 1540 0 0 C 113.711 133.204 t 0 r /Helvetica findfont 48.7332 sf 0 0 m (10) show NC gr  254 207 m -27 X s 254 238 m -27 X s 254 260 m -27 X s 254 277 m -27 X s 254 291 m -27 X s 254 303 m -27 X s 254 313 m -27 X s 254 322 m -27 X s 281
 330 m -54 X s
 gsave  2268 1540 0 0 C 188.435 328.137 t 0 r /Helvetica findfont 32.4888 sf 0 0 m (4) show NC gr 
 gsave  2268 1540 0 0 C 168.942 328.137 t 0 r /Symbol findfont 32.4888 sf 0 0 m (-) show NC gr 
 gsave  2268 1540 0 0 C 113.711 308.643 t 0 r /Helvetica findfont 48.7332 sf 0 0 m (10) show NC gr  254 383 m -27 X s 254 414 m -27 X s 254 436 m -27 X s 254 453 m -27 X s 254 467 m -27 X s 254 479 m -27 X s 254 489 m -27 X s 254 498 m -27 X s 281
 506 m -54 X s
 gsave  2268 1540 0 0 C 188.435 506.825 t 0 r /Helvetica findfont 32.4888 sf 0 0 m (3) show NC gr 
 gsave  2268 1540 0 0 C 168.942 506.825 t 0 r /Symbol findfont 32.4888 sf 0 0 m (-) show NC gr 
 gsave  2268 1540 0 0 C 113.711 484.083 t 0 r /Helvetica findfont 48.7332 sf 0 0 m (10) show NC gr  254 559 m -27 X s 254 590 m -27 X s 254 612 m -27 X s 254 629 m -27 X s 254 643 m -27 X s 254 655 m -27 X s 254 665 m -27 X s 254 674 m -27 X s 281
 682 m -54 X s
 gsave  2268 1540 0 0 C 188.435 679.015 t 0 r /Helvetica findfont 32.4888 sf 0 0 m (2) show NC gr 
 gsave  2268 1540 0 0 C 168.942 679.015 t 0 r /Symbol findfont 32.4888 sf 0 0 m (-) show NC gr 
 gsave  2268 1540 0 0 C 113.711 659.522 t 0 r /Helvetica findfont 48.7332 sf 0 0 m (10) show NC gr  254 735 m -27 X s 254 766 m -27 X s 254 788 m -27 X s 254 805 m -27 X s 254 819 m -27 X s 254 831 m -27 X s 254 841 m -27 X s 254 850 m -27 X s 281
 858 m -54 X s
 gsave  2268 1540 0 0 C 194.933 857.704 t 0 r /Helvetica findfont 32.4888 sf 0 0 m (1) show NC gr 
 gsave  2268 1540 0 0 C 175.439 857.704 t 0 r /Symbol findfont 32.4888 sf 0 0 m (-) show NC gr 
 gsave  2268 1540 0 0 C 120.208 838.21 t 0 r /Helvetica findfont 48.7332 sf 0 0 m (10) show NC gr  254 911 m -27 X s 254 942 m -27 X s 254 964 m -27 X s 254 981 m -27 X s 254 995 m -27 X s 254 1007 m -27 X s 254 1017 m -27 X s 254 1026 m -27 X s 281
 1034 m -54 X s
 gsave  2268 1540 0 0 C 188.435 1016.9 t 0 r /Helvetica findfont 48.7332 sf 0 0 m (1) show NC gr  254 1087 m -27 X s 254 1118 m -27 X s 254 1140 m -27 X s 254 1157 m -27 X s 254 1171 m -27 X s 254 1183 m -27 X s 254 1193 m -27 X s 254 1202 m -27 X s
 281 1210 m -54 X s
 gsave  2268 1540 0 0 C 152.697 1192.34 t 0 r /Helvetica findfont 48.7332 sf 0 0 m (10) show NC gr  254 1263 m -27 X s 254 1294 m -27 X s 254 1316 m -27 X s 254 1333 m -27 X s 254 1347 m -27 X s 254 1359 m -27 X s 254 1369 m -27 X s 254 1378 m -27 X
 s 281 1386 m -54 X s
 gsave  2268 1540 0 0 C 188.435 1384.02 t 0 r /Helvetica findfont 32.4888 sf 0 0 m (2) show NC gr 
 gsave  2268 1540 0 0 C 133.204 1364.53 t 0 r /Helvetica findfont 48.7332 sf 0 0 m (10) show NC gr 
 gsave  2268 1540 0 0 C 94.2174 292.399 t 90 r /Helvetica findfont 64.9775 sf 0 0 m (energy_t_deposition_density\(Mev/cm\)) show NC gr  1 1 1 c black
 gsave  2268 1540 0 0 C 565.305 1468.49 t 0 r /Helvetica findfont 74.7242 sf 0 0 m (others:et_deposition_density_vs_r) show NC gr 
 gr  gr showpage
end
%%EOF
