%!PS-Adobe-2.0 EPSF-2.0
%%BoundingBox:  0 0 567 385
%%Title: p^{+}p^{-}_xyr.eps: p^{+}p^{-}:density_vs_r
%%Creator: ROOT Version 6.12/06
%%CreationDate: Wed Aug  1 19:30:38 2018
%%DocumentNeededResources: ProcSet (FontSetInit)
%%EndComments
%%BeginProlog
80 dict begin
/s {stroke} def /l {lineto} def /m {moveto} def /t {translate} def
/r {rotate} def /rl {roll}  def /R {repeat} def
/d {rlineto} def /rm {rmoveto} def /gr {grestore} def /f {eofill} def
/c {setrgbcolor} def /black {0 setgray} def /sd {setdash} def
/cl {closepath} def /sf {scalefont setfont} def /lw {setlinewidth} def
/box {m dup 0 exch d exch 0 d 0 exch neg d cl} def
/NC{systemdict begin initclip end}def/C{NC box clip newpath}def
/bl {box s} def /bf {gsave box gsave f grestore 1 lw [] 0 sd s grestore} def /Y { 0 exch d} def /X { 0 d} def 
/K {{pop pop 0 moveto} exch kshow} bind def
/ita {/ang 15 def gsave [1 0 ang dup sin exch cos div 1 0 0] concat} def 
/mp {newpath /y exch def /x exch def} def
/side {[w .77 mul w .23 mul] .385 w mul sd w 0 l currentpoint t -144 r} def
/mr {mp x y w2 0 360 arc} def /m24 {mr s} def /m20 {mr f} def
/mb {mp x y w2 add m w2 neg 0 d 0 w neg d w 0 d 0 w d cl} def
/mt {mp x y w2 add m w2 neg w neg d w 0 d cl} def
/w4 {w 4 div} def
/w6 {w 6 div} def
/w8 {w 8 div} def
/m21 {mb f} def /m25 {mb s} def /m22 {mt f} def /m26{mt s} def
/m23 {mp x y w2 sub m w2 w d w neg 0 d cl f} def
/m27 {mp x y w2 add m w3 neg w2 neg d w3 w2 neg d w3 w2 d cl s} def
/m28 {mp x w2 sub y w2 sub w3 add m w3 0 d  0 w3 neg d w3 0 d 0 w3 d w3 0 d  0 w3 d w3 neg 0 d 0 w3 d w3 neg 0 d 0 w3 neg d w3 neg 0 d cl s } def
/m29 {mp gsave x w2 sub y w2 add w3 sub m currentpoint t 4 {side} repeat cl fill gr} def
/m30 {mp gsave x w2 sub y w2 add w3 sub m currentpoint t 4 {side} repeat cl s gr} def
/m31 {mp x y w2 sub m 0 w d x w2 sub y m w 0 d x w2 sub y w2 add m w w neg d x w2 sub y w2 sub m w w d s} def
/m32 {mp x y w2 sub m w2 w d w neg 0 d cl s} def
/m33 {mp x y w2 add m w3 neg w2 neg d w3 w2 neg d w3 w2 d cl f} def
/m34 {mp x w2 sub y w2 sub w3 add m w3 0 d  0 w3 neg d w3 0 d 0 w3 d w3 0 d  0 w3 d w3 neg 0 d 0 w3 d w3 neg 0 d 0 w3 neg d w3 neg 0 d cl f } def
/m35 {mp x y w2 add m w2 neg w2 neg d w2 w2 neg d w2 w2 d w2 neg w2 d x y w2 sub m 0 w d x w2 sub y m w 0 d s} def
/m36 {mb x w2 sub y w2 add m w w neg d x w2 sub y w2 sub m w w d s} def
/m37 {mp x y m w4 neg w2 d w4 neg w2 neg d w2 0 d  w4 neg w2 neg d w2 0 d w4 neg w2 d w2 0 d w4 neg w2 d w4 neg w2 neg d cl s} def
/m38 {mp x w4 sub y w2 add m w4 neg w4 neg d 0 w2 neg d w4 w4 neg d w2 0 d w4 w4 d 0 w2 d w4 neg w4 d w2 neg 0 d x y w2 sub m 0 w d x w2 sub y m w 0 d cl s} def
/m39 {mp x y m w4 neg w2 d w4 neg w2 neg d w2 0 d  w4 neg w2 neg d w2 0 d w4 neg w2 d w2 0 d w4 neg w2 d w4 neg w2 neg d cl f} def
/m40 {mp x y m w4 w2 d w4 w4 neg d w2 neg w4 neg d w2 w4 neg d w4 neg w4 neg d w4 neg w2 d w4 neg w2 neg d w4 neg w4 d w2 w4 d w2 neg w4 d w4 w4 d w4 w2 neg d cl s} def
/m41 {mp x y m w4 w2 d w4 w4 neg d w2 neg w4 neg d w2 w4 neg d w4 neg w4 neg d w4 neg w2 d w4 neg w2 neg d w4 neg w4 d w2 w4 d w2 neg w4 d w4 w4 d w4 w2 neg d cl f} def
/m42 {mp x y w2 add m w8 neg w2 -3 4 div mul d w2 -3 4 div mul w8 neg d w2 3 4 div mul w8 neg d w8 w2 -3 4 div mul d w8 w2 3 4 div mul d w2 3 4 div mul w8 d w2 -3 4 div mul w8 d w8 neg w2 3 4 div mul d cl s} def
/m43 {mp x y w2 add m w8 neg w2 -3 4 div mul d w2 -3 4 div mul w8 neg d w2 3 4 div mul w8 neg d w8 w2 -3 4 div mul d w8 w2 3 4 div mul d w2 3 4 div mul w8 d w2 -3 4 div mul w8 d w8 neg w2 3 4 div mul d cl f} def
/m44 {mp x y m w6 neg w2 d w2 2 3 div mul 0 d w6 neg w2 neg d w2 w6 d 0 w2 -2 3 div mul d w2 neg w6 d w6 w2 neg d w2 -2 3 div mul 0 d w6 w2 d w2 neg w6 neg d 0 w2 2 3 div mul d w2 w6 neg d cl s} def
/m45 {mp x y m w6 neg w2 d w2 2 3 div mul 0 d w6 neg w2 neg d w2 w6 d 0 w2 -2 3 div mul d w2 neg w6 d w6 w2 neg d w2 -2 3 div mul 0 d w6 w2 d w2 neg w6 neg d 0 w2 2 3 div mul d w2 w6 neg d cl f} def
/m46 {mp x y w4 add m w4 neg w4 d w4 neg w4 neg d  w4 w4 neg d w4 neg w4 neg d w4 w4 neg d w4 w4 d w4 w4 neg d w4 w4 d w4 neg w4 d w4 w4 d w4 neg w4 d w4 neg w4 neg d cl s} def
/m47 {mp x y w4 add m w4 neg w4 d w4 neg w4 neg d w4 w4 neg d w4 neg w4 neg d  w4 w4 neg d w4 w4 d w4 w4 neg d w4 w4 d w4 neg w4 d w4 w4 d w4 neg w4 d w4 neg w4 neg d cl f} def
/m48 {mp x y w4 add m w4 neg w4 d w4 neg w4 neg d w4 w4 neg d  w4 neg w4 neg d w4 w4 neg d w4 w4 d w4 w4 neg d w4 w4 d w4 neg w4 d w4 w4 d w4 neg w4 d w4 neg w4 neg d  w4 w4 neg d w4 neg w4 neg d w4 neg w4 d w4 w4 d cl f} def
/m49 {mp x w2 sub w3 add y w2 sub w3 add m  0 w3 neg d w3 0 d 0 w3 d w3 0 d 0 w3 d w3 neg 0 d 0 w3 d w3 neg 0 d 0 w3 neg d w3 neg 0 d 0 w3 neg d w3 0 d 0 w3 d w3 0 d 0 w3 neg d w3 neg 0 d cl f } def
/m2 {mp x y w2 sub m 0 w d x w2 sub y m w 0 d s} def
/m5 {mp x w2 sub y w2 sub m w w d x w2 sub y w2 add m w w neg d s} def
%%IncludeResource: ProcSet (FontSetInit)
%%IncludeResource: font Times-Roman
%%IncludeResource: font Times-Italic
%%IncludeResource: font Times-Bold
%%IncludeResource: font Times-BoldItalic
%%IncludeResource: font Helvetica
%%IncludeResource: font Helvetica-Oblique
%%IncludeResource: font Helvetica-Bold
%%IncludeResource: font Helvetica-BoldOblique
%%IncludeResource: font Courier
%%IncludeResource: font Courier-Oblique
%%IncludeResource: font Courier-Bold
%%IncludeResource: font Courier-BoldOblique
%%IncludeResource: font Symbol
%%IncludeResource: font ZapfDingbats
/reEncode {exch findfont dup length dict begin {1 index /FID eq  {pop pop} {def} ifelse } forall /Encoding exch def currentdict end dup /FontName get exch definefont pop } def [/Times-Bold /Times-Italic /Times-BoldItalic /Helvetica /Helvetica-Oblique
 /Helvetica-Bold /Helvetica-BoldOblique /Courier /Courier-Oblique /Courier-Bold /Courier-BoldOblique /Times-Roman /AvantGarde-Book /AvantGarde-BookOblique /AvantGarde-Demi /AvantGarde-DemiOblique /Bookman-Demi /Bookman-DemiItalic /Bookman-Light
 /Bookman-LightItalic /Helvetica-Narrow /Helvetica-Narrow-Bold /Helvetica-Narrow-BoldOblique /Helvetica-Narrow-Oblique /NewCenturySchlbk-Roman /NewCenturySchlbk-Bold /NewCenturySchlbk-BoldItalic /NewCenturySchlbk-Italic /Palatino-Bold
 /Palatino-BoldItalic /Palatino-Italic /Palatino-Roman ] {ISOLatin1Encoding reEncode } forall
%%EndProlog
%%BeginSetup
%%EndSetup
newpath  gsave  .25 .25 scale  gsave  0 0 t black[  ] 0 sd 3 lw 1 1 1 c 2268 1540 0 0 bf black 1 1 1 c 1814 1232 227 154 bf black 1814 1232 227 154 bl 1 1 1 c 1814 1232 227 154 bf black 1814 1232 227 154 bl 0 0 0.6 c 1 1 1 c black 0 0 0.6 c 261 954 m
 6 Y s 261 960 m 5 Y s 249 960 m 12 X s 261 960 m 11 X s black /w 2 def /w2 {w 2 div} def /w3 {w 3 div} def 261 960 m20 0 0 0.6 c 283 945 m 5 Y s 283 950 m 5 Y s 272 950 m 11 X s 283 950 m 12 X s black 283 950 m20 0 0 0.6 c 306 892 m 6 Y s 306 898 m
 5 Y s 295 898 m 11 X s 306 898 m 11 X s black 306 898 m20 0 0 0.6 c 329 861 m 6 Y s 329 867 m 6 Y s 317 867 m 12 X s 329 867 m 11 X s black 329 867 m20 0 0 0.6 c 351 836 m 7 Y s 351 843 m 6 Y s 340 843 m 11 X s 351 843 m 12 X s black 351 843 m20 0 0
 0.6 c 374 804 m 8 Y s 374 812 m 7 Y s 363 812 m 11 X s 374 812 m 12 X s black 374 812 m20 0 0 0.6 c 397 791 m 8 Y s 397 799 m 7 Y s 386 799 m 11 X s 397 799 m 11 X s black 397 799 m20 0 0 0.6 c 420 760 m 9 Y s 420 769 m 8 Y s 408 769 m 12 X s 420
 769 m 11 X s black 420 769 m20 0 0 0.6 c 442 740 m 10 Y s 442 750 m 8 Y s 431 750 m 11 X s 442 750 m 12 X s black 442 750 m20 0 0 0.6 c 465 714 m 11 Y s 465 725 m 9 Y s 454 725 m 11 X s 465 725 m 11 X s black 465 725 m20 0 0 0.6 c 488 712 m 10 Y s
 488 722 m 9 Y s 476 722 m 12 X s 488 722 m 11 X s black 488 722 m20 0 0 0.6 c 510 694 m 11 Y s 510 705 m 10 Y s 499 705 m 11 X s 510 705 m 12 X s black 510 705 m20 0 0 0.6 c 533 691 m 11 Y s 533 702 m 10 Y s 522 702 m 11 X s 533 702 m 11 X s black
 533 702 m20 0 0 0.6 c 556 690 m 10 Y s 556 700 m 10 Y s 544 700 m 12 X s 556 700 m 11 X s black 556 700 m20 0 0 0.6 c 578 649 m 13 Y s 578 662 m 12 Y s 567 662 m 11 X s 578 662 m 12 X s black 578 662 m20 0 0 0.6 c 601 667 m 12 Y s 601 679 m 10 Y s
 590 679 m 11 X s 601 679 m 11 X s black 601 679 m20 0 0 0.6 c 624 642 m 14 Y s 624 656 m 11 Y s 612 656 m 12 X s 624 656 m 11 X s black 624 656 m20 0 0 0.6 c 646 613 m 16 Y s 646 629 m 13 Y s 635 629 m 11 X s 646 629 m 12 X s black 646 629 m20 0 0
 0.6 c 669 615 m 15 Y s 669 630 m 13 Y s 658 630 m 11 X s 669 630 m 11 X s black 669 630 m20 0 0 0.6 c 692 599 m 17 Y s 692 616 m 13 Y s 680 616 m 12 X s 692 616 m 11 X s black 692 616 m20 0 0 0.6 c 714 615 m 14 Y s 714 629 m 12 Y s 703 629 m 11 X s
 714 629 m 12 X s black 714 629 m20 0 0 0.6 c 737 595 m 16 Y s 737 611 m 13 Y s 726 611 m 11 X s 737 611 m 11 X s black 737 611 m20 0 0 0.6 c 760 606 m 15 Y s 760 621 m 12 Y s 748 621 m 12 X s 760 621 m 11 X s black 760 621 m20 0 0 0.6 c 782 545 m 21
 Y s 782 566 m 17 Y s 771 566 m 11 X s 782 566 m 12 X s black 782 566 m20 0 0 0.6 c 805 561 m 19 Y s 805 580 m 15 Y s 794 580 m 11 X s 805 580 m 11 X s black 805 580 m20 0 0 0.6 c 828 539 m 22 Y s 828 561 m 16 Y s 816 561 m 12 X s 828 561 m 11 X s
 black 828 561 m20 0 0 0.6 c 850 525 m 23 Y s 850 548 m 18 Y s 839 548 m 11 X s 850 548 m 12 X s black 850 548 m20 0 0 0.6 c 873 528 m 22 Y s 873 550 m 17 Y s 862 550 m 11 X s 873 550 m 11 X s black 873 550 m20 0 0 0.6 c 896 526 m 22 Y s 896 548 m 17
 Y s 884 548 m 12 X s 896 548 m 11 X s black 896 548 m20 0 0 0.6 c 918 523 m 22 Y s 918 545 m 17 Y s 907 545 m 11 X s 918 545 m 12 X s black 918 545 m20 0 0 0.6 c 941 521 m 22 Y s 941 543 m 17 Y s 930 543 m 11 X s 941 543 m 11 X s black 941 543 m20 0
 0 0.6 c 964 485 m 27 Y s 964 512 m 20 Y s 952 512 m 12 X s 964 512 m 11 X s black 964 512 m20 0 0 0.6 c 986 510 m 23 Y s 986 533 m 18 Y s 975 533 m 11 X s 986 533 m 12 X s black 986 533 m20 0 0 0.6 c 1009 480 m 27 Y s 1009 507 m 20 Y s 998 507 m 11
 X s 1009 507 m 11 X s black 1009 507 m20 0 0 0.6 c 1032 500 m 24 Y s 1032 524 m 18 Y s 1020 524 m 12 X s 1032 524 m 11 X s black 1032 524 m20 0 0 0.6 c 1054 484 m 26 Y s 1054 510 m 19 Y s 1043 510 m 11 X s 1054 510 m 12 X s black 1054 510 m20 0 0
 0.6 c 1077 430 m 37 Y s 1077 467 m 24 Y s 1066 467 m 11 X s 1077 467 m 12 X s black 1077 467 m20 0 0 0.6 c 1100 471 m 28 Y s 1100 499 m 20 Y s 1089 499 m 11 X s 1100 499 m 11 X s black 1100 499 m20 0 0 0.6 c 1123 450 m 31 Y s 1123 481 m 22 Y s 1111
 481 m 12 X s 1123 481 m 11 X s black 1123 481 m20 0 0 0.6 c 1145 459 m 29 Y s 1145 488 m 21 Y s 1134 488 m 11 X s 1145 488 m 12 X s black 1145 488 m20 0 0 0.6 c 1168 422 m 36 Y s 1168 458 m 25 Y s 1157 458 m 11 X s 1168 458 m 11 X s black 1168 458
 m20 0 0 0.6 c 1191 404 m 41 Y s 1191 445 m 26 Y s 1179 445 m 12 X s 1191 445 m 11 X s black 1191 445 m20 0 0 0.6 c 1213 384 m 45 Y s 1213 429 m 28 Y s 1202 429 m 11 X s 1213 429 m 12 X s black 1213 429 m20 0 0 0.6 c 1236 382 m 45 Y s 1236 427 m 29 Y
 s 1225 427 m 11 X s 1236 427 m 11 X s black 1236 427 m20 0 0 0.6 c 1259 262 m 94 Y s 1259 356 m 40 Y s 1247 356 m 12 X s 1259 356 m 11 X s black 1259 356 m20 0 0 0.6 c 1281 354 m 53 Y s 1281 407 m 31 Y s 1270 407 m 11 X s 1281 407 m 12 X s black
 1281 407 m20 0 0 0.6 c 1304 154 m 146 Y s 1304 300 m 53 Y s 1293 300 m 11 X s 1304 300 m 11 X s black 1304 300 m20 0 0 0.6 c 1327 257 m 94 Y s 1327 351 m 41 Y s 1315 351 m 12 X s 1327 351 m 11 X s black 1327 351 m20 0 0 0.6 c 1349 374 m 45 Y s 1349
 419 m 28 Y s 1338 419 m 11 X s 1349 419 m 12 X s black 1349 419 m20 0 0 0.6 c 1372 154 m 141 Y s 1372 295 m 53 Y s 1361 295 m 11 X s 1372 295 m 11 X s black 1372 295 m20 0 0 0.6 c 1417 154 m 138 Y s 1417 292 m 53 Y s 1406 292 m 11 X s 1417 292 m 12
 X s black 1417 292 m20 0 0 0.6 c 1440 154 m 136 Y s 1440 290 m 53 Y s 1429 290 m 11 X s 1440 290 m 11 X s black 1440 290 m20 0 0 0.6 c 1508 154 m 132 Y s 1508 286 m 53 Y s 1497 286 m 11 X s 1508 286 m 11 X s black 1508 286 m20 0 0 0.6 c 1531 303 m
 66 Y s 1531 369 m 35 Y s 1519 369 m 12 X s 1531 369 m 11 X s black 1531 369 m20 0 0 0.6 c 1553 154 m 130 Y s 1553 284 m 53 Y s 1542 284 m 11 X s 1553 284 m 12 X s black 1553 284 m20 0 0 0.6 c 1576 154 m 129 Y s 1576 283 m 52 Y s 1565 283 m 11 X s
 1576 283 m 11 X s black 1576 283 m20 0 0 0.6 c 1621 239 m 94 Y s 1621 333 m 40 Y s 1610 333 m 11 X s 1621 333 m 12 X s black 1621 333 m20 0 0 0.6 c 1644 154 m 125 Y s 1644 279 m 53 Y s 1633 279 m 11 X s 1644 279 m 11 X s black 1644 279 m20 0 0 0.6 c
 2007 154 m 107 Y s 2007 261 m 53 Y s 1996 261 m 11 X s 2007 261 m 11 X s black 2007 261 m20 227 154 m 1814 X s 227 191 m -37 Y s 272 172 m -18 Y s 317 172 m -18 Y s 363 172 m -18 Y s 408 172 m -18 Y s 454 191 m -37 Y s 499 172 m -18 Y s 544 172 m
 -18 Y s 590 172 m -18 Y s 635 172 m -18 Y s 680 191 m -37 Y s 726 172 m -18 Y s 771 172 m -18 Y s 816 172 m -18 Y s 862 172 m -18 Y s 907 191 m -37 Y s 952 172 m -18 Y s 998 172 m -18 Y s 1043 172 m -18 Y s 1089 172 m -18 Y s 1134 191 m -37 Y s 1179
 172 m -18 Y s 1225 172 m -18 Y s 1270 172 m -18 Y s 1315 172 m -18 Y s 1361 191 m -37 Y s 1406 172 m -18 Y s 1451 172 m -18 Y s 1497 172 m -18 Y s 1542 172 m -18 Y s 1587 191 m -37 Y s 1633 172 m -18 Y s 1678 172 m -18 Y s 1723 172 m -18 Y s 1769
 172 m -18 Y s 1814 191 m -37 Y s 1860 172 m -18 Y s 1905 172 m -18 Y s 1950 172 m -18 Y s 1996 172 m -18 Y s 2041 191 m -37 Y s
 gsave  2268 1540 0 0 C 211.177 103.964 t 0 r /Helvetica findfont 48.7332 sf 0 0 m (0) show NC gr 
 gsave  2268 1540 0 0 C 409.359 103.964 t 0 r /Helvetica findfont 48.7332 sf 0 0 m (100) show NC gr 
 gsave  2268 1540 0 0 C 636.78 103.964 t 0 r /Helvetica findfont 48.7332 sf 0 0 m (200) show NC gr 
 gsave  2268 1540 0 0 C 864.201 103.964 t 0 r /Helvetica findfont 48.7332 sf 0 0 m (300) show NC gr 
 gsave  2268 1540 0 0 C 1091.62 103.964 t 0 r /Helvetica findfont 48.7332 sf 0 0 m (400) show NC gr 
 gsave  2268 1540 0 0 C 1315.8 103.964 t 0 r /Helvetica findfont 48.7332 sf 0 0 m (500) show NC gr 
 gsave  2268 1540 0 0 C 1543.22 103.964 t 0 r /Helvetica findfont 48.7332 sf 0 0 m (600) show NC gr 
 gsave  2268 1540 0 0 C 1770.64 103.964 t 0 r /Helvetica findfont 48.7332 sf 0 0 m (700) show NC gr 
 gsave  2268 1540 0 0 C 1998.06 103.964 t 0 r /Helvetica findfont 48.7332 sf 0 0 m (800) show NC gr 
 gsave  2268 1540 0 0 C 1059.13 25.991 t 0 r /Helvetica findfont 64.9775 sf 0 0 m (r\(cm\)) show NC gr  227 154 m 1232 Y s 281 154 m -54 X s
 gsave  2268 1540 0 0 C 188.435 152.697 t 0 r /Helvetica findfont 32.4888 sf 0 0 m (7) show NC gr 
 gsave  2268 1540 0 0 C 168.942 152.697 t 0 r /Symbol findfont 32.4888 sf 0 0 m (-) show NC gr 
 gsave  2268 1540 0 0 C 113.711 133.204 t 0 r /Helvetica findfont 48.7332 sf 0 0 m (10) show NC gr  254 207 m -27 X s 254 238 m -27 X s 254 260 m -27 X s 254 277 m -27 X s 254 291 m -27 X s 254 303 m -27 X s 254 313 m -27 X s 254 322 m -27 X s 281
 330 m -54 X s
 gsave  2268 1540 0 0 C 188.435 331.386 t 0 r /Helvetica findfont 32.4888 sf 0 0 m (6) show NC gr 
 gsave  2268 1540 0 0 C 168.942 331.386 t 0 r /Symbol findfont 32.4888 sf 0 0 m (-) show NC gr 
 gsave  2268 1540 0 0 C 113.711 308.643 t 0 r /Helvetica findfont 48.7332 sf 0 0 m (10) show NC gr  254 383 m -27 X s 254 414 m -27 X s 254 436 m -27 X s 254 453 m -27 X s 254 467 m -27 X s 254 479 m -27 X s 254 489 m -27 X s 254 498 m -27 X s 281
 506 m -54 X s
 gsave  2268 1540 0 0 C 188.435 506.825 t 0 r /Helvetica findfont 32.4888 sf 0 0 m (5) show NC gr 
 gsave  2268 1540 0 0 C 168.942 506.825 t 0 r /Symbol findfont 32.4888 sf 0 0 m (-) show NC gr 
 gsave  2268 1540 0 0 C 113.711 484.083 t 0 r /Helvetica findfont 48.7332 sf 0 0 m (10) show NC gr  254 559 m -27 X s 254 590 m -27 X s 254 612 m -27 X s 254 629 m -27 X s 254 643 m -27 X s 254 655 m -27 X s 254 665 m -27 X s 254 674 m -27 X s 281
 682 m -54 X s
 gsave  2268 1540 0 0 C 188.435 679.015 t 0 r /Helvetica findfont 32.4888 sf 0 0 m (4) show NC gr 
 gsave  2268 1540 0 0 C 168.942 679.015 t 0 r /Symbol findfont 32.4888 sf 0 0 m (-) show NC gr 
 gsave  2268 1540 0 0 C 113.711 659.522 t 0 r /Helvetica findfont 48.7332 sf 0 0 m (10) show NC gr  254 735 m -27 X s 254 766 m -27 X s 254 788 m -27 X s 254 805 m -27 X s 254 819 m -27 X s 254 831 m -27 X s 254 841 m -27 X s 254 850 m -27 X s 281
 858 m -54 X s
 gsave  2268 1540 0 0 C 188.435 860.953 t 0 r /Helvetica findfont 32.4888 sf 0 0 m (3) show NC gr 
 gsave  2268 1540 0 0 C 168.942 860.953 t 0 r /Symbol findfont 32.4888 sf 0 0 m (-) show NC gr 
 gsave  2268 1540 0 0 C 113.711 838.21 t 0 r /Helvetica findfont 48.7332 sf 0 0 m (10) show NC gr  254 911 m -27 X s 254 942 m -27 X s 254 964 m -27 X s 254 981 m -27 X s 254 995 m -27 X s 254 1007 m -27 X s 254 1017 m -27 X s 254 1026 m -27 X s 281
 1034 m -54 X s
 gsave  2268 1540 0 0 C 188.435 1033.14 t 0 r /Helvetica findfont 32.4888 sf 0 0 m (2) show NC gr 
 gsave  2268 1540 0 0 C 168.942 1033.14 t 0 r /Symbol findfont 32.4888 sf 0 0 m (-) show NC gr 
 gsave  2268 1540 0 0 C 113.711 1013.65 t 0 r /Helvetica findfont 48.7332 sf 0 0 m (10) show NC gr  254 1087 m -27 X s 254 1118 m -27 X s 254 1140 m -27 X s 254 1157 m -27 X s 254 1171 m -27 X s 254 1183 m -27 X s 254 1193 m -27 X s 254 1202 m -27 X
 s 281 1210 m -54 X s
 gsave  2268 1540 0 0 C 194.933 1208.58 t 0 r /Helvetica findfont 32.4888 sf 0 0 m (1) show NC gr 
 gsave  2268 1540 0 0 C 175.439 1208.58 t 0 r /Symbol findfont 32.4888 sf 0 0 m (-) show NC gr 
 gsave  2268 1540 0 0 C 120.208 1189.09 t 0 r /Helvetica findfont 48.7332 sf 0 0 m (10) show NC gr  254 1263 m -27 X s 254 1294 m -27 X s 254 1316 m -27 X s 254 1333 m -27 X s 254 1347 m -27 X s 254 1359 m -27 X s 254 1369 m -27 X s 254 1378 m -27 X
 s 281 1386 m -54 X s
 gsave  2268 1540 0 0 C 188.435 1367.78 t 0 r /Helvetica findfont 48.7332 sf 0 0 m (1) show NC gr 
 gsave  2268 1540 0 0 C 103.964 1367.78 t 90 r /Helvetica findfont 64.9775 sf 0 0 m (\)) show NC gr 
 gsave  2268 1540 0 0 C 74.7242 1338.54 t 90 r /Helvetica findfont 42.2354 sf 0 0 m (\2551) show NC gr 
 gsave  2268 1540 0 0 C 100.715 1026.65 t 90 r /Helvetica findfont 64.9775 sf 0 0 m (density\(cm) show NC gr  1 1 1 c black
 gsave  2268 1540 0 0 C 977.912 1468.49 t 0 r /Helvetica findfont 74.7242 sf 0 0 m (:density_vs_r) show NC gr 
 gsave  2268 1540 0 0 C 961.668 1504.23 t 0 r /Helvetica findfont 48.7332 sf 0 0 m (\255) show NC gr 
 gsave  2268 1540 0 0 C 919.432 1468.49 t 0 r /Helvetica findfont 74.7242 sf 0 0 m (p) show NC gr 
 gsave  2268 1540 0 0 C 890.192 1497.73 t 0 r /Helvetica findfont 48.7332 sf 0 0 m (+) show NC gr 
 gsave  2268 1540 0 0 C 847.957 1468.49 t 0 r /Helvetica findfont 74.7242 sf 0 0 m (p) show NC gr 
 gr  gr showpage
end
%%EOF
